{
"type": "FeatureCollection",
"features": [
{ "type": "Feature", "properties": { "Name": "ALVARÃES", "Description": "ALVARÃES \/ AM" }, "geometry": { "type": "LineString", "coordinates": [ [ -64.784989217778161, -3.158776373131047 ], [ -64.674570443471168, -3.263723057872767 ], [ -64.787553381883015, -3.307665996088815 ], [ -64.887532424781512, -3.385510468833047 ], [ -64.951531885887789, -3.486656874015466 ], [ -65.027347247977048, -3.668893160590869 ], [ -65.019591131325626, -3.783280551356313 ], [ -65.103088997858947, -3.812292206619987 ], [ -65.169687775770171, -3.908504315921391 ], [ -65.277828708528034, -3.950250002635471 ], [ -65.51694933944043, -4.088052153883723 ], [ -65.666323892133903, -4.139192967181657 ], [ -65.908873753121156, -4.292671451026592 ], [ -65.870199279972766, -4.132898818125908 ], [ -65.842426092789935, -4.078384976985035 ], [ -65.855476355549342, -3.957867680349124 ], [ -65.62956419523141, -3.620299171569457 ], [ -65.551172514699772, -3.62750812090303 ], [ -65.426111712685326, -3.575660770528088 ], [ -65.375559952629658, -3.507108815319497 ], [ -65.166562361863441, -3.42692021739407 ], [ -65.06772338502617, -3.30209435966691 ], [ -65.047755081132024, -3.194194681739134 ], [ -64.946085182385218, -3.060474725927804 ], [ -64.784989217778161, -3.158776373131047 ] ] } }
]
}
