{
"type": "FeatureCollection",
"features": [
{ "type": "Feature", "properties": { "Name": "AMATURÃ", "Description": "AMATURÃ \/ AM" }, "geometry": { "type": "LineString", "coordinates": [ [ -67.834039023082426, -3.334377978760642 ], [ -67.867462860222759, -3.406259774568866 ], [ -68.029541022999751, -3.46493615477965 ], [ -68.012789885444818, -3.558263417023056 ], [ -68.035601393289653, -3.73480523237555 ], [ -68.181987067149407, -3.770531997653507 ], [ -68.256074564489495, -3.693742057349994 ], [ -68.383744945472813, -3.723217397664711 ], [ -68.447185076829783, -3.775038961778591 ], [ -68.578328531636359, -3.649025057360461 ], [ -68.624661617839365, -3.692149411066396 ], [ -68.63252496875225, -3.230180478746036 ], [ -68.428002521399208, -3.153484250497741 ], [ -68.419784548018413, -3.093897488378332 ], [ -68.285396485859096, -3.103124096399881 ], [ -68.179736663915889, -3.064798452286709 ], [ -68.141714086835577, -3.131521540786423 ], [ -67.955187092510243, -3.160318714037373 ], [ -67.920574977553144, -3.245369494806312 ], [ -67.942849590136461, -3.329586979955138 ], [ -67.834039023082426, -3.334377978760642 ] ] } }
]
}
