{
"type": "FeatureCollection",
"features": [
{ "type": "Feature", "properties": { "Name": "ATALAIA DO NORTE", "Description": "ATALAIA DO NORTE \/ AM" }, "geometry": { "type": "LineString", "coordinates": [ [ -70.135893229888609, -4.287822261588076 ], [ -70.124115430482675, -4.501113151051015 ], [ -70.260604337719997, -4.651534886026127 ], [ -70.17069612072936, -4.769206385066582 ], [ -70.171502270313496, -5.086566740762407 ], [ -70.246893990565184, -5.130423503242014 ], [ -70.450910301269346, -5.501543930607851 ], [ -70.4532144335992, -5.621938960814362 ], [ -70.513951415125689, -5.801663490377734 ], [ -70.630089920813134, -6.014181167027175 ], [ -70.594407117994081, -6.093420532331663 ], [ -70.601949111462261, -6.235353659143982 ], [ -70.699395535775281, -6.312731651744286 ], [ -70.820867762237413, -6.455002859794092 ], [ -70.938064625182278, -6.524908376520329 ], [ -71.04795178954339, -6.541954265077208 ], [ -71.112550989636418, -6.610126370035914 ], [ -71.241616786585382, -6.616681393531451 ], [ -71.34332840128468, -6.681320703387712 ], [ -71.468185553620344, -6.860480769871571 ], [ -71.536304930428173, -6.864384949006137 ], [ -71.596896563525547, -6.951181813889548 ], [ -71.683189363798078, -6.885646781973378 ], [ -71.80059607994508, -6.920871384706572 ], [ -71.794019247889935, -6.979460072923985 ], [ -71.971623091532422, -7.00372121686064 ], [ -71.988435340718354, -7.096193165382203 ], [ -72.051883000300165, -7.102940708546839 ], [ -72.183487967395763, -7.1332261896369 ], [ -72.215514193325305, -7.180909340793391 ], [ -72.387284310222697, -7.2045225744572 ], [ -72.432821939780638, -7.112477738256984 ], [ -72.533211491716926, -7.132174029607711 ], [ -72.632327541582754, -7.097667443797434 ], [ -72.69854913573397, -7.009872121900855 ], [ -72.784911959918986, -6.972285215090551 ], [ -73.010108638502786, -7.028294616203539 ], [ -73.193190965890324, -6.918298380265981 ], [ -73.29830913246046, -6.942980871869679 ], [ -73.506388221339307, -6.92663738620638 ], [ -73.68046411542656, -6.953947493581893 ], [ -73.73820023285441, -7.134683814406458 ], [ -73.726782384399485, -7.022523278126755 ], [ -73.754581370433868, -6.941907309774478 ], [ -73.642805795251206, -6.762149042144529 ], [ -73.516416112713387, -6.677349933952257 ], [ -73.380691406183416, -6.635022775280788 ], [ -73.354491377874751, -6.594915871869944 ], [ -73.212963972109605, -6.577838570893277 ], [ -73.13841613879373, -6.49797641697802 ], [ -73.108865590874302, -6.410031279719759 ], [ -73.165489650726784, -6.274207978715196 ], [ -73.250247628425257, -6.144940396382139 ], [ -73.23746863896649, -6.032191044281205 ], [ -72.992189937215798, -5.703778979316382 ], [ -72.95690912325739, -5.465407836202644 ], [ -72.863520681933892, -5.239792373019554 ], [ -72.885067187200889, -5.166817486337891 ], [ -72.814577733475559, -5.109738433381949 ], [ -72.652650469743321, -5.063701414788397 ], [ -72.606674712068241, -4.995579909285311 ], [ -72.385687926356695, -4.872277337628986 ], [ -72.371654575098546, -4.80736556107172 ], [ -72.247234109266685, -4.78094453786008 ], [ -72.100347309780489, -4.703195912161561 ], [ -72.039332625700055, -4.623241941062702 ], [ -71.976788872008783, -4.608115314570057 ], [ -71.85645534913499, -4.513174191935376 ], [ -71.741177515330023, -4.48552635855458 ], [ -71.606453436776633, -4.534430034518437 ], [ -71.537564087412647, -4.467376453260669 ], [ -71.271589862082394, -4.397019557806289 ], [ -71.100536194589665, -4.377391411684243 ], [ -71.043284487988672, -4.40100126659513 ], [ -70.915501367993727, -4.354032479315435 ], [ -70.808172654344503, -4.183531965927443 ], [ -70.68103383474363, -4.199791779566908 ], [ -70.520950967213309, -4.142680521888508 ], [ -70.298834132988816, -4.166064211693993 ], [ -70.289592323726708, -4.282314790894816 ], [ -70.152391769464543, -4.335586100817864 ], [ -70.135893229888609, -4.287822261588076 ] ] } }
]
}
