{
"type": "FeatureCollection",
"features": [
{ "type": "Feature", "properties": { "Name": "CARAUARI", "Description": "CARAUARI \/ AM" }, "geometry": { "type": "LineString", "coordinates": [ [ -65.950175814162435, -4.29464229190819 ], [ -66.059424412206795, -4.400868431332981 ], [ -66.100515986923199, -4.395473782389104 ], [ -66.210541650476728, -4.492425803507956 ], [ -66.199651416279764, -4.638915640444395 ], [ -66.254762912678245, -4.768537400080902 ], [ -66.387484726239109, -4.824333117779133 ], [ -66.529090651812112, -4.95080809112045 ], [ -66.604734672367215, -5.073499934074675 ], [ -66.716572477937461, -5.055788304386681 ], [ -66.790932456367727, -5.152202601069121 ], [ -66.938402643367283, -5.277549736431126 ], [ -66.958186834454807, -5.419878780781062 ], [ -66.991264661934565, -5.499477577228333 ], [ -67.197487693102502, -5.647418209482736 ], [ -67.265295931462049, -5.818791605747947 ], [ -67.332375599354407, -5.798077781864095 ], [ -67.447938558717453, -5.890819675387661 ], [ -67.544994162850287, -5.91257711933855 ], [ -67.588296866507164, -5.991078105270276 ], [ -67.66923960262551, -6.043590541170487 ], [ -68.305495639312241, -6.050925148276917 ], [ -68.31280265701696, -5.958606388473981 ], [ -68.214688858404031, -5.925224223219288 ], [ -68.232079386054806, -5.686436635542236 ], [ -68.273243537858946, -5.575020160551901 ], [ -68.220357166549931, -5.478204357944719 ], [ -68.200827844229593, -5.220625498168147 ], [ -68.160578963948012, -5.139232108175179 ], [ -67.997515841183088, -4.947920573075919 ], [ -67.997964939230542, -4.792636505969938 ], [ -67.872821929288591, -4.780429595049725 ], [ -67.813432860637974, -4.680072728073867 ], [ -67.703124753304678, -4.592653088968859 ], [ -67.603545859253984, -4.590317605373116 ], [ -67.569851953005184, -4.542780293675548 ], [ -67.450550811370817, -4.50494461280357 ], [ -67.315008705886996, -4.522287753377042 ], [ -67.268205969429914, -4.453462022953942 ], [ -67.036626189846743, -4.511311108720633 ], [ -66.899391300368166, -4.481869205199587 ], [ -66.891134633656407, -4.372185159917137 ], [ -66.932094437907949, -4.295637794648485 ], [ -65.950175814162435, -4.29464229190819 ] ] } }
]
}
