{
"type": "FeatureCollection",
"features": [
{ "type": "Feature", "properties": { "Name": "CAREIRO", "Description": "CAREIRO \/ AM" }, "geometry": { "type": "LineString", "coordinates": [ [ -59.775008319678186, -3.463600302711768 ], [ -59.828724256219402, -3.838633558891559 ], [ -59.914454733798891, -3.984989194495654 ], [ -60.062952930433369, -3.962108318344178 ], [ -60.173148821261066, -4.137313817578558 ], [ -60.287002169414563, -4.164507806290203 ], [ -60.419247249660827, -4.175390054507375 ], [ -60.481304429655665, -4.134313654951143 ], [ -60.617069501356347, -4.174344308443039 ], [ -60.69061350331048, -4.222369496954683 ], [ -60.80328725480291, -4.174609797304242 ], [ -60.605069873375903, -4.025413915619652 ], [ -60.571503911875993, -3.830389365776568 ], [ -60.424596391110526, -3.711823860582626 ], [ -60.454455950581625, -3.630328481174444 ], [ -60.409340320699187, -3.59068974953226 ], [ -60.327538143870186, -3.657678834110868 ], [ -60.292751591013086, -3.522259514864686 ], [ -60.29965086149803, -3.444541879803865 ], [ -60.185512490309115, -3.358277640200868 ], [ -60.018318675266585, -3.36999207877136 ], [ -59.936135480867726, -3.298973655509769 ], [ -59.828086395870457, -3.35267898634612 ], [ -59.671711002360837, -3.353142259507649 ], [ -59.697320827194403, -3.441521495020936 ], [ -59.775008319678186, -3.463600302711768 ] ] } }
]
}
