{
"type": "FeatureCollection",
"features": [
{ "type": "Feature", "properties": { "Name": "ENVIRA", "Description": "ENVIRA \/ AM" }, "geometry": { "type": "LineString", "coordinates": [ [ -69.521824933973505, -7.178215186881346 ], [ -69.491037309224396, -7.203152932162027 ], [ -69.491121073878389, -7.404901446744304 ], [ -69.565672928063123, -7.5572717284075 ], [ -69.625224112103069, -7.752392889720056 ], [ -69.792447476170025, -7.867779762725831 ], [ -69.801709143362245, -8.061125977082156 ], [ -70.054979349417408, -7.845149147215352 ], [ -71.088495383954751, -7.726266092306274 ], [ -70.938286262201188, -7.655867200310979 ], [ -70.893185877626138, -7.666102033781783 ], [ -70.732319489252959, -7.587731203132477 ], [ -70.665034621250754, -7.609358175239549 ], [ -70.607758891059916, -7.546419219871041 ], [ -70.525871608687723, -7.543674416141357 ], [ -70.355567200565815, -7.485403375665214 ], [ -70.193703143884932, -7.362395082866726 ], [ -70.126876611766193, -7.280832605040643 ], [ -70.05569566482302, -7.261116031279754 ], [ -69.896845897320233, -7.289761697544236 ], [ -69.869419338531586, -7.173599328346256 ], [ -69.521824933973505, -7.178215186881346 ] ] } }
]
}
