{
"type": "FeatureCollection",
"features": [
{ "type": "Feature", "properties": { "Name": "FONTE BOA", "Description": "FONTE BOA \/ AM" }, "geometry": { "type": "LineString", "coordinates": [ [ -66.001363791505753, -2.144831337296353 ], [ -65.947056089366981, -2.233565809514459 ], [ -65.663534562070353, -2.275634769229157 ], [ -65.472103558332478, -2.400847982947994 ], [ -65.41580217253221, -2.351477671257499 ], [ -65.255389720559094, -2.382599603688732 ], [ -65.340168404248402, -2.473841806653979 ], [ -65.399204104086095, -2.470088816145903 ], [ -65.488418134389349, -2.539262906158172 ], [ -65.589368062885725, -2.65736779658647 ], [ -65.663787799467343, -2.662225065534301 ], [ -65.798652641705985, -2.592004438054346 ], [ -65.946581020697522, -2.607298116314951 ], [ -66.053129704672074, -2.724990054247542 ], [ -66.125278323935447, -2.895858480284573 ], [ -66.192621044425607, -2.960713913416328 ], [ -66.209484621518016, -3.068194339097431 ], [ -66.327396495851573, -3.158389296828545 ], [ -66.449339231420367, -3.134967806718862 ], [ -66.597703193447558, -3.140721340017762 ], [ -66.621812143315708, -2.94342052963367 ], [ -66.556592507238392, -2.852080035265374 ], [ -66.591455275840246, -2.785196999641755 ], [ -66.412316045748867, -2.690403267796512 ], [ -66.337509225670203, -2.600583886736956 ], [ -66.403579081709211, -2.50650909541838 ], [ -66.447064975468209, -2.389791525258659 ], [ -66.648214854531886, -2.42196909809536 ], [ -66.598752357834996, -2.588383807966295 ], [ -66.608972416343875, -2.642113810803664 ], [ -66.730539666971978, -2.71818398050624 ], [ -66.882555072558489, -2.662479518814678 ], [ -66.941448881860367, -2.727531353089432 ], [ -67.041414396257323, -2.705579550355935 ], [ -67.041699485842557, -2.645027594447867 ], [ -67.130570619038792, -2.623696279859359 ], [ -67.200932860962709, -2.597940021115051 ], [ -67.24576347590363, -2.475671976480498 ], [ -67.170208512512829, -2.392715966768378 ], [ -67.309349439524965, -2.173120539281399 ], [ -67.078513588131557, -2.274126850773484 ], [ -66.621171242358912, -2.15101867477199 ], [ -66.529176959748838, -2.064307311133462 ], [ -66.518899135086997, -1.979483107359443 ], [ -66.460061326568905, -1.934374811448322 ], [ -66.357477242680545, -2.04391368366953 ], [ -66.176615996131261, -1.986333200216961 ], [ -66.169583052216069, -2.064157016433114 ], [ -66.039515893443706, -2.087230464414347 ], [ -66.001363791505753, -2.144831337296353 ] ] } }
]
}
