{
"type": "FeatureCollection",
"features": [
{ "type": "Feature", "properties": { "Name": "GUAJARÃ", "Description": "GUAJARÃ \/ AM" }, "geometry": { "type": "LineString", "coordinates": [ [ -72.149360522270229, -7.376238812071448 ], [ -72.14259967543461, -7.485437404212802 ], [ -72.169532068450152, -7.600600858642679 ], [ -72.58476562173604, -7.552004229211775 ], [ -73.182525394031643, -7.335496463890649 ], [ -73.73820023285441, -7.134683814406458 ], [ -73.68046411542656, -6.953947493581893 ], [ -73.506388221339307, -6.92663738620638 ], [ -73.29830913246046, -6.942980871869679 ], [ -73.193190965890324, -6.918298380265981 ], [ -73.010108638502786, -7.028294616203539 ], [ -72.784911959918986, -6.972285215090551 ], [ -72.69854913573397, -7.009872121900855 ], [ -72.632327541582754, -7.097667443797434 ], [ -72.533211491716926, -7.132174029607711 ], [ -72.432821939780638, -7.112477738256984 ], [ -72.387284310222697, -7.2045225744572 ], [ -72.215514193325305, -7.180909340793391 ], [ -72.183487967395763, -7.1332261896369 ], [ -72.051883000300165, -7.102940708546839 ], [ -72.076298975117595, -7.264147531683193 ], [ -72.170708543564388, -7.318567972833648 ], [ -72.149360522270229, -7.376238812071448 ] ] } }
]
}
