{
"type": "FeatureCollection",
"features": [
{ "type": "Feature", "properties": { "Name": "HUMAITÃ", "Description": "HUMAITÃ \/ AM" }, "geometry": { "type": "LineString", "coordinates": [ [ -61.903000787955932, -8.862892493993343 ], [ -61.979139978826936, -8.873244618844012 ], [ -62.031061033140134, -8.799710095744274 ], [ -62.12497174315137, -8.801671148404751 ], [ -62.183700536750344, -8.598966512394611 ], [ -62.268888514493312, -8.575758584291179 ], [ -62.366051170325186, -8.493561709405299 ], [ -62.360803500281293, -8.39854928672014 ], [ -62.465474609365685, -8.33973996872453 ], [ -62.518472548769068, -8.384738220892132 ], [ -62.585387865557486, -8.27188062459112 ], [ -62.6550016233262, -8.229056373752599 ], [ -62.692280134620489, -8.09290828708771 ], [ -62.866616571297691, -7.975868297383954 ], [ -63.500531878643244, -7.976321143805705 ], [ -63.620788950149915, -7.969294200167155 ], [ -63.604208333048064, -7.848570936299609 ], [ -63.469926262287117, -7.748221790902904 ], [ -63.409935043567373, -7.738258340449988 ], [ -63.419257880846487, -7.629433118943211 ], [ -63.317952970153385, -7.476394874823541 ], [ -63.336239517539632, -7.402956143011521 ], [ -63.251451071709546, -7.358855880994042 ], [ -63.320574080229562, -7.20527294269209 ], [ -63.297461120534244, -7.095789984020484 ], [ -63.21864424053922, -7.067062635032528 ], [ -63.131114335558088, -6.960954035200529 ], [ -63.165028269938659, -6.84598430822922 ], [ -63.049767735492537, -6.844489134965556 ], [ -62.970194849412742, -6.688116874693947 ], [ -62.944228433495368, -6.553246368525038 ], [ -62.863566317331625, -6.429944569386294 ], [ -62.80411743477174, -6.414900881070764 ], [ -62.635981882058161, -6.456161553512856 ], [ -62.557729486726366, -6.381658616152151 ], [ -62.486003965210777, -6.381165767885818 ], [ -62.383217160643426, -6.325796757814088 ], [ -62.288493262054374, -6.334771862331536 ], [ -62.26524842307623, -6.251177091149771 ], [ -62.123078594701319, -6.191771108050148 ], [ -61.937906217697723, -6.263714595552074 ], [ -61.854601297112147, -6.258595792961444 ], [ -61.773962664944968, -6.176197490621631 ], [ -61.741361523115749, -6.254220093882168 ], [ -61.837141242873997, -6.268836753513312 ], [ -61.783598203694105, -6.427458572555054 ], [ -61.692614308503494, -6.498799356005406 ], [ -61.674502168440249, -6.772270316421895 ], [ -61.730683891348455, -6.809905910729127 ], [ -61.761355189690214, -6.908276095265535 ], [ -61.850077720710196, -6.976219001705545 ], [ -62.009359349854087, -7.236085976886272 ], [ -61.952050314170599, -7.299468127152296 ], [ -61.842720301400732, -7.323245670551216 ], [ -61.822131637065354, -7.440178684098954 ], [ -61.877046027252334, -7.541444222472819 ], [ -61.811776830436308, -7.687101874451911 ], [ -61.926019918684233, -7.837123206071055 ], [ -62.035797880167991, -7.915633455919192 ], [ -62.051167454014767, -8.015441881237791 ], [ -61.976139450175424, -8.051771759758878 ], [ -61.915881184069349, -8.178454930650503 ], [ -61.90560654210821, -8.329082845996481 ], [ -61.971161089312773, -8.450187223661374 ], [ -61.988498826759376, -8.560304466078207 ], [ -61.963192693987594, -8.637151379332636 ], [ -61.984137844186137, -8.773453469501987 ], [ -61.903000787955932, -8.862892493993343 ] ] } }
]
}
