{
"type": "FeatureCollection",
"features": [
{ "type": "Feature", "properties": { "Name": "JAPURÃ", "Description": "JAPURÃ \/ AM" }, "geometry": { "type": "LineString", "coordinates": [ [ -67.649504071155945, -1.512070204576219 ], [ -67.608598096724734, -1.612210584950503 ], [ -67.526650289079555, -1.650927565454708 ], [ -67.34386820575304, -1.618381883916754 ], [ -67.151451262665603, -1.604343322885995 ], [ -67.110067622322845, -1.582107141931033 ], [ -66.918568890641723, -1.610244772178419 ], [ -66.775255959195135, -1.601654121540435 ], [ -66.705173907349888, -1.6238800097546 ], [ -66.630203203814744, -1.571308576529532 ], [ -66.387037905275065, -1.469431880476861 ], [ -66.316846003939872, -1.569223721397577 ], [ -66.241507241166232, -1.491952350620465 ], [ -66.097478919716309, -1.423083752213358 ], [ -66.001559778061278, -1.413727697575154 ], [ -66.001363791505753, -2.144831337296353 ], [ -66.039515893443706, -2.087230464414347 ], [ -66.169583052216069, -2.064157016433114 ], [ -66.176615996131261, -1.986333200216961 ], [ -66.357477242680545, -2.04391368366953 ], [ -66.460061326568905, -1.934374811448322 ], [ -66.518899135086997, -1.979483107359443 ], [ -66.529176959748838, -2.064307311133462 ], [ -66.621171242358912, -2.15101867477199 ], [ -67.078513588131557, -2.274126850773484 ], [ -67.309349439524965, -2.173120539281399 ], [ -67.338183317705898, -2.257386003261388 ], [ -67.558990781299485, -2.392737082850033 ], [ -67.571731237506583, -2.474789952893957 ], [ -67.641119005537632, -2.561217836733703 ], [ -67.743481938940306, -2.633084514938389 ], [ -67.7567876217513, -2.709635503575555 ], [ -67.823873880774954, -2.733045781837291 ], [ -67.969043486867406, -2.689179550395863 ], [ -68.10940193315264, -2.543033579136306 ], [ -68.214017616120032, -2.571668415764747 ], [ -68.308268732116233, -2.530081159917529 ], [ -68.357406237208068, -2.616249997639216 ], [ -68.491987979161877, -2.593264480871028 ], [ -68.612630379588325, -2.646716674135178 ], [ -68.702990293667071, -2.733824347415634 ], [ -68.840326997193131, -2.805848335931898 ], [ -69.06660569959331, -2.838125464618429 ], [ -69.239215531471586, -2.593490484098538 ], [ -69.308769507706586, -2.615586349230568 ], [ -69.375571110618239, -2.531415894128145 ], [ -69.506770792837756, -2.449427515367518 ], [ -69.61341148555158, -2.440248889774409 ], [ -69.429653932782742, -1.387320368340283 ], [ -69.430798653734826, -1.241948999346789 ], [ -69.398381050944693, -1.144404173913472 ], [ -69.463576542923079, -0.967340956819669 ], [ -69.622604933770617, -0.732144100369908 ], [ -69.573800953051489, -0.649836069279104 ], [ -69.611102262159648, -0.513452464559521 ], [ -69.717742149080891, -0.455137347410584 ], [ -69.844884640613643, -0.345796460937891 ], [ -69.923159488419628, -0.331514854526858 ], [ -70.057433212572661, -0.18677651202637 ], [ -70.046353929190445, 0.068309570030692 ], [ -69.998300126049912, 0.059357548412152 ], [ -69.941877853380163, -0.085352217230991 ], [ -69.883496499363901, -0.143353078881432 ], [ -69.757658753248833, -0.098589413970217 ], [ -69.734518038676526, -0.16776525226453 ], [ -69.604182138195085, -0.220874910848408 ], [ -69.603875972997741, -0.310548495616558 ], [ -69.408940747417546, -0.406932081350419 ], [ -69.269857577565105, -0.521402327555336 ], [ -69.158638856298126, -0.538536141929342 ], [ -69.063475320529562, -0.499727935096075 ], [ -68.920063478946361, -0.484566763845009 ], [ -68.697447462530292, -0.571125067367916 ], [ -68.595395849239026, -0.724118907461559 ], [ -68.42583507522852, -0.757125907034947 ], [ -68.287448602071265, -0.679763508678946 ], [ -68.16506443157823, -0.671106157123404 ], [ -68.160695970242784, -1.483431862390489 ], [ -68.03527569661604, -1.474624772814991 ], [ -67.904566766343166, -1.51737331062975 ], [ -67.83172022370934, -1.481923756875858 ], [ -67.711389286386407, -1.527877658327213 ], [ -67.649504071155945, -1.512070204576219 ] ] } }
]
}
