{
"type": "FeatureCollection",
"features": [
{ "type": "Feature", "properties": { "Name": "MANAUS", "Description": "MANAUS \/ AM" }, "geometry": { "type": "LineString", "coordinates": [ [ -60.000488443886518, -2.120190415055561 ], [ -60.046561294168328, -2.328262265291244 ], [ -60.033281314880753, -2.549303942922563 ], [ -59.941192354343627, -2.578277837452163 ], [ -59.819135783489564, -2.803350275594709 ], [ -59.759655304148907, -2.822222387752959 ], [ -59.706151785676347, -2.939600842704692 ], [ -59.500307749503008, -2.971895816638607 ], [ -59.373893904879758, -3.071615223463766 ], [ -59.358636824529803, -3.153022656370467 ], [ -59.545555367486202, -3.1214711942402 ], [ -59.700169722054959, -3.060890443838844 ], [ -59.769807134691462, -3.064225307152128 ], [ -59.906998513170834, -3.137799845586357 ], [ -59.986783997183693, -3.217142481840028 ], [ -60.040616514640419, -3.159068843452303 ], [ -60.202012069501393, -3.095152724318723 ], [ -60.469621502430357, -3.090267066471881 ], [ -60.600012908169163, -2.982446165558031 ], [ -60.756431465539663, -2.821788329967432 ], [ -60.802727218186533, -2.539225818116961 ], [ -60.768926883468843, -2.399484633209227 ], [ -60.695309987865578, -2.34617688005892 ], [ -60.69205932267954, -2.24266568956989 ], [ -60.738951433761599, -2.189352920001227 ], [ -60.663979725683753, -2.130685381924764 ], [ -60.668173348920895, -2.074606445231211 ], [ -60.5989811618511, -1.998834225419102 ], [ -60.503623227729754, -2.017454843066503 ], [ -60.357756182102086, -1.954464039983407 ], [ -60.297427047620083, -1.957424824895725 ], [ -60.000488443886518, -2.120190415055561 ] ] } }
]
}
