{
"type": "FeatureCollection",
"features": [
{ "type": "Feature", "properties": { "Name": "NOVA OLINDA DO NORTE", "Description": "NOVA OLINDA DO NORTE \/ AM" }, "geometry": { "type": "LineString", "coordinates": [ [ -58.349615778345481, -3.582819074540623 ], [ -58.22749807157868, -3.615733835148319 ], [ -58.297029318348336, -3.694239926531338 ], [ -58.289805517610482, -3.818685885445233 ], [ -58.330142932550245, -3.868705316097419 ], [ -58.467955480860724, -3.930926390340574 ], [ -58.385207593155876, -4.013701713663124 ], [ -58.247299400147142, -4.230184561468263 ], [ -58.155353402137735, -4.240106186251466 ], [ -58.119358477012035, -4.370781955822565 ], [ -58.191635498779185, -4.351729490923219 ], [ -58.397424665515871, -4.50320201805863 ], [ -58.5075394851591, -4.471361766532254 ], [ -58.552855254666213, -4.496019230902732 ], [ -58.652747387981549, -4.388717519397972 ], [ -58.615462667767872, -4.286154373525449 ], [ -58.688274680931727, -4.210549660538334 ], [ -58.681555253272279, -4.13498942981829 ], [ -58.776281421750184, -4.065346197668816 ], [ -58.818309755490766, -3.988477136810388 ], [ -58.785035540357846, -3.91923957174879 ], [ -58.841642037350084, -3.852200719587472 ], [ -58.967705637405167, -3.887786385733079 ], [ -59.042185749073035, -3.954751209300809 ], [ -59.195112019504052, -3.968363146342085 ], [ -59.212215461973926, -3.919890028002328 ], [ -59.096709729170634, -3.863875180595073 ], [ -59.058102903925828, -3.765883922704802 ], [ -59.108744050297616, -3.703838036396234 ], [ -58.919650628273807, -3.543858965019183 ], [ -58.902871253805301, -3.616306082759479 ], [ -58.75068915438095, -3.591453700228044 ], [ -58.658299478538083, -3.659644238590715 ], [ -58.577406665585102, -3.648531250416852 ], [ -58.507020588928981, -3.753490033738046 ], [ -58.419258963730165, -3.724388249318224 ], [ -58.349615778345481, -3.582819074540623 ] ] } }
]
}
