{
"type": "FeatureCollection",
"features": [
{ "type": "Feature", "properties": { "Name": "TONANTINS", "Description": "TONANTINS \/ AM" }, "geometry": { "type": "LineString", "coordinates": [ [ -67.130570619038792, -2.623696279859359 ], [ -67.214965888464917, -2.683594125568391 ], [ -67.291096840646617, -2.542333955147853 ], [ -67.290956934914561, -2.883378525298667 ], [ -67.561588050348178, -2.890531884838595 ], [ -67.60638059338963, -2.94250273461347 ], [ -67.71079853882145, -2.903852777883344 ], [ -67.754984530511635, -2.971805715361427 ], [ -68.194349421388665, -2.969739000454467 ], [ -68.25315530487336, -2.898806163873303 ], [ -68.414495354476969, -2.848963815127945 ], [ -68.578438070860216, -2.850617719631998 ], [ -68.702990293667071, -2.733824347415634 ], [ -68.612630379588325, -2.646716674135178 ], [ -68.491987979161877, -2.593264480871028 ], [ -68.357406237208068, -2.616249997639216 ], [ -68.308268732116233, -2.530081159917529 ], [ -68.214017616120032, -2.571668415764747 ], [ -68.10940193315264, -2.543033579136306 ], [ -67.969043486867406, -2.689179550395863 ], [ -67.823873880774954, -2.733045781837291 ], [ -67.7567876217513, -2.709635503575555 ], [ -67.743481938940306, -2.633084514938389 ], [ -67.641119005537632, -2.561217836733703 ], [ -67.571731237506583, -2.474789952893957 ], [ -67.558990781299485, -2.392737082850033 ], [ -67.338183317705898, -2.257386003261388 ], [ -67.309349439524965, -2.173120539281399 ], [ -67.170208512512829, -2.392715966768378 ], [ -67.24576347590363, -2.475671976480498 ], [ -67.200932860962709, -2.597940021115051 ], [ -67.130570619038792, -2.623696279859359 ] ] } }
]
}
