{
"type": "FeatureCollection",
"features": [
{ "type": "Feature", "properties": { "Name": "ALTO ALEGRE DOS PARECIS", "Description": "ALTO ALEGRE DOS PARECIS \/ RO" }, "geometry": { "type": "LineString", "coordinates": [ [ -61.888435336621455, -11.965711128565658 ], [ -61.842648188363164, -11.990530393562778 ], [ -61.835787794670914, -12.070349185766247 ], [ -61.804904929019244, -12.097743471483966 ], [ -61.747534803288488, -12.199178793766293 ], [ -61.753370056183087, -12.274967309293856 ], [ -61.716925743428249, -12.381190231843675 ], [ -61.67578459178543, -12.429221469195397 ], [ -61.566145120500892, -12.467403292827669 ], [ -61.52773011435324, -12.537469976158434 ], [ -61.526339078985245, -12.616959667754427 ], [ -61.562479907421732, -12.693455236569889 ], [ -61.680761141413491, -12.74428344102796 ], [ -61.762846168515807, -12.808258335353853 ], [ -61.814822625563686, -12.827055605931433 ], [ -61.896710638185368, -12.882940563356271 ], [ -61.915626175007958, -12.969281605961328 ], [ -61.958878648830535, -12.996531925507895 ], [ -62.057287586952555, -13.148983993316618 ], [ -62.115208603194446, -13.163680632355238 ], [ -62.214788821946506, -13.111344887156747 ], [ -62.245930379383474, -13.145162700198396 ], [ -62.351961542191361, -13.143294147307017 ], [ -62.417711280950812, -13.118941888557288 ], [ -62.35665588006475, -13.0834790221391 ], [ -62.320627609876283, -13.101991817368457 ], [ -62.25184509817268, -13.078398325622173 ], [ -62.160597502872406, -12.980246790556919 ], [ -62.104122051491451, -12.947945068110357 ], [ -62.092263376953269, -12.91451598882179 ], [ -62.040571793653328, -12.907758694308257 ], [ -62.000600511604254, -12.792129257958834 ], [ -62.000591164050938, -12.269287101318639 ], [ -62.008063773923993, -12.13378513527573 ], [ -61.96836158162165, -12.13407027072634 ], [ -61.929589830606169, -12.087880670456512 ], [ -61.929861601231892, -11.985658805609317 ], [ -61.888435336621455, -11.965711128565658 ] ] } }
]
}
