{
"type": "FeatureCollection",
"features": [
{ "type": "Feature", "properties": { "Name": "COSTA MARQUES", "Description": "COSTA MARQUES \/ RO" }, "geometry": { "type": "LineString", "coordinates": [ [ -63.679919867507856, -11.644414847667065 ], [ -63.65229751551788, -11.689814454673296 ], [ -63.546795579452407, -11.72727030328184 ], [ -63.549922024881475, -11.757790693585605 ], [ -63.606816144849176, -11.800437563043033 ], [ -63.581094610727689, -11.83904261842207 ], [ -63.788069248496974, -11.838737294090777 ], [ -63.86325814374829, -11.893905845278482 ], [ -63.900151303639682, -11.966516475055244 ], [ -63.946584416037915, -11.981075198561541 ], [ -63.991143058005662, -12.02629173777342 ], [ -63.994823789786039, -12.08844848620862 ], [ -64.034607410303678, -12.152176463572914 ], [ -64.085575363112468, -12.185696790774216 ], [ -64.030950166117222, -12.224755685426487 ], [ -63.937197762866447, -12.217705302757452 ], [ -63.905221045514793, -12.18549855051765 ], [ -63.798888155663803, -12.198561100714187 ], [ -63.750085128226026, -12.239849659334254 ], [ -63.714249355223501, -12.334308161692263 ], [ -63.651360994814013, -12.350658951649278 ], [ -63.62396124121824, -12.403655971046192 ], [ -63.684757935030632, -12.453056811122904 ], [ -63.786303467431019, -12.427945031737806 ], [ -63.833970670909707, -12.463429455804715 ], [ -63.87310397726668, -12.44708287737285 ], [ -63.89780159007131, -12.499691994889586 ], [ -63.963361899232218, -12.529698248175578 ], [ -64.057010009903991, -12.492038556534112 ], [ -64.173888301503894, -12.500575253245302 ], [ -64.234491678847846, -12.455478693486896 ], [ -64.406167609747342, -12.447048136562216 ], [ -64.499413037281784, -12.367295166638597 ], [ -64.492891911032814, -12.29119494968711 ], [ -64.512789521019556, -12.222873068936961 ], [ -64.552243288197133, -12.241946580670117 ], [ -64.59455387955785, -12.215698965634715 ], [ -64.487751569679176, -12.208531943594267 ], [ -64.446943220253374, -12.172635596755354 ], [ -64.422691629814835, -12.11506708507784 ], [ -64.383061635985655, -12.108797992033658 ], [ -64.373190590873037, -12.056599066993329 ], [ -64.31933078978409, -12.008171908506711 ], [ -64.258579243737074, -11.991296601556883 ], [ -64.257576079672276, -11.954841829686643 ], [ -64.203859942582255, -11.909650914857764 ], [ -64.160073397369331, -11.912379332040473 ], [ -64.11024959354387, -11.807717584898569 ], [ -64.077333028896135, -11.770322175228159 ], [ -64.0193842002206, -11.76378632078206 ], [ -63.954378723299378, -11.73089994457672 ], [ -63.880849788586836, -11.728502160446283 ], [ -63.820660194712154, -11.674058606719257 ], [ -63.723357234748555, -11.640722872562492 ], [ -63.679919867507856, -11.644414847667065 ] ] } }
]
}
