{
"type": "FeatureCollection",
"features": [
{ "type": "Feature", "properties": { "Name": "NOVO HORIZONTE DO OESTE", "Description": "NOVO HORIZONTE DO OESTE \/ RO" }, "geometry": { "type": "LineString", "coordinates": [ [ -61.913778054713418, -11.585023844574721 ], [ -61.962449279310754, -11.631372372137207 ], [ -61.972783992387292, -11.729273854304893 ], [ -62.037942487156045, -11.82549703246201 ], [ -62.050437771086251, -11.867351741289781 ], [ -62.092318941565843, -11.839503892390667 ], [ -62.149202030449317, -11.860030007978423 ], [ -62.206701172920759, -11.831993478616084 ], [ -62.189897292825776, -11.775738541900125 ], [ -62.212919674603256, -11.716725943847166 ], [ -62.171591304794852, -11.613458194440057 ], [ -62.172705916444841, -11.547392702810953 ], [ -62.086120244753431, -11.500541672759937 ], [ -62.00042575894156, -11.500245394709168 ], [ -62.00130388936298, -11.585314934436608 ], [ -61.913778054713418, -11.585023844574721 ] ] } }
]
}
