{
"type": "FeatureCollection",
"features": [
{ "type": "Feature", "properties": { "Name": "PORTO VELHO", "Description": "PORTO VELHO \/ RO" }, "geometry": { "type": "LineString", "coordinates": [ [ -62.268888514493312, -8.575758584291179 ], [ -62.238502893893376, -8.621979011522114 ], [ -62.245587444504906, -8.680321825092108 ], [ -62.330784460434472, -8.709301025621812 ], [ -62.369126902084808, -8.743556929009003 ], [ -62.420667042250159, -8.734618878358502 ], [ -62.471942252932593, -8.771746586835489 ], [ -62.502831168323723, -8.731872676183002 ], [ -62.625868209750017, -8.757763904280694 ], [ -62.703750317323227, -8.813195455905543 ], [ -62.764135755660561, -8.798063022490453 ], [ -62.74483767601788, -8.612887901655313 ], [ -62.814277458138129, -8.561824906694028 ], [ -62.822333433940791, -8.500356931926831 ], [ -63.450532598200823, -8.500431788795993 ], [ -63.533535495866374, -8.645479875795559 ], [ -63.68694680754907, -8.731604781635326 ], [ -63.744338802093978, -8.8341603767999 ], [ -63.755704234462819, -8.982241054181259 ], [ -63.787202711236084, -9.012568389719377 ], [ -63.776906058367835, -9.06234422460625 ], [ -63.794764448420494, -9.128874555116568 ], [ -63.771815641078938, -9.202871221829355 ], [ -63.766485049945061, -9.279350002100841 ], [ -63.784820600490264, -9.334067294170266 ], [ -63.756827488597715, -9.39516523029107 ], [ -63.711441291382471, -9.448722813307143 ], [ -63.582675978613516, -9.410597366375328 ], [ -63.547813521177027, -9.50594093742427 ], [ -63.548153347099223, -9.550835819717236 ], [ -63.614069785991767, -9.61529429749379 ], [ -63.618291495056432, -9.652393608078512 ], [ -63.662904372438781, -9.718543862609124 ], [ -63.685292683610434, -9.832985639875346 ], [ -64.135794552976222, -9.833538811966548 ], [ -64.226106165367185, -9.84783943004561 ], [ -64.260243149601649, -9.831882392058674 ], [ -64.312185108655797, -9.851169849808684 ], [ -64.341169881384872, -10.000381845545689 ], [ -65.166744372954369, -10.000231871903338 ], [ -65.194410342063577, -9.962153797659596 ], [ -65.275853512229787, -9.96337831545685 ], [ -65.333009379878945, -9.944281992419974 ], [ -65.28865919446622, -9.865726729704761 ], [ -65.35688059936011, -9.720173156266128 ], [ -65.391601483721445, -9.687630163701044 ], [ -65.44352319633839, -9.692652085924975 ], [ -65.501019133626073, -9.729839067818657 ], [ -65.513524796631998, -9.793169976513184 ], [ -65.567912314501655, -9.838582204605018 ], [ -65.62369480856853, -9.835979801326744 ], [ -65.68496939042501, -9.749008088452456 ], [ -65.822436140415491, -9.767419015674989 ], [ -65.918969836488699, -9.752673849218695 ], [ -66.033219535653018, -9.788933766779849 ], [ -66.152024130109453, -9.785617809913958 ], [ -66.286194868398411, -9.844716859795199 ], [ -66.358392641007526, -9.864045277167747 ], [ -66.472836213320534, -9.868379408682699 ], [ -66.587582608050866, -9.900301546179378 ], [ -66.626719690661147, -9.898101245076361 ], [ -66.810253111691736, -9.818045875416772 ], [ -66.775363617037272, -9.753091304619943 ], [ -66.725389722657553, -9.75607247356578 ], [ -66.684945328863819, -9.714645622597345 ], [ -66.500613360218381, -9.633564155261524 ], [ -66.49491675130696, -9.601583183217258 ], [ -66.39241433485364, -9.500480146941186 ], [ -66.37477644867414, -9.426366144781696 ], [ -66.259668786385362, -9.410996521472212 ], [ -66.173632784825131, -9.434418657295168 ], [ -66.123890846285462, -9.408779355382876 ], [ -66.042411631291714, -9.40237236029617 ], [ -65.970300623474941, -9.413160123940543 ], [ -65.917997070408433, -9.478158834362659 ], [ -65.825077094931927, -9.530091249811278 ], [ -65.800021654475756, -9.585022463615758 ], [ -65.729967178542438, -9.563072678960907 ], [ -65.680997618245442, -9.500407452941545 ], [ -65.679435214363593, -9.451392893267382 ], [ -65.588107942727333, -9.413773781734619 ], [ -65.503163251382887, -9.469975437216588 ], [ -65.432098300795928, -9.458634960135271 ], [ -65.456600168962609, -9.401208696024469 ], [ -65.440218400059052, -9.311745280120533 ], [ -65.377513391629691, -9.324426070806453 ], [ -65.246661430480572, -9.257663552430927 ], [ -65.173543881644775, -9.385448498049698 ], [ -65.185463151603116, -9.427031654787015 ], [ -65.142880581873328, -9.446812339417875 ], [ -65.053545968671472, -9.40214225256284 ], [ -65.000515342509004, -9.304613819072472 ], [ -64.962879508982084, -9.292776640129773 ], [ -64.919682820106004, -9.220280297097986 ], [ -64.93992979512393, -9.124565833046686 ], [ -64.870566334868442, -9.012193607149186 ], [ -64.807824192532394, -8.985551791382022 ], [ -64.761180512870339, -9.020583408597361 ], [ -64.713681069825498, -8.99386293542608 ], [ -64.587961009892638, -9.009509906057247 ], [ -64.550123934172177, -8.978270931358338 ], [ -64.446574044956151, -8.97687051606141 ], [ -64.323399630288691, -8.928860605232671 ], [ -64.31131846977155, -8.996470827266819 ], [ -64.233205133010415, -8.992308050775875 ], [ -64.141766938093667, -8.945050738500754 ], [ -64.158203292248118, -8.843167531356414 ], [ -64.129458964059879, -8.805162652934028 ], [ -64.143067069089909, -8.743031521687328 ], [ -64.035482103516244, -8.693557651264541 ], [ -63.986209735191089, -8.58563390747878 ], [ -63.924568701184562, -8.575525416164965 ], [ -63.973177196270569, -8.478447178794225 ], [ -63.940838420856387, -8.452264024465137 ], [ -63.94412252103745, -8.331187684963652 ], [ -63.870759371847491, -8.288819632320156 ], [ -63.791231292689979, -8.333215252381933 ], [ -63.722761448282199, -8.249498971999913 ], [ -63.748562775651514, -8.207865243686001 ], [ -63.693421070126249, -8.158348704928756 ], [ -63.66700030412067, -8.081603308046169 ], [ -63.621778956233804, -8.029610778314748 ], [ -63.620788950149915, -7.969294200167155 ], [ -63.500531878643244, -7.976321143805705 ], [ -62.866616571297691, -7.975868297383954 ], [ -62.809996533213393, -8.025339639812501 ], [ -62.743972494934667, -8.045286065899177 ], [ -62.692280134620489, -8.09290828708771 ], [ -62.686664163420339, -8.173774385679337 ], [ -62.6550016233262, -8.229056373752599 ], [ -62.585387865557486, -8.27188062459112 ], [ -62.518472548769068, -8.384738220892132 ], [ -62.465474609365685, -8.33973996872453 ], [ -62.360803500281293, -8.39854928672014 ], [ -62.366051170325186, -8.493561709405299 ], [ -62.337358698844803, -8.516638880579819 ], [ -62.294307663268, -8.605440776770365 ], [ -62.268888514493312, -8.575758584291179 ] ] } }
]
}
