{
"type": "FeatureCollection",
"features": [
{ "type": "Feature", "properties": { "Name": "VALE DO PARAÃSO", "Description": "VALE DO PARAÃSO \/ RO" }, "geometry": { "type": "LineString", "coordinates": [ [ -61.910568957091648, -10.117044984238589 ], [ -61.9574129436524, -10.163853222748001 ], [ -62.100629391333307, -10.659522322397208 ], [ -62.240091570569462, -10.615264601679996 ], [ -62.215971535657793, -10.524721348211585 ], [ -62.259661128558214, -10.476848438304728 ], [ -62.122004035257987, -10.35500076287485 ], [ -62.140195145689397, -10.327353602186918 ], [ -62.134639185350068, -10.22472959469502 ], [ -62.063173561610533, -10.174424603212799 ], [ -61.978582402755649, -10.093158525745308 ], [ -61.97266710120573, -10.067527928371135 ], [ -61.910568957091648, -10.117044984238589 ] ] } }
]
}
