{
"type": "FeatureCollection",
"features": [
{ "type": "Feature", "properties": { "Name": "ABARÃ", "Description": "ABARÃ \/ BA" }, "geometry": { "type": "LineString", "coordinates": [ [ -39.356786009366772, -8.54745897535139 ], [ -39.286421289810619, -8.563759798076148 ], [ -39.247883295077941, -8.62499883692675 ], [ -39.245492562531695, -8.684105869190489 ], [ -39.200781027722201, -8.710987630374802 ], [ -39.064538205573683, -8.73162813523021 ], [ -39.105507816032855, -8.846177540660904 ], [ -39.271417268791879, -8.943571089334284 ], [ -39.264147411973454, -8.987276798985022 ], [ -39.309261599343301, -9.051443858647133 ], [ -39.351242922822564, -9.15725117839912 ], [ -39.491575154769521, -8.835860386847344 ], [ -39.373572006442885, -8.563271423937008 ], [ -39.356786009366772, -8.54745897535139 ] ] } }
]
}
