{
"type": "FeatureCollection",
"features": [
{ "type": "Feature", "properties": { "Name": "ALAGOINHAS", "Description": "ALAGOINHAS \/ BA" }, "geometry": { "type": "LineString", "coordinates": [ [ -38.273112476659435, -11.962880137408376 ], [ -38.282822204980732, -12.039530098235389 ], [ -38.281679921191369, -12.13339354887313 ], [ -38.321017965406725, -12.173753712164057 ], [ -38.303787096197482, -12.20739119135038 ], [ -38.38053266934719, -12.235286902168752 ], [ -38.469734734170629, -12.282252388936568 ], [ -38.525563743871658, -12.268743899111598 ], [ -38.602069977747249, -12.205167554638876 ], [ -38.492628420265355, -12.168946350193833 ], [ -38.496605696295823, -12.120221866845611 ], [ -38.423334700635905, -12.097637382059474 ], [ -38.475006110343656, -11.949056616869314 ], [ -38.386118658948931, -11.934077720210553 ], [ -38.349873162016756, -11.96992561427561 ], [ -38.273112476659435, -11.962880137408376 ] ] } }
]
}
