{
"type": "FeatureCollection",
"features": [
{ "type": "Feature", "properties": { "Name": "AMARGOSA", "Description": "AMARGOSA \/ BA" }, "geometry": { "type": "LineString", "coordinates": [ [ -39.531832503966825, -13.022239485963439 ], [ -39.469755091024581, -13.123839802364953 ], [ -39.538539182836985, -13.123678337185481 ], [ -39.54903651402384, -13.153292733372894 ], [ -39.586341470782202, -13.141543151994824 ], [ -39.598158822371715, -13.097066663995292 ], [ -39.702656302046648, -13.112215689902143 ], [ -39.767246868648044, -13.047704732187583 ], [ -39.801309092240786, -12.983970152000891 ], [ -39.73949889305942, -13.0102560934439 ], [ -39.637670640787405, -12.930151741309771 ], [ -39.622812827949581, -12.913220249215101 ], [ -39.531832503966825, -13.022239485963439 ] ] } }
]
}
