{
"type": "FeatureCollection",
"features": [
{ "type": "Feature", "properties": { "Name": "BOA VISTA DO TUPIM", "Description": "BOA VISTA DO TUPIM \/ BA" }, "geometry": { "type": "LineString", "coordinates": [ [ -40.358739615440868, -12.792217573182427 ], [ -40.425110202074109, -12.920915245242327 ], [ -40.481327036313644, -12.941977559116992 ], [ -40.576026297975204, -13.003339687276707 ], [ -40.653867261564812, -13.000692082273758 ], [ -40.751020266771832, -13.043543615845124 ], [ -40.888051325808021, -13.005947420836774 ], [ -40.945256116576502, -13.038240243592327 ], [ -40.990342537378183, -12.912534471188849 ], [ -41.019975312110937, -12.915397248883892 ], [ -40.967331365649954, -12.793040707362705 ], [ -40.734171151677288, -12.769457868086079 ], [ -40.734554876206516, -12.446067628218428 ], [ -40.685251369754894, -12.444283427238304 ], [ -40.591769936733158, -12.449523280375045 ], [ -40.574227404770852, -12.436041843955877 ], [ -40.564770235757749, -12.465120237009273 ], [ -40.465990180702249, -12.50967225636947 ], [ -40.358739615440868, -12.792217573182427 ] ] } }
]
}
