{
"type": "FeatureCollection",
"features": [
{ "type": "Feature", "properties": { "Name": "BOM JESUS DA SERRA", "Description": "BOM JESUS DA SERRA \/ BA" }, "geometry": { "type": "LineString", "coordinates": [ [ -40.505222137291746, -14.337646590417762 ], [ -40.3981156856903, -14.395647854964464 ], [ -40.405345886903092, -14.450168693730177 ], [ -40.493885076734841, -14.448791485438676 ], [ -40.659959942697128, -14.462961637069839 ], [ -40.704735013709865, -14.444204684898237 ], [ -40.724257514672502, -14.395841532061013 ], [ -40.699667412221231, -14.29862578205416 ], [ -40.54066945173377, -14.317273443214788 ], [ -40.505222137291746, -14.337646590417762 ] ] } }
]
}
