{
"type": "FeatureCollection",
"features": [
{ "type": "Feature", "properties": { "Name": "BREJÃES", "Description": "BREJÃES \/ BA" }, "geometry": { "type": "LineString", "coordinates": [ [ -39.801309092240786, -12.983970152000891 ], [ -39.767246868648044, -13.047704732187583 ], [ -39.702656302046648, -13.112215689902143 ], [ -39.757689359576261, -13.131082994284725 ], [ -39.742338801894164, -13.179320558596828 ], [ -39.831516900684392, -13.205515506635265 ], [ -39.922803459112288, -13.161735239589575 ], [ -39.962684265766192, -13.095542685446501 ], [ -39.95355605796567, -12.996082707850633 ], [ -39.899451759091392, -12.933453318016177 ], [ -39.801309092240786, -12.983970152000891 ] ] } }
]
}
