{
"type": "FeatureCollection",
"features": [
{ "type": "Feature", "properties": { "Name": "CACHOEIRA", "Description": "CACHOEIRA \/ BA" }, "geometry": { "type": "LineString", "coordinates": [ [ -38.841300824173629, -12.719445856840764 ], [ -38.816720215865246, -12.775935753132444 ], [ -38.845768301765645, -12.839089909971333 ], [ -38.884661879442142, -12.754640949220402 ], [ -38.938052053659305, -12.701177661020211 ], [ -38.962502881702562, -12.609494629273684 ], [ -38.98671457102057, -12.594196770964173 ], [ -39.007305966597016, -12.569150023354837 ], [ -38.877428893928254, -12.510661870348995 ], [ -38.81901906108078, -12.5652125378283 ], [ -38.795857950783784, -12.649115568728462 ], [ -38.852273307666962, -12.698406663636545 ], [ -38.841300824173629, -12.719445856840764 ] ] } }
]
}
