{
"type": "FeatureCollection",
"features": [
{ "type": "Feature", "properties": { "Name": "CAETITÃ", "Description": "CAETITÃ \/ BA" }, "geometry": { "type": "LineString", "coordinates": [ [ -42.358414142298784, -13.626291159009725 ], [ -42.310538743967811, -13.602560328196546 ], [ -42.25736460399321, -13.607560046159165 ], [ -42.184722875660157, -13.695129390009297 ], [ -42.221255877756505, -13.70000526413156 ], [ -42.335043713896255, -13.772514480958478 ], [ -42.251332831245122, -13.80146948882583 ], [ -42.213582323365472, -13.850542559291625 ], [ -42.151936730695525, -13.860700597854247 ], [ -42.221351684332717, -13.90889882402149 ], [ -42.271772334025968, -13.888307432042325 ], [ -42.336712227886949, -13.902735093749527 ], [ -42.376314751924212, -13.990010969030948 ], [ -42.352408028107952, -14.09541447160052 ], [ -42.347163494899348, -14.195460889908077 ], [ -42.461135752313055, -14.351732554713578 ], [ -42.524234861649518, -14.409747964696749 ], [ -42.566871713558662, -14.33693016169758 ], [ -42.619612328146381, -14.296487592628239 ], [ -42.596034167143046, -14.273097932223719 ], [ -42.580935249661991, -14.199311362429398 ], [ -42.602164681854561, -14.140025857007627 ], [ -42.754897788701953, -14.091342623763012 ], [ -42.799850301350254, -14.037173197784794 ], [ -42.556544883939175, -13.946057088763609 ], [ -42.511211119897212, -13.920597069399207 ], [ -42.587477296839722, -13.834711678201359 ], [ -42.618919147800398, -13.760101156742962 ], [ -42.656244691838992, -13.730352179709255 ], [ -42.704822316796424, -13.63309965462531 ], [ -42.719694484612717, -13.562737580874625 ], [ -42.671460217215213, -13.627022196317284 ], [ -42.577384307139994, -13.597016027567577 ], [ -42.558494383908624, -13.653314369162786 ], [ -42.517899995788127, -13.676804602550304 ], [ -42.455027794397147, -13.665044386689033 ], [ -42.35176352536638, -13.691131935890098 ], [ -42.358414142298784, -13.626291159009725 ] ] } }
]
}
