{
"type": "FeatureCollection",
"features": [
{ "type": "Feature", "properties": { "Name": "CANARANA", "Description": "CANARANA \/ BA" }, "geometry": { "type": "LineString", "coordinates": [ [ -41.623398037089714, -11.611297770175895 ], [ -41.59247628205474, -11.613461014714005 ], [ -41.60469358823849, -11.7406614819418 ], [ -41.585392449102187, -11.768749714227907 ], [ -41.653054653749223, -11.888924701014105 ], [ -41.67642647969825, -11.944504394362239 ], [ -41.702418010982399, -11.894023125866511 ], [ -41.751693430707235, -11.876133264038856 ], [ -41.812580805859447, -11.74816278918132 ], [ -41.865805465249991, -11.714320853624427 ], [ -41.757377093877722, -11.668257991213295 ], [ -41.6701147497958, -11.617660595060384 ], [ -41.623398037089714, -11.611297770175895 ] ] } }
]
}
