{
"type": "FeatureCollection",
"features": [
{ "type": "Feature", "properties": { "Name": "CANDEAL", "Description": "CANDEAL \/ BA" }, "geometry": { "type": "LineString", "coordinates": [ [ -39.0765084616961, -11.82869374372126 ], [ -39.120197962865632, -11.924594480750613 ], [ -39.174965229361817, -11.981376588358842 ], [ -39.296678186349197, -11.990799564248448 ], [ -39.307640993137284, -11.94037466435924 ], [ -39.276100642130871, -11.892729901663584 ], [ -39.28034476769681, -11.832460561305821 ], [ -39.24022261088475, -11.773621583669126 ], [ -39.060646417298294, -11.769821508255973 ], [ -39.0765084616961, -11.82869374372126 ] ] } }
]
}
