{
"type": "FeatureCollection",
"features": [
{ "type": "Feature", "properties": { "Name": "CAPIM GROSSO", "Description": "CAPIM GROSSO \/ BA" }, "geometry": { "type": "LineString", "coordinates": [ [ -39.987089610597025, -11.15819886738376 ], [ -39.966041285676738, -11.230454029329962 ], [ -39.866108729634107, -11.313837081216263 ], [ -39.929207393806109, -11.379900927086053 ], [ -39.910508395745808, -11.418140524065905 ], [ -40.037465091840488, -11.439153956190069 ], [ -40.070204006209842, -11.434219741248 ], [ -39.997467598151104, -11.225623647413329 ], [ -40.050647612497301, -11.185122910194082 ], [ -39.987089610597025, -11.15819886738376 ] ] } }
]
}
