{
"type": "FeatureCollection",
"features": [
{ "type": "Feature", "properties": { "Name": "CATU", "Description": "CATU \/ BA" }, "geometry": { "type": "LineString", "coordinates": [ [ -38.386932531910759, -12.430630893900569 ], [ -38.525833803087494, -12.415698335709576 ], [ -38.532404490075116, -12.34285929881753 ], [ -38.525563743871658, -12.268743899111598 ], [ -38.469734734170629, -12.282252388936568 ], [ -38.38053266934719, -12.235286902168752 ], [ -38.273062336757391, -12.278367598285968 ], [ -38.283076978419786, -12.342413916768805 ], [ -38.313853805009046, -12.3375811651386 ], [ -38.386932531910759, -12.430630893900569 ] ] } }
]
}
