{
"type": "FeatureCollection",
"features": [
{ "type": "Feature", "properties": { "Name": "COARACI", "Description": "COARACI \/ BA" }, "geometry": { "type": "LineString", "coordinates": [ [ -39.533324656407729, -14.742325692976292 ], [ -39.553659176829512, -14.778366719148719 ], [ -39.583579757999416, -14.784411977230945 ], [ -39.569645911329701, -14.721381927733717 ], [ -39.619681652086513, -14.662089567679343 ], [ -39.719178195217467, -14.601691297815078 ], [ -39.729148223311824, -14.561270064262033 ], [ -39.550592548007607, -14.561758343073052 ], [ -39.511066769415834, -14.547636943689952 ], [ -39.533324656407729, -14.742325692976292 ] ] } }
]
}
