{
"type": "FeatureCollection",
"features": [
{ "type": "Feature", "properties": { "Name": "CONDEÃBA", "Description": "CONDEÃBA \/ BA" }, "geometry": { "type": "LineString", "coordinates": [ [ -41.887785995027627, -14.73951139143753 ], [ -41.828974944038407, -14.793897266245779 ], [ -41.806405452749402, -14.870787186879111 ], [ -41.829797363257683, -14.892676215135168 ], [ -41.89054223363712, -14.895307140412172 ], [ -41.977632569787204, -14.99214030982739 ], [ -41.985874537979498, -15.066683187878766 ], [ -42.070063680094734, -15.140787662620481 ], [ -42.048522256896604, -15.170734459028038 ], [ -42.096068274031552, -15.182442105019106 ], [ -42.155358616007277, -15.09785084184284 ], [ -42.277608610349034, -15.113652673931712 ], [ -42.278608614196173, -15.054951289870075 ], [ -42.227012986759917, -15.044637798095833 ], [ -42.210317301402313, -14.990627719393672 ], [ -42.239025397703927, -14.942214002174408 ], [ -42.176423519929472, -14.822057725783393 ], [ -42.128904233343633, -14.81245983535308 ], [ -42.060740179115953, -14.850275556671534 ], [ -42.046646574179988, -14.806547831617079 ], [ -42.053192937204244, -14.691241604416462 ], [ -42.030477726066181, -14.661127034984645 ], [ -41.887785995027627, -14.73951139143753 ] ] } }
]
}
