{
"type": "FeatureCollection",
"features": [
{ "type": "Feature", "properties": { "Name": "CONTENDAS DO SINCORÃ", "Description": "CONTENDAS DO SINCORÃ \/ BA" }, "geometry": { "type": "LineString", "coordinates": [ [ -40.921357116137983, -13.89101265031354 ], [ -40.949767794947718, -13.906309889889485 ], [ -40.980852958597097, -13.944544680892248 ], [ -40.978219284092631, -14.02234963023119 ], [ -41.007600323296231, -14.047223301514123 ], [ -41.06790773555349, -14.026371146611098 ], [ -41.121312541740394, -14.035202371292371 ], [ -41.147716749428412, -13.969754316408512 ], [ -41.215666858538668, -13.910170254053922 ], [ -41.222000769320005, -13.814001806837894 ], [ -41.24152697818743, -13.739415483437767 ], [ -41.217617529425404, -13.705155920709101 ], [ -41.15758071597719, -13.676960108821902 ], [ -41.082311793654299, -13.613380642802381 ], [ -41.03979158381452, -13.61616120267729 ], [ -41.027873113353451, -13.67618437520872 ], [ -41.034915174595596, -13.779566398770214 ], [ -40.990942004769636, -13.792222349281928 ], [ -40.98290004759906, -13.835845432820404 ], [ -40.921357116137983, -13.89101265031354 ] ] } }
]
}
