{
"type": "FeatureCollection",
"features": [
{ "type": "Feature", "properties": { "Name": "DOM BASÃLIO", "Description": "DOM BASÃLIO \/ BA" }, "geometry": { "type": "LineString", "coordinates": [ [ -41.559163507589744, -13.944305293054811 ], [ -41.660439541951234, -14.001043726886451 ], [ -41.717628428209366, -13.977445209728613 ], [ -41.768154087241271, -13.982850306995999 ], [ -41.864168281840705, -13.826220455709404 ], [ -41.82417005070721, -13.75496135408315 ], [ -41.799212699306565, -13.760481508814506 ], [ -41.75114875001475, -13.702331032351196 ], [ -41.749406545575596, -13.661313476335806 ], [ -41.68581055181545, -13.715497053146462 ], [ -41.572076488838832, -13.88153897604286 ], [ -41.559163507589744, -13.944305293054811 ] ] } }
]
}
