{
"type": "FeatureCollection",
"features": [
{ "type": "Feature", "properties": { "Name": "EUCLIDES DA CUNHA", "Description": "EUCLIDES DA CUNHA \/ BA" }, "geometry": { "type": "LineString", "coordinates": [ [ -38.58136198776549, -10.305038218838661 ], [ -38.57863528469062, -10.334092642261567 ], [ -38.649197559219942, -10.36857555611698 ], [ -38.622078459753084, -10.440705895760459 ], [ -38.656077020338159, -10.485336413344726 ], [ -38.627171691020692, -10.525048338110253 ], [ -38.735827989270263, -10.602668892255506 ], [ -39.051978031960573, -10.632853832738135 ], [ -39.270411520974847, -10.677887871627945 ], [ -39.136460788334659, -10.466497897160195 ], [ -39.143258335603662, -10.408479201953583 ], [ -39.184933984016077, -10.256203224099465 ], [ -39.076439516970076, -10.380018359859376 ], [ -38.853755670088049, -10.27915834468183 ], [ -38.816092544835044, -10.277776002160749 ], [ -38.58136198776549, -10.305038218838661 ] ] } }
]
}
