{
"type": "FeatureCollection",
"features": [
{ "type": "Feature", "properties": { "Name": "FILADÃLFIA", "Description": "FILADÃLFIA \/ BA" }, "geometry": { "type": "LineString", "coordinates": [ [ -40.014878578183804, -10.622851252783049 ], [ -40.057592408462824, -10.857692519993748 ], [ -40.156631210162168, -10.858184359220729 ], [ -40.204341545126169, -10.818066200794474 ], [ -40.218335345999378, -10.758060383379927 ], [ -40.257534860445389, -10.732186405178425 ], [ -40.291180025237907, -10.610539708440738 ], [ -40.165708889553571, -10.611746996126897 ], [ -40.142577732076631, -10.638184235913684 ], [ -40.014878578183804, -10.622851252783049 ] ] } }
]
}
