{
"type": "FeatureCollection",
"features": [
{ "type": "Feature", "properties": { "Name": "GAVIÃO", "Description": "GAVIÃO \/ BA" }, "geometry": { "type": "LineString", "coordinates": [ [ -39.7008164986824, -11.398463229094716 ], [ -39.672189253231409, -11.411031425559768 ], [ -39.65345361139498, -11.473034186678319 ], [ -39.618024935402389, -11.508896313414084 ], [ -39.710274543635251, -11.577572535144327 ], [ -39.765594272657495, -11.590663633419922 ], [ -39.890324206896594, -11.579501625899297 ], [ -39.89136862466227, -11.486421110645665 ], [ -39.824670188378434, -11.500288997439213 ], [ -39.756060343809793, -11.427001762721147 ], [ -39.7008164986824, -11.398463229094716 ] ] } }
]
}
