{
"type": "FeatureCollection",
"features": [
{ "type": "Feature", "properties": { "Name": "GENTIO DO OURO", "Description": "GENTIO DO OURO \/ BA" }, "geometry": { "type": "LineString", "coordinates": [ [ -42.538194184314136, -11.005030959011492 ], [ -42.486869713266628, -11.149318817609299 ], [ -42.426478459912971, -11.285045117737923 ], [ -42.326254197972844, -11.290006126181709 ], [ -42.299931690095377, -11.346184105212217 ], [ -42.300235952327284, -11.404048190771334 ], [ -42.36155029590941, -11.481373216900407 ], [ -42.329510595437569, -11.57124602578341 ], [ -42.353730351674358, -11.632711257618382 ], [ -42.360024598756183, -11.713986795953815 ], [ -42.363589969101724, -11.756331122683093 ], [ -42.418610543141988, -11.765035601411853 ], [ -42.472144312110288, -11.725237276079383 ], [ -42.487608593561674, -11.775375341698634 ], [ -42.582108072629403, -11.714135949414468 ], [ -42.747629507495724, -11.730770794736316 ], [ -42.912613512903242, -11.27726521671633 ], [ -42.837357804319197, -11.271250171358245 ], [ -42.83877439931905, -11.159429060802493 ], [ -42.766023899783079, -11.091562238806205 ], [ -42.790593862816472, -11.058315586994695 ], [ -42.762556740800903, -11.015803478247904 ], [ -42.671314788746486, -11.014609933101893 ], [ -42.624806463347568, -11.05670674392104 ], [ -42.538194184314136, -11.005030959011492 ] ] } }
]
}
