{
"type": "FeatureCollection",
"features": [
{ "type": "Feature", "properties": { "Name": "GLÃRIA", "Description": "GLÃRIA \/ BA" }, "geometry": { "type": "LineString", "coordinates": [ [ -38.514038033428449, -8.96004281742205 ], [ -38.449099651327799, -9.026358847582685 ], [ -38.403515304687517, -9.037233152088277 ], [ -38.323540025052068, -8.99000918487593 ], [ -38.289675737745085, -9.036333954148631 ], [ -38.326185463588217, -9.080956265419275 ], [ -38.318658749601582, -9.141001718654366 ], [ -38.288707582488883, -9.172126237535792 ], [ -38.287512276470352, -9.217129839770223 ], [ -38.239541246930962, -9.32712887349868 ], [ -38.214898363268787, -9.353012147992217 ], [ -38.281776440030626, -9.384384350057642 ], [ -38.363483822920045, -9.381837454734693 ], [ -38.441179457865644, -9.413287048858194 ], [ -38.513046018259104, -9.353570945342824 ], [ -38.58947638892414, -8.979159932784626 ], [ -38.514038033428449, -8.96004281742205 ] ] } }
]
}
