{
"type": "FeatureCollection",
"features": [
{ "type": "Feature", "properties": { "Name": "GONGOGI", "Description": "GONGOGI \/ BA" }, "geometry": { "type": "LineString", "coordinates": [ [ -39.66401550760952, -14.184707405722122 ], [ -39.576156607241614, -14.21631331370844 ], [ -39.57462346819846, -14.233072400370929 ], [ -39.575613329491546, -14.251886851596851 ], [ -39.442500626502692, -14.304440359534906 ], [ -39.462832001095933, -14.32489817521059 ], [ -39.5491836628957, -14.346706509997373 ], [ -39.551998320565986, -14.305776756592023 ], [ -39.675512235601161, -14.291412380177178 ], [ -39.696567795567262, -14.369579796770154 ], [ -39.696571176118816, -14.369579299445093 ], [ -39.66401550760952, -14.184707405722122 ] ] } }
]
}
