{
"type": "FeatureCollection",
"features": [
{ "type": "Feature", "properties": { "Name": "IBIQUERA", "Description": "IBIQUERA \/ BA" }, "geometry": { "type": "LineString", "coordinates": [ [ -40.967331365649954, -12.793040707362705 ], [ -41.00744224136627, -12.621109705348601 ], [ -40.978505667802267, -12.565883728850961 ], [ -40.963569578872921, -12.493225685916627 ], [ -40.980953938973073, -12.460440896230352 ], [ -40.734554876206516, -12.446067628218428 ], [ -40.734171151677288, -12.769457868086079 ], [ -40.967331365649954, -12.793040707362705 ] ] } }
]
}
