{
"type": "FeatureCollection",
"features": [
{ "type": "Feature", "properties": { "Name": "IPIRÃ", "Description": "IPIRÃ \/ BA" }, "geometry": { "type": "LineString", "coordinates": [ [ -39.598602753814021, -12.052581983371795 ], [ -39.522049415248262, -12.036918351001077 ], [ -39.408061163391949, -12.266305869420307 ], [ -39.432124261325555, -12.307659619895503 ], [ -39.809888650640687, -12.414781591996812 ], [ -39.925689885379882, -12.521602083469304 ], [ -39.975098498297029, -12.466615596432575 ], [ -40.060621776573669, -12.341083503800631 ], [ -40.112248274138494, -12.329447351214242 ], [ -40.13638045979036, -12.251786485857565 ], [ -40.169887085820328, -12.227874665583329 ], [ -40.050684125871669, -12.151697553898941 ], [ -40.02965616789777, -12.110765299478942 ], [ -39.959911680179857, -11.974722132220563 ], [ -39.904861899756838, -12.02883109497901 ], [ -39.780756566262475, -11.90613519788104 ], [ -39.724550912394648, -11.906449278911055 ], [ -39.64166743210626, -11.954088791364597 ], [ -39.636385663367605, -11.997264416319695 ], [ -39.598602753814021, -12.052581983371795 ] ] } }
]
}
