{
"type": "FeatureCollection",
"features": [
{ "type": "Feature", "properties": { "Name": "ITABELA", "Description": "ITABELA \/ BA" }, "geometry": { "type": "LineString", "coordinates": [ [ -39.51909501372387, -16.495340103662784 ], [ -39.453336350092457, -16.540716045009447 ], [ -39.482915054885837, -16.610661877443647 ], [ -39.444867380425251, -16.637956171140331 ], [ -39.348599442110526, -16.771136484261319 ], [ -39.441033229699769, -16.744654342224063 ], [ -39.485686886840313, -16.796062085996425 ], [ -39.504626702660175, -16.872072415709397 ], [ -39.512679871678692, -16.840601615572041 ], [ -39.583915190733414, -16.853432478825766 ], [ -39.660710202313965, -16.780886542679752 ], [ -39.676700848865039, -16.675523726338838 ], [ -39.648188411765766, -16.57204295002208 ], [ -39.698414872648186, -16.54782131869888 ], [ -39.608503455869766, -16.468721522780015 ], [ -39.51909501372387, -16.495340103662784 ] ] } }
]
}
