{
"type": "FeatureCollection",
"features": [
{ "type": "Feature", "properties": { "Name": "ITAPITANGA", "Description": "ITAPITANGA \/ BA" }, "geometry": { "type": "LineString", "coordinates": [ [ -39.490181447515731, -14.419642208720914 ], [ -39.550592548007607, -14.561758343073052 ], [ -39.729148223311824, -14.561270064262033 ], [ -39.732961153634278, -14.517018011971629 ], [ -39.708130424979061, -14.451892117627098 ], [ -39.696571176118816, -14.369579299445093 ], [ -39.696567795567262, -14.369579796770154 ], [ -39.590411930965786, -14.395329371753064 ], [ -39.535785714139365, -14.392808289670768 ], [ -39.490181447515731, -14.419642208720914 ] ] } }
]
}
