{
"type": "FeatureCollection",
"features": [
{ "type": "Feature", "properties": { "Name": "ITAQUARA", "Description": "ITAQUARA \/ BA" }, "geometry": { "type": "LineString", "coordinates": [ [ -39.877356373297971, -13.39132554523769 ], [ -39.846264909897627, -13.438634084695195 ], [ -39.794067272686448, -13.45652491419338 ], [ -39.772878720976166, -13.517689088080886 ], [ -39.813582599757126, -13.563568200112284 ], [ -39.888173792086775, -13.515223867387533 ], [ -40.005888949615269, -13.473500595376152 ], [ -39.987069912746222, -13.407516960039628 ], [ -39.982200921135586, -13.3257551618712 ], [ -39.975628790736039, -13.314925059044185 ], [ -39.877356373297971, -13.39132554523769 ] ] } }
]
}
