{
"type": "FeatureCollection",
"features": [
{ "type": "Feature", "properties": { "Name": "JACOBINA", "Description": "JACOBINA \/ BA" }, "geometry": { "type": "LineString", "coordinates": [ [ -40.48185651936285, -11.049789165037906 ], [ -40.45051522789538, -11.197743020024289 ], [ -40.345319436342884, -11.228786616109401 ], [ -40.30228107940826, -11.202879783874891 ], [ -40.208055902557817, -11.184111206167188 ], [ -40.050647612497301, -11.185122910194082 ], [ -39.997467598151104, -11.225623647413329 ], [ -40.065669066873909, -11.231186564008681 ], [ -40.108499892655857, -11.303405678429272 ], [ -40.188191676304768, -11.338983550150658 ], [ -40.196331953656681, -11.330025779166306 ], [ -40.393863968946953, -11.382474267873135 ], [ -40.475541961991894, -11.386692430910898 ], [ -40.506639598338722, -11.371676944435364 ], [ -40.546025773370722, -11.304417451704012 ], [ -40.58208041797684, -11.308434514641078 ], [ -40.688940794382113, -11.214324628178986 ], [ -40.727057029558239, -11.24793709542058 ], [ -40.915811105897774, -11.023063620589596 ], [ -40.931653424565859, -11.021573985351097 ], [ -40.878334684398112, -10.896502350103333 ], [ -40.926261977208412, -10.78937432016869 ], [ -40.826239149916773, -10.791924381105275 ], [ -40.810303192038646, -10.834116695429088 ], [ -40.68790917396916, -10.941932162639148 ], [ -40.58330902319284, -10.988610103773226 ], [ -40.48185651936285, -11.049789165037906 ] ] } }
]
}
