{
"type": "FeatureCollection",
"features": [
{ "type": "Feature", "properties": { "Name": "JAGUAQUARA", "Description": "JAGUAQUARA \/ BA" }, "geometry": { "type": "LineString", "coordinates": [ [ -39.982200921135586, -13.3257551618712 ], [ -39.987069912746222, -13.407516960039628 ], [ -40.005888949615269, -13.473500595376152 ], [ -39.888173792086775, -13.515223867387533 ], [ -39.813582599757126, -13.563568200112284 ], [ -39.713614631110318, -13.735117307717529 ], [ -39.740591470419986, -13.775794101616441 ], [ -39.849766370821321, -13.711184822821281 ], [ -39.852060832741188, -13.656474941165582 ], [ -39.957405552024568, -13.673030143426331 ], [ -39.988496038761127, -13.641807032768327 ], [ -40.087389381414766, -13.640179347998469 ], [ -40.096675387858795, -13.670597831624605 ], [ -40.097820138488544, -13.668696233144601 ], [ -40.121767364172449, -13.526795037660802 ], [ -40.071693708897499, -13.495496624069915 ], [ -40.150637833069482, -13.337237159867014 ], [ -40.150635199854548, -13.337230900585553 ], [ -40.15062670036189, -13.337229139712974 ], [ -40.077172082925244, -13.333770206829511 ], [ -40.045803057265232, -13.313354535183578 ], [ -39.982200921135586, -13.3257551618712 ] ] } }
]
}
