{
"type": "FeatureCollection",
"features": [
{ "type": "Feature", "properties": { "Name": "JANDAÃRA", "Description": "JANDAÃRA \/ BA" }, "geometry": { "type": "LineString", "coordinates": [ [ -37.515198871330824, -11.743375528857541 ], [ -37.606860135886507, -11.66690945600652 ], [ -37.65923459240247, -11.673535409031842 ], [ -37.713468369369707, -11.632723194319908 ], [ -37.752993214465221, -11.657079169068368 ], [ -37.822090493381495, -11.596496578654126 ], [ -37.79996002863237, -11.521369913790465 ], [ -37.759596833726846, -11.524965792737078 ], [ -37.681614205331243, -11.563453639473835 ], [ -37.637083113195047, -11.517956772586956 ], [ -37.578855182620543, -11.551989467839633 ], [ -37.436388483541634, -11.513643144715331 ], [ -37.371778887285757, -11.452569341901551 ], [ -37.346172237958392, -11.462577993179821 ], [ -37.410618295198105, -11.541290501455421 ], [ -37.515198871330824, -11.743375528857541 ] ] } }
]
}
