{
"type": "FeatureCollection",
"features": [
{ "type": "Feature", "properties": { "Name": "LAFAIETE COUTINHO", "Description": "LAFAIETE COUTINHO \/ BA" }, "geometry": { "type": "LineString", "coordinates": [ [ -40.234917441586617, -13.534144043812544 ], [ -40.190245273700384, -13.53888197902006 ], [ -40.171275345880474, -13.599412704632584 ], [ -40.118383465324598, -13.668985108875631 ], [ -40.097820138488544, -13.668696233144601 ], [ -40.096675387858795, -13.670597831624605 ], [ -40.173292971293563, -13.684726442671149 ], [ -40.195583634077423, -13.710171696966198 ], [ -40.29112589414467, -13.70086224609571 ], [ -40.467344681112081, -13.717322325265059 ], [ -40.474114038232244, -13.678510962710732 ], [ -40.428206895231995, -13.631704828614886 ], [ -40.439805019086293, -13.583539435796297 ], [ -40.370455464148336, -13.612700445069436 ], [ -40.234917441586617, -13.534144043812544 ] ] } }
]
}
