{
"type": "FeatureCollection",
"features": [
{ "type": "Feature", "properties": { "Name": "LAJEDO DO TABOCAL", "Description": "LAJEDO DO TABOCAL \/ BA" }, "geometry": { "type": "LineString", "coordinates": [ [ -40.150635199854548, -13.337230900585553 ], [ -40.150637833069482, -13.337237159867014 ], [ -40.231799670118619, -13.407499104000408 ], [ -40.19993126441625, -13.499803436879063 ], [ -40.234917441586617, -13.534144043812544 ], [ -40.370455464148336, -13.612700445069436 ], [ -40.439805019086293, -13.583539435796297 ], [ -40.402920844321443, -13.574015957970062 ], [ -40.332408728579935, -13.486781588199676 ], [ -40.277829405102921, -13.345598838615443 ], [ -40.22474006760001, -13.313713593107764 ], [ -40.150635199854548, -13.337230900585553 ] ] } }
]
}
