{
"type": "FeatureCollection",
"features": [
{ "type": "Feature", "properties": { "Name": "LAJEDINHO", "Description": "LAJEDINHO \/ BA" }, "geometry": { "type": "LineString", "coordinates": [ [ -40.685251369754894, -12.444283427238304 ], [ -40.734554876206516, -12.446067628218428 ], [ -40.980953938973073, -12.460440896230352 ], [ -41.083760146413567, -12.465476460270395 ], [ -41.206777391963044, -12.504458016823945 ], [ -41.169669009916845, -12.447671439585234 ], [ -41.158603037400212, -12.386000423980363 ], [ -41.062759670822118, -12.284937722298025 ], [ -40.983489592770468, -12.262608064910239 ], [ -40.831330033953861, -12.314576222114908 ], [ -40.804503093642836, -12.367101758439333 ], [ -40.685251369754894, -12.444283427238304 ] ] } }
]
}
