{
"type": "FeatureCollection",
"features": [
{ "type": "Feature", "properties": { "Name": "MACARANI", "Description": "MACARANI \/ BA" }, "geometry": { "type": "LineString", "coordinates": [ [ -40.371146334135972, -15.276613743429493 ], [ -40.35031951583295, -15.376192009753426 ], [ -40.315246696178065, -15.402604761900191 ], [ -40.201361559688166, -15.423710213555466 ], [ -40.165199729383971, -15.409458244302469 ], [ -40.188550781893007, -15.473854490792062 ], [ -40.135551873020461, -15.512711525416536 ], [ -40.171349491385854, -15.544505264006659 ], [ -40.270076617741658, -15.514490968083692 ], [ -40.28497712679291, -15.596721376890002 ], [ -40.34557444900156, -15.652704709354792 ], [ -40.37436102374221, -15.758182607441313 ], [ -40.45003384688448, -15.761573316855047 ], [ -40.561103469549437, -15.803614905703283 ], [ -40.626031215368243, -15.718209658948581 ], [ -40.647029855443407, -15.726658627693494 ], [ -40.700575211276934, -15.667309000609862 ], [ -40.636312017685441, -15.695905128618733 ], [ -40.511697082454361, -15.677256674256057 ], [ -40.480701463401772, -15.604852998267233 ], [ -40.500674038176271, -15.41593300330544 ], [ -40.470651541335542, -15.300872488874234 ], [ -40.434268745805923, -15.317130931946904 ], [ -40.371146334135972, -15.276613743429493 ] ] } }
]
}
