{
"type": "FeatureCollection",
"features": [
{ "type": "Feature", "properties": { "Name": "MACAÃBAS", "Description": "MACAÃBAS \/ BA" }, "geometry": { "type": "LineString", "coordinates": [ [ -42.381248411984586, -13.048365692522623 ], [ -42.369958293340517, -13.059657500992842 ], [ -42.401414303227455, -13.136658397067322 ], [ -42.444484450297118, -13.184594154296747 ], [ -42.502251631207798, -13.182840633688272 ], [ -42.522662630875686, -13.220532127155877 ], [ -42.682362068854331, -13.26920826205162 ], [ -42.676474772192933, -13.377659374580444 ], [ -42.625858226775669, -13.404771193136014 ], [ -42.680406976001109, -13.478603530328598 ], [ -42.717555574829873, -13.430200550115273 ], [ -42.76833262674927, -13.404800054179134 ], [ -42.781709863219589, -13.36404741685476 ], [ -42.912555047977037, -13.295088638030165 ], [ -42.92322666327982, -13.246497114050499 ], [ -42.912639480827352, -13.179960467601461 ], [ -42.935356198329828, -13.077241087905861 ], [ -42.974378168617534, -13.027557729405657 ], [ -42.973262008334984, -12.952016158718719 ], [ -42.93327901441495, -12.931834800935292 ], [ -42.826065073144548, -12.949462216308177 ], [ -42.720404546132841, -12.88529698406853 ], [ -42.680491530259872, -12.900270598109557 ], [ -42.499594925065708, -12.867871823525775 ], [ -42.426793424976552, -12.965861274678046 ], [ -42.414087943403842, -13.025906639779578 ], [ -42.381248411984586, -13.048365692522623 ] ] } }
]
}
