{
"type": "FeatureCollection",
"features": [
{ "type": "Feature", "properties": { "Name": "MAIQUINIQUE", "Description": "MAIQUINIQUE \/ BA" }, "geometry": { "type": "LineString", "coordinates": [ [ -40.135551873020461, -15.512711525416536 ], [ -40.133926864633054, -15.596636794752213 ], [ -40.169996860666572, -15.619238690413169 ], [ -40.198752093134544, -15.759278915189725 ], [ -40.235689895372332, -15.803479242972628 ], [ -40.377967840243571, -15.818421683813597 ], [ -40.425033808263599, -15.805708351159408 ], [ -40.45003384688448, -15.761573316855047 ], [ -40.37436102374221, -15.758182607441313 ], [ -40.34557444900156, -15.652704709354792 ], [ -40.28497712679291, -15.596721376890002 ], [ -40.270076617741658, -15.514490968083692 ], [ -40.171349491385854, -15.544505264006659 ], [ -40.135551873020461, -15.512711525416536 ] ] } }
]
}
