{
"type": "FeatureCollection",
"features": [
{ "type": "Feature", "properties": { "Name": "MANOEL VITORINO", "Description": "MANOEL VITORINO \/ BA" }, "geometry": { "type": "LineString", "coordinates": [ [ -40.714762620898171, -13.841039225379916 ], [ -40.655621355940809, -13.839436401468731 ], [ -40.505424967688043, -13.886685270908458 ], [ -40.509893625190614, -13.94981798431246 ], [ -40.349321350200114, -14.03289794668285 ], [ -40.318598384008169, -14.00625752486485 ], [ -40.205268780329902, -14.05386293322772 ], [ -40.221460067428154, -14.095613946626315 ], [ -40.175403780859767, -14.13491397559943 ], [ -40.181145590596486, -14.224108164160384 ], [ -40.195863867323567, -14.239375678444729 ], [ -40.380222720302235, -14.299956461221653 ], [ -40.387905762540868, -14.265742426671579 ], [ -40.466039744138811, -14.265317262281769 ], [ -40.496076166082162, -14.203323633778609 ], [ -40.575556503829546, -14.179856238674404 ], [ -40.687350939594126, -14.119051717162961 ], [ -40.869073374236791, -14.031416824426856 ], [ -40.889454143194087, -13.984193287090477 ], [ -40.930287765368007, -13.982876470972315 ], [ -40.949767794947718, -13.906309889889485 ], [ -40.921357116137983, -13.89101265031354 ], [ -40.879414533653737, -13.843886387246926 ], [ -40.79036340564658, -13.834223289673048 ], [ -40.714762620898171, -13.841039225379916 ] ] } }
]
}
