{
"type": "FeatureCollection",
"features": [
{ "type": "Feature", "properties": { "Name": "NOVA IBIÃ", "Description": "NOVA IBIÃ \/ BA" }, "geometry": { "type": "LineString", "coordinates": [ [ -39.5978401026386, -13.719367260390698 ], [ -39.55377033033642, -13.727102512770728 ], [ -39.565287712158124, -13.755413972077122 ], [ -39.529762652224576, -13.804289060391795 ], [ -39.556404010236861, -13.837467730651213 ], [ -39.490147269680733, -13.879471089319281 ], [ -39.529252269876338, -13.915473932975601 ], [ -39.621209064246898, -13.857173342575663 ], [ -39.680038018040079, -13.871453241174093 ], [ -39.5978401026386, -13.719367260390698 ] ] } }
]
}
