{
"type": "FeatureCollection",
"features": [
{ "type": "Feature", "properties": { "Name": "PALMAS DE MONTE ALTO", "Description": "PALMAS DE MONTE ALTO \/ BA" }, "geometry": { "type": "LineString", "coordinates": [ [ -43.104467208794624, -13.931716155875847 ], [ -43.022391536440239, -13.919642323934056 ], [ -42.951612475835077, -13.956876153311782 ], [ -42.917964803732673, -13.983040835566044 ], [ -42.946062412350386, -14.014634073903323 ], [ -42.937588184347192, -14.10282292204016 ], [ -42.974574621921249, -14.190685766834633 ], [ -43.070051015641809, -14.322077531652722 ], [ -43.048715641513581, -14.332473068577199 ], [ -43.10216290379492, -14.391791372273985 ], [ -43.180610015839534, -14.445800889799159 ], [ -43.26302046442288, -14.456723537361313 ], [ -43.421087177830941, -14.496654013571797 ], [ -43.374845424077023, -14.362247800395608 ], [ -43.456321812501585, -14.166118172615541 ], [ -43.487663345886688, -14.090620363838694 ], [ -43.443356902598907, -13.893492895081009 ], [ -43.374131519753803, -13.977223659943887 ], [ -43.275536391391313, -13.993420941023542 ], [ -43.128006885109642, -13.980862987836586 ], [ -43.104467208794624, -13.931716155875847 ] ] } }
]
}
