{
"type": "FeatureCollection",
"features": [
{ "type": "Feature", "properties": { "Name": "PARAMIRIM", "Description": "PARAMIRIM \/ BA" }, "geometry": { "type": "LineString", "coordinates": [ [ -42.018962475637693, -13.624484345476105 ], [ -42.049148546568119, -13.638827339609975 ], [ -42.069980446040688, -13.715338062901253 ], [ -42.155898123799318, -13.724897152981155 ], [ -42.184722875660157, -13.695129390009297 ], [ -42.25736460399321, -13.607560046159165 ], [ -42.310538743967811, -13.602560328196546 ], [ -42.358414142298784, -13.626291159009725 ], [ -42.405340279230472, -13.579873874679548 ], [ -42.463028389948192, -13.439543412598367 ], [ -42.405887189342252, -13.402205307728707 ], [ -42.265849658934535, -13.369647974574319 ], [ -42.250484790340749, -13.31050849567049 ], [ -42.192542630138234, -13.269479527258341 ], [ -42.162721785581873, -13.473427511970042 ], [ -42.094388872848185, -13.519590815163951 ], [ -42.067177395020735, -13.574133189095335 ], [ -42.018962475637693, -13.624484345476105 ] ] } }
]
}
