{
"type": "FeatureCollection",
"features": [
{ "type": "Feature", "properties": { "Name": "PILÃO ARCADO", "Description": "PILÃO ARCADO \/ BA" }, "geometry": { "type": "LineString", "coordinates": [ [ -42.226497018722398, -10.028894039828003 ], [ -42.257577414166292, -10.054228663122274 ], [ -42.355029509604151, -10.032236684974976 ], [ -42.393158718400116, -10.051761775085822 ], [ -42.435469167667911, -10.130306048085627 ], [ -42.405467021585707, -10.185120860838991 ], [ -42.404646695988156, -10.253079335442919 ], [ -42.458766940741668, -10.310797207425139 ], [ -42.464486343869623, -10.382194428729861 ], [ -42.569999341596315, -10.470351279887609 ], [ -42.587197436812232, -10.545104191005578 ], [ -42.619205030587629, -10.568643596624611 ], [ -43.280418317051662, -10.237612867739585 ], [ -43.38471599344831, -10.239955968593051 ], [ -43.467874265185166, -10.234719880917735 ], [ -43.583667547219477, -10.248231348397951 ], [ -43.664680225412042, -10.326306180685663 ], [ -43.66106836371398, -10.373970223047309 ], [ -43.726022027994127, -10.356183481082724 ], [ -43.770792331700697, -10.393088143303146 ], [ -43.91588937419521, -10.393084828402039 ], [ -43.836921624833053, -10.302204973081018 ], [ -43.837265066929263, -10.250068229864892 ], [ -43.784816229285525, -10.19167804810337 ], [ -43.759228516083112, -10.074605175588317 ], [ -43.690951305558258, -10.072771108100083 ], [ -43.665173116845835, -9.991027970864138 ], [ -43.696900838003216, -9.974092617979862 ], [ -43.709035342706841, -9.913219513269894 ], [ -43.652478158240342, -9.843570288937656 ], [ -43.664845737540702, -9.823654790536123 ], [ -43.78492181598898, -9.762385011958713 ], [ -43.794477344753602, -9.705043972101578 ], [ -43.841952223716135, -9.637427579818905 ], [ -43.852581319072549, -9.562138370589309 ], [ -43.784247717458129, -9.454772890856191 ], [ -43.689143798647365, -9.419682752057327 ], [ -43.621632602762361, -9.371537736976959 ], [ -43.579026566123105, -9.320390240816891 ], [ -43.535910048210098, -9.306800755350535 ], [ -43.535910684030796, -9.481081360316466 ], [ -43.373449316532685, -9.724842391363209 ], [ -42.769984214599788, -9.737801642731597 ], [ -42.627229985175632, -9.740868267956159 ], [ -42.226497018722398, -10.028894039828003 ] ] } }
]
}
