{
"type": "FeatureCollection",
"features": [
{ "type": "Feature", "properties": { "Name": "POTIRAGUÃ", "Description": "POTIRAGUÃ \/ BA" }, "geometry": { "type": "LineString", "coordinates": [ [ -39.830179214898806, -15.531786927524648 ], [ -39.733569081847634, -15.555808013628907 ], [ -39.675124679060673, -15.621812636443963 ], [ -39.589565730074355, -15.599981484058219 ], [ -39.525171952223786, -15.614432518246076 ], [ -39.544256985171671, -15.665963715553005 ], [ -39.53663465706375, -15.751892757144956 ], [ -39.567637849307232, -15.773181817986483 ], [ -39.621611831920461, -15.773427423736562 ], [ -39.647819138442458, -15.741784278421676 ], [ -39.787841734708245, -15.81228162819451 ], [ -39.815029156570283, -15.866281923172153 ], [ -39.888055797437062, -15.883979527033489 ], [ -39.910976828317928, -15.867127548497535 ], [ -39.92225291753806, -15.819361144401228 ], [ -39.909419614423598, -15.746810803375809 ], [ -39.936544376022077, -15.687603341121244 ], [ -39.889260110165928, -15.635356216016532 ], [ -39.960487482811061, -15.505810333080376 ], [ -39.923190380731455, -15.463800744808452 ], [ -39.886120593990199, -15.520526134873194 ], [ -39.830179214898806, -15.531786927524648 ] ] } }
]
}
