{
"type": "FeatureCollection",
"features": [
{ "type": "Feature", "properties": { "Name": "PRADO", "Description": "PRADO \/ BA" }, "geometry": { "type": "LineString", "coordinates": [ [ -39.117633567634975, -16.892218262862514 ], [ -39.151874452344032, -16.942046547110408 ], [ -39.178371637341172, -17.09215241320328 ], [ -39.212289615073637, -17.162421828004938 ], [ -39.221593508133878, -17.286214155159087 ], [ -39.192084947762112, -17.445887505603874 ], [ -39.2538203323424, -17.409129358233258 ], [ -39.276967060681272, -17.369925340881707 ], [ -39.336750579175828, -17.35124554514573 ], [ -39.350936572364901, -17.323698569833084 ], [ -39.470123438046187, -17.267142184863872 ], [ -39.611784230357891, -17.283973284739258 ], [ -39.632216013358288, -17.313264496958936 ], [ -39.635601371805819, -17.268213262132292 ], [ -39.580368012773533, -17.182711208755222 ], [ -39.570138878306523, -17.133461748860555 ], [ -39.499283242227818, -17.140665937183201 ], [ -39.489489171887726, -16.990349056863465 ], [ -39.446640878573646, -16.951380455943251 ], [ -39.441512872321141, -16.893875204377139 ], [ -39.405034313382828, -16.91517072864616 ], [ -39.291275928241475, -16.888155285937671 ], [ -39.239627185046515, -16.918278811717755 ], [ -39.16623776216295, -16.92876254515528 ], [ -39.117633567634975, -16.892218262862514 ] ] } }
]
}
