{
"type": "FeatureCollection",
"features": [
{ "type": "Feature", "properties": { "Name": "RIACHO DE SANTANA", "Description": "RIACHO DE SANTANA \/ BA" }, "geometry": { "type": "LineString", "coordinates": [ [ -42.912555047977037, -13.295088638030165 ], [ -42.781709863219589, -13.36404741685476 ], [ -42.76833262674927, -13.404800054179134 ], [ -42.717555574829873, -13.430200550115273 ], [ -42.680406976001109, -13.478603530328598 ], [ -42.710634710723291, -13.503036798209621 ], [ -42.719694484612717, -13.562737580874625 ], [ -42.704822316796424, -13.63309965462531 ], [ -42.770866287649028, -13.656352807835788 ], [ -42.772825010166059, -13.746556728210408 ], [ -42.943696253779024, -13.752970475407094 ], [ -43.028593456422811, -13.734194292132825 ], [ -43.101746970945889, -13.794675326604986 ], [ -43.138588670730542, -13.84418833282524 ], [ -43.104467208794624, -13.931716155875847 ], [ -43.128006885109642, -13.980862987836586 ], [ -43.275536391391313, -13.993420941023542 ], [ -43.374131519753803, -13.977223659943887 ], [ -43.443356902598907, -13.893492895081009 ], [ -43.439463916426575, -13.876172240256665 ], [ -43.241323498080931, -13.610394229909728 ], [ -43.187661099080401, -13.519012730053417 ], [ -43.163065005345679, -13.441530589664922 ], [ -43.129430805087559, -13.427596284341007 ], [ -43.116517938052361, -13.323909154983482 ], [ -42.960061509331126, -13.334057500653101 ], [ -42.912555047977037, -13.295088638030165 ] ] } }
]
}
