{
"type": "FeatureCollection",
"features": [
{ "type": "Feature", "properties": { "Name": "RIBEIRÃO DO LARGO", "Description": "RIBEIRÃO DO LARGO \/ BA" }, "geometry": { "type": "LineString", "coordinates": [ [ -40.470651541335542, -15.300872488874234 ], [ -40.500674038176271, -15.41593300330544 ], [ -40.480701463401772, -15.604852998267233 ], [ -40.511697082454361, -15.677256674256057 ], [ -40.563305360653828, -15.663418983998893 ], [ -40.739110615062771, -15.533301878678683 ], [ -40.749395551563396, -15.478690099568382 ], [ -40.803376100126847, -15.474520703167853 ], [ -40.851671211157452, -15.436807105263656 ], [ -40.89279067564911, -15.362387891188177 ], [ -40.885544901775745, -15.297700583614983 ], [ -40.816964919195641, -15.28526057471572 ], [ -40.789644038841288, -15.246776980872935 ], [ -40.69097438276151, -15.241104873091388 ], [ -40.606009590670055, -15.283860350075031 ], [ -40.562437284652901, -15.271474644039527 ], [ -40.470651541335542, -15.300872488874234 ] ] } }
]
}
