{
"type": "FeatureCollection",
"features": [
{ "type": "Feature", "properties": { "Name": "RIO DO PIRES", "Description": "RIO DO PIRES \/ BA" }, "geometry": { "type": "LineString", "coordinates": [ [ -42.167977084574765, -12.959792305970096 ], [ -42.125293711635436, -13.018336946293005 ], [ -42.102855614894679, -13.067853473359037 ], [ -42.103656296600768, -13.132727249063237 ], [ -42.059353082778493, -13.181227797624729 ], [ -42.031720360706061, -13.177507814933676 ], [ -41.97445762032288, -13.241499594030984 ], [ -41.912566151206875, -13.264060205414125 ], [ -41.909136288009222, -13.311448351060506 ], [ -42.008655253037425, -13.287055521195327 ], [ -42.032759048890966, -13.294546917006585 ], [ -42.158156618233306, -13.226659051773765 ], [ -42.204164454725742, -13.13004076456957 ], [ -42.247728123653928, -13.107999028732136 ], [ -42.296520495024765, -13.135955244139154 ], [ -42.369958293340517, -13.059657500992842 ], [ -42.381248411984586, -13.048365692522623 ], [ -42.286854820893204, -13.030895719661714 ], [ -42.247546958825069, -12.977164655624335 ], [ -42.167977084574765, -12.959792305970096 ] ] } }
]
}
