{
"type": "FeatureCollection",
"features": [
{ "type": "Feature", "properties": { "Name": "SALINAS DA MARGARIDA", "Description": "SALINAS DA MARGARIDA \/ BA" }, "geometry": { "type": "LineString", "coordinates": [ [ -38.724710913677654, -12.928953505300001 ], [ -38.751460046443924, -12.966850689907346 ], [ -38.811220716762648, -12.917605523376153 ], [ -38.801885628918569, -12.838532689132251 ], [ -38.698564550613469, -12.800553411710553 ], [ -38.69558405975652, -12.816417219678897 ], [ -38.724710913677654, -12.928953505300001 ] ] } }
]
}
