{
"type": "FeatureCollection",
"features": [
{ "type": "Feature", "properties": { "Name": "SANTA CRUZ CABRÃLIA", "Description": "SANTA CRUZ CABRÃLIA \/ BA" }, "geometry": { "type": "LineString", "coordinates": [ [ -39.008525402325404, -16.34586080333338 ], [ -39.114432734782838, -16.362108702754369 ], [ -39.194913800331562, -16.39547431418822 ], [ -39.24130655925029, -16.373908853910446 ], [ -39.456792109268406, -16.391875104152689 ], [ -39.420665887620601, -16.232852138015687 ], [ -39.402695501396238, -16.098036028240074 ], [ -39.368958560788883, -16.123636257307393 ], [ -39.303091254557728, -16.110993617661279 ], [ -39.279496662940566, -16.132186499607201 ], [ -39.230250908252799, -16.091195050910812 ], [ -39.150519359280963, -16.052244306029877 ], [ -38.950618923624404, -16.091928653984155 ], [ -38.948878685103175, -16.153416662948587 ], [ -38.977029218823361, -16.213486918586398 ], [ -39.017030411424287, -16.251472841098686 ], [ -39.008525402325404, -16.34586080333338 ] ] } }
]
}
