{
"type": "FeatureCollection",
"features": [
{ "type": "Feature", "properties": { "Name": "SANTO ANTÃNIO DE JESUS", "Description": "SANTO ANTÃNIO DE JESUS \/ BA" }, "geometry": { "type": "LineString", "coordinates": [ [ -39.119970268912709, -12.963238463983885 ], [ -39.113202143863809, -12.968811957505807 ], [ -39.152971539804696, -13.04055764272101 ], [ -39.201560058250038, -13.078009029792838 ], [ -39.256155144144543, -13.07002477852069 ], [ -39.284451225043938, -13.058883339394527 ], [ -39.323737703931833, -12.969950453350691 ], [ -39.223223327894232, -12.928657467368168 ], [ -39.154710352900395, -12.966320324623211 ], [ -39.119970268912709, -12.963238463983885 ] ] } }
]
}
