{
"type": "FeatureCollection",
"features": [
{ "type": "Feature", "properties": { "Name": "SAUBARA", "Description": "SAUBARA \/ BA" }, "geometry": { "type": "LineString", "coordinates": [ [ -38.687208485583085, -12.726538059783593 ], [ -38.695220544792271, -12.754111720679305 ], [ -38.698564550613469, -12.800553411710553 ], [ -38.801885628918569, -12.838532689132251 ], [ -38.845768301765645, -12.839089909971333 ], [ -38.816720215865246, -12.775935753132444 ], [ -38.841300824173629, -12.719445856840764 ], [ -38.687208485583085, -12.726538059783593 ] ] } }
]
}
