{
"type": "FeatureCollection",
"features": [
{ "type": "Feature", "properties": { "Name": "SEBASTIÃO LARANJEIRAS", "Description": "SEBASTIÃO LARANJEIRAS \/ BA" }, "geometry": { "type": "LineString", "coordinates": [ [ -42.955075014100601, -14.396148267428542 ], [ -42.891000023432298, -14.500401087440197 ], [ -42.835360571033497, -14.561719350267763 ], [ -42.799581019148661, -14.594646820094624 ], [ -42.805238301606266, -14.65682477364436 ], [ -42.852114152945774, -14.763864152008978 ], [ -42.872080379405922, -14.764694764951402 ], [ -42.952688162128936, -14.70840228154003 ], [ -43.036667952863695, -14.68306087016299 ], [ -43.091515848977224, -14.683322268907546 ], [ -43.174954567099576, -14.651054806134368 ], [ -43.245054893168742, -14.65651108741673 ], [ -43.42420404817824, -14.720094951121041 ], [ -43.478376790856146, -14.792050955387255 ], [ -43.530797035454782, -14.815534087727938 ], [ -43.421087177830941, -14.496654013571797 ], [ -43.26302046442288, -14.456723537361313 ], [ -43.180610015839534, -14.445800889799159 ], [ -43.10216290379492, -14.391791372273985 ], [ -43.048715641513581, -14.332473068577199 ], [ -42.955075014100601, -14.396148267428542 ] ] } }
]
}
