{
"type": "FeatureCollection",
"features": [
{ "type": "Feature", "properties": { "Name": "TANQUINHO", "Description": "TANQUINHO \/ BA" }, "geometry": { "type": "LineString", "coordinates": [ [ -39.054161409621315, -12.004663678386009 ], [ -39.059443949978281, -12.058932456067964 ], [ -39.113290040003271, -12.058932453370005 ], [ -39.137596796654805, -11.992761179884496 ], [ -39.174965229361817, -11.981376588358842 ], [ -39.120197962865632, -11.924594480750613 ], [ -39.0765084616961, -11.82869374372126 ], [ -39.012658658570217, -11.908559877136552 ], [ -39.043469223226055, -11.934595308826374 ], [ -39.054161409621315, -12.004663678386009 ] ] } }
]
}
