{
"type": "FeatureCollection",
"features": [
{ "type": "Feature", "properties": { "Name": "TAPIRAMUTÃ", "Description": "TAPIRAMUTÃ \/ BA" }, "geometry": { "type": "LineString", "coordinates": [ [ -40.697415630327043, -11.798803131559223 ], [ -40.611453226585063, -11.855159817571462 ], [ -40.578306276313583, -11.897448898947459 ], [ -40.745293691550557, -12.001175486059765 ], [ -40.777884462397992, -11.963052698423269 ], [ -40.853585908263028, -11.963599731742192 ], [ -40.897077137699682, -11.990282159094305 ], [ -40.974113083052316, -11.888801196218195 ], [ -40.942019107595684, -11.818826492848302 ], [ -40.901590889907595, -11.810751328211154 ], [ -40.801167281544792, -11.742920901778119 ], [ -40.697415630327043, -11.798803131559223 ] ] } }
]
}
