{
"type": "FeatureCollection",
"features": [
{ "type": "Feature", "properties": { "Name": "UBAÃRA", "Description": "UBAÃRA \/ BA" }, "geometry": { "type": "LineString", "coordinates": [ [ -39.54903651402384, -13.153292733372894 ], [ -39.538994202920094, -13.175708725677111 ], [ -39.607734175791563, -13.190291969198995 ], [ -39.590082606427075, -13.243734341866343 ], [ -39.638450419551191, -13.359769000139181 ], [ -39.631493912613898, -13.471049457166657 ], [ -39.668594913924096, -13.536975890225108 ], [ -39.695231980371545, -13.512512201876573 ], [ -39.752875876820212, -13.369906024243562 ], [ -39.72911351667539, -13.312917651728185 ], [ -39.759022393168891, -13.247460023561189 ], [ -39.831516900684392, -13.205515506635265 ], [ -39.742338801894164, -13.179320558596828 ], [ -39.757689359576261, -13.131082994284725 ], [ -39.702656302046648, -13.112215689902143 ], [ -39.598158822371715, -13.097066663995292 ], [ -39.586341470782202, -13.141543151994824 ], [ -39.54903651402384, -13.153292733372894 ] ] } }
]
}
