{
"type": "FeatureCollection",
"features": [
{ "type": "Feature", "properties": { "Name": "UMBURANAS", "Description": "UMBURANAS \/ BA" }, "geometry": { "type": "LineString", "coordinates": [ [ -41.27786872775954, -10.347183870938863 ], [ -41.255787365094761, -10.414435830049456 ], [ -41.224880674603412, -10.453894922112909 ], [ -41.181566846332828, -10.430911848802737 ], [ -41.106935625178885, -10.466663160176665 ], [ -41.020061536410708, -10.43148555421493 ], [ -40.941189771690574, -10.509585333696121 ], [ -40.916566718978856, -10.552897019781597 ], [ -40.945407776447666, -10.606608392263466 ], [ -41.189765451014694, -10.702451105034413 ], [ -41.179549041055338, -10.649015916151539 ], [ -41.281058236348485, -10.64235088128811 ], [ -41.318630619107743, -10.753163662972611 ], [ -41.443231738953557, -10.801866423196827 ], [ -41.50402453060758, -10.745406811575037 ], [ -41.488246607894609, -10.725891626597218 ], [ -41.503028555723226, -10.63196978387839 ], [ -41.401488103593067, -10.573651504713096 ], [ -41.381522219774581, -10.518740507668269 ], [ -41.45058812674062, -10.489344565799001 ], [ -41.446717262091909, -10.442001343986817 ], [ -41.378606028645265, -10.41724890761094 ], [ -41.361463417102982, -10.369972141201286 ], [ -41.27786872775954, -10.347183870938863 ] ] } }
]
}
