{
"type": "FeatureCollection",
"features": [
{ "type": "Feature", "properties": { "Name": "VARZEDO", "Description": "VARZEDO \/ BA" }, "geometry": { "type": "LineString", "coordinates": [ [ -39.284451225043938, -13.058883339394527 ], [ -39.342052114113756, -13.056988779908238 ], [ -39.401641390737552, -12.996771318741308 ], [ -39.443233106322737, -12.993249471985507 ], [ -39.463806150333539, -12.952666998083428 ], [ -39.475600315602037, -12.853866367438854 ], [ -39.474405743430282, -12.847631847931382 ], [ -39.426920197608979, -12.883852910283508 ], [ -39.351160613271645, -12.901613130341673 ], [ -39.323737703931833, -12.969950453350691 ], [ -39.284451225043938, -13.058883339394527 ] ] } }
]
}
