{
"type": "FeatureCollection",
"features": [
{ "type": "Feature", "properties": { "Name": "WENCESLAU GUIMARÃES", "Description": "WENCESLAU GUIMARÃES \/ BA" }, "geometry": { "type": "LineString", "coordinates": [ [ -39.695231980371545, -13.512512201876573 ], [ -39.668594913924096, -13.536975890225108 ], [ -39.620656181737331, -13.560050388614513 ], [ -39.425263444052632, -13.59637560235211 ], [ -39.391380695462658, -13.645765102877135 ], [ -39.446773432347982, -13.689493388209257 ], [ -39.439773564598283, -13.724474375392049 ], [ -39.480460699801426, -13.710891390225411 ], [ -39.55377033033642, -13.727102512770728 ], [ -39.5978401026386, -13.719367260390698 ], [ -39.64379771199475, -13.69121987789498 ], [ -39.713614631110318, -13.735117307717529 ], [ -39.813582599757126, -13.563568200112284 ], [ -39.772878720976166, -13.517689088080886 ], [ -39.695231980371545, -13.512512201876573 ] ] } }
]
}
