{
"type": "FeatureCollection",
"features": [
{ "type": "Feature", "properties": { "Name": "ES", "Description": "ESPÃRITO SANTO \/ SUDESTE" }, "geometry": { "type": "LineString", "coordinates": [ [ -29.302791352438931, -20.515797323187826 ], [ -29.323042901408712, -20.514582116971098 ], [ -29.343623424181601, -20.508451424193822 ], [ -29.337052201197992, -20.487440597405566 ], [ -29.30428098587862, -20.501331549111626 ], [ -29.302791352438931, -20.515797323187826 ] ] } },
{ "type": "Feature", "properties": { "Name": "ES", "Description": "ESPÃRITO SANTO \/ SUDESTE" }, "geometry": { "type": "LineString", "coordinates": [ [ -40.503332861322406, -17.91067915351999 ], [ -40.484129490183761, -17.908644735066389 ], [ -40.46273799206466, -17.928212364908632 ], [ -40.445054678430544, -17.918825517483583 ], [ -40.417418679228604, -17.927034276410666 ], [ -40.403239113494237, -17.923527996919404 ], [ -40.386451675704222, -17.928438062366581 ], [ -40.366271040076299, -17.923237690366989 ], [ -40.355611965819548, -17.930454822631873 ], [ -40.345521799990983, -17.923782029317177 ], [ -40.333955582284261, -17.927359836387268 ], [ -40.323435495551614, -17.938944217701358 ], [ -40.309941367899683, -17.940939232359653 ], [ -40.275673360537041, -17.962562043303532 ], [ -40.255354808477591, -17.971799427901146 ], [ -40.221962550131536, -17.98065786067167 ], [ -40.069375935650783, -18.078632359695575 ], [ -39.91113754436207, -18.179440203402578 ], [ -39.688947714865094, -18.320831319609624 ], [ -39.666632000566267, -18.331542410653697 ], [ -39.675711896786481, -18.361172699660244 ], [ -39.687369253588145, -18.3859614902305 ], [ -39.709680291412212, -18.447639168013094 ], [ -39.720421258833937, -18.482820338887507 ], [ -39.728561162067876, -18.500385405162262 ], [ -39.730091643614344, -18.529580888147393 ], [ -39.729295646476885, -18.577625789798276 ], [ -39.723884099271686, -18.600809359764014 ], [ -39.736741577961425, -18.64432174934916 ], [ -39.746898626370466, -18.711034620651105 ], [ -39.746701168523998, -18.754272949936649 ], [ -39.750321127717818, -18.841723725369548 ], [ -39.744411176234735, -18.894124089554964 ], [ -39.742978139829177, -18.931091688130778 ], [ -39.722282813201218, -19.066678050151776 ], [ -39.710192243077472, -19.168054223123875 ], [ -39.700365986900749, -19.229492775671019 ], [ -39.691421103201321, -19.273395127483127 ], [ -39.688963042010698, -19.306323276298084 ], [ -39.69652245714564, -19.367669552108055 ], [ -39.701856546642148, -19.389312235371335 ], [ -39.724412349350409, -19.448360711877228 ], [ -39.729449586129476, -19.465900665483218 ], [ -39.785142496928586, -19.590209136942008 ], [ -39.806675678739566, -19.631492081094507 ], [ -39.807630122931755, -19.648597211591948 ], [ -39.873780604091564, -19.668632518575802 ], [ -39.911644930169295, -19.687036368133814 ], [ -39.968969500741821, -19.72721635225281 ], [ -40.00430624533692, -19.757845592899685 ], [ -40.034033151208909, -19.788122827206674 ], [ -40.056879400763648, -19.819982329620697 ], [ -40.057632175584331, -19.839028951624755 ], [ -40.07701450731355, -19.873127602257 ], [ -40.082318585534267, -19.875656392428482 ], [ -40.097815190418657, -19.906383400173695 ], [ -40.101576075175672, -19.921352825172619 ], [ -40.130555893539565, -19.935777268206323 ], [ -40.139667383842607, -19.94916590987873 ], [ -40.136859642858212, -19.970154767128747 ], [ -40.145332972438666, -19.987762810205481 ], [ -40.149504579372767, -20.007507038119229 ], [ -40.157032547014289, -20.020187918737349 ], [ -40.161870186459851, -20.04061155118205 ], [ -40.184698338057785, -20.043783293663978 ], [ -40.189846633015577, -20.056907060712263 ], [ -40.173304861230292, -20.077140953292258 ], [ -40.17198838595516, -20.108169791502576 ], [ -40.18436722566684, -20.148529207456875 ], [ -40.183817305524201, -20.167290529434297 ], [ -40.198534134342708, -20.216075255668382 ], [ -40.215856154337985, -20.235547390999216 ], [ -40.215079933292259, -20.243074294742879 ], [ -40.234385935062733, -20.27630474706632 ], [ -40.237488908186492, -20.294989594294236 ], [ -40.258794349279754, -20.265791610294514 ], [ -40.277477469809355, -20.272113099639739 ], [ -40.289116452562212, -20.283781447955391 ], [ -40.290738457213934, -20.299211257493425 ], [ -40.266677378258294, -20.325409088758416 ], [ -40.280379554173066, -20.335925538632637 ], [ -40.282945102334565, -20.352941630851543 ], [ -40.294123758104831, -20.360327782600962 ], [ -40.313486626706322, -20.390800924323113 ], [ -40.319577289760048, -20.405969174137965 ], [ -40.322077437423673, -20.427102096484532 ], [ -40.329978381796764, -20.446661525408956 ], [ -40.34765859097115, -20.479313138990051 ], [ -40.359396666422867, -20.50878655025906 ], [ -40.390172775353157, -20.556642639246377 ], [ -40.40061922469738, -20.576741477936821 ], [ -40.402757326889059, -20.596501577985407 ], [ -40.426273561475625, -20.633951071984313 ], [ -40.441842950291857, -20.634439602605539 ], [ -40.453660118419691, -20.624172785645442 ], [ -40.470101688641982, -20.634220700424862 ], [ -40.464553288003742, -20.646695565248081 ], [ -40.49449454188948, -20.660772001226746 ], [ -40.532986002102234, -20.740936982056041 ], [ -40.549836950015106, -20.741061941055701 ], [ -40.560124176189674, -20.750851045339399 ], [ -40.57622111811002, -20.775854767583382 ], [ -40.575018482616827, -20.787423599619387 ], [ -40.588728005992543, -20.802903838641214 ], [ -40.609655987233964, -20.808465877498175 ], [ -40.626915619460249, -20.8414918329816 ], [ -40.633873577903216, -20.830400218994782 ], [ -40.629166405804874, -20.820520567370178 ], [ -40.652970888395714, -20.806679447098759 ], [ -40.678647905176661, -20.823297205301742 ], [ -40.69364318298642, -20.836480785359868 ], [ -40.706501010613124, -20.837519354834228 ], [ -40.730002377607548, -20.854639023771881 ], [ -40.746350018138799, -20.84988278016607 ], [ -40.756325281186719, -20.860712994509015 ], [ -40.758305784384333, -20.879558567673598 ], [ -40.775705349322322, -20.897379715901138 ], [ -40.795660737153241, -20.926329121891396 ], [ -40.808310363632302, -20.956661910019022 ], [ -40.811324485536545, -20.981210248853813 ], [ -40.805807470338436, -21.004602407574964 ], [ -40.813391015183186, -21.036070993581404 ], [ -40.827322030787002, -21.04565848155363 ], [ -40.856371954901761, -21.128058161654735 ], [ -40.88086967809312, -21.143863748413139 ], [ -40.891232057013781, -21.157470736485266 ], [ -40.91530078740135, -21.175250525791114 ], [ -40.953808358069239, -21.237987430475414 ], [ -40.962213873999985, -21.266631923999967 ], [ -40.961299361999806, -21.28942266599989 ], [ -40.995015957999954, -21.286383397999941 ], [ -41.004909529999956, -21.252833344999885 ], [ -41.024379442999873, -21.245799940999916 ], [ -41.039921774999925, -21.255115175999887 ], [ -41.059319261999967, -21.234646809999902 ], [ -41.089547216999904, -21.219569339999907 ], [ -41.105403505999959, -21.219581508999966 ], [ -41.115552505999972, -21.228635292999911 ], [ -41.13843034599995, -21.229182900999888 ], [ -41.140292212999782, -21.237579553999922 ], [ -41.190355740999905, -21.248556049999877 ], [ -41.222141335999765, -21.232870126999899 ], [ -41.241368456999965, -21.220360328999845 ], [ -41.256494602999908, -21.225252292999752 ], [ -41.271401705999892, -21.237250989999836 ], [ -41.303455020999934, -21.228598784999971 ], [ -41.316183860999779, -21.213545652999983 ], [ -41.325785252999822, -21.218559307999953 ], [ -41.338331556999833, -21.206828329999894 ], [ -41.369940798999835, -21.204222553999955 ], [ -41.388470321999932, -21.199122430999921 ], [ -41.41647777299994, -21.200120462999902 ], [ -41.435248995999871, -21.215701900999875 ], [ -41.446170701999904, -21.215481408999892 ], [ -41.471633954999902, -21.201488033999851 ], [ -41.486524257999974, -21.179892879999894 ], [ -41.502377556999932, -21.182649451999961 ], [ -41.511550079999836, -21.175836265999976 ], [ -41.520144806999895, -21.187307938999936 ], [ -41.530436810999959, -21.180025291999925 ], [ -41.54869759599989, -21.183046687999877 ], [ -41.555414482999879, -21.172550046999902 ], [ -41.578622652999911, -21.169552725999893 ], [ -41.589083181999911, -21.149618737999841 ], [ -41.612589517999879, -21.15700094399989 ], [ -41.621981483999832, -21.146958465999884 ], [ -41.654639037999971, -21.141625882999904 ], [ -41.663920418999901, -21.124763770999891 ], [ -41.688741083999957, -21.121800231999885 ], [ -41.69559038299974, -21.11552872999988 ], [ -41.717065161999926, -21.125279049999904 ], [ -41.718004081999936, -21.116070413999921 ], [ -41.735940729999925, -21.10259838699983 ], [ -41.721563218999904, -21.073299226999893 ], [ -41.73264324299987, -21.066395866999983 ], [ -41.716211513999838, -21.046809983999932 ], [ -41.72520276199981, -21.032888605999915 ], [ -41.715429995999898, -21.022331433999966 ], [ -41.722416050999925, -21.009160073999961 ], [ -41.710055753999939, -20.990777657999899 ], [ -41.71802174499993, -20.965035541999892 ], [ -41.717343027999846, -20.953232420999882 ], [ -41.733890008999822, -20.943135806999919 ], [ -41.737349724999888, -20.927936009999939 ], [ -41.72211057599997, -20.920070483999723 ], [ -41.718404907999968, -20.900797731999887 ], [ -41.726340939999886, -20.892389472999923 ], [ -41.712362118999742, -20.868097482999929 ], [ -41.739026262999914, -20.866406783999931 ], [ -41.74389557999978, -20.85463515299989 ], [ -41.736308894999922, -20.835913072999915 ], [ -41.739854508999827, -20.817503749999958 ], [ -41.755103298999984, -20.806816059999843 ], [ -41.782101927999975, -20.797700652999765 ], [ -41.799168683999874, -20.805318528999916 ], [ -41.816970100999754, -20.801272238999957 ], [ -41.825503478999906, -20.788455217999967 ], [ -41.842581536999944, -20.779153270999927 ], [ -41.851996507999786, -20.763962728999843 ], [ -41.879196228999774, -20.762251351999904 ], [ -41.876407946969096, -20.747082044200852 ], [ -41.860256397314799, -20.739027280684407 ], [ -41.865355848293746, -20.722016021422121 ], [ -41.858451727764759, -20.718603051989191 ], [ -41.847949045611806, -20.686684465015958 ], [ -41.839367375603786, -20.683447334626688 ], [ -41.831244383221581, -20.668518850364592 ], [ -41.813231798108973, -20.653264726985469 ], [ -41.820501904039531, -20.627785310143736 ], [ -41.839179312974863, -20.624835242452377 ], [ -41.85639511224457, -20.617189302644075 ], [ -41.8412991877073, -20.600442040267922 ], [ -41.834502080206732, -20.568598684281824 ], [ -41.828391197695396, -20.557296183771825 ], [ -41.812072568394228, -20.549773123730571 ], [ -41.804298852010277, -20.538402830526081 ], [ -41.825422757754041, -20.483258849716037 ], [ -41.801750968332499, -20.476565643589538 ], [ -41.799259274296048, -20.463139136861571 ], [ -41.802871826673368, -20.442955765496151 ], [ -41.798229872510547, -20.435020188231078 ], [ -41.803677138089427, -20.421980557256802 ], [ -41.832690588399771, -20.412493933648079 ], [ -41.841025531203286, -20.399452462660975 ], [ -41.845058064278192, -20.377363007896406 ], [ -41.859511631856265, -20.372842559336505 ], [ -41.853251412422651, -20.3505825184684 ], [ -41.829519709267061, -20.323589200880861 ], [ -41.825093596891918, -20.312387541351825 ], [ -41.806945942601089, -20.307490762488669 ], [ -41.803086449879679, -20.29920425537199 ], [ -41.782140381473369, -20.294475847582248 ], [ -41.775530989463505, -20.260834325943335 ], [ -41.769752297630355, -20.255097444491355 ], [ -41.767108650543719, -20.229258663956102 ], [ -41.756753774666947, -20.206865963193536 ], [ -41.411140356242356, -20.207369560156959 ], [ -41.409091776164409, -20.197699448770493 ], [ -41.382435315837085, -20.189078680736486 ], [ -41.361891604114135, -20.14207805925497 ], [ -41.355813028848161, -20.139098311238001 ], [ -41.338193987062766, -20.088117574566354 ], [ -41.332687779017704, -20.057663150433939 ], [ -41.31852965491953, -20.041513187183739 ], [ -41.317256523369736, -20.026964229415626 ], [ -41.309106679929293, -20.016370641092177 ], [ -41.309661293633667, -19.995097499150233 ], [ -41.319897684730336, -19.978629384538408 ], [ -41.311799042391776, -19.972419492065796 ], [ -41.307915690656557, -19.94833995902178 ], [ -41.300858112511825, -19.936525382740115 ], [ -41.27266014045307, -19.942438592466885 ], [ -41.254609713667257, -19.932144659148605 ], [ -41.244470197541546, -19.937341849346808 ], [ -41.228192405555035, -19.905040644010455 ], [ -41.205053028274563, -19.903109800476784 ], [ -41.186127712224106, -19.891316105553699 ], [ -41.184004231210281, -19.848824408719452 ], [ -41.175696406563873, -19.839350129205002 ], [ -41.174830288387056, -19.824833423823407 ], [ -41.164105051906574, -19.806386816897998 ], [ -41.165947797852539, -19.792458425515861 ], [ -41.17394342644792, -19.786051414241285 ], [ -41.174641374100077, -19.767238454990661 ], [ -41.187766482037432, -19.758109107749021 ], [ -41.191071580488995, -19.745867347200203 ], [ -41.174305678763915, -19.715637149234965 ], [ -41.176905974031456, -19.698717590244485 ], [ -41.168472824361231, -19.6722226526532 ], [ -41.157498900153996, -19.661082455490885 ], [ -41.1373177725971, -19.65757331165889 ], [ -41.129495164570073, -19.642740544040748 ], [ -41.108601365660377, -19.639466759982952 ], [ -41.099310203403149, -19.604205425340009 ], [ -41.090881571027637, -19.59634317070072 ], [ -41.075194116515149, -19.598848899557026 ], [ -41.071917737013848, -19.58440816440509 ], [ -41.036860199538523, -19.570456971611918 ], [ -41.036383284560877, -19.559171815426907 ], [ -41.044686154842054, -19.535524003729677 ], [ -41.04090192728205, -19.515921427132128 ], [ -41.04966269997351, -19.503020414960133 ], [ -41.046692703305553, -19.487399736908287 ], [ -41.019073726471277, -19.504881512471798 ], [ -40.988278196681392, -19.507940259635177 ], [ -40.972238172853281, -19.50529499826547 ], [ -40.971193395358796, -19.494601861286753 ], [ -40.944693411671544, -19.460960354936333 ], [ -40.957837629303128, -19.449925505257795 ], [ -40.967920005203943, -19.430437280156294 ], [ -40.960475424501112, -19.419316341975559 ], [ -40.962214947162067, -19.408429366921723 ], [ -40.950713073249631, -19.392999879340891 ], [ -40.93044840047321, -19.38415160621156 ], [ -40.938467899773741, -19.34606552260567 ], [ -40.922747639791616, -19.322387100684068 ], [ -40.9076927036553, -19.308812724727371 ], [ -40.92454978044799, -19.302455967568729 ], [ -40.944498676072897, -19.279546482184287 ], [ -40.93670926022412, -19.272574289271915 ], [ -40.921854191217847, -19.271892072561059 ], [ -40.916180408898697, -19.258932304981784 ], [ -40.932857810139808, -19.251154695432774 ], [ -40.941550726284959, -19.23013111895591 ], [ -40.932343901549757, -19.222761122627674 ], [ -40.927582123516117, -19.208875489512081 ], [ -40.929383044691633, -19.19386889733164 ], [ -40.941086126623361, -19.180573775259461 ], [ -40.940556738002954, -19.163304433053099 ], [ -40.95611541949097, -19.129113174733106 ], [ -40.970258970075349, -19.12233385672198 ], [ -40.989274925197606, -19.102066889775074 ], [ -41.007055722643429, -19.10053436766691 ], [ -41.012604388581622, -19.075801658819387 ], [ -41.027893753693718, -19.075415800198925 ], [ -41.053852153054372, -19.068864256180461 ], [ -41.052636364076818, -19.061481328500406 ], [ -41.065556555190767, -19.051332136568817 ], [ -41.063139841230623, -19.039303557612982 ], [ -41.071575666383808, -19.025649334449156 ], [ -41.061770107204609, -19.006317463679977 ], [ -41.032220262555022, -18.99084744994974 ], [ -41.060645141659897, -18.968284638824969 ], [ -41.064654141275525, -18.945265373198367 ], [ -41.090250876476716, -18.934806146286576 ], [ -41.103673925311341, -18.934060694645211 ], [ -41.116195014388381, -18.918981696248238 ], [ -41.126847126093935, -18.894506468698523 ], [ -41.143797563306798, -18.884911944430655 ], [ -41.152958334659388, -18.88660909013737 ], [ -41.15921055911997, -18.864359637886878 ], [ -41.166360733261172, -18.858231669156112 ], [ -41.186664865591013, -18.864076650017296 ], [ -41.200554138262817, -18.86273350264895 ], [ -41.214784379895143, -18.877639802434828 ], [ -41.230103821933646, -18.858370640492637 ], [ -41.243582405703357, -18.852749068314722 ], [ -41.237822035758313, -18.834765042073002 ], [ -41.245137177938318, -18.820541783676276 ], [ -41.232544391310569, -18.79727879547994 ], [ -41.133473687960297, -18.796808264789547 ], [ -41.119991480822137, -18.817659833334517 ], [ -41.110506538945572, -18.838937363068737 ], [ -41.097473643893522, -18.842310978168992 ], [ -41.08370744254438, -18.836583637624756 ], [ -41.019130685932339, -18.837301986397506 ], [ -40.963913459838238, -18.841170076637692 ], [ -40.936661853361784, -18.831048251075799 ], [ -40.916772629553122, -18.815543417394679 ], [ -40.919801601062993, -18.800397294499419 ], [ -40.928633254720751, -18.792937928942191 ], [ -40.940004218819581, -18.770286160477838 ], [ -40.941497578150631, -18.689294676607911 ], [ -40.953834292718398, -18.681607606305931 ], [ -40.976528901287679, -18.677080849901188 ], [ -41.005226884712897, -18.667277024614918 ], [ -41.028747741814811, -18.646729290224528 ], [ -41.050892271960656, -18.634153995410429 ], [ -41.03939575530984, -18.61992371780525 ], [ -41.041988536741428, -18.605403080587678 ], [ -41.020300664344063, -18.500965902254507 ], [ -41.016340947576623, -18.467460743918082 ], [ -41.023028708308118, -18.457260879685748 ], [ -41.173083081918662, -18.442796896159678 ], [ -41.180798059982401, -18.432682552957431 ], [ -41.160448009168249, -18.402798293606281 ], [ -41.159598878285578, -18.381458617121382 ], [ -41.148102192562078, -18.379150742712568 ], [ -41.147497811274945, -18.353381221665927 ], [ -41.15892065456449, -18.308243452273416 ], [ -41.141108835903935, -18.291291493407527 ], [ -41.096473534825691, -18.255577663078611 ], [ -41.102744244850953, -18.236966133979877 ], [ -41.091351009041773, -18.23025591357947 ], [ -41.103864568095275, -18.212498224213562 ], [ -41.092656245489309, -18.205837457532592 ], [ -41.092734478413377, -18.195401326110186 ], [ -41.067807552876104, -18.181500408117302 ], [ -41.056454286536052, -18.178840766587996 ], [ -41.051931169687691, -18.16511245277735 ], [ -41.028104427077608, -18.157672885794966 ], [ -41.01458947382514, -18.157579418355397 ], [ -41.010091232224511, -18.167630245139605 ], [ -40.993216939709953, -18.166234741939661 ], [ -40.987034374037023, -18.146773959650488 ], [ -40.974192600208255, -18.14210504830919 ], [ -40.954537364707562, -18.154494398397617 ], [ -40.951613755969959, -18.134092054704468 ], [ -40.932209592298818, -18.136483475232126 ], [ -40.909283307578562, -18.114830156586436 ], [ -40.891543681995302, -18.112733844091565 ], [ -40.878496449051852, -18.119969788374931 ], [ -40.845075826987738, -18.149813019755015 ], [ -40.824188036448675, -18.149288818424111 ], [ -40.805216938610663, -18.152970291245822 ], [ -40.794743905306852, -18.160049736406165 ], [ -40.771496050901931, -18.155940010922677 ], [ -40.773303345572913, -18.107562652394392 ], [ -40.886989419825795, -18.000641012372739 ], [ -40.902823046546303, -17.987712220142726 ], [ -40.877052684633604, -17.982285100277124 ], [ -40.862782867435328, -17.988145146581132 ], [ -40.847731356816553, -17.96750935597197 ], [ -40.830552882109771, -17.954180003004637 ], [ -40.824970921470822, -17.963698025543351 ], [ -40.808161608571311, -17.95204717084016 ], [ -40.791876779389838, -17.971483130941692 ], [ -40.770930568890606, -17.98642201946052 ], [ -40.771768455549754, -18.003388076098759 ], [ -40.752769788994492, -18.009623583961172 ], [ -40.725768952175308, -18.0012172223968 ], [ -40.716166038132087, -18.004617089606882 ], [ -40.703683428347517, -18.023727033775515 ], [ -40.690524136279748, -18.012712685042345 ], [ -40.659435695500804, -18.010929188231387 ], [ -40.646030763508804, -17.993561219174861 ], [ -40.626151905286171, -17.991053928196209 ], [ -40.621883998947339, -17.960566041189736 ], [ -40.609532929401155, -17.937658794217896 ], [ -40.587161348317466, -17.939020842637717 ], [ -40.584711930511105, -17.918166565334673 ], [ -40.567930154852661, -17.916029286922026 ], [ -40.540360309780453, -17.902824313790973 ], [ -40.527037837526166, -17.891944638534198 ], [ -40.516821865536542, -17.894423308588728 ], [ -40.503332861322406, -17.91067915351999 ] ] } }
]
}
