{
"type": "FeatureCollection",
"features": [
{ "type": "Feature", "properties": { "Name": "PA", "Description": "PARÃ \/ NORTE" }, "geometry": { "type": "LineString", "coordinates": [ [ -54.954306696596717, 2.583692423666456 ], [ -54.935421746616285, 2.518585440265895 ], [ -54.872250928937248, 2.433746586535754 ], [ -54.874696404115696, 2.415325409739885 ], [ -54.807560044760201, 2.341674874096227 ], [ -54.796166374578469, 2.317965141378281 ], [ -54.811420254241241, 2.266377950482088 ], [ -54.763110876365786, 2.202319066671663 ], [ -54.806254292101848, 2.138927723535708 ], [ -54.803804886885949, 2.025822780397007 ], [ -54.755999690533244, 1.97420688134256 ], [ -54.770198308405178, 1.925695656929044 ], [ -54.738459945569964, 1.824835634556941 ], [ -54.744779071496936, 1.775800778083486 ], [ -54.643639692717571, 1.768600021573761 ], [ -54.60191710329164, 1.784573433517217 ], [ -54.530526110691412, 1.767103190859629 ], [ -54.495944360443829, 1.746942630797804 ], [ -54.45716768114351, 1.75830283450825 ], [ -54.351691835309907, 1.754072682608282 ], [ -54.269578112639778, 1.704811759055467 ], [ -54.262743876628527, 1.688382389036086 ], [ -54.200883417935344, 1.645579256077809 ], [ -54.14366370291755, 1.640612045909201 ], [ -54.101944882550271, 1.584305314538753 ], [ -54.098778220338531, 1.550523844899537 ], [ -54.069159993039165, 1.500969423999763 ], [ -54.020274060699279, 1.515763146651899 ], [ -54.001834134837367, 1.483624778860509 ], [ -53.967076499680672, 1.484395053588955 ], [ -53.895998088940566, 1.455125779431263 ], [ -53.887751187966892, 1.407787299744143 ], [ -53.82360237464988, 1.389613752172956 ], [ -53.78372215165588, 1.402853871708892 ], [ -53.701459758461056, 1.377918938608197 ], [ -53.664853928366114, 1.375249818224553 ], [ -53.633246263104546, 1.347358645385249 ], [ -53.595218100335032, 1.35815407754874 ], [ -53.538547714605343, 1.340861054394132 ], [ -53.562633404408032, 1.306581935008353 ], [ -53.523327514553138, 1.261338927849259 ], [ -53.525209777609135, 1.211716497518417 ], [ -53.473738182870832, 1.239332394174717 ], [ -53.426073298743702, 1.225909517110551 ], [ -53.39608008292943, 1.179292524830231 ], [ -53.402072182984767, 1.153977413227075 ], [ -53.45915764271097, 1.133680416118352 ], [ -53.455823706598721, 1.077371806064029 ], [ -53.422329386891604, 1.03373743603386 ], [ -53.411494202895085, 0.929344150911909 ], [ -53.287494649458395, 0.845715926748674 ], [ -53.255147723488633, 0.809211619320798 ], [ -53.190272646465374, 0.768383530675507 ], [ -53.146937924245769, 0.699786159703528 ], [ -53.105743588495741, 0.679461516535845 ], [ -53.122711811600738, 0.630090903572409 ], [ -53.147322054369297, 0.600334571882982 ], [ -53.152064600400919, 0.531893695537683 ], [ -53.169768943781676, 0.493734765946705 ], [ -53.1612040704115, 0.398538021812342 ], [ -53.175310541947887, 0.381717180503536 ], [ -53.136458984194697, 0.326035712678028 ], [ -53.131375964728932, 0.296201680463213 ], [ -53.094126848675074, 0.258957700437584 ], [ -53.094292516386446, 0.195306960447944 ], [ -53.052127140355161, 0.157338874189747 ], [ -53.014966746018402, 0.05969212139437 ], [ -52.983383138520985, 0.033381188690967 ], [ -52.969019722582125, -0.049783241603265 ], [ -52.93274365949226, -0.14230730044153 ], [ -52.904012938046584, -0.154937701213903 ], [ -52.851543132709395, -0.150160791187517 ], [ -52.836098862972079, -0.186149221409373 ], [ -52.760439823738842, -0.237574421921977 ], [ -52.754426810848571, -0.26218864958642 ], [ -52.68417161972441, -0.314313678233574 ], [ -52.697348178775385, -0.392935448512105 ], [ -52.679151797417518, -0.423674802150344 ], [ -52.702682215212022, -0.459232234080304 ], [ -52.695436329822726, -0.496401734952059 ], [ -52.640009010407447, -0.584906083249095 ], [ -52.612990017175527, -0.594893405306379 ], [ -52.535179813097812, -0.574087620347399 ], [ -52.513183742135922, -0.619645876755776 ], [ -52.510387659962483, -0.679183999941593 ], [ -52.497407591087452, -0.711283058366376 ], [ -52.518237746774538, -0.775519230927685 ], [ -52.516969934714659, -0.80904643344612 ], [ -52.541846236514573, -0.836544871448588 ], [ -52.511074623295187, -0.856659085848079 ], [ -52.444322131461114, -0.834168955233089 ], [ -52.401206350992283, -0.881911645106328 ], [ -52.404715835667247, -0.912737661913482 ], [ -52.438679065486433, -0.943611565821051 ], [ -52.41873858751574, -0.97218320259266 ], [ -52.416791243221297, -1.025611804840878 ], [ -52.358155553735784, -1.062584450412047 ], [ -52.332987922854308, -1.115891486802617 ], [ -52.214732667578481, -1.134957847126863 ], [ -52.178931948350666, -1.129595107028564 ], [ -52.12026226449187, -1.146197958069223 ], [ -52.110987366473729, -1.214999244019879 ], [ -52.070459020967014, -1.235984112776514 ], [ -52.047563214270852, -1.21428416158475 ], [ -52.055064267901614, -1.176949977759229 ], [ -51.987039104071386, -1.16451928763496 ], [ -51.949425600710903, -1.168766937644023 ], [ -51.922900707601485, -1.132963426021263 ], [ -51.882012645866851, -1.166347014003435 ], [ -51.809096334727954, -1.15710113351048 ], [ -51.778399377828983, -1.140412274906524 ], [ -51.700426963933161, -1.063210867787262 ], [ -51.685646870506581, -1.012862288863516 ], [ -51.695589465681316, -0.924718987790953 ], [ -51.683448597374792, -0.794029418123138 ], [ -51.59553615766746, -0.650437826344543 ], [ -51.45778850173788, -0.513234041717631 ], [ -51.423669526427524, -0.436611184658403 ], [ -51.362505289587396, -0.368107914248789 ], [ -51.347782825616868, -0.299613340283358 ], [ -51.302481611637006, -0.252642651836901 ], [ -51.216362858958696, -0.118612786051159 ], [ -51.113202715233029, -0.096607926914274 ], [ -51.06892589561361, -0.079125742159242 ], [ -50.97483257376426, 0.041793230373308 ], [ -50.921093250353195, 0.076133569308787 ], [ -50.784796943723919, 0.112112046733657 ], [ -50.743508841060091, 0.130485156564802 ], [ -50.668197496816994, 0.185034471463702 ], [ -50.596307072912992, 0.250365828520188 ], [ -50.55295259528603, 0.312495482180758 ], [ -50.503999729104201, 0.435087582226195 ], [ -50.476209179609853, 0.481499849238673 ], [ -50.467264462285073, 0.530922206494694 ], [ -50.436546896522067, 0.60010702451963 ], [ -50.358569975224142, 0.660092144936591 ], [ -50.271758924434749, 0.688231715920971 ], [ -50.15697221309712, 0.70517973845417 ], [ -50.093914341273774, 0.702092703115795 ], [ -50.092053661047615, 0.647180569327915 ], [ -50.05944877444135, 0.616417368366889 ], [ -50.040803181721422, 0.573537085268292 ], [ -50.052522196941794, 0.372263467584993 ], [ -50.061252232604431, 0.33843121143132 ], [ -49.903336143048563, 0.311005361308467 ], [ -49.837863822657297, 0.339673285793523 ], [ -49.78305820277378, 0.335597114914918 ], [ -49.682305832847831, 0.366245520114688 ], [ -49.615719981791734, 0.313053369417524 ], [ -49.601526326378782, 0.266651460796346 ], [ -49.475597424081769, 0.078972064409264 ], [ -49.393469545183365, 0.047766866447816 ], [ -49.367606771635167, -0.000345648932537 ], [ -49.008209606088414, -0.160403977561465 ], [ -49.000046366346723, -0.181924933089164 ], [ -48.913575373504628, -0.233123766148807 ], [ -48.889047985276278, -0.221467992154118 ], [ -48.787214678814308, -0.221576594284336 ], [ -48.745881664906882, -0.250686999605279 ], [ -48.688207287736091, -0.255022015153855 ], [ -48.637820236714489, -0.231951700410562 ], [ -48.508485082920167, -0.244423094749941 ], [ -48.472709744359165, -0.231831437670706 ], [ -48.405933727159685, -0.261527670365638 ], [ -48.384184984149698, -0.301355538427245 ], [ -48.390490405307879, -0.363273631972518 ], [ -48.433819113761011, -0.403340329392634 ], [ -48.472599954224492, -0.499067696916669 ], [ -48.000424936161792, -0.664288817574779 ], [ -47.9108712148346, -0.613023940102714 ], [ -47.905267586829609, -0.563107362214978 ], [ -47.868902441394503, -0.553923563721476 ], [ -47.842343285913927, -0.622560115456885 ], [ -47.863818109817863, -0.657114607253234 ], [ -47.822259170024608, -0.665058269423504 ], [ -47.825014910409742, -0.613754588903106 ], [ -47.808061673607341, -0.574415221785024 ], [ -47.703920820089714, -0.535251056091326 ], [ -47.683551700950154, -0.589159832460275 ], [ -47.648285344492997, -0.586070068578728 ], [ -47.627207550587983, -0.626177358698094 ], [ -47.639315584646475, -0.684554526370235 ], [ -47.609229512032265, -0.697368371752951 ], [ -47.581814609356712, -0.632008455825556 ], [ -47.579448922030139, -0.581353459894224 ], [ -47.518715957775221, -0.622934400701993 ], [ -47.470427574572874, -0.593879367538754 ], [ -47.416840230292337, -0.59440879033334 ], [ -47.385872376009289, -0.609280918579493 ], [ -47.321587083377132, -0.588864874614217 ], [ -47.282856530304528, -0.595642438047989 ], [ -47.274856343045741, -0.626324730601752 ], [ -47.213503385272951, -0.631727970769219 ], [ -47.16861603390285, -0.694999207647257 ], [ -47.092699698632174, -0.664835815820233 ], [ -47.040925164564683, -0.743838606366545 ], [ -46.982230532612974, -0.705335920816047 ], [ -46.953082255941254, -0.725909305669816 ], [ -46.968314773108261, -0.779340974606271 ], [ -46.946782664188575, -0.798514792223806 ], [ -46.899687150741379, -0.797681341020997 ], [ -46.895563226761475, -0.767047780031 ], [ -46.862584920957346, -0.723459131533701 ], [ -46.814630241992042, -0.747912366162709 ], [ -46.814918164441657, -0.817898718451055 ], [ -46.76533621529402, -0.846029263839426 ], [ -46.72391986660849, -0.836478690339199 ], [ -46.667365201143099, -0.806735688401297 ], [ -46.625031089812936, -0.812776162090181 ], [ -46.611470542731254, -0.834107609778329 ], [ -46.652340433664044, -0.893626527042585 ], [ -46.632367158317692, -0.920729749878063 ], [ -46.678554753998675, -0.955612195646296 ], [ -46.675338879085992, -0.976228159801664 ], [ -46.611502422798551, -0.95290301226413 ], [ -46.579976372811267, -0.973399997911564 ], [ -46.5510314076733, -0.903943572038152 ], [ -46.484584872393889, -0.873141201105504 ], [ -46.456723774682395, -0.89967009260063 ], [ -46.479054280130889, -0.960867607953681 ], [ -46.457915013966677, -1.019270190466806 ], [ -46.390416056955374, -0.992334132713992 ], [ -46.349834253947655, -0.995217508481211 ], [ -46.320616991181154, -1.022056727236134 ], [ -46.272500347013363, -0.96530020803808 ], [ -46.265078386058647, -0.917822223716627 ], [ -46.204663955377193, -0.886354780748491 ], [ -46.203808162316776, -0.968629448789962 ], [ -46.221666251995892, -0.989720633600335 ], [ -46.194048268912375, -1.066385194021485 ], [ -46.180221857952326, -1.000545413340106 ], [ -46.155672493890449, -1.003511631956172 ], [ -46.13738655174793, -1.057628452990706 ], [ -46.100721655080285, -1.070958401309099 ], [ -46.073302812474751, -1.110884678584995 ], [ -46.098169366522981, -1.196059129625077 ], [ -46.130195980959712, -1.206405842355665 ], [ -46.153933419091977, -1.269498480170696 ], [ -46.140191984172702, -1.29932764885185 ], [ -46.099199922138673, -1.323282082601942 ], [ -46.107467846563857, -1.356686569029847 ], [ -46.147185611526737, -1.415287529395961 ], [ -46.135217069512116, -1.440816431433092 ], [ -46.169538391383675, -1.470351097325242 ], [ -46.139698228490403, -1.514309163936773 ], [ -46.131285297378561, -1.578552231600163 ], [ -46.161942059078704, -1.633023300984554 ], [ -46.152060624098496, -1.673602209074637 ], [ -46.200850707594057, -1.703142663902781 ], [ -46.312240080615233, -1.734601932932861 ], [ -46.323979540123645, -1.76554425096635 ], [ -46.30700379149178, -1.804279076717954 ], [ -46.257897375063742, -1.792913588591233 ], [ -46.208621190915203, -1.830885505961305 ], [ -46.242861955115117, -1.875483312504791 ], [ -46.220451623143809, -1.914813738563076 ], [ -46.24780842871597, -1.992744924838376 ], [ -46.239771946618042, -2.018097503996543 ], [ -46.267661627482084, -2.080863785035575 ], [ -46.262967011718132, -2.121451070310648 ], [ -46.278324200101757, -2.162391940235814 ], [ -46.329804175622186, -2.198272664052183 ], [ -46.342201497301197, -2.227142105024122 ], [ -46.384775025247137, -2.254952598783383 ], [ -46.406932372530932, -2.232239666527342 ], [ -46.444196396646326, -2.379991631808345 ], [ -46.439920370328764, -2.474593122774351 ], [ -46.418244412149903, -2.524568013602874 ], [ -46.473075678000093, -2.544879578829423 ], [ -46.494327787497383, -2.536505546094005 ], [ -46.505005407573414, -2.614915713089644 ], [ -46.621921068702328, -2.644523014525503 ], [ -46.635998114421383, -2.686422859427346 ], [ -46.663948027379504, -2.694197762916367 ], [ -46.668084662377247, -2.734023878199338 ], [ -46.631943248482102, -2.767117631773303 ], [ -46.636642417513514, -2.793679668681683 ], [ -46.582977997736322, -2.827548986796238 ], [ -46.645804256361274, -2.883868466956088 ], [ -46.652085429099294, -2.996517030236703 ], [ -46.67688626698763, -3.033056350070445 ], [ -46.675668982437585, -3.092474137671303 ], [ -46.724422093005138, -3.11097107965152 ], [ -46.726993757455865, -3.161555367286297 ], [ -46.770281360596329, -3.199422311290547 ], [ -46.778868004754621, -3.241035285949628 ], [ -46.802228609862453, -3.266418511305197 ], [ -46.813375428733053, -3.309541573584646 ], [ -46.885471300959765, -3.335619978479215 ], [ -46.928975860147773, -3.37683009643181 ], [ -46.956452539053409, -3.425907350543724 ], [ -46.942019625305448, -3.44694648798999 ], [ -46.977302997835075, -3.530384430896696 ], [ -47.035612730742947, -3.57309209452449 ], [ -47.030793941087474, -3.594719949765803 ], [ -47.050876451686847, -3.653380080126603 ], [ -47.039206217492897, -3.672811880863541 ], [ -47.053371705239961, -3.746556706826567 ], [ -47.08520511652285, -3.856640016023811 ], [ -47.127506651710533, -3.876645999713041 ], [ -47.135191658967848, -3.901992124436973 ], [ -47.195186926435476, -3.985612286178011 ], [ -47.240540670715376, -4.000363836022153 ], [ -47.293110910540051, -4.052270919367409 ], [ -47.318678070636395, -4.047626457894665 ], [ -47.350203590023582, -4.117820665990862 ], [ -47.372512774344983, -4.244984032587013 ], [ -47.442049296537746, -4.287425093093539 ], [ -47.479541165692154, -4.32849962655645 ], [ -47.476314589746522, -4.356439428436815 ], [ -47.537600090271887, -4.452595304929332 ], [ -47.561867846923562, -4.472411414755001 ], [ -47.58356680976042, -4.522960067652932 ], [ -47.615166477351003, -4.559983800112235 ], [ -47.682120281525748, -4.606381182445531 ], [ -47.72481283564381, -4.606418088823751 ], [ -47.792569130960622, -4.586410790325637 ], [ -47.816153022443977, -4.614728476537913 ], [ -48.001433336978863, -4.758860014977664 ], [ -48.373738686790915, -5.052351044265215 ], [ -48.755150736217452, -5.349165408456748 ], [ -48.736880083449059, -5.373962430521701 ], [ -48.650488065471748, -5.384918221698548 ], [ -48.5967333996267, -5.422544372224927 ], [ -48.557536486019998, -5.416711042980217 ], [ -48.513902482013926, -5.429819624975657 ], [ -48.393510383597274, -5.394212593636233 ], [ -48.34724098918025, -5.435355507950263 ], [ -48.328786998820867, -5.491043815119973 ], [ -48.278689116709323, -5.540423277412323 ], [ -48.194735315482376, -5.563093343483011 ], [ -48.138151994019239, -5.602690143335423 ], [ -48.141227383137178, -5.654353821571546 ], [ -48.175983123422427, -5.712295749749025 ], [ -48.230648767426693, -5.729260854005105 ], [ -48.275710027895464, -5.726513365799093 ], [ -48.299794554874815, -5.795970591169777 ], [ -48.291969841534879, -5.836837416313614 ], [ -48.230125335915488, -5.922518408697591 ], [ -48.231629287461637, -5.946138860320133 ], [ -48.296828211252873, -5.969860304009828 ], [ -48.334716312707585, -6.004274754276422 ], [ -48.329740596751087, -6.039823005027628 ], [ -48.298484891064874, -6.050130944387568 ], [ -48.288047319827882, -6.097563684716206 ], [ -48.324516217349547, -6.132719323837712 ], [ -48.408270492289361, -6.153402246116748 ], [ -48.436131988400561, -6.201371599319785 ], [ -48.412710767188145, -6.281329634455041 ], [ -48.417122595631248, -6.298586626271735 ], [ -48.375297390861888, -6.346748812107918 ], [ -48.382679265435719, -6.379607884895883 ], [ -48.447706991584411, -6.351178933660812 ], [ -48.500215150308911, -6.350927585739399 ], [ -48.54057622461297, -6.400842122166174 ], [ -48.607185011079345, -6.448011072452998 ], [ -48.646268144259366, -6.508889158507841 ], [ -48.664549081674771, -6.567674152540043 ], [ -48.651960441820947, -6.639951240857073 ], [ -48.670912733935474, -6.6690044403026 ], [ -48.729128188215249, -6.689261954475561 ], [ -48.769098158153419, -6.730701561427871 ], [ -48.82585525651487, -6.754654141675282 ], [ -48.913853042783671, -6.75736945933302 ], [ -48.963712637827982, -6.779459727984032 ], [ -49.018883519159068, -6.784210543281901 ], [ -49.043771241449569, -6.815771422213359 ], [ -49.209528112532318, -6.925420568404434 ], [ -49.217445112501885, -6.961469314357277 ], [ -49.195278852936696, -7.026264682668909 ], [ -49.193795958116951, -7.129814726568323 ], [ -49.185284175324398, -7.235171786348843 ], [ -49.233937006987219, -7.328908592657375 ], [ -49.377997409952485, -7.496445758065245 ], [ -49.381577384388763, -7.569102907073461 ], [ -49.335147341376683, -7.668678114803156 ], [ -49.22116322550248, -7.761599218928822 ], [ -49.160740073195733, -7.791368961308492 ], [ -49.162776918020271, -7.900531241523495 ], [ -49.18202836241899, -7.976963531341802 ], [ -49.176718567208091, -8.061511250243964 ], [ -49.193162967596862, -8.076465077401313 ], [ -49.215853994166487, -8.194211698610982 ], [ -49.248660263260497, -8.255376362628958 ], [ -49.283323526259636, -8.379556779621606 ], [ -49.349409419009433, -8.418376485186613 ], [ -49.391497398486123, -8.489778481891403 ], [ -49.409888159311009, -8.580001948131372 ], [ -49.451471817870043, -8.612496576955436 ], [ -49.489800435141916, -8.692037353640941 ], [ -49.543445711050737, -8.761394952115293 ], [ -49.592411327820443, -8.839491235032465 ], [ -49.684358284507219, -8.856474923778674 ], [ -49.767684100840569, -8.933688129103817 ], [ -49.793663572215969, -8.979433763757111 ], [ -49.842589652090759, -9.027325947934134 ], [ -49.851613816424432, -9.065434938171752 ], [ -49.905419886618432, -9.169744794086871 ], [ -50.002724723467146, -9.265307441784948 ], [ -50.037787027349381, -9.28940751354585 ], [ -50.055468041416901, -9.334698915022825 ], [ -50.052833517053081, -9.372673013248928 ], [ -50.090116763277891, -9.43159569258713 ], [ -50.105337636023009, -9.475410491800712 ], [ -50.089562276377933, -9.545692939577449 ], [ -50.107369673971235, -9.594280186381482 ], [ -50.137752939246681, -9.624824196479448 ], [ -50.150036088394707, -9.692778884937551 ], [ -50.199066533693532, -9.761743182002151 ], [ -50.224806381609206, -9.841153476951398 ], [ -50.842893795412294, -9.80082313068284 ], [ -51.304287267743149, -9.772859970711016 ], [ -52.000320903586797, -9.72583548122245 ], [ -52.602166735706241, -9.683446635353871 ], [ -53.000471745774405, -9.65526893581265 ], [ -53.58844280319277, -9.611050305027508 ], [ -54.106615492710773, -9.571920721863719 ], [ -54.613454076844135, -9.53582622649915 ], [ -55.152173596034558, -9.492726209347017 ], [ -55.487364173218026, -9.465351285133611 ], [ -55.86537331662521, -9.434430145234924 ], [ -56.275500293603585, -9.400579729970499 ], [ -56.671882682639676, -9.367396944413414 ], [ -56.708385758895581, -9.373206661058514 ], [ -56.754270746197946, -9.406364099223767 ], [ -56.772323618240364, -9.390959300731122 ], [ -56.775521447356894, -9.329527449032543 ], [ -56.820108800180989, -9.246340381003687 ], [ -56.941743831812303, -9.229254904290357 ], [ -56.995549345326012, -9.233842562783982 ], [ -57.060132310857384, -9.181967294754795 ], [ -57.060442531997268, -9.137130425029078 ], [ -57.039241594823707, -9.098290014372562 ], [ -57.094605186480095, -9.017111415759199 ], [ -57.138274166919288, -8.994612067992453 ], [ -57.203774175637648, -8.920819818979401 ], [ -57.235498283319089, -8.907437086752118 ], [ -57.289478917318107, -8.915827555497241 ], [ -57.317888291211567, -8.885712287292195 ], [ -57.384382917737426, -8.879557400053923 ], [ -57.416215742662338, -8.858995121827412 ], [ -57.417504258914342, -8.792608507476578 ], [ -57.463531179020706, -8.78474184795785 ], [ -57.52300248257847, -8.74973369765199 ], [ -57.592938921593927, -8.756476971734754 ], [ -57.593614892513251, -8.707419292266522 ], [ -57.622586098969215, -8.645009004262098 ], [ -57.622245724460548, -8.591188375842801 ], [ -57.65050255355002, -8.553371283957517 ], [ -57.633422041094235, -8.526810894607046 ], [ -57.686557690085337, -8.407007847634013 ], [ -57.667800785577782, -8.363938124145104 ], [ -57.680222471689667, -8.326940690560342 ], [ -57.64166889620256, -8.219881532506651 ], [ -57.672883567622549, -8.172640317196882 ], [ -57.718749562142541, -8.151225306302784 ], [ -57.732528984425038, -8.089163295149898 ], [ -57.776528648278379, -8.052175299950054 ], [ -57.831864599271761, -7.961515910730682 ], [ -57.835023457166763, -7.881408337224943 ], [ -57.879642290759065, -7.781907447670506 ], [ -57.896749021150328, -7.677884550131824 ], [ -57.934387276551583, -7.65677244709066 ], [ -57.95205617585178, -7.580144168018903 ], [ -58.002168010045565, -7.488130308067248 ], [ -58.039835199334917, -7.446345043089181 ], [ -58.061361566982697, -7.395191152749486 ], [ -58.17000991522535, -7.313223229968052 ], [ -58.167804610294503, -7.23924802377724 ], [ -58.180995823798149, -7.181736709881153 ], [ -58.239920472651661, -7.095510880322781 ], [ -58.288255167342065, -7.061673978271394 ], [ -58.335422117536616, -6.986372608409081 ], [ -58.380249811479629, -6.970504040329168 ], [ -58.434555932610209, -6.908806513609672 ], [ -58.481755610033332, -6.781421651188197 ], [ -58.478471186995606, -6.6996136413564 ], [ -58.427305754756738, -6.616167481344121 ], [ -58.349886621770096, -6.562401063158546 ], [ -58.327056183196234, -6.500374038331138 ], [ -58.293109080019995, -6.493881952989646 ], [ -58.255255854274182, -6.454117477239713 ], [ -58.034068138433824, -5.978444212430425 ], [ -57.873961340843152, -5.629834892366276 ], [ -57.704001494473296, -5.259260344489242 ], [ -57.58557325819924, -5.000743090720974 ], [ -57.350200814515901, -4.501781466941104 ], [ -57.213551785686285, -4.211623654308156 ], [ -57.000489119876924, -3.759129586061455 ], [ -56.887239012670264, -3.499046654879159 ], [ -56.809685788967926, -3.333470633862618 ], [ -56.609764420691391, -2.896340702161595 ], [ -56.426300626072944, -2.50158312636021 ], [ -56.402107186697251, -2.456516763138019 ], [ -56.464486289810381, -2.431594809952422 ], [ -56.425650033122508, -2.369153780422586 ], [ -56.412757699408218, -2.321715461599219 ], [ -56.384315739479732, -2.270475355053527 ], [ -56.307236350577064, -2.242454052112777 ], [ -56.20376967742866, -2.183080194595313 ], [ -56.169426073054773, -2.145508074438091 ], [ -56.097558037773197, -2.037133245103142 ], [ -56.186703421925387, -2.04282133024018 ], [ -56.228377222230925, -2.056220412142231 ], [ -56.256152624444084, -2.088316148471442 ], [ -56.297456935589125, -2.100807462794165 ], [ -56.316761278110434, -2.140125967439438 ], [ -56.367785012268463, -2.137076697331643 ], [ -56.413882794455304, -2.175949604090945 ], [ -56.444180294984598, -2.153925749473764 ], [ -56.477893326215984, -2.170376395654067 ], [ -56.52706531761028, -2.139195179014258 ], [ -56.612913188193055, -2.210171270287859 ], [ -56.679072758800707, -2.212564246642614 ], [ -56.707767914757426, -2.183902049040256 ], [ -56.760958967382386, -2.174058191332357 ], [ -56.76942969252628, -2.140672904530874 ], [ -56.721382198129902, -2.059174441347395 ], [ -56.747883574867004, -2.011502269114409 ], [ -56.793208157730234, -2.020995259923225 ], [ -56.859044531779659, -2.015925978501038 ], [ -56.876298548639099, -1.992348564834359 ], [ -56.961125174287318, -1.952972035930628 ], [ -56.988350918959739, -1.907160343375075 ], [ -57.037209145885399, -1.911553766293252 ], [ -57.073569948494303, -1.831670285854997 ], [ -57.060484765059833, -1.81577077570067 ], [ -57.097856189811253, -1.775105401393112 ], [ -57.274400058316061, -1.709736465265657 ], [ -57.327963406885672, -1.715901522936875 ], [ -57.352069433057842, -1.733167959433714 ], [ -57.411935169372562, -1.673282863413341 ], [ -57.47520474520276, -1.677999875893512 ], [ -57.54568844056903, -1.610515219002053 ], [ -57.590127986217553, -1.580101270657011 ], [ -57.678677302415544, -1.594338757227867 ], [ -57.712439222591996, -1.535633300136609 ], [ -57.713164498842524, -1.504146992089908 ], [ -57.773325662449373, -1.508800856874032 ], [ -57.824038616988567, -1.439757442851643 ], [ -57.918524937176073, -1.419807488724558 ], [ -57.97087610035166, -1.359107947773488 ], [ -57.996386549199848, -1.344320814453987 ], [ -57.965488744909635, -1.206084807767595 ], [ -57.979181359232285, -1.154402326506116 ], [ -58.007155704971701, -1.145726626982174 ], [ -58.017542886295125, -1.106149681462604 ], [ -58.081858429422901, -1.126480766474138 ], [ -58.094295097340819, -1.16050759454977 ], [ -58.162644128623619, -1.229656535021064 ], [ -58.215277016121398, -1.165679440953355 ], [ -58.254769307557488, -1.132590773045678 ], [ -58.323287252204835, -1.143294252227939 ], [ -58.36132672125116, -1.105098318232791 ], [ -58.368493469897615, -1.066023814047718 ], [ -58.430082108502496, -1.027116486636487 ], [ -58.4147622617689, -0.967052740291713 ], [ -58.450831035623743, -0.926082198134942 ], [ -58.459043988089512, -0.863993332326402 ], [ -58.56064514265919, -0.804614317196908 ], [ -58.634893811999795, -0.71890618417298 ], [ -58.664037933803598, -0.713101379624916 ], [ -58.703940840397394, -0.671387524414641 ], [ -58.727186550818573, -0.607838968093816 ], [ -58.729184818324612, -0.562124235944722 ], [ -58.71074865522624, -0.521467781113166 ], [ -58.735380980847502, -0.471516017250323 ], [ -58.725220367525871, -0.442221215836405 ], [ -58.790839912332011, -0.385391712157762 ], [ -58.846585837266588, -0.365064934898776 ], [ -58.874587077231787, -0.335788702686415 ], [ -58.865394748668663, -0.265548830613973 ], [ -58.881038014093022, -0.196579359749585 ], [ -58.865255128921078, -0.168937271238029 ], [ -58.863883946087221, -0.078029785146455 ], [ -58.886581642928462, -0.059183918802788 ], [ -58.895500268222747, 0.000920342000263 ], [ -58.895563514844284, 0.591761311435462 ], [ -58.895498081970857, 1.228781423823704 ], [ -58.854392823170201, 1.183507135545945 ], [ -58.821332281559457, 1.17104877867829 ], [ -58.751330233403493, 1.20853187314745 ], [ -58.716329716543157, 1.241020834444001 ], [ -58.710496902609883, 1.289948660802104 ], [ -58.661328377202814, 1.280484995985858 ], [ -58.628834585647589, 1.288554893293764 ], [ -58.588555635634009, 1.26994974578421 ], [ -58.559667593984194, 1.290227024357776 ], [ -58.538270439129398, 1.267718306554641 ], [ -58.496327226220515, 1.268015325646807 ], [ -58.471051669498955, 1.319401268054193 ], [ -58.471636112816341, 1.374209752278297 ], [ -58.505217033639163, 1.403219188914449 ], [ -58.505222000594813, 1.464901509896826 ], [ -58.448547175811449, 1.45607542394167 ], [ -58.385689804241046, 1.4700438783224 ], [ -58.3896397408813, 1.535434098704741 ], [ -58.33247670383674, 1.59073337894236 ], [ -58.317240594777537, 1.568494762623246 ], [ -58.262356365154076, 1.57079015983804 ], [ -58.233273247062669, 1.547470669036208 ], [ -58.189549051847266, 1.571645958294404 ], [ -58.160743355721266, 1.560173808774366 ], [ -58.149656069272133, 1.5100687185965 ], [ -58.129524703901964, 1.498953837349731 ], [ -58.061025963377439, 1.525401755686545 ], [ -58.00560026813779, 1.51683548746778 ], [ -57.978656716334356, 1.572841249923812 ], [ -57.981127953492198, 1.65941024908372 ], [ -57.926854195364832, 1.644872273836434 ], [ -57.895080521548813, 1.674377645212175 ], [ -57.819598319606705, 1.683909391405308 ], [ -57.792353518300146, 1.726710250877389 ], [ -57.719739100578977, 1.722938567061277 ], [ -57.650515036139922, 1.682436002419649 ], [ -57.629435339269392, 1.698547110460829 ], [ -57.534270516571006, 1.708255218203774 ], [ -57.497040261099151, 1.773493122209899 ], [ -57.450988129398638, 1.806435274368439 ], [ -57.432015720349156, 1.858550209024976 ], [ -57.433520763672277, 1.906048250026743 ], [ -57.364988660997909, 1.926147687665711 ], [ -57.345709273763951, 1.980344837044661 ], [ -57.277320028396545, 1.983071517636468 ], [ -57.252957923869047, 1.94851613281331 ], [ -57.179180644970742, 1.99023105282091 ], [ -57.08676531506714, 2.026519273845437 ], [ -57.064019234699821, 1.956042335985017 ], [ -57.034715431971549, 1.948624570367627 ], [ -57.000791158984775, 1.907369782189733 ], [ -56.919795063391405, 1.930438006908602 ], [ -56.893568251473631, 1.899404659497477 ], [ -56.801517570579414, 1.874155089585777 ], [ -56.764986933700023, 1.888445013826399 ], [ -56.716428794353334, 1.92607210144638 ], [ -56.673543217845193, 1.91276579630447 ], [ -56.621536429362635, 1.94595830083491 ], [ -56.579843135352391, 1.905960658757486 ], [ -56.495652135237798, 1.938054842856793 ], [ -56.437096926082233, 1.951786727875202 ], [ -56.411897167820001, 1.928347000413808 ], [ -56.335013921055605, 1.937183616530689 ], [ -56.241507057904379, 1.879699929807948 ], [ -56.234538688909304, 1.898694157309549 ], [ -56.152701361178828, 1.890786156855704 ], [ -56.09873139044128, 1.846612046109058 ], [ -56.03672770032307, 1.850289781348344 ], [ -55.999038568475108, 1.83136371346469 ], [ -55.954308269311099, 1.848614198686391 ], [ -55.903929985780138, 1.888112846530682 ], [ -55.920600201438148, 1.919060391423919 ], [ -55.935205995460294, 1.996590043895502 ], [ -55.902121932081471, 2.029403770167946 ], [ -55.92676019862418, 2.07518958473166 ], [ -55.969812069671249, 2.113121288916417 ], [ -56.003149487358897, 2.167689963521063 ], [ -56.056343357559896, 2.189434520186992 ], [ -56.042958077553202, 2.227871797145795 ], [ -56.132539130176646, 2.263749737560389 ], [ -56.093840105536358, 2.321258863405845 ], [ -56.090201167050175, 2.372367037608711 ], [ -56.050679523541127, 2.335070681067158 ], [ -56.036673437029478, 2.374319902841343 ], [ -55.989921979915394, 2.417345502892729 ], [ -55.991198284273331, 2.467097378940913 ], [ -55.978313874485622, 2.527421939470962 ], [ -55.934678165364929, 2.533540094799633 ], [ -55.83889506685378, 2.462268568139919 ], [ -55.76670449601562, 2.455329631257505 ], [ -55.747036610651023, 2.410537626010672 ], [ -55.698418494617762, 2.421635871598276 ], [ -55.642261970713342, 2.416060953550186 ], [ -55.570675221784015, 2.423609593008322 ], [ -55.499784518440727, 2.443330756908906 ], [ -55.429449911783941, 2.438966121289496 ], [ -55.385398727569182, 2.418454303123646 ], [ -55.345643209966092, 2.448082286268566 ], [ -55.356226019914814, 2.47565299828723 ], [ -55.320255600415564, 2.51546330258941 ], [ -55.234806140291084, 2.503475257876936 ], [ -55.172865817303617, 2.559438747700113 ], [ -55.123473166453458, 2.567720277968505 ], [ -55.103086404414043, 2.525735946257029 ], [ -55.003805889230357, 2.591027046061321 ], [ -54.954306696596717, 2.583692423666456 ] ] } }
]
}
