{
"type": "FeatureCollection",
"features": [
{ "type": "Feature", "properties": { "Name": "PI", "Description": "PIAUÃ \/ NORDESTE" }, "geometry": { "type": "LineString", "coordinates": [ [ -41.746046453580938, -2.803497202333944 ], [ -41.730157736190527, -2.803086220252773 ], [ -41.633179301983176, -2.886404544334233 ], [ -41.581154003654341, -2.90734768994389 ], [ -41.481286322905426, -2.896708819856059 ], [ -41.399766671694522, -2.903997838529406 ], [ -41.271263317947707, -2.971612122801162 ], [ -41.248957880201971, -3.030441152137392 ], [ -41.256651460696347, -3.088014931144158 ], [ -41.311348982069809, -3.136376999398962 ], [ -41.322485129584969, -3.179792786507853 ], [ -41.412317736973954, -3.340697302538445 ], [ -41.375424569887926, -3.399070435851876 ], [ -41.324049276352987, -3.385924076934579 ], [ -41.32557568666855, -3.5343563415719 ], [ -41.36466144496967, -3.55799858106959 ], [ -41.331315461239477, -3.624684324322075 ], [ -41.341747756153985, -3.680772602273791 ], [ -41.255432221020193, -3.703260160827732 ], [ -41.25412285218782, -3.775041418726439 ], [ -41.287935920406341, -3.822487020259792 ], [ -41.220239523535113, -3.941505520263483 ], [ -41.249239967850244, -3.989869696529205 ], [ -41.113166893637157, -4.049789876001903 ], [ -41.142113160993546, -4.125648526058562 ], [ -41.118329489614183, -4.165224053347352 ], [ -41.135904848629792, -4.233511296708897 ], [ -41.119124021756122, -4.306525934324362 ], [ -41.158020247936051, -4.378679438705063 ], [ -41.19077601470125, -4.515528989371326 ], [ -41.221530342950913, -4.567491271305038 ], [ -41.229330701750413, -4.620094988392992 ], [ -41.181134412722933, -4.673192854166821 ], [ -41.250338111114921, -4.756627443501621 ], [ -41.212765055662743, -4.77202564007117 ], [ -41.249573826770664, -4.869690196745097 ], [ -41.220442377313766, -4.938966132281081 ], [ -41.189009311830233, -4.940619257972351 ], [ -41.124332627948348, -5.006084186835693 ], [ -41.081921749589007, -5.087632798914526 ], [ -41.026405172460684, -5.109696857723769 ], [ -40.928987709015566, -5.171671562692416 ], [ -40.911713068003614, -5.26665346868262 ], [ -40.918452909374217, -5.338255150854501 ], [ -40.943803418293108, -5.42358633664012 ], [ -40.93238226213159, -5.548896958627694 ], [ -40.903253961201294, -5.632552380987512 ], [ -40.93876929047034, -5.673340589196791 ], [ -40.913950062345457, -5.724966602926287 ], [ -40.905645538210969, -5.849276793888819 ], [ -40.873591272319338, -5.97305362932147 ], [ -40.90394741224322, -6.020876972194458 ], [ -40.872845823375961, -6.056627587493097 ], [ -40.84594727814433, -6.138364352133102 ], [ -40.852224158418188, -6.224220461405174 ], [ -40.786562153920187, -6.305364692426565 ], [ -40.779149085461903, -6.341346587275111 ], [ -40.80515470192794, -6.393131591249848 ], [ -40.787668380291493, -6.523780278636906 ], [ -40.722002577057232, -6.617682814710108 ], [ -40.710182760426001, -6.676129548539791 ], [ -40.651305198276269, -6.678185368160107 ], [ -40.602207070000269, -6.71601177162588 ], [ -40.476926288417417, -6.732831674941799 ], [ -40.432166581422564, -6.812977597338183 ], [ -40.427717671233523, -7.03388110762701 ], [ -40.489739310021051, -7.11869014343533 ], [ -40.513561124346367, -7.239703310059692 ], [ -40.511631434642965, -7.299428754833087 ], [ -40.541508194547433, -7.332269119923879 ], [ -40.548463713129856, -7.392691466437945 ], [ -40.701201427204055, -7.456356332978358 ], [ -40.71529397813454, -7.487954018463179 ], [ -40.68133620000556, -7.557738267007379 ], [ -40.645581502684117, -7.594769895514236 ], [ -40.621830323810329, -7.658323848666576 ], [ -40.673569475850549, -7.761671947102617 ], [ -40.645166515022552, -7.78679896280185 ], [ -40.554860071934698, -7.818430510459645 ], [ -40.538124011513894, -7.856937305012617 ], [ -40.544222057102203, -7.964597074395424 ], [ -40.598756770608382, -8.080857682835724 ], [ -40.589502701788163, -8.137804889783812 ], [ -40.632840366589591, -8.139301283427386 ], [ -40.711061097691498, -8.225061466513443 ], [ -40.781126646977157, -8.252590440096736 ], [ -40.780506558131108, -8.302837183389261 ], [ -40.817896111416403, -8.320490170085243 ], [ -40.8374014757974, -8.381126046229998 ], [ -40.872523038707271, -8.357410127075621 ], [ -40.926851149161195, -8.44634441875986 ], [ -40.978545010443874, -8.398650712260507 ], [ -41.038990572057202, -8.431829200856939 ], [ -41.057595173678266, -8.477657987725923 ], [ -41.166739381117551, -8.580682251984268 ], [ -41.19856616799418, -8.592477150200256 ], [ -41.213542855018687, -8.644155529653958 ], [ -41.287434022262318, -8.660839067868626 ], [ -41.317655766600254, -8.698145576856881 ], [ -41.38125153463055, -8.707272369124514 ], [ -41.424266706143548, -8.802555356444447 ], [ -41.48784338156679, -8.84390339982199 ], [ -41.541410138567009, -8.933556715669816 ], [ -41.605794728943501, -8.957403877386966 ], [ -41.730821757817822, -9.027957203662002 ], [ -41.73265903138914, -9.087725361736027 ], [ -41.800070338675106, -9.148026601046716 ], [ -41.83796576870516, -9.24227204411951 ], [ -41.870520574764676, -9.237431429716686 ], [ -41.921629357808527, -9.278760170045736 ], [ -41.972266227004724, -9.248638136240967 ], [ -42.072800076961883, -9.259832765769488 ], [ -42.095044574847257, -9.278561118600718 ], [ -42.316076567679438, -9.316612336390179 ], [ -42.364668499051938, -9.38208749863913 ], [ -42.418493872294349, -9.409363278892119 ], [ -42.448559023080385, -9.461211907203765 ], [ -42.493091775365095, -9.494900445399196 ], [ -42.590358744460424, -9.498351978660796 ], [ -42.619591579887512, -9.539307893344557 ], [ -42.716192476001893, -9.554370776789904 ], [ -42.769957194468972, -9.619182114363007 ], [ -42.820552802769576, -9.619230414252161 ], [ -42.828193241424934, -9.560521153928065 ], [ -42.876723492794902, -9.561623664300573 ], [ -42.943798478816689, -9.520773189730873 ], [ -42.956365382056674, -9.43863969816347 ], [ -42.987863115090647, -9.4013385131618 ], [ -43.161523995435964, -9.379250070134532 ], [ -43.285117386258349, -9.420028023374487 ], [ -43.376422207219029, -9.348904946905762 ], [ -43.438128586864735, -9.266137781333533 ], [ -43.497527093000905, -9.272525619961362 ], [ -43.579026566123098, -9.320390240816895 ], [ -43.621632602762375, -9.371537736976915 ], [ -43.689143798647329, -9.419682752057351 ], [ -43.784247717458079, -9.454772890856184 ], [ -43.852581319072598, -9.562138370589274 ], [ -43.841952223716099, -9.637427579818908 ], [ -43.794477344753638, -9.705043972101583 ], [ -43.784921815988945, -9.762385011958713 ], [ -43.664845737540709, -9.823654790536146 ], [ -43.652478158240299, -9.84357028893767 ], [ -43.709035342706876, -9.913219513269883 ], [ -43.696900838003245, -9.974092617979874 ], [ -43.665173116845793, -9.991027970864103 ], [ -43.690951305558229, -10.072771108100069 ], [ -43.759228516083077, -10.074605175588353 ], [ -43.784816229285568, -10.191678048103409 ], [ -43.837265066929227, -10.250068229864912 ], [ -43.836921624833039, -10.302204973081025 ], [ -43.895096093409983, -10.354490734859517 ], [ -43.936734821055119, -10.436130287282847 ], [ -44.027765271450043, -10.412474041743584 ], [ -44.025843686436893, -10.475470726392849 ], [ -44.076947297479776, -10.586003531138072 ], [ -44.139264023615723, -10.639884325101473 ], [ -44.218377019783553, -10.615180454814105 ], [ -44.266655442094944, -10.623153035584071 ], [ -44.314547155027142, -10.557362991009217 ], [ -44.354760986030612, -10.558007215860282 ], [ -44.392256357145172, -10.600704262991329 ], [ -44.451751725661587, -10.606637009590298 ], [ -44.500505152790495, -10.649701881236812 ], [ -44.57777943107584, -10.626768771561538 ], [ -44.626999118014893, -10.675578355956311 ], [ -44.668797400679445, -10.687087219399544 ], [ -44.662782849049194, -10.750561774106554 ], [ -44.714574257995594, -10.761725117120452 ], [ -44.788061917423533, -10.808521576309666 ], [ -44.808329150569854, -10.866149482812341 ], [ -44.93121794505204, -10.928756349126129 ], [ -45.082113257620662, -10.839502942007101 ], [ -45.157868228435952, -10.839231048174231 ], [ -45.245967409668204, -10.822483107709186 ], [ -45.268466031681982, -10.776229769788021 ], [ -45.358218967231451, -10.732207539246502 ], [ -45.385215971140113, -10.651632598865341 ], [ -45.437328173656184, -10.615566336816901 ], [ -45.447411161995468, -10.509355227761525 ], [ -45.400268857721599, -10.46307434900195 ], [ -45.428806003694106, -10.413857435572144 ], [ -45.430322518769131, -10.359463019902421 ], [ -45.514360555894868, -10.289836598779928 ], [ -45.523355872675289, -10.244140552744291 ], [ -45.567310915766086, -10.201484458041271 ], [ -45.567456406288123, -10.139522509056537 ], [ -45.603176093901638, -10.10798217603654 ], [ -45.690175947461967, -10.155400439078958 ], [ -45.726639163966205, -10.156854762437234 ], [ -45.74402515093994, -10.239955931720818 ], [ -45.793743308706631, -10.267672800659206 ], [ -45.877859458247386, -10.239336113570769 ], [ -45.945203534915116, -10.259001346834612 ], [ -45.945619010908551, -10.196442471043138 ], [ -45.878543917867475, -10.110299337744204 ], [ -45.880107114951343, -10.061006338072026 ], [ -45.842515234890094, -9.939469706661569 ], [ -45.864430463095324, -9.861467710466382 ], [ -45.821420602978364, -9.77312706576145 ], [ -45.837690399092629, -9.59166417725989 ], [ -45.831941391182184, -9.536791902324408 ], [ -45.783143773166593, -9.479776175130311 ], [ -45.797841539955037, -9.417252114793179 ], [ -45.847136775341852, -9.356376653859439 ], [ -45.887384810260762, -9.348808269785764 ], [ -45.906999975568425, -9.29376840708626 ], [ -45.898660327512026, -9.209676833319186 ], [ -45.92893565345755, -9.127093803036551 ], [ -45.943461934820398, -9.015314769061295 ], [ -45.994294837336838, -8.92686533606634 ], [ -45.947076062809991, -8.829852965941626 ], [ -45.938306317582466, -8.782814888596175 ], [ -45.839947647066232, -8.715278077321413 ], [ -45.815546663947266, -8.633226329631366 ], [ -45.766222653852331, -8.607350550087782 ], [ -45.771410608013092, -8.573928288559646 ], [ -45.739148777693941, -8.50258765619531 ], [ -45.729990204284412, -8.410414832978081 ], [ -45.687535477680115, -8.355550201380652 ], [ -45.662835804528726, -8.254949900517467 ], [ -45.607618499294247, -8.202667897905108 ], [ -45.581467799699134, -8.156043974549693 ], [ -45.576287224475756, -8.029090911716125 ], [ -45.522302950920349, -7.889430322251505 ], [ -45.540375003703403, -7.864697817550186 ], [ -45.489355109650582, -7.784770979896776 ], [ -45.46857713982304, -7.714098996171654 ], [ -45.432747260977308, -7.661501680458155 ], [ -45.339767014735905, -7.580244760787064 ], [ -45.214734480212051, -7.566567755997106 ], [ -45.156077176420538, -7.513438043430959 ], [ -45.047183780906714, -7.512581628938924 ], [ -44.98586141447263, -7.481608527111788 ], [ -44.926920808948118, -7.471620354295843 ], [ -44.816732839349022, -7.361205000110566 ], [ -44.687978013574387, -7.394532644865619 ], [ -44.663352242212213, -7.3318061453373 ], [ -44.619949918853614, -7.310073948054224 ], [ -44.563592382082746, -7.226950981002871 ], [ -44.40348930049079, -7.129472757561611 ], [ -44.276533912010436, -7.075099288900994 ], [ -44.259817986510825, -6.997420710497376 ], [ -44.207873896063383, -6.966570886836937 ], [ -44.201426275002589, -6.932515848827363 ], [ -44.140625638562298, -6.865216070964792 ], [ -44.116275572359712, -6.805785861028596 ], [ -44.059062567183659, -6.808437467115382 ], [ -44.053370720182556, -6.768308814500159 ], [ -43.956760394676422, -6.743154355089359 ], [ -43.927761584429547, -6.770447042596878 ], [ -43.820126175882223, -6.727277177799479 ], [ -43.790856117515744, -6.70233204189023 ], [ -43.637511232457378, -6.719562510901106 ], [ -43.455476858070455, -6.846672853469421 ], [ -43.390970797164499, -6.834492715366508 ], [ -43.348984575078056, -6.798077215091375 ], [ -43.278725315420914, -6.796616209770207 ], [ -43.210529720170427, -6.763128476697794 ], [ -43.152669147363227, -6.782775758594312 ], [ -43.082112350604469, -6.74808103281336 ], [ -43.002392349827041, -6.755588109203842 ], [ -42.919775112931035, -6.670309361987349 ], [ -42.883916130225181, -6.568880948297057 ], [ -42.867608611148469, -6.485960645267531 ], [ -42.877753651809527, -6.417867613199704 ], [ -42.84928293515933, -6.354889234250685 ], [ -42.847002471187096, -6.282493587409057 ], [ -42.877193622387757, -6.22579325425518 ], [ -42.968585995047562, -6.178251737327706 ], [ -42.994805347089063, -6.11589313875735 ], [ -43.049978634106651, -6.099747643339043 ], [ -43.072692114949113, -6.059086883452864 ], [ -43.051253843090393, -5.989564431153518 ], [ -43.099421738722235, -5.906580826643761 ], [ -43.076946742797901, -5.864720368450222 ], [ -43.097276190144058, -5.828778443070654 ], [ -43.101278954759906, -5.756108181947042 ], [ -43.076779118161674, -5.735106383452794 ], [ -43.099144630620174, -5.630281876107673 ], [ -43.031785105398185, -5.588861693612251 ], [ -42.970194897476539, -5.455514516681554 ], [ -42.912333186127526, -5.396078419783152 ], [ -42.824623083088767, -5.345643723578902 ], [ -42.812636504271161, -5.279323426135143 ], [ -42.828667376598098, -5.23993007181533 ], [ -42.800118346084766, -5.199481613085894 ], [ -42.802971524416236, -5.150252050691542 ], [ -42.862032010468837, -4.97006952069178 ], [ -42.854111938415173, -4.937496395442182 ], [ -42.896281688748878, -4.887905159895162 ], [ -42.899558146491245, -4.839800158350585 ], [ -42.948743329141273, -4.796386158194593 ], [ -42.923043586492263, -4.721672694039597 ], [ -42.95458895391706, -4.689462409262681 ], [ -42.91300426923155, -4.647433516143757 ], [ -42.8690783542826, -4.572276796836618 ], [ -42.850735110936562, -4.479003799685572 ], [ -42.880077029631217, -4.417091995998796 ], [ -42.956725503878907, -4.384645118477373 ], [ -42.989193441723849, -4.234052023082349 ], [ -42.900390546386575, -4.120590720884948 ], [ -42.856374040029912, -4.080141459061032 ], [ -42.826384177787553, -3.996591296051427 ], [ -42.726202497846913, -3.910005785338683 ], [ -42.685751477848413, -3.807246072847938 ], [ -42.66886421800919, -3.729346888048418 ], [ -42.677913939276849, -3.677442576413754 ], [ -42.573722405364684, -3.571194463853402 ], [ -42.529551011469941, -3.492495873485737 ], [ -42.436321163790609, -3.45699482814878 ], [ -42.399583149542615, -3.473795587596257 ], [ -42.330805808041589, -3.433860971806396 ], [ -42.292516684497301, -3.453257854566288 ], [ -42.211870286684338, -3.43645117578108 ], [ -42.188328686719537, -3.392982320577559 ], [ -42.15219244482536, -3.387474469471158 ], [ -42.118654400080423, -3.317077343744351 ], [ -42.115825064574992, -3.262326387352878 ], [ -42.000221164475107, -3.241086529319794 ], [ -41.96858430002542, -3.18339677194345 ], [ -41.939047858871554, -3.187361929609303 ], [ -41.918435453333494, -3.102518757334707 ], [ -41.833360512277757, -3.03348705608272 ], [ -41.795884381259121, -2.965570460208546 ], [ -41.864963141335856, -2.87800570829674 ], [ -41.84904563394884, -2.7735159178253 ], [ -41.814107634359779, -2.739308919570895 ], [ -41.746046453580938, -2.803497202333944 ] ] } }
]
}
