{
"type": "FeatureCollection",
"features": [
{ "type": "Feature", "properties": { "Name": "ALTAMIRA DO MARANHÃO", "Description": "ALTAMIRA DO MARANHÃO \/ MA" }, "geometry": { "type": "LineString", "coordinates": [ [ -45.42234735694489, -4.067389424981911 ], [ -45.402468837766605, -4.114931268363307 ], [ -45.356097676066838, -4.131461355257272 ], [ -45.402821014977803, -4.187328263288691 ], [ -45.42602153986212, -4.265344126130458 ], [ -45.542535938782514, -4.302233440520808 ], [ -45.626065992951169, -4.262407873824259 ], [ -45.592346064818962, -4.205495500317055 ], [ -45.580987768570594, -4.109776821143328 ], [ -45.558379619923471, -4.060199201332011 ], [ -45.561361036182859, -3.987207947888464 ], [ -45.522397809611164, -3.937115329508799 ], [ -45.495277424113787, -3.935778543944593 ], [ -45.421440582217031, -3.872164720225613 ], [ -45.42234735694489, -4.067389424981911 ] ] } }
]
}
