{
"type": "FeatureCollection",
"features": [
{ "type": "Feature", "properties": { "Name": "ALTO PARNAÃBA", "Description": "ALTO PARNAÃBA \/ MA" }, "geometry": { "type": "LineString", "coordinates": [ [ -45.938399679801364, -8.784939332783949 ], [ -45.947076062810019, -8.829852965941598 ], [ -45.994294837336838, -8.926865336066385 ], [ -45.943461934820391, -9.01531476906132 ], [ -45.928935653457586, -9.12709380303653 ], [ -45.898660327512061, -9.209676833319179 ], [ -45.906999975568397, -9.293768407086247 ], [ -45.887384810260755, -9.348808269785764 ], [ -45.84713677534188, -9.356376653859455 ], [ -45.797841539955073, -9.4172521147932 ], [ -45.783143773166557, -9.479776175130326 ], [ -45.831941391182227, -9.536791902324408 ], [ -45.837690399092594, -9.591664177259929 ], [ -45.821420602978378, -9.773127065761457 ], [ -45.864430463095339, -9.8614677104664 ], [ -45.842515234890129, -9.939469706661612 ], [ -45.880107114951329, -10.061006338071991 ], [ -45.878543917867489, -10.110299337744209 ], [ -45.945619010908558, -10.196442471043156 ], [ -45.946265265529519, -10.258549927636977 ], [ -46.017724108380833, -10.240391920350817 ], [ -46.028278166104428, -10.176869648515435 ], [ -46.092834647500922, -10.209900868630143 ], [ -46.163303441100879, -10.213632627044035 ], [ -46.202009810504308, -10.174009092145866 ], [ -46.324778823383951, -10.18318858648405 ], [ -46.367889530777177, -10.168814145756187 ], [ -46.383969118479968, -10.120142425632366 ], [ -46.445200391684693, -10.077387271505302 ], [ -46.477310072901503, -9.989846685276234 ], [ -46.472899250799735, -9.877440286939645 ], [ -46.51286719906193, -9.797503439831814 ], [ -46.562478104580805, -9.810689469643251 ], [ -46.569341609927335, -9.769724147151635 ], [ -46.644393612175406, -9.740333254975667 ], [ -46.653337441869382, -9.69344210706754 ], [ -46.613057522386718, -9.665808212279101 ], [ -46.583145447004703, -9.585560323849847 ], [ -46.53916622564077, -9.560144603290778 ], [ -46.574528242084675, -9.520683465269656 ], [ -46.573255582678932, -9.477761658673558 ], [ -46.648085474864722, -9.446984894137529 ], [ -46.632783378949739, -9.411588341928393 ], [ -46.617001475837412, -9.357077682588908 ], [ -46.651556212249375, -9.339407823712065 ], [ -46.66709156622278, -9.276823318141567 ], [ -46.644194015741164, -9.207153644125354 ], [ -46.606830871947125, -9.150276761463317 ], [ -46.61419987902115, -9.087469449755247 ], [ -46.540561091221321, -9.057550437902364 ], [ -46.523536011177953, -8.955088303882064 ], [ -46.50376727224176, -8.930302473880033 ], [ -46.418600235212637, -8.910187525633773 ], [ -46.338318064626947, -8.828005353764011 ], [ -46.286829496084351, -8.758030438154151 ], [ -46.26119413590061, -8.801307976981491 ], [ -46.200493590406836, -8.806076276898636 ], [ -46.133560064145627, -8.836773389380369 ], [ -46.070110312740724, -8.810029172308418 ], [ -45.938399679801364, -8.784939332783949 ] ] } }
]
}
