{
"type": "FeatureCollection",
"features": [
{ "type": "Feature", "properties": { "Name": "AMARANTE DO MARANHÃO", "Description": "AMARANTE DO MARANHÃO \/ MA" }, "geometry": { "type": "LineString", "coordinates": [ [ -46.089393482523178, -4.854617266073944 ], [ -46.017372375434711, -4.853705841851081 ], [ -46.026008815054752, -4.933700709619983 ], [ -46.113996909329842, -5.046071690855797 ], [ -46.190777672051865, -5.071767460300009 ], [ -46.220085022605637, -5.135286604293299 ], [ -46.313219797555575, -5.220976878580018 ], [ -46.34797744890011, -5.296293042290017 ], [ -46.329968713785092, -5.334049467708724 ], [ -46.32997325716002, -5.655327995090829 ], [ -46.410446677572054, -5.724306932219122 ], [ -46.46955247956322, -5.751101732558879 ], [ -46.549850164353586, -5.734644537515351 ], [ -46.679762527318758, -5.764624358827064 ], [ -46.730524336628775, -5.747507435519708 ], [ -46.794712936852534, -5.871775037288102 ], [ -46.782447163505765, -5.898788958343687 ], [ -46.893421029956528, -5.889803022391504 ], [ -46.878270017447278, -5.833109951263168 ], [ -46.903481445312423, -5.787862115644089 ], [ -46.914390793700136, -5.709283111726165 ], [ -46.946430894370224, -5.625174202627306 ], [ -46.956173956063189, -5.584237189894338 ], [ -46.932016821419154, -5.46128882881635 ], [ -46.902146742578054, -5.413603449139828 ], [ -46.905889468224359, -5.35500595566026 ], [ -46.912260897822136, -5.283654355164288 ], [ -46.887323201104778, -5.20542678561759 ], [ -46.870288632314498, -5.095959954488251 ], [ -46.906790131159596, -4.997211629313199 ], [ -46.928037668503578, -4.922681845390798 ], [ -46.919066518305158, -4.850582089891475 ], [ -46.464982397419647, -4.850966932278027 ], [ -46.089393482523178, -4.854617266073944 ] ] } }
]
}
