{
"type": "FeatureCollection",
"features": [
{ "type": "Feature", "properties": { "Name": "ARARI", "Description": "ARARI \/ MA" }, "geometry": { "type": "LineString", "coordinates": [ [ -44.748018595181975, -3.297875996979656 ], [ -44.691932284946972, -3.379309360938237 ], [ -44.59406523422313, -3.445855251518594 ], [ -44.625771130633154, -3.4902719076224 ], [ -44.61040742935932, -3.659009479104157 ], [ -44.609929449584399, -3.839023570581276 ], [ -44.714737100936411, -3.736355430658535 ], [ -44.806456900565479, -3.705317418464062 ], [ -44.817512401376177, -3.678233729802741 ], [ -44.808185517147869, -3.594670299094957 ], [ -44.85393832749179, -3.498354358566757 ], [ -44.819348915919704, -3.473549109503778 ], [ -44.863711973328861, -3.346360634735447 ], [ -44.872714069198878, -3.283696324225957 ], [ -44.748018595181975, -3.297875996979656 ] ] } }
]
}
