{
"type": "FeatureCollection",
"features": [
{ "type": "Feature", "properties": { "Name": "AXIXÃ", "Description": "AXIXÃ \/ MA" }, "geometry": { "type": "LineString", "coordinates": [ [ -44.050535609230963, -2.807871696321683 ], [ -44.062854282499067, -2.899222370116263 ], [ -44.061924115505455, -2.906062835731234 ], [ -44.13670614037602, -2.947724054521473 ], [ -44.127612161671891, -2.89866313749377 ], [ -44.138512916138154, -2.793474941615216 ], [ -44.163626442905972, -2.730665480527477 ], [ -44.096648258110577, -2.688013510115354 ], [ -44.050535609230963, -2.807871696321683 ] ] } }
]
}
