{
"type": "FeatureCollection",
"features": [
{ "type": "Feature", "properties": { "Name": "BELÃGUA", "Description": "BELÃGUA \/ MA" }, "geometry": { "type": "LineString", "coordinates": [ [ -43.319109589535913, -3.021937029770072 ], [ -43.278734654880395, -3.081260531548253 ], [ -43.344760617708289, -3.10183331925225 ], [ -43.518105890874097, -3.240809025516057 ], [ -43.604427085441614, -3.235811830151818 ], [ -43.606635622535919, -3.172094016025994 ], [ -43.542145242209131, -3.129669651433233 ], [ -43.571313587252234, -3.038112872810756 ], [ -43.50096687032476, -3.016327219825314 ], [ -43.456599682329454, -2.983999033928228 ], [ -43.319109589535913, -3.021937029770072 ] ] } }
]
}
