{
"type": "FeatureCollection",
"features": [
{ "type": "Feature", "properties": { "Name": "BOM JARDIM", "Description": "BOM JARDIM \/ MA" }, "geometry": { "type": "LineString", "coordinates": [ [ -45.541177672011884, -3.489899237559711 ], [ -45.523422786732169, -3.572215939913633 ], [ -45.487541921722254, -3.609599488425601 ], [ -45.403359542508838, -3.57486374366681 ], [ -45.403862498255648, -3.601558304671983 ], [ -45.463210707108431, -3.636747689054573 ], [ -45.499726943143855, -3.698017344424841 ], [ -45.552858341039553, -3.658394257389034 ], [ -45.610504990313018, -3.681294083155365 ], [ -45.64181110929519, -3.625673655015134 ], [ -45.753890214661624, -3.644363634673936 ], [ -45.811747363749816, -3.635948587457279 ], [ -45.892574095418126, -3.663575403681875 ], [ -45.941199594885347, -3.705091167023681 ], [ -45.984033904640967, -3.682680341324669 ], [ -46.103050918065371, -3.729024960433549 ], [ -46.157442796747603, -3.774506090083946 ], [ -46.203890301895854, -3.875177408610455 ], [ -46.204837114441261, -3.925437928617441 ], [ -46.251606471661319, -3.951601484021239 ], [ -46.269121075177452, -3.989586726646053 ], [ -46.319720898600565, -4.040430013634193 ], [ -46.433329150919519, -4.130277706251093 ], [ -46.480940424660844, -4.195005834051926 ], [ -46.560131869590066, -4.278112190625052 ], [ -46.632553100345262, -4.334398653075311 ], [ -46.679099137914818, -4.342123428353489 ], [ -46.738313750679026, -4.381490547650628 ], [ -46.83755921388655, -4.379857581162412 ], [ -46.843731851943346, -4.396702163673865 ], [ -46.874567497791759, -4.43119785869419 ], [ -46.933965046149915, -4.44360235876178 ], [ -47.017033400071341, -4.419934556034889 ], [ -47.087934093983222, -4.308518255513036 ], [ -47.07274019640289, -4.236629587085702 ], [ -47.029685721818566, -4.220460792031872 ], [ -46.967779470546077, -4.119128290138406 ], [ -46.927103485137707, -4.086647096286413 ], [ -46.843917795769642, -4.003216549404158 ], [ -46.761086989672776, -3.975632842181881 ], [ -46.757386351398964, -3.905053395997356 ], [ -46.709462674762563, -3.877988599394314 ], [ -46.737451848523961, -3.776307567040532 ], [ -46.696350654658943, -3.70493833263788 ], [ -46.627121548620551, -3.701863325731835 ], [ -46.539590957456653, -3.626743429165856 ], [ -46.489475456726893, -3.617973303525105 ], [ -46.435673363335013, -3.577091290630505 ], [ -46.381362251866392, -3.581484859238798 ], [ -46.304255966039932, -3.540372386976003 ], [ -46.24269291224806, -3.584836190038117 ], [ -46.142161369051905, -3.586849724435183 ], [ -46.111077086738135, -3.485800237391004 ], [ -45.541177672011884, -3.489899237559711 ] ] } }
]
}
