{
"type": "FeatureCollection",
"features": [
{ "type": "Feature", "properties": { "Name": "BREJO", "Description": "BREJO \/ MA" }, "geometry": { "type": "LineString", "coordinates": [ [ -42.635169204694989, -3.632390104119963 ], [ -42.677913939276834, -3.677442576413739 ], [ -42.668864218009219, -3.729346888048382 ], [ -42.685751477848385, -3.807246072847932 ], [ -42.722389759979421, -3.884124298697373 ], [ -43.016976516053319, -3.738572129999739 ], [ -43.016284945493794, -3.695881498632218 ], [ -42.983584528403242, -3.614674806996674 ], [ -42.988287486278409, -3.553432737430853 ], [ -42.797314210482398, -3.530461637694372 ], [ -42.635169204694989, -3.632390104119963 ] ] } }
]
}
