{
"type": "FeatureCollection",
"features": [
{ "type": "Feature", "properties": { "Name": "BURITI", "Description": "BURITI \/ MA" }, "geometry": { "type": "LineString", "coordinates": [ [ -42.855768470738269, -4.077291210720773 ], [ -43.000638956022954, -4.050609657509654 ], [ -43.180503135011634, -4.026604003771695 ], [ -43.208812040243401, -4.018405837958994 ], [ -43.197697678804786, -3.782997355743305 ], [ -43.1233243076706, -3.6900317225859 ], [ -43.016976516053319, -3.738572129999739 ], [ -42.722389759979421, -3.884124298697373 ], [ -42.741860373657289, -3.929262739883483 ], [ -42.826384177787531, -3.996591296051406 ], [ -42.855768470738269, -4.077291210720773 ] ] } }
]
}
