{
"type": "FeatureCollection",
"features": [
{ "type": "Feature", "properties": { "Name": "CENTRAL DO MARANHÃO", "Description": "CENTRAL DO MARANHÃO \/ MA" }, "geometry": { "type": "LineString", "coordinates": [ [ -44.783956312633677, -2.186854180675823 ], [ -44.797112948104022, -2.221696325125265 ], [ -44.761215076914198, -2.270724805405393 ], [ -44.869037995906751, -2.337717509755237 ], [ -44.898309677549541, -2.38481460421059 ], [ -44.934884762521733, -2.329573236715476 ], [ -44.934889084663496, -2.233443610534152 ], [ -44.868788321623697, -2.165498168006025 ], [ -44.868428452511012, -2.134796458189953 ], [ -44.795752933950723, -2.152032036249409 ], [ -44.783956312633677, -2.186854180675823 ] ] } }
]
}
