{
"type": "FeatureCollection",
"features": [
{ "type": "Feature", "properties": { "Name": "ESTREITO", "Description": "ESTREITO \/ MA" }, "geometry": { "type": "LineString", "coordinates": [ [ -47.212461548561578, -6.573482611033626 ], [ -47.14803065569015, -6.65151446112344 ], [ -47.061677542384643, -6.670064038624446 ], [ -47.007001841261904, -6.658008281257138 ], [ -46.96125658882044, -6.682221379812802 ], [ -46.875722456626015, -6.679020146762298 ], [ -46.84050498012067, -6.722484669931532 ], [ -46.920833125848048, -6.824825526776578 ], [ -46.928922061803689, -6.938118138641129 ], [ -46.910229545157328, -6.964894573925392 ], [ -46.94178689694769, -7.019140993561962 ], [ -47.06095410794569, -7.026214978938071 ], [ -47.151205145600954, -7.004427981466107 ], [ -47.188475193375439, -6.980436537915863 ], [ -47.264420051544107, -6.986419802132104 ], [ -47.520491565733153, -6.840470599838284 ], [ -47.493655352512462, -6.751269624093822 ], [ -47.498644070867158, -6.671231560088358 ], [ -47.46879022838629, -6.621246217339035 ], [ -47.456497650745909, -6.538274510859935 ], [ -47.425248004691639, -6.49736210987345 ], [ -47.350542826889921, -6.510615086117297 ], [ -47.271360901284538, -6.563020115086204 ], [ -47.212461548561578, -6.573482611033626 ] ] } }
]
}
