{
"type": "FeatureCollection",
"features": [
{ "type": "Feature", "properties": { "Name": "GONÃALVES DIAS", "Description": "GONÃALVES DIAS \/ MA" }, "geometry": { "type": "LineString", "coordinates": [ [ -43.959902299451528, -5.050499995778125 ], [ -44.002631857973824, -5.164275209033633 ], [ -44.016864823652668, -5.166719527683995 ], [ -44.130877296949677, -5.22972949621925 ], [ -44.306792050112961, -5.331268247731372 ], [ -44.358260475640407, -5.277305654132589 ], [ -44.369648662655607, -5.227206633479284 ], [ -44.340946686240557, -5.195965995034612 ], [ -44.352486047493073, -5.118135296306832 ], [ -44.277297403152602, -5.092003071484498 ], [ -44.209589521039504, -5.094821212229135 ], [ -44.066356804622778, -4.993907413995884 ], [ -44.020819396298066, -4.980062893387753 ], [ -43.959902299451528, -5.050499995778125 ] ] } }
]
}
