{
"type": "FeatureCollection",
"features": [
{ "type": "Feature", "properties": { "Name": "GOVERNADOR NEWTON BELLO", "Description": "GOVERNADOR NEWTON BELLO \/ MA" }, "geometry": { "type": "LineString", "coordinates": [ [ -45.542189494749323, -3.484976352276817 ], [ -45.541177672011884, -3.489899237559711 ], [ -46.111077086738135, -3.485800237391004 ], [ -46.273489791920326, -3.485793574313959 ], [ -46.291564033653174, -3.432629836797503 ], [ -46.278370672568428, -3.346449105541751 ], [ -46.26405579304037, -3.319307174986079 ], [ -46.197008320877273, -3.362947985960716 ], [ -46.060645535463038, -3.363107086822538 ], [ -46.019731180249721, -3.377886380751818 ], [ -45.939581298138364, -3.365996393618616 ], [ -45.909393106606558, -3.378663119807072 ], [ -45.8785423656376, -3.315964920144893 ], [ -45.798668588884247, -3.33553093930135 ], [ -45.660213081068768, -3.338667322239075 ], [ -45.542189494749323, -3.484976352276817 ] ] } }
]
}
