{
"type": "FeatureCollection",
"features": [
{ "type": "Feature", "properties": { "Name": "GUIMARÃES", "Description": "GUIMARÃES \/ MA" }, "geometry": { "type": "LineString", "coordinates": [ [ -44.500428598001349, -2.100558761577531 ], [ -44.61907664117399, -2.234288467838496 ], [ -44.63713727616431, -2.26776335589409 ], [ -44.69784793183652, -2.285760052684225 ], [ -44.761215076914198, -2.270724805405393 ], [ -44.797112948104022, -2.221696325125265 ], [ -44.783956312633677, -2.186854180675823 ], [ -44.721318479064507, -2.075037930056396 ], [ -44.63423275014128, -2.042854253520943 ], [ -44.496844668346739, -2.007824788383232 ], [ -44.500428598001349, -2.100558761577531 ] ] } }
]
}
