{
"type": "FeatureCollection",
"features": [
{ "type": "Feature", "properties": { "Name": "HUMBERTO DE CAMPOS", "Description": "HUMBERTO DE CAMPOS \/ MA" }, "geometry": { "type": "LineString", "coordinates": [ [ -43.456599682329454, -2.983999033928228 ], [ -43.50096687032476, -3.016327219825314 ], [ -43.571313587252234, -3.038112872810756 ], [ -43.598568792815513, -2.963801323772032 ], [ -43.745525732226724, -2.637505482292113 ], [ -43.690006936470922, -2.60399348011498 ], [ -43.708128204652894, -2.538809027314699 ], [ -43.68556403465243, -2.491456118904694 ], [ -43.716024107426563, -2.446905374783171 ], [ -43.756675502672294, -2.427904431144555 ], [ -43.747797393634755, -2.373329570103522 ], [ -43.761065731198471, -2.3549742173862 ], [ -43.728544312469978, -2.287956713331596 ], [ -43.615162339470373, -2.219356678567806 ], [ -43.565693195884251, -2.246986120812778 ], [ -43.492785006522809, -2.373145946528155 ], [ -43.442689783706498, -2.56917428276688 ], [ -43.461532300075532, -2.595759856731945 ], [ -43.435045714488069, -2.645879856769909 ], [ -43.446238747719974, -2.742221862349027 ], [ -43.438470076532781, -2.778772833799167 ], [ -43.461596241872996, -2.832837037299385 ], [ -43.459194674294729, -2.881603732126507 ], [ -43.417527744809547, -2.916733305297726 ], [ -43.456599682329454, -2.983999033928228 ] ] } }
]
}
