{
"type": "FeatureCollection",
"features": [
{ "type": "Feature", "properties": { "Name": "ITAPECURU MIRIM", "Description": "ITAPECURU MIRIM \/ MA" }, "geometry": { "type": "LineString", "coordinates": [ [ -44.047144405190124, -3.290593099991497 ], [ -44.081518099980315, -3.479576468379264 ], [ -44.087779152186094, -3.536368311148578 ], [ -44.397908897477578, -3.537973655859503 ], [ -44.400286456754543, -3.530293480659566 ], [ -44.404070104251836, -3.460640205780805 ], [ -44.470483557969771, -3.485263571456584 ], [ -44.584427631529934, -3.451243697838322 ], [ -44.518062635082515, -3.383690325548059 ], [ -44.442801807557316, -3.273824542568548 ], [ -44.443231933506866, -3.22099677108406 ], [ -44.399502919723936, -3.209000485883678 ], [ -44.333182386657768, -3.264408690208824 ], [ -44.242796181798319, -3.308470005286494 ], [ -44.20908680541168, -3.253243596214929 ], [ -44.169915741917919, -3.267195722504539 ], [ -44.102545227879943, -3.253479372375068 ], [ -44.102193822286999, -3.218539918582337 ], [ -44.064788715226996, -3.187467438971112 ], [ -44.047144405190124, -3.290593099991497 ] ] } }
]
}
