{
"type": "FeatureCollection",
"features": [
{ "type": "Feature", "properties": { "Name": "ITINGA DO MARANHÃO", "Description": "ITINGA DO MARANHÃO \/ MA" }, "geometry": { "type": "LineString", "coordinates": [ [ -47.030590577393184, -3.604611090229582 ], [ -47.02935258235572, -3.681147718492355 ], [ -46.98556640136826, -3.726096779542672 ], [ -46.952756889318948, -3.804022109432765 ], [ -46.936363743991528, -3.882230089946631 ], [ -46.945035217601173, -3.923495848954246 ], [ -46.912249572659618, -4.039302882521952 ], [ -46.927103485137707, -4.086647096286413 ], [ -46.967779470546077, -4.119128290138406 ], [ -47.029685721818566, -4.220460792031872 ], [ -47.07274019640289, -4.236629587085702 ], [ -47.126061269411984, -4.283986582914394 ], [ -47.187754896671095, -4.388677549928957 ], [ -47.241844841466218, -4.436925449250054 ], [ -47.254483587047844, -4.509294585876376 ], [ -47.226684381578877, -4.592821001388074 ], [ -47.235863769797106, -4.647032968896326 ], [ -47.285584295478827, -4.694937371262654 ], [ -47.339277488165521, -4.690881687839578 ], [ -47.39755986999193, -4.648009799912302 ], [ -47.444136205721293, -4.635197476182555 ], [ -47.495644049433281, -4.652406091667729 ], [ -47.495732509447691, -4.699973985710812 ], [ -47.61557493323653, -4.702018918138492 ], [ -47.681017906051466, -4.712668640345441 ], [ -47.692177890097518, -4.649005892607818 ], [ -47.679957295093061, -4.608617363800249 ], [ -47.583566809760441, -4.522960067652946 ], [ -47.476314589746494, -4.356439428436829 ], [ -47.442049296537789, -4.287425093093532 ], [ -47.372512774345005, -4.244984032587013 ], [ -47.350203590023625, -4.117820665990905 ], [ -47.318678070636395, -4.047626457894694 ], [ -47.293110910540065, -4.052270919367402 ], [ -47.240540670715347, -4.000363836022188 ], [ -47.195186926435433, -3.985612286178025 ], [ -47.135191658967862, -3.901992124436958 ], [ -47.085205116522843, -3.856640016023845 ], [ -47.039206217492904, -3.672811880863549 ], [ -47.030590577393184, -3.604611090229582 ] ] } }
]
}
