{
"type": "FeatureCollection",
"features": [
{ "type": "Feature", "properties": { "Name": "JOÃO LISBOA", "Description": "JOÃO LISBOA \/ MA" }, "geometry": { "type": "LineString", "coordinates": [ [ -46.887323201104778, -5.20542678561759 ], [ -46.946153398660385, -5.212925436259809 ], [ -47.064171423572304, -5.313523219021306 ], [ -47.111231455167456, -5.313528355948847 ], [ -47.202013210641091, -5.355155111818931 ], [ -47.22647441776013, -5.342716322400292 ], [ -47.310176500545026, -5.386529455170147 ], [ -47.331219243373368, -5.432850061481133 ], [ -47.398013683184899, -5.483068113702416 ], [ -47.419300070341933, -5.459577947764046 ], [ -47.431248421677253, -5.333047583379198 ], [ -47.364041548278806, -5.258772792330433 ], [ -47.312845110113699, -5.307438806255846 ], [ -47.276531880741686, -5.314073902688392 ], [ -47.186356134328094, -5.222759255735014 ], [ -47.135552574891392, -5.143381769852738 ], [ -47.081314673633244, -5.057038604847661 ], [ -47.042152537709399, -5.060559992949266 ], [ -46.958654186441493, -5.037625242011245 ], [ -46.906790131159596, -4.997211629313199 ], [ -46.870288632314498, -5.095959954488251 ], [ -46.887323201104778, -5.20542678561759 ] ] } }
]
}
