{
"type": "FeatureCollection",
"features": [
{ "type": "Feature", "properties": { "Name": "MATÃES DO NORTE", "Description": "MATÃES DO NORTE \/ MA" }, "geometry": { "type": "LineString", "coordinates": [ [ -44.285861044451622, -3.764623800747756 ], [ -44.335263974552731, -3.7917380159966 ], [ -44.353667646044975, -3.848927516491642 ], [ -44.411013231975005, -3.906052412388874 ], [ -44.480959953838749, -3.919462903090448 ], [ -44.506262615227456, -3.84868223090018 ], [ -44.61015135729923, -3.847798927578424 ], [ -44.609929449584399, -3.839023570581276 ], [ -44.61040742935932, -3.659009479104157 ], [ -44.565689664046715, -3.605040736840465 ], [ -44.531715377962257, -3.610148484065235 ], [ -44.452462049783712, -3.561783787092054 ], [ -44.46012828279396, -3.664344633398059 ], [ -44.421872918000702, -3.713218461762551 ], [ -44.37834808989237, -3.691449564945401 ], [ -44.285861044451622, -3.764623800747756 ] ] } }
]
}
