{
"type": "FeatureCollection",
"features": [
{ "type": "Feature", "properties": { "Name": "MIRADOR", "Description": "MIRADOR \/ MA" }, "geometry": { "type": "LineString", "coordinates": [ [ -44.171685028541212, -6.255930575635489 ], [ -44.630547458798162, -6.679970241833132 ], [ -44.791056246148798, -6.714011039078116 ], [ -44.852861858787712, -6.702914755811264 ], [ -44.934633208655612, -6.714536562412377 ], [ -44.957013393553211, -6.73688480968616 ], [ -45.04004837453283, -6.746843148392543 ], [ -45.119356214217873, -6.815389830875972 ], [ -45.322101581422828, -6.781599152179069 ], [ -45.354359856721942, -6.780371768242446 ], [ -45.40041086337061, -6.757620742503207 ], [ -45.501326916204157, -6.803381656638123 ], [ -45.572775738809234, -6.819865033644361 ], [ -45.622083267029097, -6.797868824186821 ], [ -45.678185843302003, -6.728060740910393 ], [ -45.746498250593731, -6.700131707512242 ], [ -45.850889477167584, -6.721108987789535 ], [ -45.948077036126278, -6.674022243631612 ], [ -45.926028877330793, -6.646750921317903 ], [ -45.840623107170643, -6.600038031629822 ], [ -45.779676879484377, -6.589519913513129 ], [ -45.722395343270421, -6.529887357915185 ], [ -45.706307038439036, -6.468083103252581 ], [ -45.628328781647895, -6.477038233827386 ], [ -45.497793728997344, -6.41886276430506 ], [ -45.398358536717069, -6.429483948325526 ], [ -45.305431015928598, -6.389434529579829 ], [ -45.215575240205112, -6.317774934665465 ], [ -45.128963612280813, -6.306276410727718 ], [ -45.072652811478008, -6.347022298640126 ], [ -44.965183494222856, -6.34020579995763 ], [ -44.919848927086264, -6.293644104291957 ], [ -44.866379170062594, -6.16211683682252 ], [ -44.799742443458968, -6.117725448070928 ], [ -44.691243243281008, -6.051257610550238 ], [ -44.601501996220122, -6.016973613241588 ], [ -44.562602341824572, -5.992909566523224 ], [ -44.492208790902907, -5.985530278399607 ], [ -44.313889286561277, -6.025065883883371 ], [ -44.238919845674275, -6.166535068438634 ], [ -44.171685028541212, -6.255930575635489 ] ] } }
]
}
