{
"type": "FeatureCollection",
"features": [
{ "type": "Feature", "properties": { "Name": "MIRINZAL", "Description": "MIRINZAL \/ MA" }, "geometry": { "type": "LineString", "coordinates": [ [ -44.72846073107786, -1.890984720668257 ], [ -44.704859893669095, -1.966946951940258 ], [ -44.721318479064507, -2.075037930056396 ], [ -44.783956312633677, -2.186854180675823 ], [ -44.795752933950723, -2.152032036249409 ], [ -44.868428452511012, -2.134796458189953 ], [ -44.868788321623697, -2.165498168006025 ], [ -44.934889084663496, -2.233443610534152 ], [ -44.966944580827715, -2.17104225459633 ], [ -44.969861983343833, -2.014678793291637 ], [ -44.92491165065212, -2.014965735480246 ], [ -44.925225633655998, -1.944922586508142 ], [ -44.77990033783027, -1.944063852664613 ], [ -44.72846073107786, -1.890984720668257 ] ] } }
]
}
