{
"type": "FeatureCollection",
"features": [
{ "type": "Feature", "properties": { "Name": "MORROS", "Description": "MORROS \/ MA" }, "geometry": { "type": "LineString", "coordinates": [ [ -43.571313587252234, -3.038112872810756 ], [ -43.542145242209131, -3.129669651433233 ], [ -43.606635622535919, -3.172094016025994 ], [ -43.78339232279739, -3.292557668101836 ], [ -43.799585437318058, -3.292599631367863 ], [ -43.783701366724635, -3.213444418325196 ], [ -43.759820772710441, -3.182821076331549 ], [ -43.752119597441435, -3.135092247708996 ], [ -43.782038326907241, -3.084666113949936 ], [ -43.88562418001186, -3.050690894369211 ], [ -44.002726636624914, -2.982948684234316 ], [ -44.062854282499067, -2.899222370116263 ], [ -44.050535609230963, -2.807871696321683 ], [ -43.74506170363469, -2.807810131432348 ], [ -43.745525732226724, -2.637505482292113 ], [ -43.598568792815513, -2.963801323772032 ], [ -43.571313587252234, -3.038112872810756 ] ] } }
]
}
