{
"type": "FeatureCollection",
"features": [
{ "type": "Feature", "properties": { "Name": "PARNARAMA", "Description": "PARNARAMA \/ MA" }, "geometry": { "type": "LineString", "coordinates": [ [ -43.740406856790969, -5.308728414284872 ], [ -43.722742635764, -5.385597683786045 ], [ -43.625671470661814, -5.348665851247972 ], [ -43.551142675094354, -5.403209002193648 ], [ -43.483233987858227, -5.412440642821366 ], [ -43.457434617413639, -5.451876467624857 ], [ -43.40109600777447, -5.459639563015401 ], [ -43.336242456024479, -5.563867524866338 ], [ -43.183903555304767, -5.603863165952305 ], [ -43.095076265856953, -5.615452230935659 ], [ -43.07677911816171, -5.735106383452774 ], [ -43.101278954759891, -5.756108181947013 ], [ -43.097276190144036, -5.828778443070632 ], [ -43.076946742797873, -5.864720368450207 ], [ -43.095364648759471, -5.910395745367282 ], [ -43.333985174775933, -5.911090954583813 ], [ -43.565549745024661, -5.913063435828859 ], [ -43.536166157142418, -5.837604521831167 ], [ -43.597323906273232, -5.773358151857167 ], [ -43.606099252478487, -5.737568359392242 ], [ -43.58709254328619, -5.701628139127251 ], [ -43.613996954795596, -5.662512228356604 ], [ -43.666376015840399, -5.631505771574041 ], [ -43.66630712057713, -5.600243586272427 ], [ -43.759099113533232, -5.58988836235801 ], [ -43.822167243023785, -5.548787591174346 ], [ -43.822134949268438, -5.548619647278827 ], [ -43.865535859792033, -5.500547467391641 ], [ -43.860173840949983, -5.42926713277194 ], [ -43.882701418435659, -5.387735318330215 ], [ -43.871053726648142, -5.321183345634835 ], [ -43.8154138947354, -5.28453107544874 ], [ -43.740406856790969, -5.308728414284872 ] ] } }
]
}
