{
"type": "FeatureCollection",
"features": [
{ "type": "Feature", "properties": { "Name": "PEDRO DO ROSÃRIO", "Description": "PEDRO DO ROSÃRIO \/ MA" }, "geometry": { "type": "LineString", "coordinates": [ [ -45.35772819460044, -2.745596114169302 ], [ -45.275329470478653, -2.809148988135235 ], [ -45.219895898077191, -2.813416726300829 ], [ -45.215990991391088, -2.908017924087858 ], [ -45.217675061854607, -2.953337531002205 ], [ -45.230784752714101, -3.012396075418507 ], [ -45.319129467750713, -3.125988083283346 ], [ -45.358723977029854, -3.177237131788161 ], [ -45.580191828090335, -3.238917246733479 ], [ -45.599732110448478, -3.187140564185654 ], [ -45.623984678450086, -3.053249211082175 ], [ -45.637967708143151, -2.902662300324835 ], [ -45.564203135766036, -2.874234606341986 ], [ -45.513876244892742, -2.834656281262312 ], [ -45.477793732094995, -2.829991399783239 ], [ -45.437050165332835, -2.789821585197956 ], [ -45.46526919321866, -2.746598277288626 ], [ -45.35772819460044, -2.745596114169302 ] ] } }
]
}
