{
"type": "FeatureCollection",
"features": [
{ "type": "Feature", "properties": { "Name": "PERI MIRIM", "Description": "PERI MIRIM \/ MA" }, "geometry": { "type": "LineString", "coordinates": [ [ -44.959243452323449, -2.459461617459624 ], [ -44.935159852545098, -2.512721068922132 ], [ -44.834832991449332, -2.515599706161481 ], [ -44.812394754414356, -2.586526861725247 ], [ -44.749732857685217, -2.585196835465524 ], [ -44.710905631089986, -2.628167772024995 ], [ -44.71090639101709, -2.628170674137266 ], [ -44.786133864486203, -2.669470974305966 ], [ -44.840268010959903, -2.659336803750421 ], [ -44.874543945846369, -2.626764759486036 ], [ -44.944511915092789, -2.618616894554008 ], [ -45.041549486019903, -2.54213494237365 ], [ -45.004611212537384, -2.464437139162612 ], [ -44.959243452323449, -2.459461617459624 ] ] } }
]
}
