{
"type": "FeatureCollection",
"features": [
{ "type": "Feature", "properties": { "Name": "PIO XII", "Description": "PIO XII \/ MA" }, "geometry": { "type": "LineString", "coordinates": [ [ -45.04791211934878, -3.71751257344647 ], [ -45.042695069421875, -3.723361248722596 ], [ -44.956903364198865, -3.873179133010523 ], [ -45.01020503883143, -3.964451519022361 ], [ -45.073654819014621, -3.917303004929693 ], [ -45.20698715803087, -3.971907351143273 ], [ -45.208569913570614, -4.033188614063249 ], [ -45.220040927246941, -4.031500426503442 ], [ -45.198586803937808, -3.808777642574114 ], [ -45.146475240839663, -3.73157731104402 ], [ -45.14588685219644, -3.730558001450561 ], [ -45.110602405876307, -3.748526620507107 ], [ -45.04791211934878, -3.71751257344647 ] ] } }
]
}
