{
"type": "FeatureCollection",
"features": [
{ "type": "Feature", "properties": { "Name": "SANTA LUZIA", "Description": "SANTA LUZIA \/ MA" }, "geometry": { "type": "LineString", "coordinates": [ [ -45.598157906562108, -3.915344499149285 ], [ -45.561361036182859, -3.987207947888464 ], [ -45.558379619923471, -4.060199201332011 ], [ -45.580987768570594, -4.109776821143328 ], [ -45.592346064818962, -4.205495500317055 ], [ -45.626065992951169, -4.262407873824259 ], [ -45.636508924147506, -4.283599115406787 ], [ -45.633536589242169, -4.391052510165139 ], [ -45.616057575496654, -4.429799446187417 ], [ -45.634564562904188, -4.487920420391049 ], [ -45.6153916257229, -4.559272755633117 ], [ -45.714291948014932, -4.559050575423669 ], [ -45.920063022190675, -4.558622805697894 ], [ -45.92213111935564, -4.615674147843606 ], [ -46.039533279537181, -4.789938724192723 ], [ -46.017372375434711, -4.853705841851081 ], [ -46.089393482523178, -4.854617266073944 ], [ -46.115092656800641, -4.80043618578128 ], [ -46.201788598864709, -4.752488744559855 ], [ -46.228043445348703, -4.623489096344655 ], [ -46.17805060135413, -4.600263083774223 ], [ -46.159104865297252, -4.560495709509325 ], [ -46.203081158468649, -4.471643042992014 ], [ -46.232929401770434, -4.445330710943495 ], [ -46.223374443175942, -4.390402493680085 ], [ -46.249919505380831, -4.317571081240373 ], [ -46.093225029711327, -4.034703659646141 ], [ -46.050446999529356, -3.999999882188774 ], [ -45.979172476328699, -3.981500441891853 ], [ -45.92793850226002, -3.951977100262922 ], [ -45.901441517811747, -3.903551436449562 ], [ -45.846386089646273, -3.880030156666351 ], [ -45.838993850385862, -3.816679823515017 ], [ -45.7853938067787, -3.833109213319517 ], [ -45.704346659370799, -3.802858311162083 ], [ -45.660898731391285, -3.745659258967578 ], [ -45.624256714375804, -3.732863031303794 ], [ -45.598157906562108, -3.915344499149285 ] ] } }
]
}
