{
"type": "FeatureCollection",
"features": [
{ "type": "Feature", "properties": { "Name": "SÃO BENEDITO DO RIO PRETO", "Description": "SÃO BENEDITO DO RIO PRETO \/ MA" }, "geometry": { "type": "LineString", "coordinates": [ [ -43.447216204664073, -3.316661249916706 ], [ -43.606697740508253, -3.618672664012195 ], [ -43.739310577820845, -3.431305765848379 ], [ -43.767926623115102, -3.320199290764606 ], [ -43.799585437318058, -3.292599631367863 ], [ -43.78339232279739, -3.292557668101836 ], [ -43.606635622535919, -3.172094016025994 ], [ -43.604427085441614, -3.235811830151818 ], [ -43.458229807859311, -3.28499128771773 ], [ -43.447216204664073, -3.316661249916706 ] ] } }
]
}
