{
"type": "FeatureCollection",
"features": [
{ "type": "Feature", "properties": { "Name": "SÃO VICENTE FERRER", "Description": "SÃO VICENTE FERRER \/ MA" }, "geometry": { "type": "LineString", "coordinates": [ [ -44.819242973984046, -2.799224941477803 ], [ -44.786535758918092, -2.820053591699832 ], [ -44.791690999340119, -2.888107517647768 ], [ -44.863041493669975, -2.946682151260234 ], [ -44.932002136789151, -2.918550755113188 ], [ -44.974544465454699, -2.93903849572996 ], [ -45.016434296405635, -2.938154270603036 ], [ -45.027967093506504, -2.887304908694546 ], [ -45.125694543368461, -2.920495709009742 ], [ -45.217675061854607, -2.953337531002205 ], [ -45.215990991391088, -2.908017924087858 ], [ -45.199216317678861, -2.911695710588504 ], [ -44.961237229514495, -2.841571110917982 ], [ -44.903960068502329, -2.793477642279299 ], [ -44.819242973984046, -2.799224941477803 ] ] } }
]
}
