{
"type": "FeatureCollection",
"features": [
{ "type": "Feature", "properties": { "Name": "SÃO ROBERTO", "Description": "SÃO ROBERTO \/ MA" }, "geometry": { "type": "LineString", "coordinates": [ [ -44.932281860119694, -5.014191314277696 ], [ -44.935209879132572, -5.022808844752318 ], [ -44.971964699910927, -5.115527054629808 ], [ -45.029322809799787, -5.085322703180168 ], [ -45.033862188189403, -5.059065548136515 ], [ -45.149984768682089, -5.006005642746174 ], [ -45.192505857159517, -4.998610043618555 ], [ -45.132953296257597, -4.997209211935512 ], [ -45.040255276159996, -4.92981208515954 ], [ -44.932281860119694, -5.014191314277696 ] ] } }
]
}
