{
"type": "FeatureCollection",
"features": [
{ "type": "Feature", "properties": { "Name": "PORTO GRANDE", "Description": "PORTO GRANDE \/ AP" }, "geometry": { "type": "LineString", "coordinates": [ [ -51.048282692791986, 0.423349272950645 ], [ -51.093605526473823, 0.427821748974566 ], [ -51.116921861554601, 0.393988978408686 ], [ -51.136601703405859, 0.334512138624348 ], [ -51.176411650677089, 0.306790073403192 ], [ -51.206394887613953, 0.31705766467951 ], [ -51.207535748675802, 0.377949966317942 ], [ -51.262896367173539, 0.453651379807354 ], [ -51.368539951857258, 0.486960949987918 ], [ -51.41144698349143, 0.484276130139335 ], [ -51.460859774658843, 0.505806291127499 ], [ -51.493130405743607, 0.467909030977069 ], [ -51.536273618232826, 0.419193825035052 ], [ -51.527932415248699, 0.297540548857285 ], [ -51.545758359560573, 0.235899104759937 ], [ -51.569324257408539, 0.217193894182913 ], [ -51.573744751718891, 0.227945154345434 ], [ -51.693844077642041, 0.319695716184413 ], [ -51.696874488067124, 0.39729646635891 ], [ -51.760168473296346, 0.406339940036275 ], [ -51.816070632953313, 0.450416324154105 ], [ -51.861110851084845, 0.434016944726238 ], [ -51.931876955157286, 0.445251385443157 ], [ -52.09002568134008, 0.506150164898258 ], [ -52.145464367286706, 0.486364109516103 ], [ -52.201927006026438, 0.442176692400494 ], [ -52.238359022350949, 0.391291759607043 ], [ -52.281311894228509, 0.370230269511353 ], [ -52.295748289252117, 0.392434564103894 ], [ -52.336961240968435, 0.384060231894239 ], [ -52.348096127634165, 0.432511947268608 ], [ -52.309324579865404, 0.499942640340635 ], [ -52.270735333668647, 0.522034275061799 ], [ -52.2366433703952, 0.585900251595376 ], [ -52.194655837097173, 0.594752738048442 ], [ -52.165280174940108, 0.639137359401673 ], [ -52.118100842879528, 0.627907701279412 ], [ -52.108706011273334, 0.66039690179565 ], [ -52.060067253101181, 0.664219395508724 ], [ -52.019431786647601, 0.692945794812601 ], [ -51.931081940079423, 0.691203824197203 ], [ -51.881953609871175, 0.705805535297259 ], [ -51.856046571691877, 0.666828935806791 ], [ -51.815070668676356, 0.685414158836409 ], [ -51.753192862060871, 0.650956609460025 ], [ -51.721150590427385, 0.653554677106683 ], [ -51.707163918480035, 0.71791562430667 ], [ -51.741199587790675, 0.771626595690861 ], [ -51.762590720785113, 0.845204762889523 ], [ -51.787693461084302, 0.884579919427779 ], [ -51.835844350536313, 0.910481626425963 ], [ -51.82928083564201, 0.933732603277065 ], [ -51.776420970051674, 0.971043089966656 ], [ -51.783235551379562, 0.994015640309613 ], [ -51.740405749925401, 0.978545013241842 ], [ -51.714498711746103, 0.994110697750557 ], [ -51.666606342308796, 0.98781313936496 ], [ -51.663968101946296, 0.961030561711084 ], [ -51.596136246490516, 0.923924517002888 ], [ -51.627126272659325, 0.865129360631556 ], [ -51.615646365587281, 0.834602819864301 ], [ -51.538703808533903, 0.878036528662903 ], [ -51.485332694548163, 0.854952537929307 ], [ -51.480246436623702, 0.807456694870609 ], [ -51.453864040193253, 0.76978810173955 ], [ -51.394556591313574, 0.735927775046832 ], [ -51.33866256062862, 0.736079405240389 ], [ -51.370106121200479, 0.696193459860353 ], [ -51.357715197298489, 0.658098186981817 ], [ -51.281021911631846, 0.633507265248113 ], [ -51.149752179419522, 0.564227855631088 ], [ -51.132108679671774, 0.516991708000944 ], [ -51.048282692791986, 0.423349272950645 ] ] } }
]
}
