{
"type": "FeatureCollection",
"features": [
{ "type": "Feature", "properties": { "Name": "TARTARUGALZINHO", "Description": "TARTARUGALZINHO \/ AP" }, "geometry": { "type": "LineString", "coordinates": [ [ -50.560584656756475, 1.472475113635653 ], [ -50.435308437434394, 1.240357042143842 ], [ -50.422997099936197, 1.187341600134801 ], [ -50.460976638161299, 1.156957991318279 ], [ -50.467512817262673, 1.096123865923744 ], [ -50.527051470149161, 1.042180070853646 ], [ -50.555691819621757, 1.092202873064196 ], [ -50.632105699418439, 1.08935123886863 ], [ -50.633531775071333, 1.029585129450197 ], [ -50.682137181885366, 1.053824405471971 ], [ -50.795034827695069, 1.029941590132353 ], [ -50.825933130209755, 0.961143837618067 ], [ -50.873825499647069, 0.960906191767378 ], [ -50.89303861494011, 0.993356108997261 ], [ -50.982326078485698, 0.981937782102989 ], [ -51.001945752094734, 0.940872207686311 ], [ -51.035892291396067, 1.006052271794942 ], [ -51.087848975949434, 1.024635871548298 ], [ -51.128318657779801, 1.00971372840587 ], [ -51.182592066970301, 1.035024891985245 ], [ -51.235025879640595, 0.959264281521428 ], [ -51.303336759883507, 0.989829310574294 ], [ -51.342796387942883, 0.981684694892806 ], [ -51.351894318268137, 0.957779604245388 ], [ -51.409549806078637, 0.997550810521545 ], [ -51.40669828070105, 1.050564293807156 ], [ -51.466662095279446, 1.067573887524929 ], [ -51.435582108127733, 1.186952384345091 ], [ -51.443900882020046, 1.23571326595453 ], [ -51.40606488278808, 1.269715044313898 ], [ -51.389044936974244, 1.322808544778582 ], [ -51.382460795229463, 1.403779146390548 ], [ -51.368509023272736, 1.429155534200617 ], [ -51.399811381290192, 1.463061559943071 ], [ -51.421891420152861, 1.523697427993966 ], [ -51.444851599421717, 1.530183040015345 ], [ -51.455071807218076, 1.600034666666602 ], [ -51.427619853373471, 1.639562551470647 ], [ -51.323313010187228, 1.690483235013346 ], [ -51.255252440947345, 1.679305771743998 ], [ -51.201620117974016, 1.633537721488722 ], [ -51.169923114959772, 1.633239289561629 ], [ -51.150840302437985, 1.603791769774375 ], [ -51.089595502530351, 1.599052812037712 ], [ -51.055061760791602, 1.615804010746558 ], [ -50.983339126099729, 1.596434979990363 ], [ -50.934034546756891, 1.618937231667928 ], [ -50.88911316863777, 1.583774441137621 ], [ -50.86095054443205, 1.592383331825374 ], [ -50.560584656756475, 1.472475113635653 ] ] } }
]
}
