{
"type": "FeatureCollection",
"features": [
{ "type": "Feature", "properties": { "Name": "AQUIDAUANA", "Description": "AQUIDAUANA \/ MS" }, "geometry": { "type": "LineString", "coordinates": [ [ -55.101984247475002, -19.335564868423887 ], [ -55.114486396829697, -19.370160602229987 ], [ -55.198707870471821, -19.415737338807105 ], [ -55.235277635954105, -19.520846911455749 ], [ -55.29081317888506, -19.60745172611621 ], [ -55.30836179476097, -19.675224637307107 ], [ -55.359001220729738, -19.768644199670007 ], [ -55.396397938014388, -19.812559498122312 ], [ -55.354618953901536, -19.861913617519406 ], [ -55.310249799988242, -19.954685632935593 ], [ -55.318034932366174, -19.986772084663926 ], [ -55.178802783521569, -19.991698000662154 ], [ -55.159142848163867, -19.954299341741205 ], [ -55.124977412977159, -19.966216957846257 ], [ -55.117929453981048, -20.007467569572611 ], [ -55.064780252206845, -20.108665253198808 ], [ -55.084460425907878, -20.153139170036638 ], [ -55.148205271855772, -20.146838466721817 ], [ -55.218582997407339, -20.187160346772544 ], [ -55.269928568348689, -20.248331792578142 ], [ -55.248600671183965, -20.286001229273268 ], [ -55.25156349665798, -20.326483750724492 ], [ -55.320597999298172, -20.326061917423488 ], [ -55.321018203926933, -20.262567606409846 ], [ -55.300825904991484, -20.198060683054052 ], [ -55.322405732838263, -20.174310608547728 ], [ -55.396404968914162, -20.177622288237956 ], [ -55.427075193465384, -20.146816131159483 ], [ -55.480864913085213, -20.153395433652292 ], [ -55.513286864097438, -20.190607111828683 ], [ -55.518642968098447, -20.275441477941797 ], [ -55.457956856723506, -20.315903365347989 ], [ -55.445462390277044, -20.412675952832899 ], [ -55.464680813368773, -20.475161949364406 ], [ -55.504828489343247, -20.454915565201134 ], [ -55.553697797715131, -20.507317351214738 ], [ -55.586788456721877, -20.507944102238469 ], [ -55.641250765810128, -20.482081954618479 ], [ -55.780591689454866, -20.487968833095124 ], [ -55.833287733641953, -20.460506131452746 ], [ -56.128352875984376, -20.431839469615795 ], [ -56.142981358103157, -20.359584536097426 ], [ -56.164651942832847, -20.328902739969408 ], [ -56.226343833501062, -20.290002765415238 ], [ -56.222876466775453, -20.246170724399349 ], [ -56.237654453090492, -20.193882226883204 ], [ -56.216730677978376, -20.176542237534193 ], [ -56.249319822851476, -20.106630873416009 ], [ -56.247876291357727, -20.039540436142147 ], [ -56.318123331026868, -19.938839734965768 ], [ -56.35026430145632, -19.925554899339087 ], [ -56.399600546827742, -19.878640771054677 ], [ -56.431734302895734, -19.868573443509547 ], [ -56.477379428417862, -19.825642667974705 ], [ -56.573847134037976, -19.813257118421234 ], [ -56.631656385233953, -19.831786739966049 ], [ -56.652986364329195, -19.78362184717048 ], [ -56.696514603566072, -19.765786138919111 ], [ -56.732435150261942, -19.793258893183349 ], [ -56.77770873077327, -19.795124894698063 ], [ -56.825322540602713, -19.775372505436735 ], [ -56.85478864038339, -19.715510342128539 ], [ -56.898852947505475, -19.681555983221983 ], [ -56.956232725659731, -19.691955031099781 ], [ -56.983041443907496, -19.679213266379119 ], [ -56.995598569718197, -19.620952539328187 ], [ -56.851711928362761, -19.605361472354048 ], [ -56.618295983173027, -19.513444327293826 ], [ -56.575129652711269, -19.517577499901677 ], [ -56.504153669356299, -19.500570967476104 ], [ -56.50545140905524, -19.280662081289961 ], [ -55.972477970481918, -19.278240596426315 ], [ -55.97153902700444, -19.465215800268933 ], [ -55.956562285121315, -19.467293897895047 ], [ -55.889810045996796, -19.390666365260525 ], [ -55.839283284396004, -19.354591672967274 ], [ -55.818947251314569, -19.321582747945399 ], [ -55.823446069380566, -19.286154867852815 ], [ -55.789896911713072, -19.25429986564626 ], [ -55.766443009137504, -19.193525041547385 ], [ -55.687940037502692, -19.073008802514153 ], [ -55.65244867426685, -19.051099384828717 ], [ -55.527942145113855, -18.940359387076001 ], [ -55.398617450434926, -18.580202705390491 ], [ -55.464214359305174, -19.216676956276444 ], [ -55.417276273980804, -19.260544671599288 ], [ -55.320530959336274, -19.238499846590628 ], [ -55.302806467544428, -19.257277994883509 ], [ -55.24933476888441, -19.251906442328391 ], [ -55.200997097438062, -19.288149432849991 ], [ -55.169777042676344, -19.332092681332142 ], [ -55.101984247475002, -19.335564868423887 ] ] } }
]
}
