{
"type": "FeatureCollection",
"features": [
{ "type": "Feature", "properties": { "Name": "BATAGUASSU", "Description": "BATAGUASSU \/ MS" }, "geometry": { "type": "LineString", "coordinates": [ [ -52.997140132610973, -21.632071449138039 ], [ -52.936960871946667, -21.665320613655354 ], [ -52.891107413975924, -21.657403858301393 ], [ -52.819608005405087, -21.668897471940738 ], [ -52.733108123640932, -21.726963717001865 ], [ -52.693884692624408, -21.739545209044138 ], [ -52.629913293963284, -21.710537962257092 ], [ -52.535102563132739, -21.712339485079152 ], [ -52.491477183625079, -21.689400158390526 ], [ -52.433470709305759, -21.684027566219186 ], [ -52.339596973121786, -21.639661619288233 ], [ -52.257602087766088, -21.632314873132827 ], [ -52.196929821454027, -21.668521563419347 ], [ -52.177017925736664, -21.697667626859467 ], [ -52.16126181787854, -21.770773716533768 ], [ -52.189353739183673, -21.844324934647943 ], [ -52.274963250753387, -21.914941912239385 ], [ -52.319019392930613, -21.972131912757504 ], [ -52.339191816848817, -22.047826440138067 ], [ -52.39190642304294, -22.114678901510047 ], [ -52.380014541937491, -22.077343385788595 ], [ -52.43201567818096, -22.054828403308136 ], [ -52.46924148021008, -22.013896535596587 ], [ -52.498291119239695, -22.007106511156508 ], [ -52.609132419325647, -21.9150800067369 ], [ -52.631991907800284, -21.832015866139272 ], [ -52.871829188666084, -21.88049850200423 ], [ -52.956527647432949, -21.861290046098699 ], [ -53.023443926495986, -21.856500444839639 ], [ -53.076362202153859, -21.837038104025225 ], [ -53.07982519637568, -21.798916138369066 ], [ -53.03583304545861, -21.689275801936674 ], [ -53.025020723127852, -21.615629464328265 ], [ -52.997140132610973, -21.632071449138039 ] ] } }
]
}
