{
"type": "FeatureCollection",
"features": [
{ "type": "Feature", "properties": { "Name": "CAMAPUÃ", "Description": "CAMAPUÃ \/ MS" }, "geometry": { "type": "LineString", "coordinates": [ [ -53.383864243539954, -18.943127933807034 ], [ -53.392926178500318, -19.034144199195396 ], [ -53.345435868970128, -19.053514423351881 ], [ -53.39754842222186, -19.082078197350882 ], [ -53.421996294193598, -19.112230291894434 ], [ -53.429469231419823, -19.161472212772363 ], [ -53.467238416419711, -19.185082926535813 ], [ -53.608359465317051, -19.183279302897461 ], [ -53.628605351255942, -19.274774991472611 ], [ -53.56347084680209, -19.395759100102339 ], [ -53.547744280773884, -19.474252773646526 ], [ -53.533610214439818, -19.481345181634765 ], [ -53.489957195168358, -19.583780043714 ], [ -53.488353736335796, -19.690633764236793 ], [ -53.466937084179051, -19.697617262526592 ], [ -53.42507813594716, -19.784488397921166 ], [ -53.451547404189284, -19.797129169675372 ], [ -53.599273448310953, -19.770664125548933 ], [ -53.648614005931563, -19.706702471042149 ], [ -53.710927298455999, -19.679708366547857 ], [ -53.784391778757538, -19.613595938401772 ], [ -53.794833438312473, -19.580281959744582 ], [ -53.86322126365036, -19.529919022245053 ], [ -53.904527615357097, -19.701554167091103 ], [ -53.988557659308462, -19.722159025518579 ], [ -54.021419190842948, -19.632776173581473 ], [ -54.066637136594522, -19.635068640805059 ], [ -54.116560167117996, -19.663184142334273 ], [ -54.205669881459812, -19.612524451941852 ], [ -54.286871058452562, -19.6213935227928 ], [ -54.399448607667068, -19.594329293661929 ], [ -54.431475981131598, -19.551580316978001 ], [ -54.428384392525622, -19.476741802991796 ], [ -54.401660334656697, -19.470107404433122 ], [ -54.372268935263087, -19.424296515871443 ], [ -54.316406638055859, -19.410661334952579 ], [ -54.318046973588935, -19.324129424733144 ], [ -54.275948392004636, -19.313926251894941 ], [ -54.248020283109554, -19.254981066123261 ], [ -54.197027902016032, -19.233732802127065 ], [ -54.216059800319492, -19.125000677539219 ], [ -54.253583823834333, -19.07518226784731 ], [ -54.234626848949858, -19.032628251592485 ], [ -54.185490756693014, -19.020298710916734 ], [ -54.128766270446988, -19.020253877914115 ], [ -54.100774824998147, -19.064086281356762 ], [ -54.057350996151513, -19.102044951713083 ], [ -53.98619401883883, -19.076391409935582 ], [ -53.958561651998593, -19.004975924299401 ], [ -53.89614041924488, -19.01360588430407 ], [ -53.83060553751551, -18.996926844498205 ], [ -53.774503406407064, -19.00895359693089 ], [ -53.730539077816161, -18.988515870311119 ], [ -53.686044512544186, -19.00185397997717 ], [ -53.594700268002953, -18.971959366731365 ], [ -53.562558370372471, -18.928376201400511 ], [ -53.493773151709547, -18.895550185892318 ], [ -53.490045975341445, -18.849685641978738 ], [ -53.399300511109686, -18.940590396829293 ], [ -53.383864243539954, -18.943127933807034 ] ] } }
]
}
