{
"type": "FeatureCollection",
"features": [
{ "type": "Feature", "properties": { "Name": "CORGUINHO", "Description": "CORGUINHO \/ MS" }, "geometry": { "type": "LineString", "coordinates": [ [ -54.721792994451107, -19.595962748482009 ], [ -54.752631179984917, -19.640092623375836 ], [ -54.725948494527358, -19.712875592034891 ], [ -54.733928150263864, -19.772462982780382 ], [ -54.758480753683784, -19.782351650108524 ], [ -54.818872482778829, -19.839391503415129 ], [ -54.833561514452299, -19.880874707701537 ], [ -54.881503357393967, -19.923594543653223 ], [ -54.914595452618016, -20.041999536049726 ], [ -54.977923592299931, -20.104963376558544 ], [ -55.046426386068845, -20.138629393032033 ], [ -55.042045604021375, -20.155608908923966 ], [ -55.084460425907878, -20.153139170036638 ], [ -55.064780252206845, -20.108665253198808 ], [ -55.117929453981048, -20.007467569572611 ], [ -55.124977412977159, -19.966216957846257 ], [ -55.159142848163867, -19.954299341741205 ], [ -55.178802783521569, -19.991698000662154 ], [ -55.318034932366174, -19.986772084663926 ], [ -55.310249799988242, -19.954685632935593 ], [ -55.354618953901536, -19.861913617519406 ], [ -55.396397938014388, -19.812559498122312 ], [ -55.359001220729738, -19.768644199670007 ], [ -55.30836179476097, -19.675224637307107 ], [ -55.29081317888506, -19.60745172611621 ], [ -55.235277635954105, -19.520846911455749 ], [ -55.166091928499668, -19.602463595018833 ], [ -55.087774953751079, -19.631037073602045 ], [ -55.037454487634477, -19.614332593774122 ], [ -55.045370180889108, -19.665205367733506 ], [ -55.027986551038452, -19.696857151036625 ], [ -54.902372510383024, -19.679656279613596 ], [ -54.889314296717373, -19.651593972983449 ], [ -54.840869944991937, -19.649668180941774 ], [ -54.812391953725637, -19.539220657107588 ], [ -54.817058829901036, -19.489108841799577 ], [ -54.794446434655185, -19.455036057468021 ], [ -54.742841093641516, -19.498851690353206 ], [ -54.747669687705866, -19.534849860232839 ], [ -54.721792994451107, -19.595962748482009 ] ] } }
]
}
