{
"type": "FeatureCollection",
"features": [
{ "type": "Feature", "properties": { "Name": "CORUMBÃ", "Description": "CORUMBÃ \/ MS" }, "geometry": { "type": "LineString", "coordinates": [ [ -55.138996432639203, -17.647832492375585 ], [ -55.306582215396872, -18.249442454805376 ], [ -55.398617450434926, -18.580202705390491 ], [ -55.527942145113855, -18.940359387076001 ], [ -55.65244867426685, -19.051099384828717 ], [ -55.687940037502692, -19.073008802514153 ], [ -55.766443009137504, -19.193525041547385 ], [ -55.789896911713072, -19.25429986564626 ], [ -55.823446069380566, -19.286154867852815 ], [ -55.818947251314569, -19.321582747945399 ], [ -55.839283284396004, -19.354591672967274 ], [ -55.889810045996796, -19.390666365260525 ], [ -55.956562285121315, -19.467293897895047 ], [ -55.97153902700444, -19.465215800268933 ], [ -55.972477970481918, -19.278240596426315 ], [ -56.50545140905524, -19.280662081289961 ], [ -56.504153669356299, -19.500570967476104 ], [ -56.575129652711269, -19.517577499901677 ], [ -56.618295983173027, -19.513444327293826 ], [ -56.851711928362761, -19.605361472354048 ], [ -56.995598569718197, -19.620952539328187 ], [ -57.064968899894779, -20.001453824634268 ], [ -57.00481843012642, -20.046037138603026 ], [ -57.007034123126232, -20.090026680586789 ], [ -56.981271189613665, -20.180158068839773 ], [ -56.955157339739401, -20.241873279827985 ], [ -57.012877215411088, -20.284532952034056 ], [ -57.056133543728038, -20.279983941006037 ], [ -57.172691463540161, -20.306859256749249 ], [ -57.224334211854341, -20.298176046986949 ], [ -57.356417478883486, -20.321832147735392 ], [ -57.412752615340878, -20.361924036065375 ], [ -57.430107500160943, -20.480587868635208 ], [ -57.459949144237555, -20.513477585821875 ], [ -57.443612536589228, -20.562609127509177 ], [ -57.539080706909033, -20.618987612188505 ], [ -57.605612767715002, -20.633591357555076 ], [ -57.640360534610927, -20.662057993981193 ], [ -57.646974596800128, -20.708347800310719 ], [ -57.669302272082177, -20.727463060371917 ], [ -57.722140896585067, -20.732184596441925 ], [ -57.749136796126209, -20.79949744864831 ], [ -57.79413480098026, -20.79667065552627 ], [ -57.845612563269128, -20.886080153476257 ], [ -57.833706073576366, -20.936281022351238 ], [ -57.863602448594065, -20.948849462532621 ], [ -57.88653114349745, -20.908646451272659 ], [ -57.928944346604283, -20.895229770537412 ], [ -57.872680774598045, -20.853899981598829 ], [ -57.859396871568322, -20.824855727709632 ], [ -57.893290437203859, -20.79078243975772 ], [ -57.95949174714638, -20.797908560631527 ], [ -57.934154311672103, -20.745954528178913 ], [ -57.873516082900885, -20.750798330678379 ], [ -57.87807022096387, -20.713703163270338 ], [ -57.913674855610054, -20.67076407620112 ], [ -57.950180986863025, -20.698295066963738 ], [ -57.988228735068049, -20.686729095671183 ], [ -57.970386043581009, -20.644191846376543 ], [ -58.013128278946851, -20.608296398859693 ], [ -57.997182915958774, -20.572371433794615 ], [ -58.019914209672997, -20.514393069584457 ], [ -57.998559992049934, -20.455563625660773 ], [ -58.024618908635667, -20.400096276521879 ], [ -58.073190284204209, -20.387988077887428 ], [ -58.103050508274286, -20.321168810492168 ], [ -58.090773222706041, -20.285031542471643 ], [ -58.119523500808896, -20.249581596613325 ], [ -58.149353947426675, -20.151685579625731 ], [ -58.097572941837761, -20.115093678230608 ], [ -58.043987710964075, -20.098780647209082 ], [ -58.022843805197404, -20.05816839765339 ], [ -57.986256943602989, -20.05847075512122 ], [ -57.959264161112117, -20.022251136180955 ], [ -57.904873528890221, -20.04333093737284 ], [ -57.858151723323317, -19.971416792051283 ], [ -58.131818687382463, -19.758497415223474 ], [ -58.032276207780733, -19.552472720539583 ], [ -57.784445733683633, -19.033901313894489 ], [ -57.710203334416292, -19.032593230193353 ], [ -57.696706524086778, -19.000094849397726 ], [ -57.719314945228518, -18.97704900970399 ], [ -57.719837382988771, -18.89906537946365 ], [ -57.76667530811892, -18.899285322159869 ], [ -57.557834424219273, -18.240348521966666 ], [ -57.453919023544067, -18.231194096230524 ], [ -57.505140605854244, -18.200341556617502 ], [ -57.574864554855246, -18.131887335232303 ], [ -57.600111997870378, -18.046367254944812 ], [ -57.720667290862757, -17.827859946879016 ], [ -57.68322589076223, -17.80800257435925 ], [ -57.720134442550439, -17.771719108949696 ], [ -57.730966953761872, -17.718772326581586 ], [ -57.790807233866694, -17.58666461418056 ], [ -57.712139024396436, -17.543133808278583 ], [ -57.696890373391966, -17.620642828503662 ], [ -57.679387645423439, -17.657700862005129 ], [ -57.684613130991174, -17.716481508714594 ], [ -57.62311086057769, -17.736358984679327 ], [ -57.609308839231517, -17.797541501139335 ], [ -57.485274395696763, -17.862228094650789 ], [ -57.460250010629458, -17.899854954742295 ], [ -57.426276336084015, -17.856396046040629 ], [ -57.311384474214101, -17.817824502998349 ], [ -57.264835690114978, -17.820349650016283 ], [ -57.225243501985965, -17.782842906075185 ], [ -57.101495463744641, -17.772186337329572 ], [ -57.047799698996869, -17.732531896329931 ], [ -57.03337694758801, -17.694741150983305 ], [ -56.988219139501666, -17.65929004320088 ], [ -56.964747136271285, -17.62173743023817 ], [ -56.973492541347632, -17.580384303892458 ], [ -56.909576283718479, -17.532546397398278 ], [ -56.875967463227823, -17.532972187716268 ], [ -56.824406956116093, -17.423078948434693 ], [ -56.828711941502824, -17.389960270150308 ], [ -56.785987760027062, -17.387526472668526 ], [ -56.757794418577532, -17.326692915645481 ], [ -56.733854180625883, -17.309860171809415 ], [ -56.672520541190011, -17.334575045302074 ], [ -56.551015582103389, -17.322876291807347 ], [ -56.499206091387975, -17.289563352766489 ], [ -56.450877608314954, -17.326391601391265 ], [ -56.3606548588346, -17.280844305020594 ], [ -56.335873648649908, -17.289948515311661 ], [ -56.251344818208736, -17.219023091842189 ], [ -56.213010241129666, -17.225938568110394 ], [ -56.184461457030579, -17.194570948990076 ], [ -56.128848163212119, -17.179423248683918 ], [ -56.044119322648555, -17.171395115891812 ], [ -56.016067493120261, -17.190228800019039 ], [ -56.012037712870097, -17.236681791031799 ], [ -55.960154656712, -17.250190638786933 ], [ -55.886562170507716, -17.284764698931667 ], [ -55.761206604001529, -17.32353203247726 ], [ -55.719672746300148, -17.348859732790398 ], [ -55.65808849908489, -17.33908142306916 ], [ -55.648730587346677, -17.358307663068157 ], [ -55.583837990630741, -17.382797661083142 ], [ -55.588641778695091, -17.413816707475007 ], [ -55.515032894252606, -17.483621322965632 ], [ -55.483043538728282, -17.478685727564251 ], [ -55.432724689592703, -17.511739382166695 ], [ -55.405204446627863, -17.512396797374265 ], [ -55.331580989570966, -17.54926580687146 ], [ -55.299674900476248, -17.541193012847202 ], [ -55.252394782293315, -17.592310807098045 ], [ -55.138996432639203, -17.647832492375585 ] ] } },
{ "type": "Feature", "properties": { "Name": "CORUMBÃ", "Description": "CORUMBÃ \/ MS" }, "geometry": { "type": "LineString", "coordinates": [ [ -57.619335352844239, -19.01931890854075 ], [ -57.677337262204844, -19.136914256587598 ], [ -57.670709935015445, -19.169078502370951 ], [ -57.613800451929251, -19.1871832607988 ], [ -57.507144820576961, -19.195513513637703 ], [ -57.502449559099837, -19.124626234912739 ], [ -57.470480036324595, -19.071823825209318 ], [ -57.467368794833988, -19.025909726852376 ], [ -57.526786940364957, -19.010588819818111 ], [ -57.619335352844239, -19.01931890854075 ] ] } }
]
}
