{
"type": "FeatureCollection",
"features": [
{ "type": "Feature", "properties": { "Name": "COSTA RICA", "Description": "COSTA RICA \/ MS" }, "geometry": { "type": "LineString", "coordinates": [ [ -52.921125923222739, -18.613400923313918 ], [ -52.991039697524002, -18.668189771740511 ], [ -53.018487345414599, -18.671730835209814 ], [ -53.043598327101044, -18.722234052559429 ], [ -53.047025572372206, -18.79876391432316 ], [ -53.128033269219941, -18.89104826246728 ], [ -53.166369192584114, -18.971811904895446 ], [ -53.240059585281585, -18.943104944437607 ], [ -53.281439558188993, -18.895301478380475 ], [ -53.325942853180088, -18.895717200788113 ], [ -53.383864243539954, -18.943127933807034 ], [ -53.399300511109686, -18.940590396829293 ], [ -53.490045975341445, -18.849685641978738 ], [ -53.489143925651604, -18.838590391133607 ], [ -53.347723545505175, -18.774935987305923 ], [ -53.382236076733534, -18.723516639581192 ], [ -53.3728106861642, -18.681663630472144 ], [ -53.435548881375723, -18.630209637264894 ], [ -53.469295658767578, -18.618538188986179 ], [ -53.473548127344145, -18.578586616479129 ], [ -53.515405415427544, -18.515814070762698 ], [ -53.580900773751694, -18.437436408863107 ], [ -53.50035071041691, -18.402146599885612 ], [ -53.436071617710923, -18.383653369407455 ], [ -53.43090901813661, -18.336430893271086 ], [ -53.461710551800472, -18.278949367619191 ], [ -53.392265201078146, -18.240659576778 ], [ -53.347629707544911, -18.257218156892407 ], [ -53.32693581353692, -18.209459820614196 ], [ -53.294520000397654, -18.197463280905652 ], [ -53.222574513702796, -18.131230304035284 ], [ -53.237764031584732, -18.007443173163892 ], [ -53.123651667890094, -18.058828302584061 ], [ -53.143152600412122, -18.084077649463893 ], [ -53.110187607272223, -18.219563266731313 ], [ -53.099655708843834, -18.313619139911339 ], [ -53.071739586112976, -18.341542538157569 ], [ -53.023065804743055, -18.349463999663783 ], [ -53.013938214776772, -18.32613913181541 ], [ -52.935230137460849, -18.296554323323335 ], [ -52.873206705425048, -18.314833543033558 ], [ -52.814258969176024, -18.311297802651438 ], [ -52.775903306592276, -18.328753389057624 ], [ -52.758873248801365, -18.363140395612731 ], [ -52.798512562304893, -18.414861302207271 ], [ -52.871182567121707, -18.425814276707456 ], [ -52.880957286749315, -18.465492743095577 ], [ -52.962351360227046, -18.540819704066053 ], [ -52.921125923222739, -18.613400923313918 ] ] } }
]
}
