{
"type": "FeatureCollection",
"features": [
{ "type": "Feature", "properties": { "Name": "DEODÃPOLIS", "Description": "DEODÃPOLIS \/ MS" }, "geometry": { "type": "LineString", "coordinates": [ [ -54.125481750282518, -21.946027564220682 ], [ -54.093899749873515, -21.983511889861802 ], [ -54.084033669917908, -22.085111391477483 ], [ -53.993201067675102, -22.117211310553497 ], [ -53.992616590183438, -22.155278845642155 ], [ -54.01673024350589, -22.172238855238959 ], [ -54.093178689644787, -22.328560196795593 ], [ -54.114516584572691, -22.356896177916212 ], [ -54.280288128094583, -22.292465437929593 ], [ -54.261510820667809, -22.251847389545333 ], [ -54.302990531088085, -22.236379098016926 ], [ -54.260732339625747, -22.166032996225738 ], [ -54.223347194817165, -22.135591682410166 ], [ -54.24155197854094, -22.083731200134707 ], [ -54.204503228740975, -22.018511975946865 ], [ -54.231753593253693, -21.953762669111825 ], [ -54.190841293890571, -21.923612049456494 ], [ -54.125481750282518, -21.946027564220682 ] ] } }
]
}
