{
"type": "FeatureCollection",
"features": [
{ "type": "Feature", "properties": { "Name": "DOURADOS", "Description": "DOURADOS \/ MS" }, "geometry": { "type": "LineString", "coordinates": [ [ -55.010706318941395, -21.887733374295745 ], [ -55.0079532918109, -21.937934682939215 ], [ -55.02418029638352, -21.965131969464778 ], [ -55.079919855916557, -21.982231364985466 ], [ -55.105228755902317, -22.033092481033123 ], [ -55.087237008081445, -22.069350868847494 ], [ -55.093646730811933, -22.110422750209693 ], [ -54.873830823733499, -22.189412447526365 ], [ -54.7060975944284, -22.097325701120155 ], [ -54.682936037168361, -22.067008733865919 ], [ -54.67961230656266, -22.094986425982711 ], [ -54.624809206579584, -22.092225735729073 ], [ -54.585756862589108, -22.124647307227406 ], [ -54.555617459278267, -22.104351785906147 ], [ -54.54263973403647, -22.056055595689145 ], [ -54.513282221097597, -22.016814748401885 ], [ -54.501448007219722, -21.933881527510437 ], [ -54.457000678838199, -21.892194603398195 ], [ -54.42964034792368, -21.925758368753691 ], [ -54.361002520949569, -21.947400549295875 ], [ -54.289449029848811, -21.939919335608806 ], [ -54.231753593253693, -21.953762669111825 ], [ -54.204503228740975, -22.018511975946865 ], [ -54.24155197854094, -22.083731200134707 ], [ -54.223347194817165, -22.135591682410166 ], [ -54.260732339625747, -22.166032996225738 ], [ -54.302990531088085, -22.236379098016926 ], [ -54.382398237788379, -22.272922691429013 ], [ -54.405518728406548, -22.318216719825728 ], [ -54.44001327049596, -22.347504483145315 ], [ -54.470934929303489, -22.337052498474009 ], [ -54.520633159892384, -22.348820468289944 ], [ -54.529076124763321, -22.319443699067389 ], [ -54.566452565033785, -22.294648313768615 ], [ -54.640673181821853, -22.354835750169681 ], [ -54.575197407134567, -22.403783265385357 ], [ -54.633785899299767, -22.435396233049687 ], [ -54.685986435025939, -22.42268522604229 ], [ -54.721059197124191, -22.441713228482683 ], [ -54.784518036178383, -22.399764345348217 ], [ -54.928304893256154, -22.376694173597173 ], [ -54.964485336828773, -22.364237377952573 ], [ -54.984399039284199, -22.357190918126321 ], [ -55.052125102991049, -22.308952288117553 ], [ -55.070095088117789, -22.272550766904317 ], [ -55.153702069394967, -22.222577089261222 ], [ -55.202341016424725, -22.241730887970046 ], [ -55.252261807636273, -22.227310161834449 ], [ -55.28692438984865, -22.191654707398754 ], [ -55.328098026802479, -22.214222700417224 ], [ -55.36984764085588, -22.193831706168282 ], [ -55.405517435880938, -22.153708184185291 ], [ -55.448245154390349, -22.147054162419636 ], [ -55.495101156792884, -22.117518966826822 ], [ -55.499155357233917, -22.033212099858474 ], [ -55.521647837777429, -21.987010267010191 ], [ -55.438787495246686, -21.937265102602339 ], [ -55.411891930368256, -21.893872576458193 ], [ -55.365786351059228, -21.87995294807007 ], [ -55.251564175646138, -21.922703635264494 ], [ -55.158123367699204, -21.921493608243395 ], [ -55.010706318941395, -21.887733374295745 ] ] } }
]
}
