{
"type": "FeatureCollection",
"features": [
{ "type": "Feature", "properties": { "Name": "INOCÃNCIA", "Description": "INOCÃNCIA \/ MS" }, "geometry": { "type": "LineString", "coordinates": [ [ -51.869000523355453, -19.222743749524398 ], [ -51.848667187340766, -19.269377550133811 ], [ -51.822057997178774, -19.431731582646364 ], [ -51.780143413287874, -19.485884352281005 ], [ -51.793591439893021, -19.566081060292674 ], [ -51.730863817111405, -19.615375684140474 ], [ -51.683278177645718, -19.702482313308053 ], [ -51.621639065490449, -19.75844925832655 ], [ -51.609701101324724, -19.78918419809224 ], [ -51.558149720533152, -19.838491758687667 ], [ -51.475615816616596, -19.959664466841616 ], [ -51.559961926401733, -19.966342112898133 ], [ -51.638756958266974, -19.98284463287348 ], [ -51.688501310586958, -20.047871210587857 ], [ -51.752252753961379, -20.032384753653389 ], [ -51.781865096996569, -19.915741409038731 ], [ -51.846481129700351, -20.005124292452081 ], [ -51.895315543477516, -20.024734454831162 ], [ -51.973061813851587, -20.021587297116014 ], [ -52.042675231676583, -20.049884164922219 ], [ -52.096567558545928, -20.089795087173513 ], [ -52.119123434099151, -20.129376393505709 ], [ -52.14594671596813, -20.107230468511258 ], [ -52.220222605089134, -19.962862090912722 ], [ -52.21320843991753, -19.869068622818645 ], [ -52.295090634824867, -19.785975560024042 ], [ -52.334062101884449, -19.72833724207004 ], [ -52.349273683733486, -19.661761732318041 ], [ -52.387372553000887, -19.633922101423817 ], [ -52.476149979537858, -19.610982842184399 ], [ -52.515960979015915, -19.54971912863482 ], [ -52.468904350455375, -19.487904547057152 ], [ -52.466786080113479, -19.391834457793948 ], [ -52.441094114801501, -19.336704660191856 ], [ -52.381449141364726, -19.338169859951051 ], [ -52.328421679916573, -19.366790346996879 ], [ -52.275976634713857, -19.362057955210442 ], [ -52.216276871880098, -19.375922580162921 ], [ -52.181444334888113, -19.33382892236682 ], [ -52.142004431659132, -19.354716021327246 ], [ -52.102168077594683, -19.35202999458852 ], [ -52.103359627145039, -19.303974569071045 ], [ -52.160780813683573, -19.30867056079768 ], [ -52.221919597911096, -19.234509362217239 ], [ -52.172225600431091, -19.198744645548913 ], [ -52.1070847341731, -19.228531275397984 ], [ -52.086806627323938, -19.255497793188567 ], [ -52.019167842821673, -19.198955117484612 ], [ -51.979277212873058, -19.191621178574508 ], [ -51.936615901202856, -19.212618285305552 ], [ -51.869000523355453, -19.222743749524398 ] ] } }
]
}
