{
"type": "FeatureCollection",
"features": [
{ "type": "Feature", "properties": { "Name": "IVINHEMA", "Description": "IVINHEMA \/ MS" }, "geometry": { "type": "LineString", "coordinates": [ [ -53.58718823454933, -22.193079899018073 ], [ -53.574686120268211, -22.251385631741471 ], [ -53.531967528078894, -22.337633180826572 ], [ -53.538609899127486, -22.372530192914041 ], [ -53.510444366514264, -22.432624304867712 ], [ -53.483054831914899, -22.455255267516517 ], [ -53.526717025170505, -22.540620355944611 ], [ -53.562135105350762, -22.570169774315559 ], [ -53.620197845753921, -22.556424144058951 ], [ -53.661364960824244, -22.571921649164722 ], [ -53.765422388732183, -22.546325744037802 ], [ -53.854405793292699, -22.502759193681811 ], [ -53.878287638263821, -22.460493217687826 ], [ -53.91905315208129, -22.433946526810701 ], [ -54.025286722604108, -22.548170812932653 ], [ -54.027513235347492, -22.544263918744832 ], [ -54.057258936150959, -22.476885786549758 ], [ -54.103453167929331, -22.428437011958465 ], [ -54.114516584572691, -22.356896177916212 ], [ -54.093178689644787, -22.328560196795593 ], [ -54.01673024350589, -22.172238855238959 ], [ -53.992616590183438, -22.155278845642155 ], [ -53.930374274852852, -22.164187461482125 ], [ -53.874840865113811, -22.206573468190982 ], [ -53.824754142689471, -22.210745496907123 ], [ -53.777423083308634, -22.236191514726556 ], [ -53.682778505823357, -22.229825548510235 ], [ -53.58718823454933, -22.193079899018073 ] ] } }
]
}
