{
"type": "FeatureCollection",
"features": [
{ "type": "Feature", "properties": { "Name": "JATEÃ", "Description": "JATEÃ \/ MS" }, "geometry": { "type": "LineString", "coordinates": [ [ -54.027513235347492, -22.544263918744832 ], [ -54.025286722604108, -22.548170812932653 ], [ -53.983958531760777, -22.576802665610501 ], [ -53.917232936850489, -22.663181874543849 ], [ -53.777866852872933, -22.731734257829714 ], [ -53.621675895026492, -22.695337068650758 ], [ -53.596614921941068, -22.66218618114732 ], [ -53.558256309580997, -22.666511542473643 ], [ -53.541703521100594, -22.734572705266089 ], [ -53.489750852020165, -22.746498179647229 ], [ -53.56764414446166, -22.834205042428721 ], [ -53.610733389534232, -22.858247114212929 ], [ -53.623087827041559, -22.900888645294685 ], [ -53.648124026502558, -22.912840128968753 ], [ -53.655899505557663, -22.980059513735512 ], [ -53.687445642802118, -22.940586142236608 ], [ -53.725933006602929, -22.936751850317592 ], [ -53.756624136794414, -22.90295791967219 ], [ -53.817870666997628, -22.898424722323053 ], [ -53.862481188156266, -22.878161233953733 ], [ -53.925450335564506, -22.868646790716749 ], [ -53.976534896268383, -22.836234880635171 ], [ -54.00715363283382, -22.795924521799176 ], [ -54.090888519289706, -22.756926813421671 ], [ -54.131373213502961, -22.719218619543593 ], [ -54.227713919561722, -22.710360279403346 ], [ -54.326622259309772, -22.586206110923229 ], [ -54.392539693751814, -22.632576375998894 ], [ -54.430240363002319, -22.625183379509334 ], [ -54.348133592990905, -22.44320007942008 ], [ -54.113759641394267, -22.535979542122107 ], [ -54.102758583741604, -22.567830605298127 ], [ -54.027513235347492, -22.544263918744832 ] ] } }
]
}
