{
"type": "FeatureCollection",
"features": [
{ "type": "Feature", "properties": { "Name": "NOVA ANDRADINA", "Description": "NOVA ANDRADINA \/ MS" }, "geometry": { "type": "LineString", "coordinates": [ [ -53.025020723127852, -21.615629464328265 ], [ -53.03583304545861, -21.689275801936674 ], [ -53.07982519637568, -21.798916138369066 ], [ -53.076362202153859, -21.837038104025225 ], [ -53.151110501548374, -21.974070688311595 ], [ -53.35493204787565, -22.336055611677065 ], [ -53.497723452575258, -22.586693000281684 ], [ -53.562135105350762, -22.570169774315559 ], [ -53.526717025170505, -22.540620355944611 ], [ -53.483054831914899, -22.455255267516517 ], [ -53.510444366514264, -22.432624304867712 ], [ -53.538609899127486, -22.372530192914041 ], [ -53.531967528078894, -22.337633180826572 ], [ -53.574686120268211, -22.251385631741471 ], [ -53.58718823454933, -22.193079899018073 ], [ -53.590978412024072, -22.148408601675555 ], [ -53.669139009057972, -22.09658427844164 ], [ -53.686340660193252, -22.039197755372072 ], [ -53.736780279286386, -22.015823512045415 ], [ -53.73746764551538, -21.987822879122515 ], [ -53.790052540692159, -21.944474297450824 ], [ -53.792753462901942, -21.922652069037724 ], [ -53.790363714213981, -21.888935351485259 ], [ -53.749502908232607, -21.825936353779635 ], [ -53.732338889228288, -21.730293237442936 ], [ -53.741777828983572, -21.68415511976292 ], [ -53.733575673778262, -21.621503085898667 ], [ -53.626334653021786, -21.613195695624821 ], [ -53.608353712353903, -21.590236135988842 ], [ -53.587163109290032, -21.606969823098837 ], [ -53.49371502223044, -21.593299755679141 ], [ -53.428053683230871, -21.552607879250161 ], [ -53.323111874613282, -21.59790889987579 ], [ -53.209403565522109, -21.571184886972901 ], [ -53.181045970994717, -21.595495024175989 ], [ -53.141185119397669, -21.575083686362973 ], [ -53.025020723127852, -21.615629464328265 ] ] } }
]
}
