{
"type": "FeatureCollection",
"features": [
{ "type": "Feature", "properties": { "Name": "PARANHOS", "Description": "PARANHOS \/ MS" }, "geometry": { "type": "LineString", "coordinates": [ [ -55.272000898622537, -23.569533734893923 ], [ -55.216115970875308, -23.667070548267134 ], [ -55.184254044788304, -23.682105618379524 ], [ -55.161838678412202, -23.738359354500574 ], [ -55.133844395602353, -23.768708145164737 ], [ -55.245251383644415, -23.805607757691803 ], [ -55.278888681167643, -23.83138832511105 ], [ -55.241667809221951, -23.88457692078822 ], [ -55.236917117131213, -23.921006294904544 ], [ -55.271021402016054, -23.92928508224071 ], [ -55.260293622252846, -23.994147731532561 ], [ -55.31772157529042, -23.962893835282216 ], [ -55.349328860138769, -23.993550538526502 ], [ -55.419985541899223, -23.957296715670847 ], [ -55.446335327113616, -23.916931500887983 ], [ -55.430179638779286, -23.790141215344761 ], [ -55.474673938751202, -23.650469912256597 ], [ -55.530427798404105, -23.627821556719425 ], [ -55.526527000720478, -23.567351146837893 ], [ -55.560408168302274, -23.483080285127016 ], [ -55.487394682718389, -23.485957568886647 ], [ -55.455869472697941, -23.458135123137364 ], [ -55.398390742138986, -23.487387011601243 ], [ -55.297197876180974, -23.51191526587678 ], [ -55.272000898622537, -23.569533734893923 ] ] } }
]
}
