{
"type": "FeatureCollection",
"features": [
{ "type": "Feature", "properties": { "Name": "PARANAÃBA", "Description": "PARANAÃBA \/ MS" }, "geometry": { "type": "LineString", "coordinates": [ [ -51.033497868931477, -19.790679312899897 ], [ -51.067637219282176, -19.817192155993155 ], [ -51.130671104387943, -19.826825692851401 ], [ -51.149893771380384, -19.854364129101214 ], [ -51.230115271902207, -19.862867470857054 ], [ -51.272384934217314, -19.847835658988402 ], [ -51.369625371513621, -19.867976189349633 ], [ -51.388338246113108, -19.895560985650945 ], [ -51.475615816616596, -19.959664466841616 ], [ -51.558149720533152, -19.838491758687667 ], [ -51.609701101324724, -19.78918419809224 ], [ -51.621639065490449, -19.75844925832655 ], [ -51.683278177645718, -19.702482313308053 ], [ -51.730863817111405, -19.615375684140474 ], [ -51.793591439893021, -19.566081060292674 ], [ -51.780143413287874, -19.485884352281005 ], [ -51.822057997178774, -19.431731582646364 ], [ -51.848667187340766, -19.269377550133811 ], [ -51.869000523355453, -19.222743749524398 ], [ -51.807087114378753, -19.229174189037565 ], [ -51.76019847108256, -19.217745094560428 ], [ -51.625415859254474, -19.27316224084467 ], [ -51.572413811747985, -19.248607008706411 ], [ -51.552836928781176, -19.209507210189543 ], [ -51.539775693393487, -19.143312373567142 ], [ -51.49160902893351, -19.16285561559414 ], [ -51.420474038246255, -19.166537149569763 ], [ -51.364206854562667, -19.222351297974001 ], [ -51.307811431152565, -19.218530851117862 ], [ -51.272855551242628, -19.263020580735141 ], [ -51.224274683329952, -19.258184692269708 ], [ -51.182193601653353, -19.282405497115974 ], [ -51.094998111373684, -19.306132750426059 ], [ -51.042633432287005, -19.346680059936773 ], [ -51.03227250487214, -19.397898325547256 ], [ -50.935908355286301, -19.460644016608057 ], [ -50.962946217194144, -19.500578796973855 ], [ -50.930881273651828, -19.542243912526487 ], [ -50.924394629208734, -19.580884598145644 ], [ -50.987554581278857, -19.589507556028821 ], [ -51.03818081419319, -19.691767493674831 ], [ -51.046081811626266, -19.73558291971591 ], [ -51.033497868931477, -19.790679312899897 ] ] } }
]
}
