{
"type": "FeatureCollection",
"features": [
{ "type": "Feature", "properties": { "Name": "RIO BRILHANTE", "Description": "RIO BRILHANTE \/ MS" }, "geometry": { "type": "LineString", "coordinates": [ [ -54.701204604408929, -21.355692096512996 ], [ -54.686841326965627, -21.401448079665101 ], [ -54.707338462799775, -21.426307530867803 ], [ -54.667753352335296, -21.464383561851832 ], [ -54.690499949812818, -21.490529120022813 ], [ -54.662093820673249, -21.537760699096964 ], [ -54.587154497182269, -21.490132824770001 ], [ -54.515646833734365, -21.524496888720421 ], [ -54.484593175134869, -21.567190964491374 ], [ -54.445922732747867, -21.585813890698432 ], [ -54.40481661419534, -21.56947034837782 ], [ -54.379970820097242, -21.537630336071118 ], [ -54.34052749764583, -21.61585952169952 ], [ -54.288422053534866, -21.659698378677202 ], [ -54.171055480426048, -21.729801363142371 ], [ -54.088177866415379, -21.748394070330047 ], [ -53.964258700678442, -21.814842659660997 ], [ -53.961559799245322, -21.849397002169894 ], [ -53.896837474769598, -21.881674343096392 ], [ -53.954620174381489, -21.924475118931525 ], [ -54.024594482049679, -21.897095575800162 ], [ -54.100009780726737, -21.913016775803499 ], [ -54.125481750282518, -21.946027564220682 ], [ -54.190841293890571, -21.923612049456494 ], [ -54.231753593253693, -21.953762669111825 ], [ -54.289449029848811, -21.939919335608806 ], [ -54.361002520949569, -21.947400549295875 ], [ -54.42964034792368, -21.925758368753691 ], [ -54.457000678838199, -21.892194603398195 ], [ -54.501448007219722, -21.933881527510437 ], [ -54.531842983466845, -21.911303498957238 ], [ -54.627152641980786, -21.924819964869414 ], [ -54.685677892920353, -21.944365108063266 ], [ -54.698907363583942, -21.915870334548227 ], [ -54.68987993561052, -21.867907243324566 ], [ -54.761647563384308, -21.90522035693385 ], [ -54.797835474927183, -21.825839637089526 ], [ -54.829618170741924, -21.830702896421485 ], [ -54.830030541376345, -21.788002238512433 ], [ -54.87961576855281, -21.770370396676412 ], [ -54.92259387630628, -21.708339578508685 ], [ -54.984282414301958, -21.661420968902576 ], [ -54.987122316841408, -21.624395039399531 ], [ -55.027477427741076, -21.586051507770829 ], [ -55.013308703333955, -21.484134357514563 ], [ -54.891538684362722, -21.337850439246321 ], [ -54.839861145775217, -21.35179711924161 ], [ -54.782307543058607, -21.348762976630042 ], [ -54.769667837900386, -21.378021414856391 ], [ -54.701204604408929, -21.355692096512996 ] ] } }
]
}
