{
"type": "FeatureCollection",
"features": [
{ "type": "Feature", "properties": { "Name": "SETE QUEDAS", "Description": "SETE QUEDAS \/ MS" }, "geometry": { "type": "LineString", "coordinates": [ [ -54.68763425831434, -23.832570510020957 ], [ -54.705183374213334, -23.86460626426765 ], [ -54.792796664334553, -23.868078658203444 ], [ -54.860113065265693, -23.905201290906803 ], [ -54.926877120582617, -23.924813973186243 ], [ -54.925252328032457, -23.960281771486507 ], [ -54.998589296159025, -23.957589345172096 ], [ -55.062331482811658, -23.993288627168337 ], [ -55.106970863214713, -23.965211871130919 ], [ -55.128726408696757, -23.983730016427042 ], [ -55.229040162173703, -24.013966642746311 ], [ -55.260293622252846, -23.994147731532561 ], [ -55.271021402016054, -23.92928508224071 ], [ -55.236917117131213, -23.921006294904544 ], [ -55.241667809221951, -23.88457692078822 ], [ -55.278888681167643, -23.83138832511105 ], [ -55.245251383644415, -23.805607757691803 ], [ -55.133844395602353, -23.768708145164737 ], [ -55.070672145303199, -23.839176979234139 ], [ -54.997336123263437, -23.876216663867918 ], [ -54.943470699613044, -23.839476332966342 ], [ -54.838952129037466, -23.809420832805131 ], [ -54.710446459536449, -23.737046582633639 ], [ -54.68763425831434, -23.832570510020957 ] ] } }
]
}
