{
"type": "FeatureCollection",
"features": [
{ "type": "Feature", "properties": { "Name": "SONORA", "Description": "SONORA \/ MS" }, "geometry": { "type": "LineString", "coordinates": [ [ -53.757798610917114, -17.671375056413694 ], [ -53.832575825314052, -17.633583997203687 ], [ -53.893074268862392, -17.649868014297397 ], [ -53.909776458116994, -17.672542413301699 ], [ -53.959777071354715, -17.634510209878215 ], [ -54.015713130056838, -17.643782163515993 ], [ -54.04913601481519, -17.632844779662829 ], [ -54.10479565249733, -17.662259317713279 ], [ -54.162139313878185, -17.760161892557278 ], [ -54.208390787504811, -17.759621247122819 ], [ -54.280103359682244, -17.802160633206597 ], [ -54.29285919609498, -17.770345510536856 ], [ -54.389213800276593, -17.753490012054385 ], [ -54.45886020343562, -17.703309654916609 ], [ -54.502976511157044, -17.727217698038313 ], [ -54.620224513150731, -17.697129659506118 ], [ -54.739664156675474, -17.723996024297037 ], [ -54.761366268938104, -17.750310453564506 ], [ -54.731945168534651, -17.817302194740478 ], [ -54.705448560902312, -17.848272728103893 ], [ -54.68789075305574, -17.913887815869941 ], [ -54.738717743429049, -17.938463233291543 ], [ -54.751833972359911, -17.970721907889693 ], [ -54.813029309554963, -17.992989584002032 ], [ -54.869971800458188, -17.998507128001503 ], [ -54.934176119931976, -17.947199177500011 ], [ -54.959976093821631, -17.898522519198877 ], [ -54.988630668770327, -17.882135462281724 ], [ -55.037037064608796, -17.888405119200854 ], [ -55.125640143178032, -17.830266423856358 ], [ -55.134725894884127, -17.755960767175623 ], [ -55.15839883273992, -17.740509252499976 ], [ -55.137087532563548, -17.650187833901384 ], [ -55.072648210346586, -17.63163257538298 ], [ -55.047312335196068, -17.640333037739481 ], [ -54.943424422299188, -17.609028363967752 ], [ -54.860863811215893, -17.623853497241043 ], [ -54.758780918604486, -17.56569641705596 ], [ -54.746913033209864, -17.519942237044575 ], [ -54.63608075961934, -17.495724371182746 ], [ -54.570306613259554, -17.473369704548187 ], [ -54.502304885761816, -17.480710821846912 ], [ -54.468718253344662, -17.5271915308644 ], [ -54.426303206627665, -17.537000148637897 ], [ -54.392029150424889, -17.570556514371617 ], [ -54.387798699949997, -17.631936655052527 ], [ -54.302420402279722, -17.661660209151307 ], [ -54.191630246638503, -17.605649083138644 ], [ -54.084692452094941, -17.619034804712442 ], [ -54.051633021146984, -17.562770088768559 ], [ -54.058077104274901, -17.513129320361827 ], [ -54.02326659437778, -17.477073074962391 ], [ -53.973050115970011, -17.472244030337663 ], [ -53.931100554746763, -17.439450313081466 ], [ -53.86943880665558, -17.36919144552877 ], [ -53.831323329607926, -17.355020414360581 ], [ -53.820072737067107, -17.294615654988434 ], [ -53.785713264155788, -17.287515132417354 ], [ -53.762826769939466, -17.246601314099337 ], [ -53.705145025522484, -17.228153774576981 ], [ -53.680074906331811, -17.253569712771988 ], [ -53.703885303763741, -17.661344520133468 ], [ -53.757798610917114, -17.671375056413694 ] ] } }
]
}
