{
"type": "FeatureCollection",
"features": [
{ "type": "Feature", "properties": { "Name": "CARACARAÃ", "Description": "CARACARAÃ \/ RR" }, "geometry": { "type": "LineString", "coordinates": [ [ -61.022117919506343, 1.999631246185118 ], [ -60.9781255851276, 1.945793788752383 ], [ -60.929260097975089, 1.983539596775017 ], [ -60.830842980519094, 1.98331434628011 ], [ -60.742400073004944, 1.999479022439004 ], [ -60.760368973549241, 1.935622441122803 ], [ -60.73961807781199, 1.897307591572144 ], [ -60.654833858795477, 1.897765818637651 ], [ -60.589812279513062, 1.851211018973401 ], [ -60.575148524185011, 1.790476555548651 ], [ -60.52775267314729, 1.723001072641409 ], [ -60.390030982443811, 1.737973763978061 ], [ -60.302117935694127, 1.827491316371208 ], [ -60.230037463458125, 1.883664796093512 ], [ -60.166113505833607, 1.958559755128647 ], [ -60.156639007783951, 1.99964161177104 ], [ -59.73352607856566, 1.999634016096991 ], [ -59.759391498818559, 1.900466846967447 ], [ -59.746056598832929, 1.851855499231931 ], [ -59.69189196893916, 1.853525195831196 ], [ -59.690222503465748, 1.756298582913302 ], [ -59.566611911310645, 1.735742358922778 ], [ -59.533554109034867, 1.716296464010668 ], [ -59.483004771752746, 1.626577625357186 ], [ -59.447998846369607, 1.619353366864459 ], [ -59.41271990839703, 1.551575988740922 ], [ -59.44772527080454, 1.545744021069765 ], [ -59.479943051430666, 1.591025202651053 ], [ -59.519111983531161, 1.589911531691882 ], [ -59.630504546447639, 1.624073897492451 ], [ -59.764672079552781, 1.606300527547376 ], [ -59.817725028687107, 1.489631218605894 ], [ -59.772169711263125, 1.366295646327046 ], [ -59.790775760792705, 1.338799552857154 ], [ -59.779392457995527, 1.276027401943111 ], [ -59.824112690148461, 1.256303197434647 ], [ -59.841058885259322, 1.202684808557137 ], [ -59.961333083454967, 1.1779696212011 ], [ -59.982449416007682, 1.13546819909817 ], [ -60.090500601821304, 1.100743217425588 ], [ -60.214685826589566, 1.129079245310947 ], [ -60.267091087583594, 1.128139630939245 ], [ -60.317725294786506, 1.142412018399966 ], [ -60.399948842664912, 1.131579143862439 ], [ -60.464391156026984, 1.082693518191377 ], [ -60.5613438723218, 0.939075837979601 ], [ -60.619672973928573, 0.897138375335828 ], [ -60.713844283187079, 0.867136926228227 ], [ -60.734396265075532, 0.933251113448193 ], [ -60.775226736024997, 0.940743296166261 ], [ -60.823282838731984, 1.006303353517012 ], [ -60.820504893186239, 1.064079060899985 ], [ -60.885229179982616, 1.130190204814141 ], [ -60.924397770340761, 1.073526642240779 ], [ -61.012728769816817, 1.09796565948767 ], [ -61.106340751124712, 0.99047025469855 ], [ -61.128012361980886, 0.943802043329697 ], [ -61.317458802981321, 0.9951863246892 ], [ -61.345786859276075, 0.979632179381611 ], [ -61.424396490505607, 0.869909513613209 ], [ -61.453839998417152, 0.785476046382484 ], [ -61.500514867467132, 0.723527281458928 ], [ -61.559403048811582, 0.679354203134039 ], [ -61.617179159990208, 0.601578174193435 ], [ -61.650234810188294, 0.51547005869628 ], [ -61.683847770258346, 0.489634431184072 ], [ -61.75885075495836, 0.309635311620355 ], [ -61.777733276769247, 0.167697102739169 ], [ -61.780234041367862, 0.039087061518728 ], [ -61.8160686884192, -0.038414916115414 ], [ -61.7907935957478, -0.106471802631518 ], [ -61.838010907077653, -0.271744252095516 ], [ -61.844678807181133, -0.38869136251634 ], [ -61.801631050532535, -0.449780766768924 ], [ -61.824956966091065, -0.525913457340152 ], [ -61.8102363232477, -0.608414208648753 ], [ -61.867736543106957, -0.723967172946629 ], [ -61.848017711148429, -0.821740814686791 ], [ -61.883850660279727, -0.893684977579596 ], [ -61.869685715723165, -0.931745694008498 ], [ -61.889681474120721, -1.000344546163831 ], [ -61.8588429153682, -1.057301079081469 ], [ -61.880788103588088, -1.117573556274579 ], [ -61.839958681248099, -1.2653579843834 ], [ -61.872454363178292, -1.330358682307292 ], [ -61.839937640709536, -1.401059577437479 ], [ -61.896623907567225, -1.395355256839593 ], [ -61.949956247282948, -1.297020483108781 ], [ -62.017460275571239, -1.141743981099808 ], [ -62.062178984272684, -1.099799161102339 ], [ -62.099681538272307, -1.096743306158601 ], [ -62.171907462359457, -1.005912380252084 ], [ -62.312742272337964, -0.930355007577475 ], [ -62.364962121904341, -0.877304453337786 ], [ -62.376067191547627, -0.836469325698772 ], [ -62.501073154702276, -0.781466096882809 ], [ -62.508291763653915, -0.714249167265223 ], [ -62.46967904155445, -0.693965906401388 ], [ -62.367185213626662, -0.710076143898903 ], [ -62.287537920338707, -0.638332251931843 ], [ -62.318363769872072, -0.552511960858283 ], [ -62.273935511614525, -0.454156730248826 ], [ -62.202262855846065, -0.393043700806118 ], [ -62.197260359877639, -0.32304430924745 ], [ -62.254208713461303, -0.279712470254253 ], [ -62.245038933599858, -0.174716055701367 ], [ -62.319735980630981, -0.102524214121161 ], [ -62.322741815282484, -0.0242448813961 ], [ -62.346642851786157, 0.029607343803946 ], [ -62.414966771299419, 0.07437888947419 ], [ -62.424125779980727, 0.153250156869319 ], [ -62.452743625717687, 0.207414177922033 ], [ -62.466889137723506, 0.332967783236654 ], [ -62.446371345361285, 0.379113797863511 ], [ -62.485245965329, 0.454080444556894 ], [ -62.533008617453675, 0.508808358518991 ], [ -62.518849209123687, 0.593771913143314 ], [ -62.538290530983204, 0.675195541940752 ], [ -62.500494223329717, 0.747948310466199 ], [ -62.463026079190172, 0.776868783467648 ], [ -62.484685621144472, 0.876020272917287 ], [ -62.442735416006599, 0.958533912410189 ], [ -62.47469584303866, 1.016299726351349 ], [ -62.471620890091963, 1.086281633290809 ], [ -62.521087891492975, 1.083815877500797 ], [ -62.620521143036278, 1.362693391187122 ], [ -62.639964768059549, 1.438238305553398 ], [ -62.730800502641038, 1.499632021500645 ], [ -62.736349324161949, 1.529629589134288 ], [ -62.662573180208078, 1.538646357443497 ], [ -62.589043183396143, 1.601553295148506 ], [ -62.46615839539362, 1.648215618655911 ], [ -62.286127762686078, 1.759378947080791 ], [ -62.080456575310677, 1.863496813027552 ], [ -61.954486045194805, 1.915439638128817 ], [ -61.781576371252463, 1.946874493263294 ], [ -61.616545608293166, 1.93874436566 ], [ -61.534179317321609, 1.989512975643379 ], [ -61.414808401786281, 2.02563467549993 ], [ -61.366063728658105, 1.996944329117526 ], [ -61.200346756897261, 1.971770993836344 ], [ -61.022117919506343, 1.999631246185118 ] ] } }
]
}
