{
"type": "FeatureCollection",
"features": [
{ "type": "Feature", "properties": { "Name": "SÃO LUIZ", "Description": "SÃO LUIZ \/ RR" }, "geometry": { "type": "LineString", "coordinates": [ [ -60.153006851085252, 0.563521061347956 ], [ -60.223876864625531, 0.566149964948977 ], [ -60.223416054707116, 0.628977608529851 ], [ -60.256062579924098, 0.673001919203273 ], [ -60.263978199434284, 0.742343230056065 ], [ -60.295946803102424, 0.775864849583172 ], [ -60.201643841190283, 0.879707581439789 ], [ -60.277837843941313, 0.975897936140882 ], [ -60.402672774029263, 1.002510080575803 ], [ -60.306522707157171, 1.041021934714536 ], [ -60.267091087583594, 1.128139630939245 ], [ -60.214685826589566, 1.129079245310947 ], [ -60.090500601821304, 1.100743217425588 ], [ -59.982449416007682, 1.13546819909817 ], [ -59.981063693834351, 0.999638687375579 ], [ -60.050229585626823, 0.899357613463167 ], [ -60.048557679393362, 0.800474821655769 ], [ -60.069191108382881, 0.611986605597394 ], [ -60.153006851085252, 0.563521061347956 ] ] } }
]
}
