{
"type": "FeatureCollection",
"features": [
{ "type": "Feature", "properties": { "Name": "ANTÃNIO ALMEIDA", "Description": "ANTÃNIO ALMEIDA \/ PI" }, "geometry": { "type": "LineString", "coordinates": [ [ -44.068991013324535, -7.199266965198262 ], [ -44.090884454553873, -7.218782853445873 ], [ -44.071446836102552, -7.268754426675399 ], [ -44.184467449812928, -7.417834343480137 ], [ -44.257200966551295, -7.273721662025024 ], [ -44.297538117090369, -7.26348942040039 ], [ -44.35168398892489, -7.227776265462239 ], [ -44.332999991556328, -7.208210300265079 ], [ -44.3159011536153, -7.117990617472969 ], [ -44.276533912010393, -7.075099288901014 ], [ -44.278997786418643, -7.046000157481217 ], [ -44.223311285986988, -7.086890003470842 ], [ -44.150929288156078, -7.116963056599729 ], [ -44.068991013324535, -7.199266965198262 ] ] } }
]
}
