{
"type": "FeatureCollection",
"features": [
{ "type": "Feature", "properties": { "Name": "CAJAZEIRAS DO PIAUÃ", "Description": "CAJAZEIRAS DO PIAUÃ \/ PI" }, "geometry": { "type": "LineString", "coordinates": [ [ -42.375437282504549, -6.676699272653251 ], [ -42.334839897842983, -6.729543061063396 ], [ -42.319647360037607, -6.771524335979279 ], [ -42.360660543549216, -6.806260163475713 ], [ -42.432997277602226, -6.901604855079937 ], [ -42.473719203978021, -6.90500862624708 ], [ -42.541158153725746, -6.862789547199782 ], [ -42.56660046813704, -6.869129785611051 ], [ -42.606456993995039, -6.808581873054947 ], [ -42.570008139663855, -6.788134217919776 ], [ -42.54915997325412, -6.721531855310843 ], [ -42.489143743488903, -6.708162709141675 ], [ -42.477463987273154, -6.667459985090204 ], [ -42.375437282504549, -6.676699272653251 ] ] } }
]
}
