{
"type": "FeatureCollection",
"features": [
{ "type": "Feature", "properties": { "Name": "CAJUEIRO DA PRAIA", "Description": "CAJUEIRO DA PRAIA \/ PI" }, "geometry": { "type": "LineString", "coordinates": [ [ -41.261463143908941, -3.053851433097122 ], [ -41.321165694641017, -3.049788952598021 ], [ -41.427163753404443, -3.076140713622976 ], [ -41.445579960546695, -2.965439329161654 ], [ -41.43792321178676, -2.911866932512851 ], [ -41.399766671694522, -2.903997838529392 ], [ -41.338485728933222, -2.927595115522137 ], [ -41.320742063595333, -2.956443863093738 ], [ -41.271263317947728, -2.971612122801162 ], [ -41.248957880201942, -3.030441152137428 ], [ -41.261463143908941, -3.053851433097122 ] ] } }
]
}
