{
"type": "FeatureCollection",
"features": [
{ "type": "Feature", "properties": { "Name": "CAMPO MAIOR", "Description": "CAMPO MAIOR \/ PI" }, "geometry": { "type": "LineString", "coordinates": [ [ -42.062500664074321, -4.660997760338319 ], [ -42.00467087506081, -4.700955102895648 ], [ -41.951847243155726, -4.684822269931772 ], [ -41.908093701263283, -4.688243451973676 ], [ -41.888771175349405, -4.716628438051941 ], [ -41.93135698443723, -4.762280426300605 ], [ -41.98385444842404, -4.769933014796719 ], [ -42.013980115489915, -4.803830877393011 ], [ -42.000991583994391, -4.842307819849964 ], [ -42.023642418063105, -4.866730674481005 ], [ -42.085772968347783, -4.858806906213715 ], [ -42.051356886710892, -4.909566387178984 ], [ -42.03852411959241, -4.986354335484123 ], [ -41.980410866068546, -5.000328314400122 ], [ -41.946110007370919, -5.027940946517447 ], [ -41.98101530221436, -5.169742811881235 ], [ -41.994747841040002, -5.167880277252948 ], [ -42.0383820833664, -5.158888702551508 ], [ -42.079368652341373, -5.123391328247179 ], [ -42.120127404156335, -5.138038462305133 ], [ -42.191756856493662, -5.119724682547997 ], [ -42.150766441118321, -5.065299355380887 ], [ -42.312888733628085, -4.938532123958282 ], [ -42.370405492019813, -4.831989454649545 ], [ -42.335534991046977, -4.672722801915711 ], [ -42.29575004942518, -4.551067203688433 ], [ -42.277581458017835, -4.548984477251793 ], [ -42.282280394124818, -4.678962216433092 ], [ -42.316971621543068, -4.727315829262068 ], [ -42.257308423345023, -4.743798565051691 ], [ -42.260188764799629, -4.669900739227671 ], [ -42.225712904327054, -4.665383530925169 ], [ -42.204960947389793, -4.726324733199816 ], [ -42.150074874156076, -4.701271060810768 ], [ -42.103175668322365, -4.724932541303701 ], [ -42.062500664074321, -4.660997760338319 ] ] } }
]
}
