{
"type": "FeatureCollection",
"features": [
{ "type": "Feature", "properties": { "Name": "CARIDADE DO PIAUÃ", "Description": "CARIDADE DO PIAUÃ \/ PI" }, "geometry": { "type": "LineString", "coordinates": [ [ -40.807269847125724, -7.766689149684453 ], [ -40.853121073878413, -7.730589950865522 ], [ -40.9012879092096, -7.733719118542466 ], [ -40.951479451215675, -7.824962900717253 ], [ -41.017176531971359, -7.792687273898536 ], [ -41.091703677282851, -7.769862483966391 ], [ -41.098260666696376, -7.720634454016817 ], [ -41.06459998320264, -7.648340505210115 ], [ -41.006018107349746, -7.634830207747824 ], [ -40.942347790917772, -7.598164021452362 ], [ -40.900165587671658, -7.600536804429908 ], [ -40.85212925386196, -7.626424648378759 ], [ -40.797405237561634, -7.692922506168657 ], [ -40.807269847125724, -7.766689149684453 ] ] } }
]
}
