{
"type": "FeatureCollection",
"features": [
{ "type": "Feature", "properties": { "Name": "COCAL", "Description": "COCAL \/ PI" }, "geometry": { "type": "LineString", "coordinates": [ [ -41.367036750545537, -3.56144046280707 ], [ -41.430746450088577, -3.538325826775463 ], [ -41.517577601624964, -3.566017869029395 ], [ -41.524170683530201, -3.605811390183475 ], [ -41.649071699399371, -3.639970341258219 ], [ -41.678007972589796, -3.664674591958828 ], [ -41.745528000716604, -3.672621381971168 ], [ -41.746568278902885, -3.586452524464391 ], [ -41.701429567920172, -3.545870945387775 ], [ -41.674396105495816, -3.481932801857283 ], [ -41.662494983856391, -3.379412361191442 ], [ -41.693607336709192, -3.307570073500017 ], [ -41.616019979238615, -3.278513367597782 ], [ -41.516605469566741, -3.212309988315269 ], [ -41.511491205854441, -3.185727827277332 ], [ -41.481835745723053, -3.233546622278766 ], [ -41.502799297849258, -3.283187677569231 ], [ -41.485873526342118, -3.315653183647441 ], [ -41.414351458452984, -3.349939144176119 ], [ -41.375424569887969, -3.399070435851911 ], [ -41.32404927635298, -3.385924076934543 ], [ -41.319738983167497, -3.484086947054891 ], [ -41.336869335151675, -3.553893562637768 ], [ -41.367036750545537, -3.56144046280707 ] ] } }
]
}
