{
"type": "FeatureCollection",
"features": [
{ "type": "Feature", "properties": { "Name": "FLORIANO", "Description": "FLORIANO \/ PI" }, "geometry": { "type": "LineString", "coordinates": [ [ -42.841451347401744, -6.705632525020973 ], [ -42.79327519869144, -6.774568481750009 ], [ -42.798871755327184, -6.915158273235647 ], [ -42.944602103104558, -7.133413705478063 ], [ -42.930607940703844, -7.19300333463616 ], [ -42.852428000152031, -7.21461626382944 ], [ -42.815539377340372, -7.279751823188064 ], [ -42.842318334323629, -7.354357367798229 ], [ -42.885009452224381, -7.35880205567031 ], [ -43.075005514792622, -7.314257212000711 ], [ -43.147669919531097, -7.222092555526956 ], [ -43.225546495374431, -7.283428570971751 ], [ -43.356097707942801, -7.204371017108713 ], [ -43.30601336422535, -6.991310722811534 ], [ -43.441587129442439, -6.944722504340063 ], [ -43.391581803757212, -6.83436276512947 ], [ -43.34898457507802, -6.798077215091382 ], [ -43.2787253154209, -6.796616209770207 ], [ -43.250138375785355, -6.768568864261624 ], [ -43.210529720170427, -6.763128476697773 ], [ -43.152669147363213, -6.782775758594312 ], [ -43.082112350604461, -6.748081032813388 ], [ -43.002392349827055, -6.755588109203813 ], [ -42.9497189352806, -6.704886171359647 ], [ -42.915393695062953, -6.646069652492429 ], [ -42.856937652350723, -6.662281908183445 ], [ -42.841451347401744, -6.705632525020973 ] ] } }
]
}
