{
"type": "FeatureCollection",
"features": [
{ "type": "Feature", "properties": { "Name": "JOÃO COSTA", "Description": "JOÃO COSTA \/ PI" }, "geometry": { "type": "LineString", "coordinates": [ [ -42.15878683434488, -8.590263877276072 ], [ -42.189407669028633, -8.583977196190631 ], [ -42.210062347199539, -8.649191070311588 ], [ -42.29144080664787, -8.630105106565395 ], [ -42.310745109599104, -8.662576978045079 ], [ -42.475154350193066, -8.657313815380235 ], [ -42.603906482498132, -8.728818752983045 ], [ -42.733489154001234, -8.800637877735824 ], [ -42.725978134083562, -8.684842744896741 ], [ -42.694548336736318, -8.550504205704499 ], [ -42.638026659302852, -8.4933930784278 ], [ -42.643660875049306, -8.416311246067096 ], [ -42.608029516149202, -8.30255025109318 ], [ -42.333413234033458, -8.39827898918395 ], [ -42.296275706758422, -8.448743124695397 ], [ -42.190814424546033, -8.508679083672744 ], [ -42.15878683434488, -8.590263877276072 ] ] } }
]
}
