{
"type": "FeatureCollection",
"features": [
{ "type": "Feature", "properties": { "Name": "JOCA MARQUES", "Description": "JOCA MARQUES \/ PI" }, "geometry": { "type": "LineString", "coordinates": [ [ -42.398897331046953, -3.472849719339024 ], [ -42.367310686538929, -3.508513936768736 ], [ -42.383161216916562, -3.541760724377866 ], [ -42.385718489516648, -3.613766354133872 ], [ -42.433308827940039, -3.62963826589322 ], [ -42.480277644897342, -3.600932986268276 ], [ -42.454672052273331, -3.564487892901866 ], [ -42.47441889901296, -3.523434729129405 ], [ -42.466825347411827, -3.485398333066598 ], [ -42.436321163790637, -3.456994828148765 ], [ -42.398897331046953, -3.472849719339024 ] ] } }
]
}
