{
"type": "FeatureCollection",
"features": [
{ "type": "Feature", "properties": { "Name": "JUAZEIRO DO PIAUÃ", "Description": "JUAZEIRO DO PIAUÃ \/ PI" }, "geometry": { "type": "LineString", "coordinates": [ [ -41.497942116135732, -5.013981835193476 ], [ -41.510772269824372, -5.05964295605753 ], [ -41.598965544424289, -5.080688724205231 ], [ -41.619407248745517, -5.119469759821527 ], [ -41.694075230587366, -5.176091450859701 ], [ -41.722353157771977, -5.17529275845402 ], [ -41.733932793363685, -5.038191788819972 ], [ -41.734802744451031, -4.987206042025149 ], [ -41.646368080122784, -4.825914012621524 ], [ -41.602896378564992, -4.880541221400222 ], [ -41.429048369986219, -4.817560091425037 ], [ -41.412586109061635, -4.817232738200231 ], [ -41.408895078245223, -4.870463043534585 ], [ -41.432660554540917, -4.909216755948477 ], [ -41.4463722803564, -4.984019292556241 ], [ -41.497942116135732, -5.013981835193476 ] ] } }
]
}
