{
"type": "FeatureCollection",
"features": [
{ "type": "Feature", "properties": { "Name": "LAGOA DO BARRO DO PIAUÃ", "Description": "LAGOA DO BARRO DO PIAUÃ \/ PI" }, "geometry": { "type": "LineString", "coordinates": [ [ -41.542288428168369, -8.353781117104802 ], [ -41.497197354274419, -8.45637609358181 ], [ -41.498148960206315, -8.567807419077099 ], [ -41.522905662066592, -8.726134968254144 ], [ -41.478019789181872, -8.727824660379724 ], [ -41.43076890705936, -8.67103272677889 ], [ -41.381251534630564, -8.707272369124496 ], [ -41.411391213133925, -8.774368228410992 ], [ -41.455136856280831, -8.756458287420001 ], [ -41.514263986593676, -8.790946348994737 ], [ -41.547345203618192, -8.779951608180111 ], [ -41.601394171703646, -8.795340133440334 ], [ -41.659078012440261, -8.751455750082755 ], [ -41.737431996089697, -8.732908448765841 ], [ -41.750820827519135, -8.605080636961759 ], [ -41.712167787013698, -8.500224592191103 ], [ -41.754673268656404, -8.423106044108579 ], [ -41.726978773051883, -8.400300696619807 ], [ -41.673542628189693, -8.392465999006617 ], [ -41.67698116265052, -8.328509658593816 ], [ -41.657106167915288, -8.29900333033936 ], [ -41.57335204496087, -8.324271678994762 ], [ -41.542288428168369, -8.353781117104802 ] ] } }
]
}
