{
"type": "FeatureCollection",
"features": [
{ "type": "Feature", "properties": { "Name": "MANOEL EMÃDIO", "Description": "MANOEL EMÃDIO \/ PI" }, "geometry": { "type": "LineString", "coordinates": [ [ -43.795953408323101, -8.068322152445319 ], [ -43.818263349873632, -8.152846211983046 ], [ -43.822280098048054, -8.253521325648592 ], [ -43.825863810066721, -8.314985570028 ], [ -43.879109424560227, -8.3135719239051 ], [ -43.919285687284571, -8.387336331706308 ], [ -44.013329897157007, -8.403061572133822 ], [ -44.106700160483967, -8.369405691919098 ], [ -44.383518477595594, -8.366142957831185 ], [ -44.36263334455316, -8.295462328923293 ], [ -44.129684296792846, -8.274577185988278 ], [ -44.099093895167073, -8.029285586160825 ], [ -43.975012265103878, -8.003162619858983 ], [ -43.866332600668954, -7.975990449599521 ], [ -43.791089416943009, -7.982212397484091 ], [ -43.795953408323101, -8.068322152445319 ] ] } }
]
}
