{
"type": "FeatureCollection",
"features": [
{ "type": "Feature", "properties": { "Name": "MIGUEL LEÃO", "Description": "MIGUEL LEÃO \/ PI" }, "geometry": { "type": "LineString", "coordinates": [ [ -42.60282284979462, -5.713097042094773 ], [ -42.608683835890247, -5.730304126034525 ], [ -42.616425593965971, -5.758513859427012 ], [ -42.633117807940437, -5.73465924322943 ], [ -42.680152582075948, -5.741702269444147 ], [ -42.700762440734024, -5.714670796320148 ], [ -42.744812061027744, -5.717720894703461 ], [ -42.766976601089254, -5.689179494937719 ], [ -42.814049632384581, -5.678368825560824 ], [ -42.734043973650444, -5.661258968226774 ], [ -42.60282284979462, -5.713097042094773 ] ] } }
]
}
