{
"type": "FeatureCollection",
"features": [
{ "type": "Feature", "properties": { "Name": "MILTON BRANDÃO", "Description": "MILTON BRANDÃO \/ PI" }, "geometry": { "type": "LineString", "coordinates": [ [ -41.646368080122784, -4.825914012621524 ], [ -41.746934124010579, -4.70290271069149 ], [ -41.776750488144444, -4.688761688101351 ], [ -41.745263117099114, -4.590442790102657 ], [ -41.512235340888253, -4.580687817788487 ], [ -41.293513977987629, -4.556131730395008 ], [ -41.295170468941933, -4.814888252390915 ], [ -41.412586109061635, -4.817232738200231 ], [ -41.429048369986219, -4.817560091425037 ], [ -41.602896378564992, -4.880541221400222 ], [ -41.646368080122784, -4.825914012621524 ] ] } }
]
}
