{
"type": "FeatureCollection",
"features": [
{ "type": "Feature", "properties": { "Name": "MONTE ALEGRE DO PIAUÃ", "Description": "MONTE ALEGRE DO PIAUÃ \/ PI" }, "geometry": { "type": "LineString", "coordinates": [ [ -44.956600949174401, -9.824255983726628 ], [ -45.021342967004273, -9.807945444726442 ], [ -45.063219886388588, -9.823470111156666 ], [ -45.099960433127414, -9.795049253819968 ], [ -45.180924161221014, -9.800969943208258 ], [ -45.250673606901387, -9.822192229387838 ], [ -45.305856186613653, -9.796785401325167 ], [ -45.331415103524186, -9.740055261041391 ], [ -45.300005618264606, -9.693012276994919 ], [ -45.334872054301798, -9.679640172955544 ], [ -45.11482155996697, -9.330529718271862 ], [ -44.817755006987959, -9.462404360572748 ], [ -44.670212770802664, -9.553280973837843 ], [ -44.666482896468438, -9.561877670617946 ], [ -44.658690203490039, -9.583036513224442 ], [ -44.806619169738831, -9.680521203690546 ], [ -44.881790330359422, -9.779809481822099 ], [ -44.956600949174401, -9.824255983726628 ] ] } }
]
}
