{
"type": "FeatureCollection",
"features": [
{ "type": "Feature", "properties": { "Name": "MURICI DOS PORTELAS", "Description": "MURICI DOS PORTELAS \/ PI" }, "geometry": { "type": "LineString", "coordinates": [ [ -41.927456363920037, -3.326422728825833 ], [ -42.004341071183433, -3.338090042921124 ], [ -41.952351492127605, -3.393282282251505 ], [ -41.915882131455135, -3.412324771870658 ], [ -41.925542540056142, -3.467715871090547 ], [ -41.976446619415924, -3.450307317428724 ], [ -41.974768640060631, -3.507028363767915 ], [ -42.05371909276186, -3.490549653343805 ], [ -42.049692921491101, -3.450250353471006 ], [ -42.09171520729091, -3.434754405990986 ], [ -42.063814294793815, -3.395182887879912 ], [ -42.125199091265017, -3.345593110133905 ], [ -42.115825064575006, -3.262326387352857 ], [ -42.000221164475136, -3.24108652931983 ], [ -41.978262760717769, -3.217369734225827 ], [ -41.929217979326268, -3.235387213449087 ], [ -41.910404726896559, -3.281390752980826 ], [ -41.927456363920037, -3.326422728825833 ] ] } }
]
}
