{
"type": "FeatureCollection",
"features": [
{ "type": "Feature", "properties": { "Name": "NOSSA SENHORA DOS REMÃDIOS", "Description": "NOSSA SENHORA DOS REMÃDIOS \/ PI" }, "geometry": { "type": "LineString", "coordinates": [ [ -42.514292743115561, -4.043397004767883 ], [ -42.535032072671981, -4.101401854911614 ], [ -42.594781290124388, -4.133609287938214 ], [ -42.646674162382624, -4.130891365843808 ], [ -42.686729311608417, -4.095182766871119 ], [ -42.696653146025817, -3.985017707501129 ], [ -42.625820359022327, -3.927241545061235 ], [ -42.622753839917721, -3.90389296478844 ], [ -42.612645825244613, -3.897500636744951 ], [ -42.533211239606999, -3.965699799606 ], [ -42.514292743115561, -4.043397004767883 ] ] } }
]
}
