{
"type": "FeatureCollection",
"features": [
{ "type": "Feature", "properties": { "Name": "NOVO SANTO ANTÃNIO", "Description": "NOVO SANTO ANTÃNIO \/ PI" }, "geometry": { "type": "LineString", "coordinates": [ [ -41.861773577888243, -5.360723365890578 ], [ -41.925811538971281, -5.381511310998178 ], [ -41.944411964140784, -5.407053743335553 ], [ -41.991572673939686, -5.387313264695365 ], [ -42.035771278621546, -5.338752722360198 ], [ -41.994747841040002, -5.167880277252948 ], [ -41.98101530221436, -5.169742811881235 ], [ -41.800807560620399, -5.194145334639416 ], [ -41.798977028367119, -5.321713590409842 ], [ -41.849876457332584, -5.338080598740589 ], [ -41.861773577888243, -5.360723365890578 ] ] } }
]
}
