{
"type": "FeatureCollection",
"features": [
{ "type": "Feature", "properties": { "Name": "OEIRAS", "Description": "OEIRAS \/ PI" }, "geometry": { "type": "LineString", "coordinates": [ [ -41.927624868992496, -6.644387644174401 ], [ -41.921898782103085, -6.646609512818713 ], [ -41.932876800024246, -6.670026341742243 ], [ -41.916679871478834, -6.740197743930707 ], [ -41.916448130576725, -6.830020997471024 ], [ -41.963965346023883, -6.863039931047922 ], [ -41.993833397793026, -6.925033838340937 ], [ -41.996266063028315, -6.960357190232116 ], [ -41.973190892845366, -7.014213946216614 ], [ -41.87981906559736, -7.02279013755475 ], [ -41.898128998954114, -7.051521969663098 ], [ -41.91839379943422, -7.062614861586552 ], [ -41.89966799977833, -7.124343825007485 ], [ -41.919688570471124, -7.184719486814799 ], [ -41.992015845454887, -7.265939170056583 ], [ -42.052052148088137, -7.318534951526771 ], [ -42.09721588720339, -7.155381255340615 ], [ -42.168700247418428, -7.105389571471505 ], [ -42.231466842320856, -7.138465707326475 ], [ -42.249438253772325, -7.170938104010247 ], [ -42.306593644780826, -7.195516876802401 ], [ -42.310236027670499, -7.223264203080475 ], [ -42.403837995027402, -7.169818071246936 ], [ -42.420796301308201, -6.967151490049162 ], [ -42.6254164761894, -6.997533249859544 ], [ -42.601105089827968, -6.968046175190806 ], [ -42.56660046813704, -6.869129785611051 ], [ -42.541158153725746, -6.862789547199782 ], [ -42.473719203978021, -6.90500862624708 ], [ -42.432997277602226, -6.901604855079937 ], [ -42.360660543549216, -6.806260163475713 ], [ -42.289388651764853, -6.834111265222646 ], [ -42.291165660866511, -6.877860155821509 ], [ -42.246495412133527, -6.865401610096171 ], [ -42.240414696481025, -6.906642272622719 ], [ -42.204572803591986, -6.91021331858974 ], [ -42.12539694031647, -6.844343270325623 ], [ -42.111151442584969, -6.754797481018898 ], [ -42.136651068092242, -6.732357574842183 ], [ -42.146104824178224, -6.642538881763926 ], [ -42.145224020072419, -6.642489898390067 ], [ -42.122504619892254, -6.644280821802454 ], [ -41.998158090923141, -6.617003798686312 ], [ -41.927624868992496, -6.644387644174401 ] ] } }
]
}
