{
"type": "FeatureCollection",
"features": [
{ "type": "Feature", "properties": { "Name": "PARNAÃBA", "Description": "PARNAÃBA \/ PI" }, "geometry": { "type": "LineString", "coordinates": [ [ -41.655666674377471, -2.867568440131379 ], [ -41.680627878473786, -2.97307693495253 ], [ -41.713064884137054, -3.008026211140702 ], [ -41.695658629142372, -3.039926004081792 ], [ -41.771546073692321, -3.12066549971297 ], [ -41.869078957028194, -3.060284328658781 ], [ -41.821486085214644, -3.018260901619271 ], [ -41.79588438125915, -2.965570460208539 ], [ -41.835742318153393, -2.915851388730573 ], [ -41.816436923425215, -2.886102758835193 ], [ -41.755811751910755, -2.841583110572059 ], [ -41.784923887527327, -2.769874311949877 ], [ -41.730157736190506, -2.803086220252794 ], [ -41.655666674377471, -2.867568440131379 ] ] } }
]
}
