{
"type": "FeatureCollection",
"features": [
{ "type": "Feature", "properties": { "Name": "PASSAGEM FRANCA DO PIAUÃ", "Description": "PASSAGEM FRANCA DO PIAUÃ \/ PI" }, "geometry": { "type": "LineString", "coordinates": [ [ -42.304446233706699, -5.652130944787245 ], [ -42.329211337033541, -5.756621205604119 ], [ -42.35190506786455, -5.791488549956568 ], [ -42.312143804492962, -5.841013577414628 ], [ -42.369565823803669, -5.911322146899522 ], [ -42.372130004995711, -5.941608226938058 ], [ -42.391445344427041, -5.973883648711364 ], [ -42.303359155700434, -6.036370845837837 ], [ -42.313790765331532, -6.070632478805805 ], [ -42.354871353030489, -6.069479440024111 ], [ -42.392603780040361, -6.107618348008316 ], [ -42.385483653148007, -6.155471478226104 ], [ -42.393833769312941, -6.137417467641967 ], [ -42.418051228681236, -6.108950673834499 ], [ -42.444731241353679, -6.021952656689734 ], [ -42.500418641107331, -5.977148384690167 ], [ -42.489772325532329, -5.936688302223331 ], [ -42.465852343910512, -5.894532660453876 ], [ -42.442330549715052, -5.800131747082388 ], [ -42.44927844294574, -5.759946010899625 ], [ -42.504886711352583, -5.751810571900307 ], [ -42.52161136027604, -5.726372620999598 ], [ -42.525720533575736, -5.681096812867565 ], [ -42.418542356544485, -5.633363350937826 ], [ -42.359325002646699, -5.595838911936198 ], [ -42.356752259009511, -5.630169676689206 ], [ -42.304446233706699, -5.652130944787245 ] ] } }
]
}
