{
"type": "FeatureCollection",
"features": [
{ "type": "Feature", "properties": { "Name": "PATOS DO PIAUÃ", "Description": "PATOS DO PIAUÃ \/ PI" }, "geometry": { "type": "LineString", "coordinates": [ [ -41.227534992146104, -7.559800935864473 ], [ -41.157418579903492, -7.58544970673853 ], [ -41.179943473812216, -7.619992297806277 ], [ -41.06459998320264, -7.648340505210115 ], [ -41.098260666696376, -7.720634454016817 ], [ -41.160142522958999, -7.756827721921809 ], [ -41.206892535761881, -7.713359806509801 ], [ -41.24811233401698, -7.733420729782778 ], [ -41.308091688880268, -7.72557407478365 ], [ -41.353681163454894, -7.798906767533254 ], [ -41.382708199823526, -7.787477392467622 ], [ -41.477495631018542, -7.750119421574027 ], [ -41.46953973626978, -7.697814080655234 ], [ -41.430878499343237, -7.621443353927589 ], [ -41.397307752550716, -7.57989097738664 ], [ -41.39897576741771, -7.550563289564137 ], [ -41.378788354498909, -7.515380105107738 ], [ -41.293360545552673, -7.547604126129443 ], [ -41.2971941881612, -7.571768363619015 ], [ -41.240327403986434, -7.595134306203248 ], [ -41.227534992146104, -7.559800935864473 ] ] } }
]
}
