{
"type": "FeatureCollection",
"features": [
{ "type": "Feature", "properties": { "Name": "PAVUSSU", "Description": "PAVUSSU \/ PI" }, "geometry": { "type": "LineString", "coordinates": [ [ -43.13770867691386, -7.936902163304126 ], [ -43.126244374877956, -7.969276774903164 ], [ -43.320924699315349, -8.078827437236384 ], [ -43.412561273883625, -8.038644698494011 ], [ -43.492269255221913, -8.120573873985052 ], [ -43.493039842914357, -8.064131186704856 ], [ -43.537500804118793, -7.92270076742642 ], [ -43.303865834440671, -7.711516736807936 ], [ -43.286340133290473, -7.69567515288594 ], [ -43.236723222098988, -7.86940821821463 ], [ -43.175898973059134, -7.854024465656493 ], [ -43.107560513307014, -7.904659971480442 ], [ -43.13770867691386, -7.936902163304126 ] ] } }
]
}
