{
"type": "FeatureCollection",
"features": [
{ "type": "Feature", "properties": { "Name": "PIRACURUCA", "Description": "PIRACURUCA \/ PI" }, "geometry": { "type": "LineString", "coordinates": [ [ -41.524170683530201, -3.605811390183475 ], [ -41.457636452660097, -3.669766910414523 ], [ -41.449832590101892, -3.742350633374997 ], [ -41.418124945409886, -3.753540700642759 ], [ -41.37587525973538, -3.712020967693434 ], [ -41.334695563149687, -3.691460500701509 ], [ -41.313279595376969, -3.739423975935722 ], [ -41.278593421249354, -3.769999601700192 ], [ -41.484859545231757, -4.041484588343053 ], [ -41.555344842290594, -4.057419852843907 ], [ -41.622118046410662, -4.060360422795213 ], [ -41.631918234838615, -4.13558610481482 ], [ -41.760521082382013, -4.096422916684219 ], [ -41.738289504157251, -4.045132515553121 ], [ -41.771764863457634, -4.033992080969711 ], [ -41.855821338483963, -4.042283084696578 ], [ -41.847766789905386, -3.973827821896407 ], [ -41.910763345951636, -3.940769061842672 ], [ -41.903083609620865, -3.886908250815054 ], [ -41.865559890976158, -3.848252588785897 ], [ -41.835498757461664, -3.848404617379117 ], [ -41.686422771593584, -3.797006918134741 ], [ -41.713115265057404, -3.771010135709161 ], [ -41.829750093092287, -3.753445858139798 ], [ -41.866611021281585, -3.720918275458018 ], [ -41.794304434302148, -3.624075829535855 ], [ -41.7729376279691, -3.572652821570387 ], [ -41.746568278902885, -3.586452524464391 ], [ -41.745528000716604, -3.672621381971168 ], [ -41.678007972589796, -3.664674591958828 ], [ -41.649071699399371, -3.639970341258219 ], [ -41.524170683530201, -3.605811390183475 ] ] } }
]
}
