{
"type": "FeatureCollection",
"features": [
{ "type": "Feature", "properties": { "Name": "RIO GRANDE DO PIAUÃ", "Description": "RIO GRANDE DO PIAUÃ \/ PI" }, "geometry": { "type": "LineString", "coordinates": [ [ -43.059325983307417, -7.910686375275929 ], [ -43.063106461593861, -7.934828928312355 ], [ -43.071685745700563, -7.95701971598703 ], [ -43.13770867691386, -7.936902163304126 ], [ -43.107560513307014, -7.904659971480442 ], [ -43.175898973059134, -7.854024465656493 ], [ -43.236723222098988, -7.86940821821463 ], [ -43.286340133290473, -7.69567515288594 ], [ -43.196389141845366, -7.614369458483679 ], [ -43.087283184371415, -7.671307899739758 ], [ -43.035358334919174, -7.734180825084991 ], [ -43.048984384121979, -7.874541382978406 ], [ -43.059325983307417, -7.910686375275929 ] ] } }
]
}
