{
"type": "FeatureCollection",
"features": [
{ "type": "Feature", "properties": { "Name": "SÃO MIGUEL DA BAIXA GRANDE", "Description": "SÃO MIGUEL DA BAIXA GRANDE \/ PI" }, "geometry": { "type": "LineString", "coordinates": [ [ -42.228872186702006, -5.671272557682357 ], [ -42.232614049898416, -5.774212760510466 ], [ -42.203329169805272, -5.799727243717256 ], [ -42.158330528231261, -5.835287155078106 ], [ -42.155878845931966, -5.880354962611364 ], [ -42.227974970868161, -5.892109581092257 ], [ -42.257088230637294, -5.955388303927066 ], [ -42.372130004995711, -5.941608226938058 ], [ -42.369565823803669, -5.911322146899522 ], [ -42.312143804492962, -5.841013577414628 ], [ -42.35190506786455, -5.791488549956568 ], [ -42.329211337033541, -5.756621205604119 ], [ -42.304446233706699, -5.652130944787245 ], [ -42.26980562103256, -5.645030422216165 ], [ -42.228872186702006, -5.671272557682357 ] ] } }
]
}
