{
"type": "FeatureCollection",
"features": [
{ "type": "Feature", "properties": { "Name": "SEBASTIÃO BARROS", "Description": "SEBASTIÃO BARROS \/ PI" }, "geometry": { "type": "LineString", "coordinates": [ [ -44.806316100907274, -10.428653285120959 ], [ -44.708310729056848, -10.508180645720188 ], [ -44.769614118896413, -10.566094363064337 ], [ -44.719984266460692, -10.677785174446171 ], [ -44.666776311077847, -10.758880353745269 ], [ -44.714574257995594, -10.76172511712042 ], [ -44.788061917423533, -10.808521576309658 ], [ -44.808329150569811, -10.866149482812318 ], [ -44.863800786776828, -10.885226298654686 ], [ -44.882169342441159, -10.75233027382302 ], [ -44.993664016181356, -10.666344279065186 ], [ -45.023918641532013, -10.655042707554855 ], [ -45.028881418942255, -10.615255138114094 ], [ -44.965118500218573, -10.615943878507153 ], [ -44.89078831992498, -10.508974632872935 ], [ -44.806316100907274, -10.428653285120959 ] ] } }
]
}
