{
"type": "FeatureCollection",
"features": [
{ "type": "Feature", "properties": { "Name": "VÃRZEA BRANCA", "Description": "VÃRZEA BRANCA \/ PI" }, "geometry": { "type": "LineString", "coordinates": [ [ -42.835386190020579, -9.252971938604048 ], [ -42.824882235326868, -9.283115932953876 ], [ -42.767009085500831, -9.288368177849065 ], [ -42.776029794639271, -9.365728362074208 ], [ -42.827959749542742, -9.369905587073163 ], [ -42.891151601465197, -9.408135361657571 ], [ -42.95823509237556, -9.429324563577723 ], [ -42.987863115090647, -9.401338513161818 ], [ -43.040085837091674, -9.414655790032612 ], [ -43.059309736155342, -9.396952080673939 ], [ -43.052962492924678, -9.334210766613522 ], [ -42.965627403581777, -9.308011795008269 ], [ -42.985978045250533, -9.265410971738902 ], [ -42.975743304409946, -9.157150649482844 ], [ -42.900012491183475, -9.222154107426093 ], [ -42.915150235994531, -9.249980888806931 ], [ -42.8654799644288, -9.30693534608929 ], [ -42.835386190020579, -9.252971938604048 ] ] } }
]
}
