{
"type": "FeatureCollection",
"features": [
{ "type": "Feature", "properties": { "Name": "ALEXÃNIA", "Description": "ALEXÃNIA \/ GO" }, "geometry": { "type": "LineString", "coordinates": [ [ -48.409719434104545, -15.976660198309444 ], [ -48.37379245365878, -15.99504223750921 ], [ -48.368555436084478, -16.069948772617693 ], [ -48.351078472793233, -16.110242556049059 ], [ -48.3628511451642, -16.24141302109399 ], [ -48.321767548333639, -16.277930571938271 ], [ -48.324438651722346, -16.317349633378853 ], [ -48.374217099139791, -16.310043393587705 ], [ -48.411547378108992, -16.286672672905464 ], [ -48.443212334681448, -16.206530784867766 ], [ -48.516719474324248, -16.197585974912784 ], [ -48.534306084757986, -16.173542219597721 ], [ -48.61296496645997, -16.142829806050653 ], [ -48.631910482182946, -16.008172465286975 ], [ -48.650798654434311, -15.968169252808705 ], [ -48.5906522253199, -15.920555791016907 ], [ -48.541887049447723, -15.915599177559955 ], [ -48.496100876953847, -15.932167147495816 ], [ -48.423553447933216, -15.986933407650609 ], [ -48.409719434104545, -15.976660198309444 ] ] } }
]
}
