{
"type": "FeatureCollection",
"features": [
{ "type": "Feature", "properties": { "Name": "AMORINÃPOLIS", "Description": "AMORINÃPOLIS \/ GO" }, "geometry": { "type": "LineString", "coordinates": [ [ -51.000134378998325, -16.635470290321617 ], [ -51.033271263158213, -16.671212571602837 ], [ -51.023186624563039, -16.697668567650226 ], [ -51.046332917630025, -16.743514961446294 ], [ -51.046080720748648, -16.796862709246568 ], [ -51.096023097487944, -16.793062972877863 ], [ -51.137484422168313, -16.633374308777263 ], [ -51.183241433245485, -16.645851111639445 ], [ -51.203354183548697, -16.580049017048452 ], [ -51.244687810793778, -16.545331701197028 ], [ -51.231935960176372, -16.504648672298345 ], [ -51.185549477626239, -16.531167475198796 ], [ -51.14896667737019, -16.511074135862657 ], [ -51.080550666380134, -16.516250603882213 ], [ -51.027633232487631, -16.566747400971735 ], [ -51.030105938238414, -16.626467582013277 ], [ -51.000134378998325, -16.635470290321617 ] ] } }
]
}
