{
"type": "FeatureCollection",
"features": [
{ "type": "Feature", "properties": { "Name": "ANÃPOLIS", "Description": "ANÃPOLIS \/ GO" }, "geometry": { "type": "LineString", "coordinates": [ [ -48.939867584121657, -16.134472082520574 ], [ -48.92263620499682, -16.16357142707966 ], [ -48.929232469602759, -16.222846862792437 ], [ -48.897223929740505, -16.237165311729711 ], [ -48.848443013034569, -16.226938709753597 ], [ -48.769612248406474, -16.291269960440275 ], [ -48.750857254958305, -16.332164677158062 ], [ -48.760497181499659, -16.385490096590615 ], [ -48.897412403359674, -16.415224425466818 ], [ -48.900962290976906, -16.417746302549801 ], [ -48.996472955162687, -16.485598075290905 ], [ -48.981991081423239, -16.404606258671834 ], [ -49.101672199212601, -16.387919533259833 ], [ -49.113978476225661, -16.42747303345368 ], [ -49.194585383008985, -16.347191437534775 ], [ -49.167072448834404, -16.316058446140346 ], [ -49.117055259292727, -16.341343806371526 ], [ -49.054996009957847, -16.347780149933953 ], [ -49.04343978102105, -16.256425699886105 ], [ -49.107530962184114, -16.222576443847743 ], [ -49.145700920161282, -16.221058044692938 ], [ -49.192211406631088, -16.144002834063485 ], [ -49.165055124694213, -16.137569660611291 ], [ -49.106274781056243, -16.14612667120889 ], [ -49.058442067247533, -16.128650865345094 ], [ -49.012323158187144, -16.140727152436114 ], [ -48.939867584121657, -16.134472082520574 ] ] } }
]
}
