{
"type": "FeatureCollection",
"features": [
{ "type": "Feature", "properties": { "Name": "ARAGOIÃNIA", "Description": "ARAGOIÃNIA \/ GO" }, "geometry": { "type": "LineString", "coordinates": [ [ -49.383817244869931, -16.832004379198679 ], [ -49.364707613665416, -16.89202194085982 ], [ -49.384453511620222, -17.040697821047559 ], [ -49.455114755641432, -17.041582927510031 ], [ -49.483560570963562, -17.023773854479771 ], [ -49.479557050917151, -16.980042878376082 ], [ -49.483310046821146, -16.929240764149881 ], [ -49.446698772230491, -16.900725401555974 ], [ -49.438091343840419, -16.860076097234071 ], [ -49.383817244869931, -16.832004379198679 ] ] } }
]
}
