{
"type": "FeatureCollection",
"features": [
{ "type": "Feature", "properties": { "Name": "BARRO ALTO", "Description": "BARRO ALTO \/ GO" }, "geometry": { "type": "LineString", "coordinates": [ [ -48.757438735609121, -14.86168286956871 ], [ -48.761993656981645, -14.89004538158906 ], [ -48.806622953286642, -14.95111019657827 ], [ -48.803635954935309, -14.996177287351884 ], [ -48.855552459578291, -15.063471403082758 ], [ -48.853383950408947, -15.087394409124611 ], [ -48.908281402764487, -15.163940029708554 ], [ -48.971579348608024, -15.160058128579747 ], [ -48.979196718753542, -15.134689304967422 ], [ -49.040789819794327, -15.130587139185083 ], [ -49.082465138155555, -15.15028788487791 ], [ -48.996832524801164, -15.0367091689929 ], [ -49.056119799189332, -14.999622162033118 ], [ -49.048024154291227, -14.972739082442672 ], [ -48.993000295027571, -14.918121390289912 ], [ -48.946604042242711, -14.854549169208724 ], [ -48.916221099823872, -14.834777121666775 ], [ -48.895223422023264, -14.779992045896163 ], [ -48.950279756705356, -14.681044441747531 ], [ -48.907857336446853, -14.671067952923636 ], [ -48.874075486394531, -14.694889786134693 ], [ -48.77365738637922, -14.643495314557073 ], [ -48.727385838085922, -14.672696302292479 ], [ -48.713244913521919, -14.725728174915275 ], [ -48.726172977301019, -14.810030146873714 ], [ -48.757438735609121, -14.86168286956871 ] ] } }
]
}
