{
"type": "FeatureCollection",
"features": [
{ "type": "Feature", "properties": { "Name": "BURITI ALEGRE", "Description": "BURITI ALEGRE \/ GO" }, "geometry": { "type": "LineString", "coordinates": [ [ -48.887333998864904, -18.088130761725211 ], [ -48.874607770831908, -18.136940021464795 ], [ -48.799198288969819, -18.195863661278906 ], [ -48.807858443712178, -18.233424318677294 ], [ -48.818863917036083, -18.264167082544759 ], [ -48.91774468357027, -18.305879442182459 ], [ -48.959502163993648, -18.323478929109228 ], [ -48.983445291466978, -18.291366126345622 ], [ -49.009171355473654, -18.206031872972517 ], [ -49.052696697994179, -18.196247216735628 ], [ -49.091502285102308, -18.155474352759143 ], [ -49.099390821529134, -18.105236359870048 ], [ -49.127725414995837, -18.108978226663794 ], [ -49.183758158012552, -18.165685209404842 ], [ -49.246142745191491, -18.166593727918155 ], [ -49.17836354773948, -18.062533121806098 ], [ -49.174759243044605, -17.989059630297675 ], [ -49.114311527554889, -17.98382278179588 ], [ -49.059304919086685, -17.94869046389374 ], [ -48.996404990697727, -17.988662310717018 ], [ -48.960885337488264, -17.985928752110169 ], [ -48.911458294764429, -18.089231935705243 ], [ -48.887333998864904, -18.088130761725211 ] ] } }
]
}
