{
"type": "FeatureCollection",
"features": [
{ "type": "Feature", "properties": { "Name": "CROMÃNIA", "Description": "CROMÃNIA \/ GO" }, "geometry": { "type": "LineString", "coordinates": [ [ -49.3207845342788, -17.131149507343821 ], [ -49.276753731399531, -17.159651698467087 ], [ -49.261276441254722, -17.23566408762747 ], [ -49.293779850159922, -17.30575774522373 ], [ -49.300696261723033, -17.373833808883148 ], [ -49.353877633146226, -17.319174355811811 ], [ -49.476991745572548, -17.290872791745869 ], [ -49.467907515519357, -17.244341431112105 ], [ -49.406735127224295, -17.203866642931189 ], [ -49.452953723435542, -17.145596201403521 ], [ -49.387032833798173, -17.156399468460677 ], [ -49.3207845342788, -17.131149507343821 ] ] } }
]
}
