{
"type": "FeatureCollection",
"features": [
{ "type": "Feature", "properties": { "Name": "GOIANÃSIA", "Description": "GOIANÃSIA \/ GO" }, "geometry": { "type": "LineString", "coordinates": [ [ -49.082465138155555, -15.15028788487791 ], [ -49.040789819794327, -15.130587139185083 ], [ -48.979196718753542, -15.134689304967422 ], [ -48.971579348608024, -15.160058128579747 ], [ -48.908281402764487, -15.163940029708554 ], [ -48.921362719114143, -15.24088404726092 ], [ -48.938116801049489, -15.258815643027447 ], [ -49.000663732944872, -15.265259153287277 ], [ -49.062523241054691, -15.307607562039321 ], [ -49.084720212467793, -15.385086511633176 ], [ -49.071251524837976, -15.396367379850631 ], [ -49.092051189910414, -15.469018015968627 ], [ -49.082639059844666, -15.512870996798993 ], [ -49.130140208004143, -15.573943945256815 ], [ -49.186723946752693, -15.602467730001704 ], [ -49.229059877411373, -15.54918583146093 ], [ -49.21989335039774, -15.486661020189899 ], [ -49.283976888222753, -15.437387101433558 ], [ -49.293701966172762, -15.409506516312604 ], [ -49.268144212985021, -15.356310419390297 ], [ -49.298759640045319, -15.32760156046362 ], [ -49.354722827696321, -15.32057202138162 ], [ -49.308000209142278, -15.167509162817566 ], [ -49.308781624672172, -15.069030495760726 ], [ -49.289969161847296, -14.992104437669639 ], [ -49.134683852777528, -14.998421022112439 ], [ -49.17830636164922, -15.091303311498562 ], [ -49.159196175563011, -15.157102872699395 ], [ -49.082465138155555, -15.15028788487791 ] ] } }
]
}
