{
"type": "FeatureCollection",
"features": [
{ "type": "Feature", "properties": { "Name": "GOIANDIRA", "Description": "GOIANDIRA \/ GO" }, "geometry": { "type": "LineString", "coordinates": [ [ -48.062360733760833, -18.264360556394532 ], [ -48.143606796816186, -18.224410120630523 ], [ -48.223797225761295, -18.199371225901302 ], [ -48.268604693052112, -18.221379787547107 ], [ -48.276157520652987, -18.18029788863663 ], [ -48.208992260684219, -17.996359353601232 ], [ -48.173327114254903, -17.969628012122996 ], [ -48.127270237731238, -17.97417366598188 ], [ -48.022523143128524, -18.091862123538135 ], [ -48.028409240993653, -18.136636659454208 ], [ -48.01063503108179, -18.181486743818141 ], [ -48.062360733760833, -18.264360556394532 ] ] } }
]
}
