{
"type": "FeatureCollection",
"features": [
{ "type": "Feature", "properties": { "Name": "GOUVELÃNDIA", "Description": "GOUVELÃNDIA \/ GO" }, "geometry": { "type": "LineString", "coordinates": [ [ -50.047401443721583, -18.389255549503957 ], [ -50.065201134125005, -18.412375893532612 ], [ -50.038011758935504, -18.48467062385015 ], [ -50.028763044678726, -18.601466408048225 ], [ -50.080043109901567, -18.67224379231709 ], [ -50.164288025272128, -18.664352469790629 ], [ -50.269959875647714, -18.684172253346787 ], [ -50.241074627292164, -18.626728471341835 ], [ -50.260259029030919, -18.609805202647919 ], [ -50.2732927523586, -18.530905374583313 ], [ -50.260529376929185, -18.497906237782615 ], [ -50.281185340231218, -18.464932951094791 ], [ -50.256672137009446, -18.43745175039794 ], [ -50.259874555366416, -18.399109394183142 ], [ -50.238348168832879, -18.361832115859386 ], [ -50.109004571303899, -18.324966383491756 ], [ -50.047401443721583, -18.389255549503957 ] ] } }
]
}
