{
"type": "FeatureCollection",
"features": [
{ "type": "Feature", "properties": { "Name": "INHUMAS", "Description": "INHUMAS \/ GO" }, "geometry": { "type": "LineString", "coordinates": [ [ -49.404641593634608, -16.194997756641101 ], [ -49.394727934146822, -16.189685819245142 ], [ -49.373090609044311, -16.205041979703537 ], [ -49.37844752603246, -16.306210069339159 ], [ -49.441252465328937, -16.377385600564992 ], [ -49.423392539234271, -16.405560406987149 ], [ -49.449784324586851, -16.435556484444135 ], [ -49.49239736244828, -16.415727935196003 ], [ -49.61698276214468, -16.404132475133565 ], [ -49.660844672343728, -16.427235966766432 ], [ -49.653589696607185, -16.330948135448068 ], [ -49.622949040865478, -16.291591255831744 ], [ -49.641147410624455, -16.240129530253569 ], [ -49.594394195335781, -16.225914495257712 ], [ -49.53616531147992, -16.183543222141964 ], [ -49.459201470171642, -16.213500732173031 ], [ -49.404641593634608, -16.194997756641101 ] ] } }
]
}
