{
"type": "FeatureCollection",
"features": [
{ "type": "Feature", "properties": { "Name": "ISRAELÃNDIA", "Description": "ISRAELÃNDIA \/ GO" }, "geometry": { "type": "LineString", "coordinates": [ [ -50.70235164731065, -16.414620344553214 ], [ -50.720102003604552, -16.449253766248262 ], [ -50.756683931518182, -16.459309149897308 ], [ -50.77726621336501, -16.506419234160262 ], [ -50.845681182940204, -16.46874304805317 ], [ -50.854793126501534, -16.44507574444998 ], [ -50.948076641223963, -16.398271676996274 ], [ -51.009079519004558, -16.415061988120215 ], [ -51.029050904875305, -16.361475758999006 ], [ -51.066494770017584, -16.333862489262401 ], [ -51.064381115895742, -16.306662484985623 ], [ -51.02541015965113, -16.276572527300232 ], [ -50.937540948555863, -16.313203275810505 ], [ -50.901742888623346, -16.242168457907951 ], [ -50.908494214336486, -16.201997083898277 ], [ -50.868293811110448, -16.204350566525363 ], [ -50.75421116371421, -16.383217660866304 ], [ -50.70235164731065, -16.414620344553214 ] ] } }
]
}
