{
"type": "FeatureCollection",
"features": [
{ "type": "Feature", "properties": { "Name": "ITAPURANGA", "Description": "ITAPURANGA \/ GO" }, "geometry": { "type": "LineString", "coordinates": [ [ -49.90850954707787, -15.37091010251919 ], [ -49.862381535979068, -15.438565680062025 ], [ -49.886841275404485, -15.478635481042545 ], [ -49.881508426972289, -15.51952839372035 ], [ -49.83725640615819, -15.538522078930727 ], [ -49.773169825926679, -15.546170160024813 ], [ -49.733227832098748, -15.525330434651776 ], [ -49.69367239836248, -15.554715851755134 ], [ -49.701865172739467, -15.611420248045988 ], [ -49.7484553778134, -15.664529412002707 ], [ -49.782037052268095, -15.671379301613456 ], [ -49.81844874211572, -15.711680774248292 ], [ -49.870148526333359, -15.719333718875985 ], [ -49.93861950028969, -15.749095453692178 ], [ -50.023213914690359, -15.781031201528663 ], [ -49.998371378835998, -15.737977743178247 ], [ -50.005729577857657, -15.707139261767452 ], [ -49.990063310473374, -15.640151518977346 ], [ -50.019762152101571, -15.586355487915396 ], [ -50.125310594808063, -15.607935965971988 ], [ -50.131604510040056, -15.583647246123462 ], [ -50.165759133577119, -15.523547113208679 ], [ -50.167673897232532, -15.455088316972192 ], [ -50.13950869287185, -15.400401026286261 ], [ -50.089484419370422, -15.366162540968446 ], [ -49.90850954707787, -15.37091010251919 ] ] } }
]
}
