{
"type": "FeatureCollection",
"features": [
{ "type": "Feature", "properties": { "Name": "ITAPACI", "Description": "ITAPACI \/ GO" }, "geometry": { "type": "LineString", "coordinates": [ [ -49.645725016496272, -14.840675460204293 ], [ -49.637919842726546, -14.817388473599124 ], [ -49.529978984842209, -14.814678052749912 ], [ -49.453770646897794, -14.871521555275535 ], [ -49.409119220075922, -14.848617109691816 ], [ -49.42824720284608, -14.970402895577136 ], [ -49.439081370608733, -15.00255483054093 ], [ -49.557453311121378, -14.993404749429601 ], [ -49.60871407599376, -15.043019358356673 ], [ -49.667337441169934, -15.068297298281664 ], [ -49.697754497571957, -15.06247475370685 ], [ -49.824286587755751, -15.082334478853054 ], [ -49.851698769982185, -15.05475419175252 ], [ -49.841285998450012, -15.007063061810811 ], [ -49.859342715094158, -14.982160682369566 ], [ -49.843064189260872, -14.855006391731534 ], [ -49.818808462840252, -14.771727640518122 ], [ -49.775977500361307, -14.755602510247627 ], [ -49.812316243499822, -14.839247261252067 ], [ -49.817280360899872, -14.938299472742413 ], [ -49.756313658348631, -14.91166218955834 ], [ -49.645725016496272, -14.840675460204293 ] ] } }
]
}
