{
"type": "FeatureCollection",
"features": [
{ "type": "Feature", "properties": { "Name": "LAGOA SANTA", "Description": "LAGOA SANTA \/ GO" }, "geometry": { "type": "LineString", "coordinates": [ [ -51.092586906660351, -19.307197161919419 ], [ -51.182193601653353, -19.282405497115974 ], [ -51.224274683329952, -19.258184692269708 ], [ -51.272855551242628, -19.263020580735141 ], [ -51.307811431152565, -19.218530851117862 ], [ -51.364206854562667, -19.222351297974001 ], [ -51.420474038246255, -19.166537149569763 ], [ -51.447997125766676, -19.160454513864693 ], [ -51.464476066417262, -19.124338194651898 ], [ -51.435786639142066, -19.065930910483075 ], [ -51.33340059586078, -19.078617564748754 ], [ -51.281114026491082, -19.128561442456544 ], [ -51.198737716172609, -19.185166942999956 ], [ -51.109770999432044, -19.215051607046007 ], [ -51.089658339960351, -19.266809581896666 ], [ -51.092586906660351, -19.307197161919419 ] ] } }
]
}
