{
"type": "FeatureCollection",
"features": [
{ "type": "Feature", "properties": { "Name": "MAIRIPOTABA", "Description": "MAIRIPOTABA \/ GO" }, "geometry": { "type": "LineString", "coordinates": [ [ -49.452953723435542, -17.145596201403521 ], [ -49.406735127224295, -17.203866642931189 ], [ -49.467907515519357, -17.244341431112105 ], [ -49.476991745572548, -17.290872791745869 ], [ -49.353877633146226, -17.319174355811811 ], [ -49.300696261723033, -17.373833808883148 ], [ -49.29537014831368, -17.453158679929118 ], [ -49.277168192957674, -17.472823546269581 ], [ -49.30195240957601, -17.507020023355324 ], [ -49.44560956193169, -17.329133136984634 ], [ -49.513501476811655, -17.353872053852172 ], [ -49.576029961813219, -17.304855551642333 ], [ -49.616340506808911, -17.295984762187004 ], [ -49.61989387929907, -17.22803275280927 ], [ -49.56405856085388, -17.202083415916888 ], [ -49.532698820693952, -17.164836771199987 ], [ -49.489146943676474, -17.159571373719867 ], [ -49.452953723435542, -17.145596201403521 ] ] } }
]
}
