{
"type": "FeatureCollection",
"features": [
{ "type": "Feature", "properties": { "Name": "MAMBAÃ", "Description": "MAMBAÃ \/ GO" }, "geometry": { "type": "LineString", "coordinates": [ [ -46.020983194818541, -14.663350157283899 ], [ -46.04747347392162, -14.618482173713289 ], [ -46.095582326363228, -14.620748698193836 ], [ -46.119855192063426, -14.58656210915399 ], [ -46.109443874735007, -14.558471529637359 ], [ -46.149302674079081, -14.500947895029297 ], [ -46.199616217214611, -14.454682383884858 ], [ -46.186031232855036, -14.319060250430139 ], [ -46.191531871398688, -14.295232365681102 ], [ -46.117939472428645, -14.225159052548177 ], [ -46.052598095125965, -14.204841179476828 ], [ -46.061027792298717, -14.232523697910267 ], [ -45.991804351089911, -14.262799891701604 ], [ -45.954050260311249, -14.325356704448325 ], [ -45.906968182735397, -14.35805108708797 ], [ -45.92575672179521, -14.406515330018408 ], [ -45.998833678831147, -14.429383857578898 ], [ -46.016389084588525, -14.469451040632974 ], [ -45.982888070328158, -14.528715219531703 ], [ -45.991490274556497, -14.660809941225752 ], [ -46.020983194818541, -14.663350157283899 ] ] } }
]
}
