{
"type": "FeatureCollection",
"features": [
{ "type": "Feature", "properties": { "Name": "MORRINHOS", "Description": "MORRINHOS \/ GO" }, "geometry": { "type": "LineString", "coordinates": [ [ -48.928192697734744, -17.599081943077181 ], [ -48.882691017676272, -17.667711722018339 ], [ -48.850192138656212, -17.680529650323081 ], [ -48.838665014478806, -17.721472236154739 ], [ -48.821222416081582, -17.787775942905398 ], [ -48.850643626202327, -17.877005321038666 ], [ -48.846966164356957, -17.907828486995012 ], [ -48.845387838877627, -17.941809118695801 ], [ -48.872923494423667, -18.062739191560411 ], [ -48.887333998864904, -18.088130761725211 ], [ -48.911458294764429, -18.089231935705243 ], [ -48.960885337488264, -17.985928752110169 ], [ -48.996404990697727, -17.988662310717018 ], [ -49.059304919086685, -17.94869046389374 ], [ -49.114311527554889, -17.98382278179588 ], [ -49.174759243044605, -17.989059630297675 ], [ -49.289202423253187, -17.946276935332264 ], [ -49.362114764784508, -17.960892250476945 ], [ -49.402058845938939, -17.914186478922829 ], [ -49.435315853443853, -17.91727351156328 ], [ -49.45411385157297, -17.85089231203051 ], [ -49.42567568498481, -17.787938976502517 ], [ -49.459339468441669, -17.750894214296522 ], [ -49.419643447287221, -17.710487241293094 ], [ -49.411688367324246, -17.655017773351517 ], [ -49.40808053099169, -17.632819541988226 ], [ -49.332676796696774, -17.583481461999835 ], [ -49.307975761971818, -17.552883519558748 ], [ -49.30195240957601, -17.507020023355324 ], [ -49.256559851455961, -17.519323553838888 ], [ -49.224477898136456, -17.507119241060082 ], [ -49.156776273506182, -17.545336810045683 ], [ -49.082060626696546, -17.524159807429101 ], [ -49.02491456525496, -17.558203405162999 ], [ -48.962228479460684, -17.570972279946716 ], [ -48.928192697734744, -17.599081943077181 ] ] } }
]
}
