{
"type": "FeatureCollection",
"features": [
{ "type": "Feature", "properties": { "Name": "NOVA AURORA", "Description": "NOVA AURORA \/ GO" }, "geometry": { "type": "LineString", "coordinates": [ [ -48.208992260684219, -17.996359353601232 ], [ -48.276157520652987, -18.18029788863663 ], [ -48.268604693052112, -18.221379787547107 ], [ -48.319738859460756, -18.24927932228286 ], [ -48.333908526357391, -18.201827976779668 ], [ -48.395798648288974, -18.123254640389291 ], [ -48.339197896165956, -18.08299248071836 ], [ -48.297770395887021, -18.033268575384398 ], [ -48.320120438207596, -17.988379232915232 ], [ -48.315220123210054, -17.943588755616531 ], [ -48.262270730110053, -17.98766931348797 ], [ -48.208992260684219, -17.996359353601232 ] ] } }
]
}
