{
"type": "FeatureCollection",
"features": [
{ "type": "Feature", "properties": { "Name": "NOVA AMÃRICA", "Description": "NOVA AMÃRICA \/ GO" }, "geometry": { "type": "LineString", "coordinates": [ [ -49.859342715094158, -14.982160682369566 ], [ -49.841285998450012, -15.007063061810811 ], [ -49.851698769982185, -15.05475419175252 ], [ -49.824286587755751, -15.082334478853054 ], [ -49.921533837416632, -15.094402293431074 ], [ -50.000815506830122, -15.081200562356003 ], [ -50.054893761337951, -15.124419902456509 ], [ -50.051400338554743, -15.070793920602908 ], [ -49.965951687820109, -14.999986421635983 ], [ -49.90559444053099, -14.980675628277597 ], [ -49.859342715094158, -14.982160682369566 ] ] } }
]
}
