{
"type": "FeatureCollection",
"features": [
{ "type": "Feature", "properties": { "Name": "PALMINÃPOLIS", "Description": "PALMINÃPOLIS \/ GO" }, "geometry": { "type": "LineString", "coordinates": [ [ -50.149984468208565, -16.679566034145125 ], [ -50.158759356658948, -16.719477939355386 ], [ -50.110591639992151, -16.796830691583125 ], [ -50.101374499133776, -16.89364892325915 ], [ -50.143728818230322, -16.932367554019379 ], [ -50.213651004789995, -16.922062425040849 ], [ -50.283622591109626, -16.895803340951375 ], [ -50.284538984086794, -16.889759287960715 ], [ -50.29984961636665, -16.822369104850278 ], [ -50.282562560213933, -16.802230491843659 ], [ -50.254341293016239, -16.737522737284451 ], [ -50.213374464160154, -16.702742218878257 ], [ -50.149984468208565, -16.679566034145125 ] ] } }
]
}
