{
"type": "FeatureCollection",
"features": [
{ "type": "Feature", "properties": { "Name": "PIRANHAS", "Description": "PIRANHAS \/ GO" }, "geometry": { "type": "LineString", "coordinates": [ [ -51.602277165458759, -16.602357201323741 ], [ -51.669082311699299, -16.599072508489428 ], [ -51.708690011334909, -16.643102839224582 ], [ -51.773360833435675, -16.604774603265298 ], [ -51.866227774092465, -16.659003472632094 ], [ -51.972970196317469, -16.629249401838365 ], [ -52.003029913399757, -16.568285864900702 ], [ -52.044026051161268, -16.538601074280109 ], [ -52.056307763192649, -16.488833944830617 ], [ -52.121835719242995, -16.472305084611946 ], [ -52.146033929522154, -16.447913589340658 ], [ -52.069974221633004, -16.385527470616239 ], [ -52.017612109211427, -16.311048605408757 ], [ -51.964749558245501, -16.288208063851016 ], [ -51.890441207195913, -16.209933247521292 ], [ -51.901219910170653, -16.170737597462107 ], [ -51.894275050353258, -16.112886451348629 ], [ -51.82889051368619, -16.082163697396652 ], [ -51.798669273867858, -16.094212247597113 ], [ -51.76936280015309, -16.172733706595238 ], [ -51.671501319829986, -16.257132854797362 ], [ -51.674004263485926, -16.324125936862458 ], [ -51.637029725741229, -16.384743970457805 ], [ -51.675889101300925, -16.416955474715337 ], [ -51.655467351137304, -16.472308564988225 ], [ -51.609105017182742, -16.543524243748777 ], [ -51.569222103417303, -16.551522538834035 ], [ -51.602277165458759, -16.602357201323741 ] ] } }
]
}
