{
"type": "FeatureCollection",
"features": [
{ "type": "Feature", "properties": { "Name": "PONTALINA", "Description": "PONTALINA \/ GO" }, "geometry": { "type": "LineString", "coordinates": [ [ -49.616340506808911, -17.295984762187004 ], [ -49.576029961813219, -17.304855551642333 ], [ -49.513501476811655, -17.353872053852172 ], [ -49.44560956193169, -17.329133136984634 ], [ -49.30195240957601, -17.507020023355324 ], [ -49.307975761971818, -17.552883519558748 ], [ -49.332676796696774, -17.583481461999835 ], [ -49.40808053099169, -17.632819541988226 ], [ -49.411688367324246, -17.655017773351517 ], [ -49.443061333813489, -17.634114262663047 ], [ -49.513299299323137, -17.671072288854987 ], [ -49.508760245588803, -17.750597979413158 ], [ -49.562896838218478, -17.743027538590013 ], [ -49.61362335543344, -17.754109126035303 ], [ -49.694174598678728, -17.686977591542586 ], [ -49.732514545609767, -17.648451427391421 ], [ -49.781088146101013, -17.629012802598709 ], [ -49.825529392367507, -17.585201017912595 ], [ -49.746564063980315, -17.579156165424649 ], [ -49.694818862200691, -17.552751007153233 ], [ -49.65278829364479, -17.49477416909258 ], [ -49.624450843031923, -17.419378311060143 ], [ -49.648723840033142, -17.302089289189325 ], [ -49.616340506808911, -17.295984762187004 ] ] } }
]
}
