{
"type": "FeatureCollection",
"features": [
{ "type": "Feature", "properties": { "Name": "PORTELÃNDIA", "Description": "PORTELÃNDIA \/ GO" }, "geometry": { "type": "LineString", "coordinates": [ [ -52.684316835953155, -17.200717018375656 ], [ -52.647728183808567, -17.240676533695023 ], [ -52.611032475468335, -17.326285384263031 ], [ -52.520087258320302, -17.343285970371198 ], [ -52.553448995474696, -17.403187955659575 ], [ -52.597533991500484, -17.409185479526226 ], [ -52.627733494704955, -17.453670945457702 ], [ -52.684727588707233, -17.449320258323212 ], [ -52.763500821006062, -17.419849920937054 ], [ -52.845261914106004, -17.428383170546851 ], [ -52.885065102072751, -17.477070644994228 ], [ -52.893568308030915, -17.412565512188564 ], [ -52.807069366058322, -17.345075472854717 ], [ -52.806536134634882, -17.284559600445164 ], [ -52.684316835953155, -17.200717018375656 ] ] } }
]
}
