{
"type": "FeatureCollection",
"features": [
{ "type": "Feature", "properties": { "Name": "RUBIATABA", "Description": "RUBIATABA \/ GO" }, "geometry": { "type": "LineString", "coordinates": [ [ -49.667337441169934, -15.068297298281664 ], [ -49.770728261899706, -15.22865867685641 ], [ -49.746679993786643, -15.240195112614288 ], [ -49.771496184001649, -15.288499585587372 ], [ -49.78634037390907, -15.280896787156964 ], [ -49.863032130728186, -15.332575918443808 ], [ -49.896562151721866, -15.326342753315373 ], [ -49.92489263798484, -15.247112868663919 ], [ -49.98814505025382, -15.271661414342757 ], [ -50.06686001098069, -15.228914941371386 ], [ -50.036006742916804, -15.144303034257574 ], [ -50.054893761337951, -15.124419902456509 ], [ -50.000815506830122, -15.081200562356003 ], [ -49.921533837416632, -15.094402293431074 ], [ -49.824286587755751, -15.082334478853054 ], [ -49.697754497571957, -15.06247475370685 ], [ -49.667337441169934, -15.068297298281664 ] ] } }
]
}
