{
"type": "FeatureCollection",
"features": [
{ "type": "Feature", "properties": { "Name": "SANTA RITA DO NOVO DESTINO", "Description": "SANTA RITA DO NOVO DESTINO \/ GO" }, "geometry": { "type": "LineString", "coordinates": [ [ -48.950279756705356, -14.681044441747531 ], [ -48.895223422023264, -14.779992045896163 ], [ -48.916221099823872, -14.834777121666775 ], [ -48.946604042242711, -14.854549169208724 ], [ -48.993000295027571, -14.918121390289912 ], [ -49.048024154291227, -14.972739082442672 ], [ -49.056119799189332, -14.999622162033118 ], [ -48.996832524801164, -15.0367091689929 ], [ -49.082465138155555, -15.15028788487791 ], [ -49.159196175563011, -15.157102872699395 ], [ -49.17830636164922, -15.091303311498562 ], [ -49.134683852777528, -14.998421022112439 ], [ -49.085162795826307, -14.879031530180955 ], [ -49.107387865657408, -14.854675243367751 ], [ -49.191438728914193, -14.897521412483171 ], [ -49.205669029901742, -14.845596656560415 ], [ -49.184329617817582, -14.798142805545979 ], [ -49.193054430217728, -14.768688494977992 ], [ -49.152135235752496, -14.768583875945069 ], [ -49.061002707808655, -14.723524329584107 ], [ -49.014885984100829, -14.66271431681224 ], [ -49.054082713346475, -14.617108316295743 ], [ -49.039131969964387, -14.577145491471184 ], [ -48.979075941601366, -14.615610746338801 ], [ -48.990505279794775, -14.632482986600506 ], [ -48.950279756705356, -14.681044441747531 ] ] } }
]
}
