{
"type": "FeatureCollection",
"features": [
{ "type": "Feature", "properties": { "Name": "SANTO ANTÃNIO DO DESCOBERTO", "Description": "SANTO ANTÃNIO DO DESCOBERTO \/ GO" }, "geometry": { "type": "LineString", "coordinates": [ [ -48.281655913589475, -15.829813570639713 ], [ -48.276162662077127, -15.903095227762492 ], [ -48.251546765270973, -15.955264317793988 ], [ -48.278606012157695, -16.050261166019936 ], [ -48.086224342279529, -16.050261780256903 ], [ -48.141430493222629, -16.08852506178215 ], [ -48.142049967831724, -16.170310912318712 ], [ -48.174877755903651, -16.213754989401195 ], [ -48.203989674783593, -16.295977193692465 ], [ -48.241020332922005, -16.324392566963354 ], [ -48.324438651722346, -16.317349633378853 ], [ -48.321767548333639, -16.277930571938271 ], [ -48.3628511451642, -16.24141302109399 ], [ -48.351078472793233, -16.110242556049059 ], [ -48.368555436084478, -16.069948772617693 ], [ -48.37379245365878, -15.99504223750921 ], [ -48.409719434104545, -15.976660198309444 ], [ -48.419293163348755, -15.914300226474213 ], [ -48.379350343943202, -15.820977040857715 ], [ -48.281655913589475, -15.829813570639713 ] ] } }
]
}
