{
"type": "FeatureCollection",
"features": [
{ "type": "Feature", "properties": { "Name": "SÃO MIGUEL DO ARAGUAIA", "Description": "SÃO MIGUEL DO ARAGUAIA \/ GO" }, "geometry": { "type": "LineString", "coordinates": [ [ -49.909194444667826, -12.974039487232517 ], [ -49.8426108428161, -13.154620527515306 ], [ -49.819476131218437, -13.182282750048842 ], [ -49.818312133298257, -13.28009980656077 ], [ -49.850642773445202, -13.330072763846941 ], [ -49.861586407586572, -13.389250298462457 ], [ -49.90330628016067, -13.452074007509395 ], [ -49.948980507744182, -13.461920475049849 ], [ -49.979067773758686, -13.488840116578046 ], [ -50.056954582088224, -13.523229069266108 ], [ -50.119361663110226, -13.508928895452129 ], [ -50.168148464979645, -13.553422649535605 ], [ -50.204798083065043, -13.53501145791239 ], [ -50.255014648707004, -13.54735646782666 ], [ -50.401761556850317, -13.56178859556718 ], [ -50.446899527691009, -13.546941780538702 ], [ -50.468320079308171, -13.564463128070884 ], [ -50.534868542848926, -13.506559588354264 ], [ -50.540508977407342, -13.460721372992905 ], [ -50.5770701885383, -13.386179741401916 ], [ -50.608115008600741, -13.352881488289995 ], [ -50.612148780042105, -13.316616954508788 ], [ -50.584534847505154, -13.215293918879183 ], [ -50.603392816924895, -13.196871646709097 ], [ -50.590288458145771, -13.109632237137985 ], [ -50.611070107999069, -13.062171068340092 ], [ -50.580347768634567, -13.052841115624915 ], [ -50.524484839203922, -12.968423171592065 ], [ -50.502234350934486, -12.884332167095806 ], [ -50.51106649832019, -12.860767999543498 ], [ -50.484841508428815, -12.811960650863284 ], [ -50.467180775872066, -12.734649743191028 ], [ -50.432562595887021, -12.689996085151165 ], [ -50.43379002748776, -12.64673251459385 ], [ -50.365926938577331, -12.546066163922262 ], [ -50.314843975968699, -12.498921118514772 ], [ -50.205258287739753, -12.465851668219841 ], [ -50.220842402954474, -12.519755173662302 ], [ -50.208347363639852, -12.573030698707726 ], [ -50.245708595475264, -12.597365015982632 ], [ -50.284233953833848, -12.718183447008414 ], [ -50.300977106308373, -12.74590059653525 ], [ -50.307736219251062, -12.818134949068622 ], [ -50.185987334347942, -12.894029597188137 ], [ -50.10971732179695, -12.91140295318371 ], [ -50.078895890632793, -12.905937322549335 ], [ -50.038925096915648, -12.935265238799673 ], [ -49.978422937368634, -12.939714603146399 ], [ -49.909194444667826, -12.974039487232517 ] ] } }
]
}
