{
"type": "FeatureCollection",
"features": [
{ "type": "Feature", "properties": { "Name": "SÃO MIGUEL DO PASSA QUATRO", "Description": "SÃO MIGUEL DO PASSA QUATRO \/ GO" }, "geometry": { "type": "LineString", "coordinates": [ [ -48.596995539412546, -16.924201006571138 ], [ -48.541913643299949, -16.978243906930739 ], [ -48.528359012858111, -17.010202614459047 ], [ -48.586187768550644, -17.090480542942657 ], [ -48.572584176318628, -17.129361613747449 ], [ -48.601394195485675, -17.11920844141639 ], [ -48.638246772570483, -17.165451470408982 ], [ -48.644966121988887, -17.125015156124501 ], [ -48.675969655075505, -17.118395081068115 ], [ -48.707080716501821, -17.080377834269598 ], [ -48.715223314104605, -17.039612302465741 ], [ -48.770224238857509, -17.012508531943126 ], [ -48.769416958825559, -16.937062352345659 ], [ -48.805638996942093, -16.913441547289551 ], [ -48.787466441323147, -16.835999320612128 ], [ -48.722917075362716, -16.845158561318499 ], [ -48.688691640107038, -16.888787194573354 ], [ -48.646435254483379, -16.886096911343316 ], [ -48.596995539412546, -16.924201006571138 ] ] } }
]
}
