{
"type": "FeatureCollection",
"features": [
{ "type": "Feature", "properties": { "Name": "TURVÃNIA", "Description": "TURVÃNIA \/ GO" }, "geometry": { "type": "LineString", "coordinates": [ [ -50.16553532649408, -16.473282430939378 ], [ -50.132703384453571, -16.500189753554249 ], [ -50.011845670141497, -16.505662710965282 ], [ -49.983403269545192, -16.569711887493554 ], [ -50.006692611474818, -16.62058465156036 ], [ -50.149984468208565, -16.679566034145125 ], [ -50.213374464160154, -16.702742218878257 ], [ -50.23642830602148, -16.647965988839243 ], [ -50.247230411154533, -16.551698762787623 ], [ -50.22670934256206, -16.452140393064667 ], [ -50.222321658217936, -16.475459006128176 ], [ -50.16553532649408, -16.473282430939378 ] ] } }
]
}
