{
"type": "FeatureCollection",
"features": [
{ "type": "Feature", "properties": { "Name": "URUANA", "Description": "URUANA \/ GO" }, "geometry": { "type": "LineString", "coordinates": [ [ -49.606423382233288, -15.408426147248861 ], [ -49.586258295883624, -15.445995400367392 ], [ -49.539559401445153, -15.447671393120229 ], [ -49.545187928080388, -15.468069606227289 ], [ -49.575647135706724, -15.499199958111545 ], [ -49.55714382202973, -15.547460464129074 ], [ -49.556834830263142, -15.635425383774418 ], [ -49.601813426848132, -15.677259440570706 ], [ -49.632366435562517, -15.684346672061222 ], [ -49.650455075441357, -15.758730581451118 ], [ -49.678257891688297, -15.776791447567177 ], [ -49.689504758337876, -15.827094623318146 ], [ -49.69308867360337, -15.806024223638984 ], [ -49.68719542882593, -15.750507216634672 ], [ -49.7484553778134, -15.664529412002707 ], [ -49.701865172739467, -15.611420248045988 ], [ -49.69367239836248, -15.554715851755134 ], [ -49.733227832098748, -15.525330434651776 ], [ -49.691739235477314, -15.496927317341772 ], [ -49.695010246925335, -15.420043907800048 ], [ -49.606423382233288, -15.408426147248861 ] ] } }
]
}
