{
"type": "FeatureCollection",
"features": [
{ "type": "Feature", "properties": { "Name": "VIANÃPOLIS", "Description": "VIANÃPOLIS \/ GO" }, "geometry": { "type": "LineString", "coordinates": [ [ -48.259827149803073, -16.738751374876017 ], [ -48.264352964617558, -16.796344366998881 ], [ -48.302274834715831, -16.809260666746354 ], [ -48.366663536792771, -16.910578056432087 ], [ -48.409769556020137, -16.93346208560672 ], [ -48.455051394106533, -16.933228045138151 ], [ -48.4892171062844, -17.003567510831886 ], [ -48.559946144798687, -17.098530792761835 ], [ -48.572584176318628, -17.129361613747449 ], [ -48.586187768550644, -17.090480542942657 ], [ -48.528359012858111, -17.010202614459047 ], [ -48.541913643299949, -16.978243906930739 ], [ -48.596995539412546, -16.924201006571138 ], [ -48.590770931333388, -16.889978914994913 ], [ -48.54769151135411, -16.793309015698469 ], [ -48.524252094158783, -16.679361207253862 ], [ -48.50857860701705, -16.648007150809292 ], [ -48.38601737080495, -16.627414732703699 ], [ -48.310213500252814, -16.676044398729971 ], [ -48.259827149803073, -16.738751374876017 ] ] } }
]
}
