{
"type": "FeatureCollection",
"features": [
{ "type": "Feature", "properties": { "Name": "VICENTINÃPOLIS", "Description": "VICENTINÃPOLIS \/ GO" }, "geometry": { "type": "LineString", "coordinates": [ [ -49.825529392367507, -17.585201017912595 ], [ -49.781088146101013, -17.629012802598709 ], [ -49.732514545609767, -17.648451427391421 ], [ -49.694174598678728, -17.686977591542586 ], [ -49.736152520922076, -17.754525396130077 ], [ -49.778929097799562, -17.776952696509682 ], [ -49.783119662442395, -17.886013309266787 ], [ -49.82825547311154, -17.854577871371646 ], [ -49.86371078792245, -17.859009457920081 ], [ -49.888923789601165, -17.811945560139463 ], [ -49.98570956924118, -17.782630381886573 ], [ -50.069959848168423, -17.799646430038649 ], [ -50.086980142919231, -17.785264981793432 ], [ -50.077877542414626, -17.725164383029831 ], [ -50.029044062133714, -17.713877952505467 ], [ -50.03136934921605, -17.676850033702067 ], [ -49.975843962328952, -17.663604341966789 ], [ -49.92390255276058, -17.605629336724459 ], [ -49.893532780913056, -17.612631334968114 ], [ -49.825529392367507, -17.585201017912595 ] ] } }
]
}
