{
"type": "FeatureCollection",
"features": [
{ "type": "Feature", "properties": { "Name": "VILA BOA", "Description": "VILA BOA \/ GO" }, "geometry": { "type": "LineString", "coordinates": [ [ -47.109230664163761, -14.676812798771607 ], [ -47.096872902762186, -14.727822400083653 ], [ -47.114429157479606, -14.770833548029771 ], [ -47.072811963201502, -14.810120068286494 ], [ -47.054703366467152, -14.902866969235218 ], [ -46.984344725428684, -14.910573031420199 ], [ -46.925060140912706, -15.057505521862309 ], [ -46.888319019507094, -15.112539295252249 ], [ -46.937346925120437, -15.205019801722415 ], [ -46.927655345118069, -15.255095316795405 ], [ -46.89148455846555, -15.235259606245791 ], [ -46.873698430737932, -15.285403055206814 ], [ -46.945435484260145, -15.31173693860876 ], [ -46.997529899085521, -15.247000759177636 ], [ -47.018061471759495, -15.204129219288006 ], [ -47.00939150361495, -15.171192783220304 ], [ -47.050029880274735, -15.091892444780454 ], [ -47.07850768448202, -15.062809640552416 ], [ -47.124701671644793, -15.110783875275557 ], [ -47.144645875506676, -15.09662573498963 ], [ -47.184646640929714, -15.013064628130051 ], [ -47.17283177236834, -14.976754929496339 ], [ -47.214453386814277, -14.956278072475014 ], [ -47.21040126650518, -14.904218143052788 ], [ -47.234815456168349, -14.898467281639681 ], [ -47.210869062357283, -14.827272478841792 ], [ -47.221088208054312, -14.812984695886939 ], [ -47.137859983451449, -14.694257775875599 ], [ -47.109230664163761, -14.676812798771607 ] ] } }
]
}
