{
"type": "FeatureCollection",
"features": [
{ "type": "Feature", "properties": { "Name": "ÃGUA BRANCA", "Description": "ÃGUA BRANCA \/ AL" }, "geometry": { "type": "LineString", "coordinates": [ [ -37.8420488471765, -9.212711923816187 ], [ -37.769544039725581, -9.288875667078344 ], [ -37.77097558145789, -9.293012280492292 ], [ -37.777179496136796, -9.30776751665752 ], [ -37.779565286009074, -9.325127212850532 ], [ -37.794982007713429, -9.329345308439201 ], [ -37.806953638899245, -9.328426025940303 ], [ -37.82589966813515, -9.342043612522671 ], [ -37.83562012716709, -9.353279791629005 ], [ -37.837172469433874, -9.364167812594417 ], [ -37.84606197378104, -9.371728332996099 ], [ -37.852064127357551, -9.391244659213612 ], [ -37.87653256772375, -9.412955422055063 ], [ -38.007222790299465, -9.338500046240085 ], [ -37.985847023121551, -9.330699224289731 ], [ -37.978347103535953, -9.300335365484671 ], [ -37.984474025455881, -9.284595876198694 ], [ -37.9790148555511, -9.268216686550771 ], [ -37.960843719961645, -9.245583934251101 ], [ -37.988480568123684, -9.242099175536453 ], [ -37.978516596064026, -9.23301661642364 ], [ -37.971436541163428, -9.21337111878205 ], [ -37.983928921182724, -9.178557095233714 ], [ -37.999899903157939, -9.173879629541204 ], [ -38.003293190028671, -9.16189036085143 ], [ -38.011012748339624, -9.156027996994396 ], [ -37.993657987625959, -9.155333169090452 ], [ -37.97856289046495, -9.147661844118772 ], [ -37.971200278470008, -9.124341914447768 ], [ -37.954850037099504, -9.111314604185566 ], [ -37.951685292242416, -9.097542703832687 ], [ -37.8420488471765, -9.212711923816187 ] ] } }
]
}
