{
"type": "FeatureCollection",
"features": [
{ "type": "Feature", "properties": { "Name": "BATALHA", "Description": "BATALHA \/ AL" }, "geometry": { "type": "LineString", "coordinates": [ [ -37.052079124252145, -9.619761927970558 ], [ -37.067613143631604, -9.63691498333975 ], [ -37.067119450002565, -9.658440102728491 ], [ -36.993481985105454, -9.720735541012344 ], [ -37.001445293865174, -9.729328071233454 ], [ -36.998335672952919, -9.763126496690404 ], [ -37.013805683985083, -9.770595406752591 ], [ -37.022361880696167, -9.787097467174306 ], [ -37.02909869584812, -9.788589613319971 ], [ -37.040189722577566, -9.807315000187089 ], [ -37.056420860434343, -9.800058929076272 ], [ -37.06380830630826, -9.791749481153602 ], [ -37.082697063118921, -9.79444072126222 ], [ -37.103031144671547, -9.791304616215029 ], [ -37.162864757202726, -9.753698672555629 ], [ -37.169447757707815, -9.741086474960809 ], [ -37.184700575271279, -9.736683438290015 ], [ -37.219448537320083, -9.70982701100769 ], [ -37.212445240455452, -9.693372870061864 ], [ -37.190976046307469, -9.690391243361148 ], [ -37.153920628034541, -9.616099291449073 ], [ -37.147144560173274, -9.603115266456314 ], [ -37.109894268705489, -9.606004153268998 ], [ -37.052079124252145, -9.619761927970558 ] ] } }
]
}
