{
"type": "FeatureCollection",
"features": [
{ "type": "Feature", "properties": { "Name": "BELO MONTE", "Description": "BELO MONTE \/ AL" }, "geometry": { "type": "LineString", "coordinates": [ [ -37.219448537320083, -9.70982701100769 ], [ -37.184700575271279, -9.736683438290015 ], [ -37.169447757707815, -9.741086474960809 ], [ -37.162864757202726, -9.753698672555629 ], [ -37.103031144671547, -9.791304616215029 ], [ -37.082697063118921, -9.79444072126222 ], [ -37.06380830630826, -9.791749481153602 ], [ -37.056420860434343, -9.800058929076272 ], [ -37.040189722577566, -9.807315000187089 ], [ -37.10301999847411, -9.846791300777852 ], [ -37.107062362038334, -9.865183845857757 ], [ -37.118300383855562, -9.873277523039235 ], [ -37.118118833217522, -9.888908820285792 ], [ -37.125599866140867, -9.892290185743434 ], [ -37.13342232847765, -9.913206638575446 ], [ -37.152965990488042, -9.900852862069883 ], [ -37.200147433257364, -9.898061748650719 ], [ -37.226592314583627, -9.899476225747151 ], [ -37.235542551047843, -9.896037728158602 ], [ -37.251102762282585, -9.878103719510989 ], [ -37.256938030465676, -9.860268777482077 ], [ -37.26420119093217, -9.850434720585838 ], [ -37.285421320537459, -9.830962998043901 ], [ -37.297199577698336, -9.827599687375653 ], [ -37.298371075065006, -9.817378626122661 ], [ -37.3098061770134, -9.803710199965735 ], [ -37.297480956680772, -9.783397833443189 ], [ -37.284507371018321, -9.771086048082623 ], [ -37.274981067522219, -9.76927295548245 ], [ -37.251723782826275, -9.752003257144565 ], [ -37.248785054686486, -9.739012833475442 ], [ -37.239671490546804, -9.736836823060912 ], [ -37.21983548501958, -9.720792495077546 ], [ -37.219448537320083, -9.70982701100769 ] ] } }
]
}
