{
"type": "FeatureCollection",
"features": [
{ "type": "Feature", "properties": { "Name": "BOCA DA MATA", "Description": "BOCA DA MATA \/ AL" }, "geometry": { "type": "LineString", "coordinates": [ [ -36.075081401885136, -9.673734488755599 ], [ -36.078855890686782, -9.679609362182248 ], [ -36.068583214643581, -9.689101871853836 ], [ -36.07871352171162, -9.6944000352334 ], [ -36.178637166372084, -9.717213098006027 ], [ -36.180857870394334, -9.725320676907643 ], [ -36.246602793284239, -9.7324470900611 ], [ -36.239829939599986, -9.67610337856803 ], [ -36.253909443166208, -9.623889344017982 ], [ -36.264411681054185, -9.595642304049022 ], [ -36.191571648612637, -9.599854580124713 ], [ -36.181745458985681, -9.612810354714043 ], [ -36.176942054931821, -9.621321408156405 ], [ -36.151301440009433, -9.628491901579935 ], [ -36.140883889479873, -9.645444393743729 ], [ -36.115267808962187, -9.649428392206516 ], [ -36.107633654769302, -9.643520246562103 ], [ -36.089712455165625, -9.655945940952392 ], [ -36.075081401885136, -9.673734488755599 ] ] } }
]
}
