{
"type": "FeatureCollection",
"features": [
{ "type": "Feature", "properties": { "Name": "CHÃ PRETA", "Description": "CHÃ PRETA \/ AL" }, "geometry": { "type": "LineString", "coordinates": [ [ -36.28776026042766, -9.173302434759535 ], [ -36.281581245278176, -9.186241562897749 ], [ -36.244020552806205, -9.196305981136049 ], [ -36.186791389510972, -9.214148802125464 ], [ -36.236775059521335, -9.291308509480075 ], [ -36.299326914305595, -9.31239226409167 ], [ -36.300995302391243, -9.302215016010109 ], [ -36.313526225554824, -9.302550454140087 ], [ -36.326584407744178, -9.28463176004766 ], [ -36.336786962748079, -9.26950020167294 ], [ -36.340570717264761, -9.2404287172115 ], [ -36.346675194804334, -9.23667774927867 ], [ -36.355931358145597, -9.218385847328932 ], [ -36.349164114432305, -9.216259428229989 ], [ -36.351410473414546, -9.201364180212693 ], [ -36.33888905158841, -9.207011094386472 ], [ -36.327644211111412, -9.200767656302276 ], [ -36.321519749736638, -9.185380642802386 ], [ -36.294976925045034, -9.172442681084817 ], [ -36.28776026042766, -9.173302434759535 ] ] } }
]
}
