{
"type": "FeatureCollection",
"features": [
{ "type": "Feature", "properties": { "Name": "CORURIPE", "Description": "CORURIPE \/ AL" }, "geometry": { "type": "LineString", "coordinates": [ [ -36.031464649573877, -10.05085770012272 ], [ -36.042261937938065, -10.064016627964975 ], [ -36.044927500603649, -10.074807857596509 ], [ -36.059130542240666, -10.085567733264213 ], [ -36.070474394477685, -10.085254018258297 ], [ -36.088773785082083, -10.094960288686309 ], [ -36.095910533244478, -10.103430245809136 ], [ -36.113366516251688, -10.135432743126557 ], [ -36.126204494941419, -10.146252712392709 ], [ -36.133026882384684, -10.161288211481747 ], [ -36.140483222622606, -10.155865797768284 ], [ -36.15899014258099, -10.165134023716176 ], [ -36.173909182162959, -10.180520206242477 ], [ -36.185008252428865, -10.199494671142133 ], [ -36.209863802372524, -10.216331598624322 ], [ -36.260698167186604, -10.263730307707476 ], [ -36.371319726024467, -10.230245058562559 ], [ -36.356827983124901, -10.220422426653611 ], [ -36.353797876670626, -10.202662566324307 ], [ -36.338151952850296, -10.185915918185003 ], [ -36.336772740869264, -10.174160415670599 ], [ -36.343384335318774, -10.164738036031508 ], [ -36.360158455048634, -10.157217447327298 ], [ -36.362049601607794, -10.121587744978399 ], [ -36.378237311202895, -10.103997284547006 ], [ -36.399712451668279, -10.101792379814412 ], [ -36.399328608428505, -10.083681407970573 ], [ -36.415887444849659, -10.082145176158916 ], [ -36.420192440128972, -10.068574410080942 ], [ -36.434834146778428, -10.073673318768613 ], [ -36.448661204351083, -10.060187866876504 ], [ -36.45241219386758, -10.040318706942742 ], [ -36.304660655764621, -10.031379680527776 ], [ -36.305581263864212, -10.019383397126035 ], [ -36.291185691766202, -10.00026779442311 ], [ -36.287909862649997, -9.985342988388139 ], [ -36.280950536338139, -9.935050729507509 ], [ -36.123910726398826, -9.933660398308689 ], [ -36.106130230225915, -9.951545362428476 ], [ -36.102086105789112, -9.962260597548491 ], [ -36.082317080868563, -9.979687304025786 ], [ -36.073992259035492, -10.003288388748102 ], [ -36.056511763207254, -10.011823858783996 ], [ -36.051356154063228, -10.029370367548381 ], [ -36.056600526293209, -10.04193566280054 ], [ -36.041876986733485, -10.051128307025692 ], [ -36.031464649573877, -10.05085770012272 ] ] } }
]
}
