{
"type": "FeatureCollection",
"features": [
{ "type": "Feature", "properties": { "Name": "DOIS RIACHOS", "Description": "DOIS RIACHOS \/ AL" }, "geometry": { "type": "LineString", "coordinates": [ [ -36.979640274878761, -9.359327923944477 ], [ -36.994159653944848, -9.374304229656445 ], [ -37.022781103265281, -9.369595935204186 ], [ -37.030218860811708, -9.392338240217555 ], [ -37.03858915596475, -9.41684457801483 ], [ -37.103199941124331, -9.45633051574066 ], [ -37.117611364672712, -9.460008550454177 ], [ -37.117727963574623, -9.437699068457221 ], [ -37.148862447843669, -9.435970827791436 ], [ -37.145280568643273, -9.421936829021377 ], [ -37.119559131648543, -9.387302004383969 ], [ -37.10667333330764, -9.375006760253711 ], [ -37.102724366136556, -9.361680302204149 ], [ -37.089359389224398, -9.348169862649 ], [ -37.088749514878145, -9.33367004653536 ], [ -37.073835197636235, -9.31815296858457 ], [ -37.057586247807023, -9.317536599334517 ], [ -37.04752670479354, -9.314891375736352 ], [ -37.024289813124312, -9.315715040516636 ], [ -37.012839759946928, -9.339330459533016 ], [ -37.003364544238309, -9.352613236611546 ], [ -36.979640274878761, -9.359327923944477 ] ] } }
]
}
