{
"type": "FeatureCollection",
"features": [
{ "type": "Feature", "properties": { "Name": "FLEXEIRAS", "Description": "FLEXEIRAS \/ AL" }, "geometry": { "type": "LineString", "coordinates": [ [ -35.724939048897966, -9.12534622784608 ], [ -35.702983185725373, -9.229701466249594 ], [ -35.693319706838963, -9.260256925616602 ], [ -35.691910096873414, -9.298482829518946 ], [ -35.686478879696494, -9.37071605520174 ], [ -35.687686059464056, -9.370847082826572 ], [ -35.769605540263456, -9.389593448179028 ], [ -35.769502714478612, -9.387610249713191 ], [ -35.769016951071364, -9.309006617861087 ], [ -35.804549494263711, -9.266542014002709 ], [ -35.836350964325504, -9.264542465862064 ], [ -35.834536446299921, -9.235657320029247 ], [ -35.88857316471973, -9.138308267112791 ], [ -35.870864494700641, -9.136024920813384 ], [ -35.844864133872647, -9.151426043776837 ], [ -35.830065789604468, -9.1497138847879 ], [ -35.818841808003015, -9.158470721146841 ], [ -35.781876998224845, -9.153500938917148 ], [ -35.764068454895209, -9.142555825390957 ], [ -35.741845475987873, -9.13530694076263 ], [ -35.724939048897966, -9.12534622784608 ] ] } }
]
}
