{
"type": "FeatureCollection",
"features": [
{ "type": "Feature", "properties": { "Name": "JOAQUIM GOMES", "Description": "JOAQUIM GOMES \/ AL" }, "geometry": { "type": "LineString", "coordinates": [ [ -35.580064942043407, -9.157811917386027 ], [ -35.623661800451707, -9.130061740257077 ], [ -35.635837256683999, -9.119667482168495 ], [ -35.649912806830514, -9.118131837614158 ], [ -35.658735409711369, -9.108612431018855 ], [ -35.674825583333984, -9.10132544211541 ], [ -35.68955413391609, -9.10188095694059 ], [ -35.710089682492814, -9.113363278692304 ], [ -35.724939048897966, -9.12534622784608 ], [ -35.741845475987873, -9.13530694076263 ], [ -35.764068454895209, -9.142555825390957 ], [ -35.781876998224845, -9.153500938917148 ], [ -35.818841808003015, -9.158470721146841 ], [ -35.830065789604468, -9.1497138847879 ], [ -35.844864133872647, -9.151426043776837 ], [ -35.870864494700641, -9.136024920813384 ], [ -35.88857316471973, -9.138308267112791 ], [ -35.864489659370236, -9.067737685545694 ], [ -35.860513377989946, -9.053490274956175 ], [ -35.834566672513859, -8.984289045203241 ], [ -35.756867362039088, -9.009516855118704 ], [ -35.682666440403864, -9.029313319254243 ], [ -35.685406969655894, -9.034870873192176 ], [ -35.709271528757995, -9.04920693265376 ], [ -35.705056520541973, -9.082685287595893 ], [ -35.686651148431736, -9.09966610300819 ], [ -35.629182885082059, -9.092213306998474 ], [ -35.580064942043407, -9.157811917386027 ] ] } }
]
}
