{
"type": "FeatureCollection",
"features": [
{ "type": "Feature", "properties": { "Name": "MATA GRANDE", "Description": "MATA GRANDE \/ AL" }, "geometry": { "type": "LineString", "coordinates": [ [ -37.519111111088876, -8.968333333716316 ], [ -37.546016666535877, -9.000333333616425 ], [ -37.589083333229212, -9.05975000066195 ], [ -37.637388888985981, -9.108305556256369 ], [ -37.659483333189257, -9.137655556258892 ], [ -37.663222222327647, -9.159388889385694 ], [ -37.68245833328541, -9.17903888903345 ], [ -37.692452702430217, -9.176793448258991 ], [ -37.724149335823135, -9.196226139324835 ], [ -37.841874427262951, -9.206279150562294 ], [ -37.8420488471765, -9.212711923816187 ], [ -37.951685292242416, -9.097542703832687 ], [ -37.942684203613055, -9.092218876499885 ], [ -37.937676692125592, -9.080115257213322 ], [ -37.907093576807085, -9.051157956074746 ], [ -37.906538651037863, -9.042953225211136 ], [ -37.887706553314722, -9.035073892446121 ], [ -37.880983298140677, -9.040346741708731 ], [ -37.875227587583083, -9.024621981519203 ], [ -37.879598102070702, -9.015413862659614 ], [ -37.867151979580171, -9.011631208913116 ], [ -37.853093230568106, -9.00013962594295 ], [ -37.839098599620627, -8.978381068631393 ], [ -37.826233659255934, -8.932716849602855 ], [ -37.833637042915143, -8.926411768388334 ], [ -37.820359305637389, -8.908703780055362 ], [ -37.825640160664818, -8.888567339810834 ], [ -37.809747930522519, -8.877106582902455 ], [ -37.798415068000963, -8.876097562452514 ], [ -37.773649551885285, -8.853032876565976 ], [ -37.765903413211895, -8.854463661968396 ], [ -37.755361890238987, -8.84636368593533 ], [ -37.746492874246712, -8.859076311722333 ], [ -37.741431909754795, -8.876235345784551 ], [ -37.73310869590955, -8.880904225649431 ], [ -37.721633495889073, -8.898703098569115 ], [ -37.719387705278336, -8.90809995814652 ], [ -37.703714427678676, -8.92230601431106 ], [ -37.698605752353558, -8.944875631505168 ], [ -37.671916666420991, -8.974500000274759 ], [ -37.695297413644653, -8.981532443267611 ], [ -37.682152836284331, -8.997332445236111 ], [ -37.658087484649627, -8.985796352119905 ], [ -37.657777777922092, -8.992666667132937 ], [ -37.639895197904991, -8.995132773658554 ], [ -37.628708243190829, -9.000451441580708 ], [ -37.610166666958094, -8.98786111100145 ], [ -37.595750000362159, -8.968805556031555 ], [ -37.572442047862182, -8.972034510684066 ], [ -37.555944444480474, -8.970472222814806 ], [ -37.545972222040348, -8.960944444430538 ], [ -37.528027777659752, -8.960416667395236 ], [ -37.519111111088876, -8.968333333716316 ] ] } }
]
}
