{
"type": "FeatureCollection",
"features": [
{ "type": "Feature", "properties": { "Name": "OLHO D'ÃGUA DO CASADO", "Description": "OLHO D'ÃGUA DO CASADO \/ AL" }, "geometry": { "type": "LineString", "coordinates": [ [ -37.728235731993379, -9.333911494719644 ], [ -37.723006945014447, -9.384251174851782 ], [ -37.772604742914496, -9.445671240934985 ], [ -37.773838650533264, -9.469090149990393 ], [ -37.786286731747225, -9.498473449190271 ], [ -37.796035126419895, -9.505414780967328 ], [ -37.787625544383332, -9.522277227611937 ], [ -37.794868925160699, -9.536411711231437 ], [ -37.794046259527192, -9.54431308278248 ], [ -37.808121600131699, -9.548279947361607 ], [ -37.833428562977751, -9.550459461534899 ], [ -37.842984259016305, -9.565157991847798 ], [ -37.842226012720289, -9.579416500071375 ], [ -37.863795608980126, -9.566552423055839 ], [ -37.886169870942751, -9.550166843724808 ], [ -37.894141677396476, -9.539527307239382 ], [ -37.888119884425066, -9.529497153171008 ], [ -37.8958757879372, -9.511569433482521 ], [ -37.897840828191647, -9.47471614953065 ], [ -37.892681905045833, -9.462132026971403 ], [ -37.896704911602342, -9.44872349589258 ], [ -37.882417690723798, -9.432430658248222 ], [ -37.87653256772375, -9.412955422055063 ], [ -37.852064127357551, -9.391244659213612 ], [ -37.84606197378104, -9.371728332996099 ], [ -37.837172469433874, -9.364167812594417 ], [ -37.83562012716709, -9.353279791629005 ], [ -37.82589966813515, -9.342043612522671 ], [ -37.806953638899245, -9.328426025940303 ], [ -37.794982007713429, -9.329345308439201 ], [ -37.779565286009074, -9.325127212850532 ], [ -37.777179496136796, -9.30776751665752 ], [ -37.77097558145789, -9.293012280492292 ], [ -37.728235731993379, -9.333911494719644 ] ] } }
]
}
