{
"type": "FeatureCollection",
"features": [
{ "type": "Feature", "properties": { "Name": "PARIPUEIRA", "Description": "PARIPUEIRA \/ AL" }, "geometry": { "type": "LineString", "coordinates": [ [ -35.524752829379501, -9.442364278188847 ], [ -35.528558806143963, -9.453753906817324 ], [ -35.53976486875365, -9.461336070303332 ], [ -35.555306049434591, -9.477298413390997 ], [ -35.558527006416163, -9.487451272757994 ], [ -35.562847393592278, -9.47955615239448 ], [ -35.590101281648799, -9.469112113233393 ], [ -35.601903860974346, -9.474054411281998 ], [ -35.618035932212479, -9.469114262613061 ], [ -35.626011266706541, -9.457832148834539 ], [ -35.626153945048486, -9.447770892612539 ], [ -35.641879180080025, -9.44435233569169 ], [ -35.663882615590182, -9.430660469604959 ], [ -35.676793190253477, -9.39844099825342 ], [ -35.666088828836337, -9.398642845690745 ], [ -35.650687546692893, -9.404779747387408 ], [ -35.640438545302572, -9.401809380198699 ], [ -35.620404583704548, -9.409702771165882 ], [ -35.61074345024997, -9.404620086247917 ], [ -35.591572192102944, -9.404608601905409 ], [ -35.57123528128318, -9.401374084046722 ], [ -35.549625256000695, -9.403590821159412 ], [ -35.546101161839083, -9.416289080276783 ], [ -35.537210744680067, -9.423599775309356 ], [ -35.524752829379501, -9.442364278188847 ] ] } }
]
}
