{
"type": "FeatureCollection",
"features": [
{ "type": "Feature", "properties": { "Name": "PILAR", "Description": "PILAR \/ AL" }, "geometry": { "type": "LineString", "coordinates": [ [ -35.887242607860003, -9.588838634195554 ], [ -35.868114405655263, -9.625388099281336 ], [ -35.888239750064372, -9.647906342703493 ], [ -35.942576112697388, -9.640133218972835 ], [ -35.978546670692253, -9.643801174984219 ], [ -35.98690995293196, -9.662493946138682 ], [ -36.024322116972087, -9.646421445093551 ], [ -36.020191339258872, -9.660536424216559 ], [ -36.029829639825948, -9.6712971128714 ], [ -36.034275846652974, -9.668754022580003 ], [ -36.075081401885136, -9.673734488755599 ], [ -36.089712455165625, -9.655945940952392 ], [ -36.107633654769302, -9.643520246562103 ], [ -36.115267808962187, -9.649428392206516 ], [ -36.140883889479873, -9.645444393743729 ], [ -36.151301440009433, -9.628491901579935 ], [ -36.176942054931821, -9.621321408156405 ], [ -36.181745458985681, -9.612810354714043 ], [ -36.158715508513865, -9.618777593910806 ], [ -36.150047171739516, -9.612069137080937 ], [ -36.138581232038177, -9.613058162004506 ], [ -36.128298183214554, -9.599111610612283 ], [ -36.119883909414852, -9.595655658981457 ], [ -36.092742919550062, -9.601253471970097 ], [ -36.071242983876573, -9.596371051682638 ], [ -36.017688160879857, -9.575875735176963 ], [ -36.005604320383043, -9.586057687612138 ], [ -36.000410812908626, -9.574397877460058 ], [ -35.976412711677256, -9.555584714962604 ], [ -35.979601954066879, -9.550438763637999 ], [ -35.959740556181657, -9.528010402957703 ], [ -35.949857443066492, -9.533339705363062 ], [ -35.935378734041301, -9.550131719803005 ], [ -35.887242607860003, -9.588838634195554 ] ] } }
]
}
