{
"type": "FeatureCollection",
"features": [
{ "type": "Feature", "properties": { "Name": "PINDOBA", "Description": "PINDOBA \/ AL" }, "geometry": { "type": "LineString", "coordinates": [ [ -36.211123881162166, -9.452997928611465 ], [ -36.20805125116425, -9.455437432291603 ], [ -36.216988559874096, -9.474031361657978 ], [ -36.225096573148278, -9.490901617115867 ], [ -36.240794512856439, -9.510296622091403 ], [ -36.260570892432725, -9.520581335560166 ], [ -36.292753684035233, -9.519549596436661 ], [ -36.306029617272998, -9.522272644666771 ], [ -36.329195590204279, -9.510951527291127 ], [ -36.339880962436439, -9.511671612654766 ], [ -36.3430348111076, -9.493281756547788 ], [ -36.353736516826757, -9.481688527703341 ], [ -36.355423915681115, -9.469340175908371 ], [ -36.339415465251477, -9.464575098262117 ], [ -36.350687094733587, -9.448749513279381 ], [ -36.329786593176664, -9.444039886031874 ], [ -36.324026327552929, -9.435766678089692 ], [ -36.301990834809146, -9.426130429775469 ], [ -36.253055522494321, -9.443743787845506 ], [ -36.211123881162166, -9.452997928611465 ] ] } }
]
}
