{
"type": "FeatureCollection",
"features": [
{ "type": "Feature", "properties": { "Name": "PORTO DE PEDRAS", "Description": "PORTO DE PEDRAS \/ AL" }, "geometry": { "type": "LineString", "coordinates": [ [ -35.312248379958703, -9.147013503969957 ], [ -35.298623431526089, -9.144981862622842 ], [ -35.295069829708837, -9.155717707506142 ], [ -35.294699724512611, -9.170072860474079 ], [ -35.304316233607267, -9.190553227549344 ], [ -35.320061326568919, -9.199529132463454 ], [ -35.331485991884961, -9.224293393125548 ], [ -35.342518219140459, -9.231196822075617 ], [ -35.359346852175463, -9.229249198091964 ], [ -35.377957031391816, -9.209696448432283 ], [ -35.427735987825542, -9.193870582861052 ], [ -35.475780490177442, -9.190593554948578 ], [ -35.483968652831038, -9.178405257296731 ], [ -35.467671168389643, -9.17736479924605 ], [ -35.458662709816167, -9.184706773598691 ], [ -35.44401895271244, -9.178752603349892 ], [ -35.445212727185549, -9.16875414049116 ], [ -35.454787404315198, -9.165121827310429 ], [ -35.467078671643321, -9.167310695332276 ], [ -35.482280738665111, -9.145696071816189 ], [ -35.509870445264767, -9.132678317750104 ], [ -35.521001318256197, -9.135075602756842 ], [ -35.526545671045824, -9.118308990567414 ], [ -35.52054345091949, -9.101728344687331 ], [ -35.51245745304896, -9.100050219641901 ], [ -35.50174834860735, -9.085316353167116 ], [ -35.494768355874889, -9.077689494274692 ], [ -35.481876779389836, -9.072779167124793 ], [ -35.465990991091303, -9.076060709634021 ], [ -35.455433479971077, -9.068387119270083 ], [ -35.427403593900692, -9.07018431725237 ], [ -35.420782994539536, -9.077399467411453 ], [ -35.371972938000624, -9.088838167547351 ], [ -35.366071856530937, -9.085987687181955 ], [ -35.348540755851161, -9.112425325368406 ], [ -35.356573105564337, -9.114839225349897 ], [ -35.337294330768714, -9.130710438335996 ], [ -35.333706754363163, -9.13838645057416 ], [ -35.321154005552899, -9.14724510008125 ], [ -35.312248379958703, -9.147013503969957 ] ] } }
]
}
