{
"type": "FeatureCollection",
"features": [
{ "type": "Feature", "properties": { "Name": "SÃO MIGUEL DOS MILAGRES", "Description": "SÃO MIGUEL DOS MILAGRES \/ AL" }, "geometry": { "type": "LineString", "coordinates": [ [ -35.386796923738984, -9.286249985748213 ], [ -35.395738214646826, -9.272098924026068 ], [ -35.442454755582446, -9.234426919766461 ], [ -35.461137623402578, -9.227650744885921 ], [ -35.469279846887389, -9.217977319497663 ], [ -35.475780490177442, -9.190593554948578 ], [ -35.427735987825542, -9.193870582861052 ], [ -35.377957031391816, -9.209696448432283 ], [ -35.359346852175463, -9.229249198091964 ], [ -35.342518219140459, -9.231196822075617 ], [ -35.353474549910516, -9.254427002104421 ], [ -35.373352701266128, -9.277192062663515 ], [ -35.386796923738984, -9.286249985748213 ] ] } }
]
}
