{
"type": "FeatureCollection",
"features": [
{ "type": "Feature", "properties": { "Name": "CAMPO DO BRITO", "Description": "CAMPO DO BRITO \/ SE" }, "geometry": { "type": "LineString", "coordinates": [ [ -37.500688734597361, -10.688080043059472 ], [ -37.462804364429815, -10.714134770603152 ], [ -37.451828457217452, -10.739404344135153 ], [ -37.452596335252622, -10.770067439760508 ], [ -37.442040566119204, -10.778334794015505 ], [ -37.449139912377007, -10.789723683401235 ], [ -37.431412032838971, -10.831316011424747 ], [ -37.40304344589827, -10.824371166895787 ], [ -37.404665292269385, -10.826137496548199 ], [ -37.456559417283245, -10.882607288495535 ], [ -37.45741318417106, -10.873732388239091 ], [ -37.471344681811559, -10.853024714818671 ], [ -37.497873820620271, -10.833019424506801 ], [ -37.524567476008144, -10.819557699428231 ], [ -37.520586099069192, -10.795455168920853 ], [ -37.543756869883623, -10.780308598163231 ], [ -37.557882036526735, -10.781555286946912 ], [ -37.566294471212814, -10.766385565841119 ], [ -37.560018811319026, -10.757324649812688 ], [ -37.587972463658218, -10.722219702777011 ], [ -37.586222483680615, -10.711991005380526 ], [ -37.59574997518115, -10.696009189272615 ], [ -37.585869383764987, -10.680817147893036 ], [ -37.575075239430703, -10.689809122792724 ], [ -37.549771131932175, -10.69752271949784 ], [ -37.532590368450713, -10.688693813268799 ], [ -37.500688734597361, -10.688080043059472 ] ] } }
]
}
