{
"type": "FeatureCollection",
"features": [
{ "type": "Feature", "properties": { "Name": "CARIRA", "Description": "CARIRA \/ SE" }, "geometry": { "type": "LineString", "coordinates": [ [ -37.596589126287085, -10.250817080943477 ], [ -37.611431069688081, -10.277494169020656 ], [ -37.577974053859464, -10.330346181730874 ], [ -37.575532773118937, -10.371300916504024 ], [ -37.62469259039068, -10.412159407630497 ], [ -37.681077401800621, -10.480862510096699 ], [ -37.725259771920889, -10.509645372435953 ], [ -37.729932743701113, -10.515525961054207 ], [ -37.772851544762943, -10.506606312331428 ], [ -37.797724528963784, -10.509120481325112 ], [ -37.815643925426791, -10.517393432061169 ], [ -37.81335025580961, -10.50729256969629 ], [ -37.821393164462904, -10.487283687492152 ], [ -37.841986765177012, -10.452813258924719 ], [ -37.858897275189065, -10.430204306283656 ], [ -37.853382388686263, -10.40650654803869 ], [ -37.839400190866058, -10.403351524852951 ], [ -37.833926089517369, -10.378339918252607 ], [ -37.78761709255474, -10.354483862240386 ], [ -37.783979727882063, -10.346221448860717 ], [ -37.762532804545231, -10.344428479490716 ], [ -37.734875622711797, -10.332807018229287 ], [ -37.741462354503987, -10.317662847762165 ], [ -37.765703145883428, -10.196217082052669 ], [ -37.746809113649647, -10.19849178676651 ], [ -37.717334034138325, -10.18789890980679 ], [ -37.701097831299819, -10.201156571518538 ], [ -37.67381464423039, -10.20641882586807 ], [ -37.653836542222621, -10.218803004854749 ], [ -37.638821309355876, -10.234451033987966 ], [ -37.596589126287085, -10.250817080943477 ] ] } }
]
}
