{
"type": "FeatureCollection",
"features": [
{ "type": "Feature", "properties": { "Name": "GRACCHO CARDOSO", "Description": "GRACCHO CARDOSO \/ SE" }, "geometry": { "type": "LineString", "coordinates": [ [ -37.152155484587901, -10.165305254633701 ], [ -37.154725011350102, -10.184363141545701 ], [ -37.137372851475803, -10.193694220212 ], [ -37.1507522652049, -10.225048854920701 ], [ -37.141625490024303, -10.2456775435837 ], [ -37.139727791904001, -10.280918831438898 ], [ -37.155599963567397, -10.3073795516249 ], [ -37.149084349263298, -10.3223149642641 ], [ -37.163837729227801, -10.3402827307634 ], [ -37.174030278374602, -10.334243858767 ], [ -37.171476335964101, -10.314977070135599 ], [ -37.185926540077695, -10.3019126772282 ], [ -37.199671218851599, -10.297436433944201 ], [ -37.216234666996201, -10.3013624845909 ], [ -37.227618857424289, -10.2947411621748 ], [ -37.242624123104697, -10.262782946575699 ], [ -37.2614794844906, -10.237659076705 ], [ -37.332312731946999, -10.210849097607699 ], [ -37.314144838413497, -10.1537691345379 ], [ -37.262383511789601, -10.164012979215599 ], [ -37.245695820505702, -10.147552864972701 ], [ -37.2306694486361, -10.1591750627789 ], [ -37.221377771067196, -10.157176908587399 ], [ -37.220314473833902, -10.135594353996201 ], [ -37.207293302343999, -10.144621612897099 ], [ -37.1943452942999, -10.163064671996899 ], [ -37.180994992524901, -10.174069396185599 ], [ -37.152155484587901, -10.165305254633701 ] ] } }
]
}
