{
"type": "FeatureCollection",
"features": [
{ "type": "Feature", "properties": { "Name": "ITABI", "Description": "ITABI \/ SE" }, "geometry": { "type": "LineString", "coordinates": [ [ -37.062024006402737, -10.061547313557639 ], [ -37.06796536401032, -10.092299480736415 ], [ -37.064962817280161, -10.136400348896927 ], [ -37.151943626796879, -10.16523485660332 ], [ -37.152155484587922, -10.16530525463372 ], [ -37.180994992524859, -10.174069396185644 ], [ -37.194345294299865, -10.163064671996949 ], [ -37.207293302343999, -10.144621612897083 ], [ -37.220314473833866, -10.135594353996169 ], [ -37.229008861269904, -10.102692093065571 ], [ -37.2153313978257, -10.103399666161636 ], [ -37.189246074446707, -10.061563924035795 ], [ -37.187051192658373, -10.040342562359342 ], [ -37.170822678124068, -10.049483643954943 ], [ -37.131083435552057, -10.054101305630695 ], [ -37.102679669830877, -10.051012392507857 ], [ -37.062024006402737, -10.061547313557639 ] ] } }
]
}
