{
"type": "FeatureCollection",
"features": [
{ "type": "Feature", "properties": { "Name": "JAPARATUBA", "Description": "JAPARATUBA \/ SE" }, "geometry": { "type": "LineString", "coordinates": [ [ -36.783651985450717, -10.57591722340112 ], [ -36.894085559001326, -10.661007811761067 ], [ -36.903198358717248, -10.662168333801503 ], [ -36.923548915849722, -10.67686589014869 ], [ -36.934112741110084, -10.654556706726567 ], [ -36.959112393022444, -10.651768775108849 ], [ -36.968889319586367, -10.630956303690425 ], [ -36.991947069001981, -10.631629034352386 ], [ -37.011113988819488, -10.640899080528072 ], [ -36.975529387471227, -10.54163510297758 ], [ -36.977772755308365, -10.530193837075899 ], [ -36.956350057009502, -10.523737326216576 ], [ -36.93536560194093, -10.450449099546233 ], [ -36.932703210284899, -10.427229468565088 ], [ -36.904903064125051, -10.416883576016174 ], [ -36.903155963776669, -10.403321400262371 ], [ -36.883353536236655, -10.397230870308363 ], [ -36.876893014401048, -10.41254358811608 ], [ -36.857630231350065, -10.428178618448442 ], [ -36.875345421453964, -10.438778048767915 ], [ -36.868379046255939, -10.466766827726872 ], [ -36.868675598599964, -10.483161334627823 ], [ -36.862099029146862, -10.495170385704682 ], [ -36.845152611903472, -10.499899655944319 ], [ -36.836355078524036, -10.511825130325462 ], [ -36.831200636699975, -10.531948364025709 ], [ -36.808380302908631, -10.549732777645543 ], [ -36.808889631251418, -10.574668379841794 ], [ -36.783651985450717, -10.57591722340112 ] ] } }
]
}
