{
"type": "FeatureCollection",
"features": [
{ "type": "Feature", "properties": { "Name": "LAGARTO", "Description": "LAGARTO \/ SE" }, "geometry": { "type": "LineString", "coordinates": [ [ -37.618316323339627, -10.712001138042012 ], [ -37.630782483624671, -10.726068637457615 ], [ -37.628904575985359, -10.741804306423546 ], [ -37.609644438739792, -10.763450134615994 ], [ -37.604029624067834, -10.788011637726868 ], [ -37.61376158542879, -10.795810535128055 ], [ -37.609108105554583, -10.813602534529309 ], [ -37.59474486948011, -10.827082407926753 ], [ -37.571140567882878, -10.83968721669163 ], [ -37.512440512119895, -10.844657383831134 ], [ -37.497873820620271, -10.833019424506801 ], [ -37.471344681811559, -10.853024714818671 ], [ -37.45741318417106, -10.873732388239091 ], [ -37.456559417283245, -10.882607288495535 ], [ -37.465256033239314, -10.893273190405353 ], [ -37.490174195782458, -10.903497269783145 ], [ -37.503605944658595, -10.901100840031688 ], [ -37.455642638496954, -10.977549827562427 ], [ -37.519661248867521, -10.960341870380944 ], [ -37.531007963646573, -10.996222323501399 ], [ -37.568513289356758, -11.025457502561665 ], [ -37.565151428395666, -11.04005179515417 ], [ -37.62241896666194, -11.067475293549933 ], [ -37.63462671844826, -11.064607524617541 ], [ -37.671547099918655, -11.025315172257365 ], [ -37.692752307972569, -11.02662314084523 ], [ -37.709328961762132, -11.003586906810254 ], [ -37.724461273768725, -10.994046202470201 ], [ -37.748283949644531, -11.01116014002838 ], [ -37.775164013808137, -11.015343384189805 ], [ -37.809269586522134, -11.011396357755643 ], [ -37.838216906085279, -10.974287620477241 ], [ -37.836653612773944, -10.951031629905742 ], [ -37.846709198770441, -10.934430493872128 ], [ -37.874759176594694, -10.921719069579352 ], [ -37.867059016660214, -10.901210893667781 ], [ -37.876882963378023, -10.864332472765341 ], [ -37.860815127116382, -10.869319818754605 ], [ -37.828379802286008, -10.85899426797107 ], [ -37.813826876708958, -10.869831923304559 ], [ -37.803645478256158, -10.837995955249085 ], [ -37.766570977268771, -10.819218205355867 ], [ -37.732751855713502, -10.797394457987821 ], [ -37.724177270564553, -10.785876145367752 ], [ -37.709512689658879, -10.754575966407685 ], [ -37.707133935182924, -10.737987859751854 ], [ -37.679462766193637, -10.727119682327441 ], [ -37.678776817296232, -10.71433408824754 ], [ -37.662857810739347, -10.71728132487317 ], [ -37.654030361412019, -10.709670616006065 ], [ -37.618316323339627, -10.712001138042012 ] ] } }
]
}
