{
"type": "FeatureCollection",
"features": [
{ "type": "Feature", "properties": { "Name": "LARANJEIRAS", "Description": "LARANJEIRAS \/ SE" }, "geometry": { "type": "LineString", "coordinates": [ [ -37.08817825292396, -10.783176772689842 ], [ -37.087330791183035, -10.798401508922439 ], [ -37.064879398865116, -10.823034152903801 ], [ -37.091144201743475, -10.823409436396332 ], [ -37.101477812251176, -10.81812547151327 ], [ -37.117921952735912, -10.832026406593341 ], [ -37.147728737291345, -10.835028917350598 ], [ -37.156262124497403, -10.831945578225827 ], [ -37.175718360713745, -10.844655286612124 ], [ -37.181199560411358, -10.854976418127137 ], [ -37.21494749612998, -10.848122516640784 ], [ -37.243622907471149, -10.8339360980724 ], [ -37.317672341904995, -10.831640211626393 ], [ -37.24559572056603, -10.778356597179195 ], [ -37.228940292460493, -10.76150077673941 ], [ -37.216295537608914, -10.766429977961081 ], [ -37.161370814211637, -10.751420988187988 ], [ -37.152910650705905, -10.767481368170536 ], [ -37.142247806491014, -10.765458379200766 ], [ -37.122354642752498, -10.786264370104561 ], [ -37.098707943516722, -10.775500480762503 ], [ -37.08817825292396, -10.783176772689842 ] ] } }
]
}
