{
"type": "FeatureCollection",
"features": [
{ "type": "Feature", "properties": { "Name": "MALHADOR", "Description": "MALHADOR \/ SE" }, "geometry": { "type": "LineString", "coordinates": [ [ -37.231826251979896, -10.674409768795726 ], [ -37.228252075472874, -10.684867739354614 ], [ -37.237409323281611, -10.707471909401079 ], [ -37.260343718987372, -10.702983730314884 ], [ -37.268249025971727, -10.71485276504302 ], [ -37.283022711728734, -10.72153204966429 ], [ -37.299761130171987, -10.732436856475713 ], [ -37.32625069161611, -10.729384345211315 ], [ -37.336322129962291, -10.721795483574681 ], [ -37.320473348765972, -10.692159482074373 ], [ -37.328903921878464, -10.6536764458113 ], [ -37.33234710853219, -10.639608074053342 ], [ -37.326151288651033, -10.623186770053337 ], [ -37.296399532712201, -10.601027800392615 ], [ -37.295460239398494, -10.61086073853221 ], [ -37.282602072727457, -10.618495241662004 ], [ -37.258997953692585, -10.6500248026025 ], [ -37.245753066850511, -10.653649985058733 ], [ -37.231826251979896, -10.674409768795726 ] ] } }
]
}
