{
"type": "FeatureCollection",
"features": [
{ "type": "Feature", "properties": { "Name": "MARUIM", "Description": "MARUIM \/ SE" }, "geometry": { "type": "LineString", "coordinates": [ [ -37.070268322724871, -10.749222783404662 ], [ -37.069271088789662, -10.767468685031758 ], [ -37.075350179367263, -10.779167632780002 ], [ -37.08817825292396, -10.783176772689842 ], [ -37.098707943516722, -10.775500480762503 ], [ -37.122354642752498, -10.786264370104561 ], [ -37.142247806491014, -10.765458379200766 ], [ -37.152910650705905, -10.767481368170536 ], [ -37.161370814211637, -10.751420988187988 ], [ -37.151060936812712, -10.738545704720423 ], [ -37.14256706042147, -10.700470389596774 ], [ -37.12155815998107, -10.702731203382257 ], [ -37.115499770897657, -10.68493149589176 ], [ -37.090662057208135, -10.655135407872706 ], [ -37.092714097877263, -10.676013990253409 ], [ -37.059077643018782, -10.692763220346308 ], [ -37.05256704063634, -10.704245657211288 ], [ -37.061882220188295, -10.714158371511585 ], [ -37.070268322724871, -10.749222783404662 ] ] } }
]
}
