{
"type": "FeatureCollection",
"features": [
{ "type": "Feature", "properties": { "Name": "PEDRINHAS", "Description": "PEDRINHAS \/ SE" }, "geometry": { "type": "LineString", "coordinates": [ [ -37.596534431318894, -11.203536547973272 ], [ -37.597357481862275, -11.214091140793471 ], [ -37.635342410623707, -11.220050970475882 ], [ -37.660519679539561, -11.219137195425162 ], [ -37.672316514895215, -11.238927941671136 ], [ -37.678614044502524, -11.234256432188543 ], [ -37.686360600461285, -11.210710739409024 ], [ -37.705440315717965, -11.192795130890545 ], [ -37.691462171142227, -11.171237632310863 ], [ -37.678884662197333, -11.189983484150446 ], [ -37.670411852424984, -11.18302638635862 ], [ -37.637002274035694, -11.200083933726489 ], [ -37.596534431318894, -11.203536547973272 ] ] } }
]
}
