{
"type": "FeatureCollection",
"features": [
{ "type": "Feature", "properties": { "Name": "PORTO DA FOLHA", "Description": "PORTO DA FOLHA \/ SE" }, "geometry": { "type": "LineString", "coordinates": [ [ -37.420105661646915, -10.062236821971737 ], [ -37.470065566172877, -10.022529390219118 ], [ -37.563199058689577, -9.999007312737263 ], [ -37.581706600978805, -9.998168072598446 ], [ -37.590775788971428, -10.016328292216883 ], [ -37.615774897693314, -10.026324250463745 ], [ -37.646383291155928, -10.022111763946725 ], [ -37.666231292739944, -10.01573568665259 ], [ -37.665015638660748, -9.999481528849456 ], [ -37.652409672468366, -9.994502465616222 ], [ -37.64119972928404, -9.978977549174488 ], [ -37.607619394819153, -9.968511127686327 ], [ -37.509032394529356, -9.818207265053218 ], [ -37.46685765655559, -9.749524555613732 ], [ -37.417758344771755, -9.762956674111194 ], [ -37.397603643793104, -9.777541270213419 ], [ -37.354622911817899, -9.789080388648983 ], [ -37.32112220062902, -9.820461772792555 ], [ -37.285421320537459, -9.830962998043901 ], [ -37.256938030465676, -9.860268777482077 ], [ -37.251102762282585, -9.878103719510989 ], [ -37.235542551047843, -9.896037728158602 ], [ -37.226592314583627, -9.899476225747151 ], [ -37.231285360131203, -9.912716121351878 ], [ -37.234062461213568, -9.958472826659602 ], [ -37.257706400429981, -9.958714789256078 ], [ -37.273384019057175, -9.968384870065675 ], [ -37.265820434665272, -9.991333786225198 ], [ -37.285049218846325, -9.988659669208346 ], [ -37.286515740608877, -10.009844307968365 ], [ -37.314710520973733, -10.001583152740237 ], [ -37.328321379727868, -10.010172852794881 ], [ -37.332739537599537, -9.995927967501641 ], [ -37.34333693814915, -9.991422253434223 ], [ -37.351597928801311, -10.01404536680019 ], [ -37.367189620804311, -10.007502545306181 ], [ -37.379689859999019, -10.010359583527929 ], [ -37.376685246626778, -10.02605761586625 ], [ -37.384726389910895, -10.030376599200622 ], [ -37.394800590974455, -10.049316538227629 ], [ -37.409556827185781, -10.052130990852504 ], [ -37.420105661646915, -10.062236821971737 ] ] } }
]
}
