{
"type": "FeatureCollection",
"features": [
{ "type": "Feature", "properties": { "Name": "RIBEIRÃPOLIS", "Description": "RIBEIRÃPOLIS \/ SE" }, "geometry": { "type": "LineString", "coordinates": [ [ -37.321025979465333, -10.540422539868246 ], [ -37.345529233487291, -10.539320248930323 ], [ -37.36423644595515, -10.549382616714354 ], [ -37.374435999921388, -10.563632672210019 ], [ -37.394940103702766, -10.582477087047891 ], [ -37.422644383931129, -10.576290791886493 ], [ -37.462012050915348, -10.595582785816873 ], [ -37.47428726444565, -10.566525749863445 ], [ -37.500575840902286, -10.528560420926622 ], [ -37.511017600282003, -10.506016154721692 ], [ -37.54775189853126, -10.462466412694766 ], [ -37.47451282340802, -10.459909124806245 ], [ -37.420885606785305, -10.402407692660859 ], [ -37.411084958803769, -10.416735271515506 ], [ -37.372010925863492, -10.447462255878349 ], [ -37.359766364825816, -10.483268982577442 ], [ -37.346807308610373, -10.506830364929328 ], [ -37.321025979465333, -10.540422539868246 ] ] } }
]
}
