{
"type": "FeatureCollection",
"features": [
{ "type": "Feature", "properties": { "Name": "ROSÃRIO DO CATETE", "Description": "ROSÃRIO DO CATETE \/ SE" }, "geometry": { "type": "LineString", "coordinates": [ [ -37.011315454944217, -10.675762745754069 ], [ -37.016420102205927, -10.684835434807439 ], [ -37.005681771596414, -10.696474319534161 ], [ -36.988916515584663, -10.703461176791848 ], [ -36.975358759099436, -10.701292751259416 ], [ -36.950838890102652, -10.713584363027906 ], [ -36.979053756825351, -10.738993635447855 ], [ -36.995706512145773, -10.730971130613113 ], [ -37.010892049628353, -10.733274777309077 ], [ -37.016178480452474, -10.721754604891032 ], [ -37.059446025113914, -10.741839306238944 ], [ -37.070268322724871, -10.749222783404662 ], [ -37.061882220188295, -10.714158371511585 ], [ -37.05256704063634, -10.704245657211288 ], [ -37.059077643018782, -10.692763220346308 ], [ -37.092714097877263, -10.676013990253409 ], [ -37.090662057208135, -10.655135407872706 ], [ -37.092840690945081, -10.641306176638693 ], [ -37.075855242225593, -10.632244962035314 ], [ -37.073638881928787, -10.615844453958346 ], [ -37.036192747797031, -10.625581275255627 ], [ -37.011113988819488, -10.640899080528072 ], [ -37.011315454944217, -10.675762745754069 ] ] } }
]
}
