{
"type": "FeatureCollection",
"features": [
{ "type": "Feature", "properties": { "Name": "SANTO AMARO DAS BROTAS", "Description": "SANTO AMARO DAS BROTAS \/ SE" }, "geometry": { "type": "LineString", "coordinates": [ [ -36.90053068804076, -10.693747611962692 ], [ -36.892750050474433, -10.701359126622322 ], [ -36.877658719674116, -10.698425886145685 ], [ -36.870505809795247, -10.707086821499558 ], [ -36.867983095443435, -10.732162461628262 ], [ -36.872812367596623, -10.741234857502604 ], [ -36.882188137172761, -10.7443536290167 ], [ -36.899417994644693, -10.772571496777118 ], [ -36.921426281997299, -10.785519276393472 ], [ -36.937854602507848, -10.788564522035017 ], [ -36.961640172355999, -10.811469950577703 ], [ -36.968964217824343, -10.83326359134162 ], [ -36.985400889439461, -10.832646329964119 ], [ -36.98166778114313, -10.846229431143286 ], [ -37.010202097848484, -10.864943164595331 ], [ -37.031578548511163, -10.886385379981277 ], [ -37.039817299828485, -10.884095441651255 ], [ -37.033909066949832, -10.87008419842698 ], [ -37.028352742385096, -10.847374583769975 ], [ -37.045781262795003, -10.825882730303704 ], [ -37.064879398865116, -10.823034152903801 ], [ -37.087330791183035, -10.798401508922439 ], [ -37.08817825292396, -10.783176772689842 ], [ -37.075350179367263, -10.779167632780002 ], [ -37.069271088789662, -10.767468685031758 ], [ -37.070268322724871, -10.749222783404662 ], [ -37.059446025113914, -10.741839306238944 ], [ -37.016178480452474, -10.721754604891032 ], [ -37.010892049628353, -10.733274777309077 ], [ -36.995706512145773, -10.730971130613113 ], [ -36.979053756825351, -10.738993635447855 ], [ -36.950838890102652, -10.713584363027906 ], [ -36.935815200011405, -10.696553229647805 ], [ -36.917534797692724, -10.686247954079761 ], [ -36.920187596280527, -10.701034424598959 ], [ -36.90053068804076, -10.693747611962692 ] ] } }
]
}
