{
"type": "FeatureCollection",
"features": [
{ "type": "Feature", "properties": { "Name": "SANTA ROSA DE LIMA", "Description": "SANTA ROSA DE LIMA \/ SE" }, "geometry": { "type": "LineString", "coordinates": [ [ -37.24906248654446, -10.595052109367316 ], [ -37.21885331113134, -10.611661744893581 ], [ -37.205040605839251, -10.624890360301833 ], [ -37.193651343234869, -10.627253703095903 ], [ -37.180802965684279, -10.653268437788142 ], [ -37.199706250143265, -10.677168360031771 ], [ -37.231826251979896, -10.674409768795726 ], [ -37.245753066850511, -10.653649985058733 ], [ -37.258997953692585, -10.6500248026025 ], [ -37.282602072727457, -10.618495241662004 ], [ -37.295460239398494, -10.61086073853221 ], [ -37.296399532712201, -10.601027800392615 ], [ -37.281342993084586, -10.587292411615465 ], [ -37.266480847313233, -10.586754392201385 ], [ -37.24906248654446, -10.595052109367316 ] ] } }
]
}
