{
"type": "FeatureCollection",
"features": [
{ "type": "Feature", "properties": { "Name": "SIMÃO DIAS", "Description": "SIMÃO DIAS \/ SE" }, "geometry": { "type": "LineString", "coordinates": [ [ -37.830471445500791, -10.584750405906448 ], [ -37.800472764506416, -10.591441254909967 ], [ -37.767340662041875, -10.605838701195067 ], [ -37.766906629437358, -10.618245791310187 ], [ -37.75012206228331, -10.621071233650467 ], [ -37.738807373261636, -10.632963425022012 ], [ -37.714648391410094, -10.644629158109126 ], [ -37.706584029429393, -10.633272348440073 ], [ -37.697927830804701, -10.647475154454753 ], [ -37.714605622351542, -10.668387537854528 ], [ -37.673912510254127, -10.702626254298139 ], [ -37.678776817296232, -10.71433408824754 ], [ -37.679462766193637, -10.727119682327441 ], [ -37.707133935182924, -10.737987859751854 ], [ -37.709512689658879, -10.754575966407685 ], [ -37.724177270564553, -10.785876145367752 ], [ -37.732751855713502, -10.797394457987821 ], [ -37.766570977268771, -10.819218205355867 ], [ -37.803645478256158, -10.837995955249085 ], [ -37.813826876708958, -10.869831923304559 ], [ -37.828379802286008, -10.85899426797107 ], [ -37.860815127116382, -10.869319818754605 ], [ -37.876882963378023, -10.864332472765341 ], [ -37.889999958531234, -10.870711731860865 ], [ -37.938811175195553, -10.882023070008643 ], [ -37.939386708929419, -10.888782494116754 ], [ -37.972890494900355, -10.880369178095066 ], [ -37.970251974848729, -10.825805769920294 ], [ -37.96937066262592, -10.8076509974955 ], [ -37.97261122033148, -10.754530384269799 ], [ -37.813932436432758, -10.691048423645782 ], [ -37.830471445500791, -10.584750405906448 ] ] } }
]
}
