{
"type": "FeatureCollection",
"features": [
{ "type": "Feature", "properties": { "Name": "ALECRIM", "Description": "ALECRIM \/ RS" }, "geometry": { "type": "LineString", "coordinates": [ [ -54.723332145462109, -27.56373802798754 ], [ -54.66739086439685, -27.645486187037875 ], [ -54.669063240975731, -27.686480321109912 ], [ -54.692485530582701, -27.710188693153611 ], [ -54.757343280368048, -27.722530894485146 ], [ -54.783079534592787, -27.762064188711292 ], [ -54.822361292939263, -27.739651043660672 ], [ -54.835985545296637, -27.692955774389418 ], [ -54.902256826091616, -27.698986306972472 ], [ -54.904562335283515, -27.637558417686762 ], [ -54.840788945753218, -27.608673513771574 ], [ -54.81493668617906, -27.533902883311381 ], [ -54.785835176951821, -27.577363757031716 ], [ -54.723332145462109, -27.56373802798754 ] ] } }
]
}
