{
"type": "FeatureCollection",
"features": [
{ "type": "Feature", "properties": { "Name": "ARROIO DO TIGRE", "Description": "ARROIO DO TIGRE \/ RS" }, "geometry": { "type": "LineString", "coordinates": [ [ -52.999113460118046, -29.139444277731169 ], [ -52.917744741226784, -29.18630274697415 ], [ -52.956619130068752, -29.247895491883412 ], [ -53.024991603979288, -29.268275166365811 ], [ -53.02460916368193, -29.337615515843307 ], [ -53.083095136731117, -29.372218905577995 ], [ -53.129943007463794, -29.367101007705287 ], [ -53.167665608480995, -29.342661949089628 ], [ -53.141555687744756, -29.312569029936757 ], [ -53.146445396138063, -29.273215506590301 ], [ -53.11296539633593, -29.221154836126743 ], [ -53.064265835899562, -29.182721955054149 ], [ -53.01706275724041, -29.155481922852406 ], [ -52.999113460118046, -29.139444277731169 ] ] } }
]
}
