{
"type": "FeatureCollection",
"features": [
{ "type": "Feature", "properties": { "Name": "BALNEÃRIO PINHAL", "Description": "BALNEÃRIO PINHAL \/ RS" }, "geometry": { "type": "LineString", "coordinates": [ [ -50.224316143175429, -30.236418200739308 ], [ -50.25165238305101, -30.304963501864052 ], [ -50.289709286354423, -30.291298646015665 ], [ -50.269063951240291, -30.22260728150081 ], [ -50.35747198574353, -30.197445970155343 ], [ -50.39465644593821, -30.157964038009876 ], [ -50.311248409986092, -30.147247631073299 ], [ -50.256607911026201, -30.172966081419474 ], [ -50.250596132905173, -30.228008464019354 ], [ -50.224316143175429, -30.236418200739308 ] ] } }
]
}
