{
"type": "FeatureCollection",
"features": [
{ "type": "Feature", "properties": { "Name": "BARÃO DO TRIUNFO", "Description": "BARÃO DO TRIUNFO \/ RS" }, "geometry": { "type": "LineString", "coordinates": [ [ -51.67772138093693, -30.289589566305384 ], [ -51.648880926013867, -30.331481071793974 ], [ -51.680874475976225, -30.383683438539837 ], [ -51.679866072461202, -30.438145930190501 ], [ -51.758890168846165, -30.50548159819715 ], [ -51.767030708800121, -30.466812176540657 ], [ -51.898303863832211, -30.57169592852426 ], [ -51.904755469789052, -30.57674495091868 ], [ -51.925220306471935, -30.498019120985585 ], [ -51.901639665138418, -30.447559322904393 ], [ -51.923548332789267, -30.406099992020984 ], [ -51.87229821948722, -30.381346895542773 ], [ -51.843392721097132, -30.347014886128022 ], [ -51.845669822504242, -30.285197490571708 ], [ -51.826564316489964, -30.316810531980419 ], [ -51.759311157683726, -30.343148119689939 ], [ -51.67772138093693, -30.289589566305384 ] ] } }
]
}
