{
"type": "FeatureCollection",
"features": [
{ "type": "Feature", "properties": { "Name": "BARRA DO RIBEIRO", "Description": "BARRA DO RIBEIRO \/ RS" }, "geometry": { "type": "LineString", "coordinates": [ [ -51.328607024994142, -30.226650918505012 ], [ -51.298668465477249, -30.240807190899091 ], [ -51.295273293627531, -30.302946935852386 ], [ -51.207356042547303, -30.34081566411157 ], [ -51.178215267120834, -30.386401989260374 ], [ -51.128587955269893, -30.359251324488984 ], [ -51.122061627342184, -30.396917204365423 ], [ -51.153818410990816, -30.413716839660371 ], [ -51.223077833175402, -30.419801157996972 ], [ -51.26538336584963, -30.479774597119903 ], [ -51.275904774585626, -30.470741282184406 ], [ -51.396857944738315, -30.495494859799919 ], [ -51.491306909786033, -30.50259634554487 ], [ -51.524466907421804, -30.510462704690042 ], [ -51.536381144773998, -30.412857218186048 ], [ -51.494539911387733, -30.413355416519206 ], [ -51.429459955312666, -30.353976854648067 ], [ -51.49501024692529, -30.35370677474782 ], [ -51.515876799974308, -30.272912250499925 ], [ -51.4059200002078, -30.229877294801266 ], [ -51.328607024994142, -30.226650918505012 ] ] } }
]
}
