{
"type": "FeatureCollection",
"features": [
{ "type": "Feature", "properties": { "Name": "BOA VISTA DO INCRA", "Description": "BOA VISTA DO INCRA \/ RS" }, "geometry": { "type": "LineString", "coordinates": [ [ -53.330753064202497, -28.786080527094612 ], [ -53.302383019460756, -28.831404601840859 ], [ -53.310932118722228, -28.870662626179183 ], [ -53.366189463572823, -28.867075821392007 ], [ -53.421357101948672, -28.886000874840477 ], [ -53.390095490414524, -28.923871778559711 ], [ -53.397939210925813, -28.972596040674716 ], [ -53.471583688736182, -28.9876359986024 ], [ -53.510630955154397, -29.037637518356746 ], [ -53.566234940090396, -28.963673203855254 ], [ -53.567667453989763, -28.955448603370314 ], [ -53.546115124713197, -28.878005888361031 ], [ -53.585550496258342, -28.792868985815005 ], [ -53.578656651383305, -28.764732586739452 ], [ -53.497467023484312, -28.767127502032565 ], [ -53.464273267097553, -28.737752732902266 ], [ -53.404761568691406, -28.779935350735794 ], [ -53.330753064202497, -28.786080527094612 ] ] } }
]
}
