{
"type": "FeatureCollection",
"features": [
{ "type": "Feature", "properties": { "Name": "BOM RETIRO DO SUL", "Description": "BOM RETIRO DO SUL \/ RS" }, "geometry": { "type": "LineString", "coordinates": [ [ -51.873540313634514, -29.642576985039796 ], [ -51.954192058816432, -29.712796907451263 ], [ -51.982302548423831, -29.660548870433953 ], [ -51.969967758405289, -29.634141857760479 ], [ -51.951860878476737, -29.609418843604718 ], [ -51.882695635095445, -29.560181043420357 ], [ -51.873540313634514, -29.642576985039796 ] ] } }
]
}
