{
"type": "FeatureCollection",
"features": [
{ "type": "Feature", "properties": { "Name": "BOSSOROCA", "Description": "BOSSOROCA \/ RS" }, "geometry": { "type": "LineString", "coordinates": [ [ -54.729388862705832, -28.586578541466451 ], [ -54.7228302212377, -28.625443726646608 ], [ -54.677189550956989, -28.634460121737163 ], [ -54.688790958236098, -28.677601188444044 ], [ -54.671205297486438, -28.716111496648178 ], [ -54.714065099424772, -28.794973429080468 ], [ -54.707741639664896, -28.836719185941661 ], [ -54.771626120648932, -28.871667947717579 ], [ -54.81578707431396, -28.868919684295975 ], [ -54.859334650773462, -28.832227319635024 ], [ -54.960580510182353, -28.808439453817698 ], [ -55.007847536034937, -28.7964720125733 ], [ -55.112148821410926, -28.742536030813138 ], [ -55.183006096054442, -28.749240381338495 ], [ -55.223000631873617, -28.669255096745243 ], [ -55.255438854319607, -28.682714438620394 ], [ -55.31599055122291, -28.657563067481536 ], [ -55.253596656960092, -28.636340461143334 ], [ -55.231567581778449, -28.578971087245861 ], [ -55.193071356058169, -28.517465446173333 ], [ -55.187471035759636, -28.442169205144634 ], [ -55.163813589625413, -28.427697300390037 ], [ -55.127995675360069, -28.464881189515268 ], [ -55.038526426453352, -28.485807883826737 ], [ -55.015975553828696, -28.478937258547603 ], [ -54.907969178534699, -28.497635950838401 ], [ -54.927143225479426, -28.559286085084693 ], [ -54.91023021715074, -28.584960721360172 ], [ -54.845118347733539, -28.585804160433611 ], [ -54.820788545954599, -28.620270146350151 ], [ -54.75225640820662, -28.610346969337115 ], [ -54.729388862705832, -28.586578541466451 ] ] } }
]
}
