{
"type": "FeatureCollection",
"features": [
{ "type": "Feature", "properties": { "Name": "CACEQUI", "Description": "CACEQUI \/ RS" }, "geometry": { "type": "LineString", "coordinates": [ [ -54.306377243015326, -29.737402130204085 ], [ -54.26464814069908, -29.815136249838019 ], [ -54.316218811948545, -29.889504037980938 ], [ -54.328285248765155, -29.928120721593984 ], [ -54.470259953034372, -29.95938848539026 ], [ -54.50002018058683, -29.933501708037337 ], [ -54.599676308414864, -29.975362987311993 ], [ -54.652125037240637, -30.025074918172891 ], [ -54.702201340119693, -30.02945924354918 ], [ -54.752234801095135, -30.017406372106336 ], [ -54.77611087151945, -30.079464175331395 ], [ -54.816519448014049, -30.107706737575825 ], [ -54.874920104179409, -30.094064606696179 ], [ -54.929199000133735, -30.066281178933192 ], [ -54.972929781084474, -30.086920694534399 ], [ -55.00991606487446, -30.129690349330133 ], [ -55.068011854463464, -30.141176864620547 ], [ -55.088281050829778, -30.070869740346211 ], [ -55.114939343076173, -30.046357181039014 ], [ -55.177282999410863, -30.044440276097813 ], [ -55.188028363618052, -30.078972113971815 ], [ -55.28514192545947, -30.091694700649896 ], [ -55.313111279062241, -30.080940975445625 ], [ -55.269374680397156, -30.039091154433208 ], [ -55.229172653894807, -29.928121353817403 ], [ -55.193584896825485, -29.914306555802852 ], [ -55.140579228648441, -29.852235490275628 ], [ -55.149314324796194, -29.827130257954988 ], [ -55.111474521432001, -29.800418086425505 ], [ -55.120804008298308, -29.768503593166255 ], [ -55.089583446318947, -29.755806495972987 ], [ -55.043665580701941, -29.782971261214698 ], [ -54.956580038837664, -29.77832210348225 ], [ -54.919727696475945, -29.809190691497179 ], [ -54.877977945725547, -29.813047717378193 ], [ -54.832078084535908, -29.856790337903703 ], [ -54.7895188441193, -29.830522477330419 ], [ -54.704321213053497, -29.829684400914342 ], [ -54.677198280676066, -29.808498049845074 ], [ -54.59799235126593, -29.821527580533367 ], [ -54.565230814450494, -29.806000460752614 ], [ -54.493141506375366, -29.743207012993192 ], [ -54.431508389100827, -29.747895936947884 ], [ -54.350457078731154, -29.733353169213331 ], [ -54.306377243015326, -29.737402130204085 ] ] } }
]
}
