{
"type": "FeatureCollection",
"features": [
{ "type": "Feature", "properties": { "Name": "CACHOEIRINHA", "Description": "CACHOEIRINHA \/ RS" }, "geometry": { "type": "LineString", "coordinates": [ [ -51.101261332744279, -29.86870056427955 ], [ -51.10085071039191, -29.869222555076817 ], [ -51.068119261294839, -29.889421522485236 ], [ -51.074016764362163, -29.966698708278727 ], [ -51.086367788042928, -29.970881204204144 ], [ -51.127285534599707, -29.954498621414189 ], [ -51.106013734446265, -29.902449027000955 ], [ -51.123095425013787, -29.866394810472055 ], [ -51.101261332744279, -29.86870056427955 ] ] } }
]
}
