{
"type": "FeatureCollection",
"features": [
{ "type": "Feature", "properties": { "Name": "CACIQUE DOBLE", "Description": "CACIQUE DOBLE \/ RS" }, "geometry": { "type": "LineString", "coordinates": [ [ -51.694419992688495, -27.700204942304197 ], [ -51.631409343366442, -27.740781333191933 ], [ -51.600635609545691, -27.78697949051104 ], [ -51.608206850765498, -27.882065471444321 ], [ -51.66415452690984, -27.868921957981911 ], [ -51.696294129470459, -27.902278607671576 ], [ -51.732038305623291, -27.89033631596817 ], [ -51.764320957945813, -27.845400965981753 ], [ -51.752522176457262, -27.782317601975706 ], [ -51.734969332868388, -27.804827299140523 ], [ -51.692545032127498, -27.740654903800703 ], [ -51.701204450325058, -27.692245738050303 ], [ -51.694419992688495, -27.700204942304197 ] ] } }
]
}
