{
"type": "FeatureCollection",
"features": [
{ "type": "Feature", "properties": { "Name": "CAMPOS BORGES", "Description": "CAMPOS BORGES \/ RS" }, "geometry": { "type": "LineString", "coordinates": [ [ -52.964170683330337, -28.870086434141566 ], [ -52.976028745430192, -28.914350079592452 ], [ -53.016438143005871, -28.947323419340307 ], [ -53.129043167408213, -28.987228692949774 ], [ -53.127884853203398, -28.944239336476127 ], [ -53.158716219178132, -28.908023052222063 ], [ -53.12273228017056, -28.850367932234235 ], [ -53.085921900175492, -28.872413057616484 ], [ -53.061110819908379, -28.830601071981846 ], [ -52.964170683330337, -28.870086434141566 ] ] } }
]
}
