{
"type": "FeatureCollection",
"features": [
{ "type": "Feature", "properties": { "Name": "CANDELÃRIA", "Description": "CANDELÃRIA \/ RS" }, "geometry": { "type": "LineString", "coordinates": [ [ -52.599289460040495, -29.737941034551053 ], [ -52.581077585162404, -29.793674082093158 ], [ -52.703672627789501, -29.792697638685009 ], [ -52.740966933876848, -29.804324183814 ], [ -52.754928939219155, -29.842636917259881 ], [ -52.741341051847996, -29.904739358334663 ], [ -52.818361858013304, -29.923049101035133 ], [ -52.851417153878508, -29.910527962495451 ], [ -52.899660145599164, -29.84609396606362 ], [ -52.927486936872583, -29.771139205709744 ], [ -52.927963410283098, -29.720730007983434 ], [ -52.944040432220106, -29.646231431435353 ], [ -52.979734607865794, -29.557405174409212 ], [ -52.963056944922009, -29.515844140994261 ], [ -52.801241740314026, -29.503203611157687 ], [ -52.798488103443162, -29.495504900930367 ], [ -52.750693655787529, -29.503738851666636 ], [ -52.736334514326359, -29.547329214271766 ], [ -52.764478627786382, -29.602756855644312 ], [ -52.741559395549643, -29.650045606419553 ], [ -52.709315775602533, -29.6627817566727 ], [ -52.691926236306692, -29.713193084892904 ], [ -52.599289460040495, -29.737941034551053 ] ] } }
]
}
