{
"type": "FeatureCollection",
"features": [
{ "type": "Feature", "properties": { "Name": "CAPELA DE SANTANA", "Description": "CAPELA DE SANTANA \/ RS" }, "geometry": { "type": "LineString", "coordinates": [ [ -51.276539614111869, -29.656102569178184 ], [ -51.283334503884191, -29.71490233007842 ], [ -51.307335430785479, -29.776114869505594 ], [ -51.333716200342337, -29.756642676618185 ], [ -51.365459046297929, -29.788045859428845 ], [ -51.403110081964655, -29.772075337906472 ], [ -51.407684205661496, -29.729005171951087 ], [ -51.457120952070227, -29.705848848745344 ], [ -51.427903316984441, -29.653793839514034 ], [ -51.391358766693713, -29.653248907910719 ], [ -51.356933371677705, -29.636333647679635 ], [ -51.276539614111869, -29.656102569178184 ] ] } }
]
}
