{
"type": "FeatureCollection",
"features": [
{ "type": "Feature", "properties": { "Name": "CAPITÃO", "Description": "CAPITÃO \/ RS" }, "geometry": { "type": "LineString", "coordinates": [ [ -51.964580518975708, -29.238005043897601 ], [ -51.919370941415764, -29.291592425949659 ], [ -51.976792265550557, -29.301123267424824 ], [ -52.033506767523249, -29.328761367443121 ], [ -52.036654100606199, -29.267627033960419 ], [ -51.993587806232256, -29.233827196567802 ], [ -51.964580518975708, -29.238005043897601 ] ] } }
]
}
