{
"type": "FeatureCollection",
"features": [
{ "type": "Feature", "properties": { "Name": "CARAÃ", "Description": "CARAÃ \/ RS" }, "geometry": { "type": "LineString", "coordinates": [ [ -50.223104314812247, -29.725689992099433 ], [ -50.255913923988373, -29.75711749797409 ], [ -50.253563222964317, -29.801701948685945 ], [ -50.276167659210046, -29.834780572065711 ], [ -50.372476440235452, -29.85826873341529 ], [ -50.420026900021355, -29.830780830071205 ], [ -50.467245652065174, -29.772214535872077 ], [ -50.404019411866322, -29.705950524297236 ], [ -50.358637806589449, -29.715767174815198 ], [ -50.315655861428809, -29.679621801205148 ], [ -50.223104314812247, -29.725689992099433 ] ] } }
]
}
