{
"type": "FeatureCollection",
"features": [
{ "type": "Feature", "properties": { "Name": "CARAZINHO", "Description": "CARAZINHO \/ RS" }, "geometry": { "type": "LineString", "coordinates": [ [ -52.631806820128588, -28.170848416721014 ], [ -52.608132434364336, -28.233817564129254 ], [ -52.673464777977074, -28.270218279549908 ], [ -52.708600632013535, -28.287481965020618 ], [ -52.717803342350351, -28.336845110913089 ], [ -52.758245892533864, -28.343728554229358 ], [ -52.774262156273437, -28.370827722021712 ], [ -52.837597551685626, -28.386333007162531 ], [ -52.940651829917954, -28.379861261787767 ], [ -52.959502958194946, -28.334441591805955 ], [ -53.001446412122164, -28.368473713291166 ], [ -53.039633134361623, -28.306960806595896 ], [ -53.091609914266087, -28.27763643727172 ], [ -53.119731330636341, -28.297739049517471 ], [ -53.122306042889534, -28.255281119527979 ], [ -53.073253713488043, -28.261912964012026 ], [ -53.018202553504977, -28.208844542041959 ], [ -52.963511214071218, -28.177648897578536 ], [ -52.903334460716735, -28.190460482065532 ], [ -52.881715689527425, -28.247385000017687 ], [ -52.840262464141347, -28.240215191877553 ], [ -52.825734733071442, -28.197319016859069 ], [ -52.767478921714826, -28.240073916478025 ], [ -52.654370605219242, -28.169165568436195 ], [ -52.631806820128588, -28.170848416721014 ] ] } }
]
}
