{
"type": "FeatureCollection",
"features": [
{ "type": "Feature", "properties": { "Name": "CENTENÃRIO", "Description": "CENTENÃRIO \/ RS" }, "geometry": { "type": "LineString", "coordinates": [ [ -51.982150104343816, -27.720391061997873 ], [ -51.962980946113703, -27.749243693741448 ], [ -51.924730229016802, -27.752217737358649 ], [ -51.939741459900404, -27.790777154841805 ], [ -51.949204144455678, -27.8274451586671 ], [ -52.025644477810367, -27.817098001671411 ], [ -52.061267447834382, -27.831609389361802 ], [ -52.085207137199568, -27.799841054820774 ], [ -52.00092914296556, -27.694515188924807 ], [ -51.982150104343816, -27.720391061997873 ] ] } }
]
}
