{
"type": "FeatureCollection",
"features": [
{ "type": "Feature", "properties": { "Name": "CERRO GRANDE DO SUL", "Description": "CERRO GRANDE DO SUL \/ RS" }, "geometry": { "type": "LineString", "coordinates": [ [ -51.657762626943622, -30.519034635040331 ], [ -51.663205159390543, -30.589681607719964 ], [ -51.648752589160608, -30.613662230627369 ], [ -51.697197788946767, -30.690419103758586 ], [ -51.800686840824987, -30.628713192659685 ], [ -51.816599181606932, -30.648835614272116 ], [ -51.871646651671597, -30.609016968758056 ], [ -51.898303863832211, -30.57169592852426 ], [ -51.767030708800121, -30.466812176540657 ], [ -51.758890168846165, -30.50548159819715 ], [ -51.741687930453566, -30.528178750948538 ], [ -51.657762626943622, -30.519034635040331 ] ] } }
]
}
