{
"type": "FeatureCollection",
"features": [
{ "type": "Feature", "properties": { "Name": "CHARRUA", "Description": "CHARRUA \/ RS" }, "geometry": { "type": "LineString", "coordinates": [ [ -51.937182338294228, -27.88450425836481 ], [ -51.909696925172909, -27.95242357109089 ], [ -51.928943867565401, -27.990988808086968 ], [ -51.933871455403278, -28.000124769842216 ], [ -51.96283496636056, -27.981203314581251 ], [ -51.994470588846575, -28.014280060176588 ], [ -52.089190663518245, -27.976926739677253 ], [ -52.090915446290744, -27.936285305322542 ], [ -52.082463497192578, -27.907177359647392 ], [ -52.060309867706167, -27.8856286366522 ], [ -51.937182338294228, -27.88450425836481 ] ] } }
]
}
