{
"type": "FeatureCollection",
"features": [
{ "type": "Feature", "properties": { "Name": "CHUVISCA", "Description": "CHUVISCA \/ RS" }, "geometry": { "type": "LineString", "coordinates": [ [ -52.098048286898859, -30.840549807327704 ], [ -52.062288962565496, -30.738468386007185 ], [ -52.018222774061705, -30.729646952244988 ], [ -51.982822343975954, -30.698882998551483 ], [ -51.979170028973613, -30.660471861287306 ], [ -51.937348193963942, -30.710776859064765 ], [ -51.918241372241482, -30.754999467551333 ], [ -51.950903191329189, -30.800648291085736 ], [ -51.935945453020224, -30.847863310943008 ], [ -52.061601224017238, -30.855945147650402 ], [ -52.098048286898859, -30.840549807327704 ] ] } }
]
}
