{
"type": "FeatureCollection",
"features": [
{ "type": "Feature", "properties": { "Name": "CIRÃACO", "Description": "CIRÃACO \/ RS" }, "geometry": { "type": "LineString", "coordinates": [ [ -51.913740418285613, -28.241305489456749 ], [ -51.857546911560689, -28.252314271386467 ], [ -51.817554499940165, -28.338495280532751 ], [ -51.833443468241398, -28.356880632834869 ], [ -51.907332386280586, -28.411619157897746 ], [ -51.905988564420674, -28.467362438825432 ], [ -51.91240389712209, -28.48434960974663 ], [ -51.920234974964103, -28.494200093659341 ], [ -51.991050070504286, -28.439433389239468 ], [ -51.963790095836195, -28.331210268339191 ], [ -52.018623136948179, -28.303627684370099 ], [ -51.968110241094735, -28.278168591307406 ], [ -51.946149649286838, -28.244156514811262 ], [ -51.913740418285613, -28.241305489456749 ] ] } }
]
}
