{
"type": "FeatureCollection",
"features": [
{ "type": "Feature", "properties": { "Name": "CONDOR", "Description": "CONDOR \/ RS" }, "geometry": { "type": "LineString", "coordinates": [ [ -53.311503684647278, -28.195090542694345 ], [ -53.3492677830817, -28.240994274566045 ], [ -53.400154375124259, -28.243259873644206 ], [ -53.462953565054931, -28.24457575986338 ], [ -53.499331556406162, -28.2282835031811 ], [ -53.640940979442632, -28.2580388222338 ], [ -53.621762288398827, -28.213057563655582 ], [ -53.619930582530337, -28.145691485973259 ], [ -53.622086037140832, -28.092490877152215 ], [ -53.585779871943487, -28.039886664537903 ], [ -53.526842806150569, -28.065881435180014 ], [ -53.507119652050278, -28.146729888173752 ], [ -53.475884908661556, -28.088144700117766 ], [ -53.411788847777075, -28.087412099788537 ], [ -53.402997137507839, -28.136226969498978 ], [ -53.349995016256969, -28.155533661948876 ], [ -53.311503684647278, -28.195090542694345 ] ] } }
]
}
