{
"type": "FeatureCollection",
"features": [
{ "type": "Feature", "properties": { "Name": "CONSTANTINA", "Description": "CONSTANTINA \/ RS" }, "geometry": { "type": "LineString", "coordinates": [ [ -52.918794373261669, -27.609087976229091 ], [ -52.906080061245802, -27.672086756298711 ], [ -52.957621831882022, -27.685946682293487 ], [ -52.912191432988202, -27.738316872425685 ], [ -52.984430058200587, -27.790489354699901 ], [ -53.024344274668522, -27.761292599174055 ], [ -53.024814305335894, -27.72651932210897 ], [ -53.074726284090673, -27.675157000395185 ], [ -53.113273352982787, -27.650202758850185 ], [ -53.100529812101115, -27.646449916730205 ], [ -53.054794962117739, -27.644961854406006 ], [ -52.999014926797365, -27.609805180164869 ], [ -52.951551013268613, -27.625749070962794 ], [ -52.946462780432903, -27.588248410935364 ], [ -52.918794373261669, -27.609087976229091 ] ] } }
]
}
