{
"type": "FeatureCollection",
"features": [
{ "type": "Feature", "properties": { "Name": "CRISTAL DO SUL", "Description": "CRISTAL DO SUL \/ RS" }, "geometry": { "type": "LineString", "coordinates": [ [ -53.183978449745609, -27.40859143214885 ], [ -53.214068603483213, -27.465610450861561 ], [ -53.246761718978121, -27.495779351935482 ], [ -53.273499813465605, -27.48112675809335 ], [ -53.309514642386773, -27.429231542201872 ], [ -53.287535898662718, -27.395687763379552 ], [ -53.261437951500227, -27.373279792128642 ], [ -53.183978449745609, -27.40859143214885 ] ] } }
]
}
