{
"type": "FeatureCollection",
"features": [
{ "type": "Feature", "properties": { "Name": "DOUTOR RICARDO", "Description": "DOUTOR RICARDO \/ RS" }, "geometry": { "type": "LineString", "coordinates": [ [ -51.926023270657367, -29.075600979401653 ], [ -51.907418017927171, -29.107485906549304 ], [ -51.896775864414558, -29.147022780976499 ], [ -51.959058079966383, -29.15509792492924 ], [ -51.992674238025643, -29.143925693915609 ], [ -52.046254934517542, -29.058066653753031 ], [ -52.048939150021738, -29.021251036106381 ], [ -51.969091177515793, -29.041179831883706 ], [ -51.926023270657367, -29.075600979401653 ] ] } }
]
}
