{
"type": "FeatureCollection",
"features": [
{ "type": "Feature", "properties": { "Name": "ESTRELA VELHA", "Description": "ESTRELA VELHA \/ RS" }, "geometry": { "type": "LineString", "coordinates": [ [ -53.064265835899562, -29.182721955054149 ], [ -53.11296539633593, -29.221154836126743 ], [ -53.146445396138063, -29.273215506590301 ], [ -53.141555687744756, -29.312569029936757 ], [ -53.167665608480995, -29.342661949089628 ], [ -53.229559858300775, -29.350366254898688 ], [ -53.246129334601051, -29.296878559997481 ], [ -53.210038100178167, -29.265599884726836 ], [ -53.250525203675181, -29.234815821293065 ], [ -53.266560356775017, -29.190666014724737 ], [ -53.261436750005942, -29.144295022996857 ], [ -53.190783911048641, -29.130529535709456 ], [ -53.094265577194562, -29.139856685237817 ], [ -53.064265835899562, -29.182721955054149 ] ] } }
]
}
