{
"type": "FeatureCollection",
"features": [
{ "type": "Feature", "properties": { "Name": "FLORIANO PEIXOTO", "Description": "FLORIANO PEIXOTO \/ RS" }, "geometry": { "type": "LineString", "coordinates": [ [ -51.949204144455678, -27.8274451586671 ], [ -51.937182338294228, -27.88450425836481 ], [ -52.060309867706167, -27.8856286366522 ], [ -52.082463497192578, -27.907177359647392 ], [ -52.119418382052629, -27.911097318286579 ], [ -52.151570214493745, -27.8823244285295 ], [ -52.146386394516462, -27.84585889896897 ], [ -52.091297351491562, -27.794686746995747 ], [ -52.085207137199568, -27.799841054820774 ], [ -52.061267447834382, -27.831609389361802 ], [ -52.025644477810367, -27.817098001671411 ], [ -51.949204144455678, -27.8274451586671 ] ] } }
]
}
