{
"type": "FeatureCollection",
"features": [
{ "type": "Feature", "properties": { "Name": "FORQUETINHA", "Description": "FORQUETINHA \/ RS" }, "geometry": { "type": "LineString", "coordinates": [ [ -52.040454710216636, -29.401661182317635 ], [ -52.126194551537303, -29.424251409275083 ], [ -52.201738328261165, -29.425690897416924 ], [ -52.180441919059263, -29.405387713871846 ], [ -52.192379695266702, -29.360695285159238 ], [ -52.164286553581519, -29.328626391794497 ], [ -52.089467584561362, -29.360404294222743 ], [ -52.040454710216636, -29.401661182317635 ] ] } }
]
}
