{
"type": "FeatureCollection",
"features": [
{ "type": "Feature", "properties": { "Name": "GARRUCHOS", "Description": "GARRUCHOS \/ RS" }, "geometry": { "type": "LineString", "coordinates": [ [ -55.437758285016798, -28.086492769625579 ], [ -55.354982272813565, -28.133568806455227 ], [ -55.368560727195749, -28.161728886478897 ], [ -55.318111615758426, -28.208941799224586 ], [ -55.380905429541876, -28.287233561479635 ], [ -55.40977359167789, -28.294563922886709 ], [ -55.44357163402367, -28.248768438812363 ], [ -55.486225065834105, -28.272270290541428 ], [ -55.50416273292376, -28.331196840561688 ], [ -55.506911470288053, -28.403193061610462 ], [ -55.583078069797068, -28.339432103408797 ], [ -55.635640242703005, -28.366362001704939 ], [ -55.690409271870351, -28.415846389699084 ], [ -55.668060217904667, -28.341203691397194 ], [ -55.780974328502396, -28.250980664925692 ], [ -55.698699407751398, -28.222578811163142 ], [ -55.630086803163408, -28.176197308159203 ], [ -55.608221923502917, -28.11618581692187 ], [ -55.557442230274653, -28.165870240219363 ], [ -55.537643679711998, -28.12041441929 ], [ -55.489397098797035, -28.076144383256633 ], [ -55.437758285016798, -28.086492769625579 ] ] } }
]
}
