{
"type": "FeatureCollection",
"features": [
{ "type": "Feature", "properties": { "Name": "GLORINHA", "Description": "GLORINHA \/ RS" }, "geometry": { "type": "LineString", "coordinates": [ [ -50.695780111363035, -29.789798835048142 ], [ -50.734075246875079, -29.813565141418113 ], [ -50.684821410879344, -29.840547863193304 ], [ -50.679093939034033, -29.886456762569477 ], [ -50.706232007001454, -29.926167779919073 ], [ -50.687033520980151, -29.948940187939282 ], [ -50.717853626543615, -29.978934016191829 ], [ -50.820481041566779, -29.999279269122948 ], [ -50.855061468012309, -29.872565168747485 ], [ -50.852195255806343, -29.835214738669208 ], [ -50.812182143591031, -29.774290296160189 ], [ -50.724194087087426, -29.769193917265394 ], [ -50.695780111363035, -29.789798835048142 ] ] } }
]
}
