{
"type": "FeatureCollection",
"features": [
{ "type": "Feature", "properties": { "Name": "GUABIJU", "Description": "GUABIJU \/ RS" }, "geometry": { "type": "LineString", "coordinates": [ [ -51.624248749680021, -28.516019037748322 ], [ -51.599722767091976, -28.537414280644498 ], [ -51.615871073790963, -28.636978472578392 ], [ -51.596203015756537, -28.669755250204613 ], [ -51.669883529401318, -28.628613717249205 ], [ -51.707118528797025, -28.609625941483955 ], [ -51.740549408528352, -28.549169143740922 ], [ -51.725889400675271, -28.525694972245105 ], [ -51.624248749680021, -28.516019037748322 ] ] } }
]
}
