{
"type": "FeatureCollection",
"features": [
{ "type": "Feature", "properties": { "Name": "GUAPORÃ", "Description": "GUAPORÃ \/ RS" }, "geometry": { "type": "LineString", "coordinates": [ [ -51.83358892818643, -28.778205596511043 ], [ -51.829367133686219, -28.868763582673182 ], [ -51.791067691320848, -28.883939324740027 ], [ -51.781304134078475, -28.936285839319964 ], [ -51.889620370783462, -28.93247903158198 ], [ -51.913631832343128, -28.948141622537833 ], [ -52.009847046104255, -28.877028740783718 ], [ -52.016959280546303, -28.841914554113313 ], [ -51.956141891535026, -28.821948989554183 ], [ -51.958921963078062, -28.76132560948923 ], [ -51.856084656181906, -28.755032205072151 ], [ -51.83358892818643, -28.778205596511043 ] ] } }
]
}
