{
"type": "FeatureCollection",
"features": [
{ "type": "Feature", "properties": { "Name": "GUARANI DAS MISSÃES", "Description": "GUARANI DAS MISSÃES \/ RS" }, "geometry": { "type": "LineString", "coordinates": [ [ -54.584726650514483, -28.093665701111149 ], [ -54.544332732069904, -28.115965193438853 ], [ -54.491558465750529, -28.124526446138532 ], [ -54.487685578526559, -28.246842381470685 ], [ -54.532838003271195, -28.277739563430085 ], [ -54.573143007543706, -28.299295813750746 ], [ -54.584859601789162, -28.296598778410839 ], [ -54.578329588439708, -28.235192069958032 ], [ -54.639953437301237, -28.201793857200698 ], [ -54.695429147437146, -28.159945799758816 ], [ -54.696749586923822, -28.067807225423053 ], [ -54.640385339411864, -28.097754686429596 ], [ -54.584726650514483, -28.093665701111149 ] ] } }
]
}
