{
"type": "FeatureCollection",
"features": [
{ "type": "Feature", "properties": { "Name": "HARMONIA", "Description": "HARMONIA \/ RS" }, "geometry": { "type": "LineString", "coordinates": [ [ -51.396277736328443, -29.525479007050475 ], [ -51.376170197596473, -29.552588543126717 ], [ -51.386417377859686, -29.583610493429489 ], [ -51.424039319558915, -29.588302759264877 ], [ -51.45682291134824, -29.564894236479798 ], [ -51.451119440609659, -29.50224569558236 ], [ -51.396277736328443, -29.525479007050475 ] ] } }
]
}
