{
"type": "FeatureCollection",
"features": [
{ "type": "Feature", "properties": { "Name": "HERVAL", "Description": "HERVAL \/ RS" }, "geometry": { "type": "LineString", "coordinates": [ [ -53.442970494292808, -31.83999170405383 ], [ -53.330727458705212, -31.841770256392181 ], [ -53.267212573901134, -31.864732016669162 ], [ -53.220205149947667, -31.884663627324471 ], [ -53.047144523001286, -31.884736974231938 ], [ -53.018056207727739, -31.871258607198911 ], [ -52.9350795729639, -31.864749181129753 ], [ -52.917752495181446, -31.888173267582204 ], [ -53.029876572945454, -31.910720033003084 ], [ -53.085279696101054, -31.947473469724795 ], [ -53.124087960490947, -32.002633674304604 ], [ -53.209601630410873, -32.083224163963962 ], [ -53.258556398658811, -32.172597647663281 ], [ -53.307184459395216, -32.190811184488552 ], [ -53.305303129835522, -32.218303689663514 ], [ -53.349673882743446, -32.185221292728443 ], [ -53.496257547747568, -32.19090477333657 ], [ -53.583230925266939, -32.147484700958152 ], [ -53.65132962036563, -32.185885868338119 ], [ -53.676441409643296, -32.238063032482899 ], [ -53.711011213296842, -32.199729039063868 ], [ -53.725423271766545, -32.098315667434065 ], [ -53.714687787511366, -32.001882409445614 ], [ -53.657094877226768, -31.989387695685537 ], [ -53.564855866604944, -31.924123817460156 ], [ -53.473435205770102, -31.870370385484875 ], [ -53.442970494292808, -31.83999170405383 ] ] } }
]
}
