{
"type": "FeatureCollection",
"features": [
{ "type": "Feature", "properties": { "Name": "HERVEIRAS", "Description": "HERVEIRAS \/ RS" }, "geometry": { "type": "LineString", "coordinates": [ [ -52.679766948086119, -29.500186213023255 ], [ -52.673890193277771, -29.473984721517642 ], [ -52.731574789444949, -29.433423879008782 ], [ -52.772730943578154, -29.444442980659009 ], [ -52.757802665260726, -29.40560949837959 ], [ -52.641622307823184, -29.397948035373474 ], [ -52.571764591862397, -29.47286855404047 ], [ -52.614036720118513, -29.492973419088003 ], [ -52.679766948086119, -29.500186213023255 ] ] } }
]
}
