{
"type": "FeatureCollection",
"features": [
{ "type": "Feature", "properties": { "Name": "IBARAMA", "Description": "IBARAMA \/ RS" }, "geometry": { "type": "LineString", "coordinates": [ [ -53.083095136731117, -29.372218905577995 ], [ -53.094830540297153, -29.466868727909404 ], [ -53.136956170790597, -29.494827750100566 ], [ -53.184327493718797, -29.467352082032903 ], [ -53.265350977265769, -29.449331972292665 ], [ -53.236298991904903, -29.412014073390708 ], [ -53.229559858300775, -29.350366254898688 ], [ -53.167665608480995, -29.342661949089628 ], [ -53.129943007463794, -29.367101007705287 ], [ -53.083095136731117, -29.372218905577995 ] ] } }
]
}
