{
"type": "FeatureCollection",
"features": [
{ "type": "Feature", "properties": { "Name": "ILÃPOLIS", "Description": "ILÃPOLIS \/ RS" }, "geometry": { "type": "LineString", "coordinates": [ [ -52.079468060502556, -28.877870553882929 ], [ -52.071001316657373, -28.978485418367313 ], [ -52.092463423248319, -28.978987149237529 ], [ -52.228111018308816, -28.964817007498876 ], [ -52.165928525880702, -28.886596145095947 ], [ -52.079468060502556, -28.877870553882929 ] ] } }
]
}
