{
"type": "FeatureCollection",
"features": [
{ "type": "Feature", "properties": { "Name": "INDEPENDÃNCIA", "Description": "INDEPENDÃNCIA \/ RS" }, "geometry": { "type": "LineString", "coordinates": [ [ -54.114371726274101, -27.883401151741733 ], [ -54.046102600654478, -27.941028940433224 ], [ -54.042111672915325, -27.968038274946366 ], [ -54.076065154083551, -28.007347148751872 ], [ -54.140288563466406, -28.019169029327202 ], [ -54.238030302656284, -27.91333740449755 ], [ -54.304595104180692, -27.892865924522766 ], [ -54.339894740949489, -27.857910200195533 ], [ -54.332782563164699, -27.821712298084037 ], [ -54.294492499828948, -27.806841321869456 ], [ -54.209393794188202, -27.822545602697346 ], [ -54.161008478458477, -27.79748702900315 ], [ -54.114371726274101, -27.883401151741733 ] ] } }
]
}
