{
"type": "FeatureCollection",
"features": [
{ "type": "Feature", "properties": { "Name": "ITAARA", "Description": "ITAARA \/ RS" }, "geometry": { "type": "LineString", "coordinates": [ [ -53.701443725347588, -29.549493027181427 ], [ -53.710534654450726, -29.631236239960455 ], [ -53.76720296094782, -29.65775617960395 ], [ -53.801158796541188, -29.645921195906396 ], [ -53.856064849113466, -29.592266418660241 ], [ -53.840943111335491, -29.563741957625208 ], [ -53.772272629977863, -29.525732401828861 ], [ -53.687578760451395, -29.46610610641164 ], [ -53.716575975300998, -29.521744237706343 ], [ -53.701443725347588, -29.549493027181427 ] ] } }
]
}
