{
"type": "FeatureCollection",
"features": [
{ "type": "Feature", "properties": { "Name": "ITAQUI", "Description": "ITAQUI \/ RS" }, "geometry": { "type": "LineString", "coordinates": [ [ -56.081581332512428, -28.856681641544466 ], [ -56.097015745680096, -28.919760512537607 ], [ -56.268743025170409, -29.095153664310086 ], [ -56.179775013406122, -29.13352100818793 ], [ -56.171116846165489, -29.160784379595384 ], [ -56.050843539197949, -29.149952004181614 ], [ -55.912359620000409, -29.156387218195505 ], [ -55.808884144287788, -29.127654416617986 ], [ -55.730942617607695, -29.123460543369333 ], [ -55.627172220921238, -29.093348462361632 ], [ -55.576561162267808, -29.09436123478309 ], [ -55.532360946900155, -29.071994498347348 ], [ -55.477096439848765, -29.170684978229133 ], [ -55.480374067609091, -29.198550148970128 ], [ -55.538946287441142, -29.197246563677936 ], [ -55.568586633566269, -29.223627905203614 ], [ -55.639154928157382, -29.241906530461961 ], [ -55.645115566330276, -29.276927654387691 ], [ -55.69379698204505, -29.285717494067054 ], [ -55.736366802985515, -29.336946430133594 ], [ -55.798658575632714, -29.344667770900852 ], [ -55.850122707796686, -29.411276972853955 ], [ -55.908876409918321, -29.387922207943518 ], [ -55.998304403325506, -29.335085853329417 ], [ -56.029505392459839, -29.300860897412459 ], [ -56.077784416417614, -29.332126666512405 ], [ -56.18190498302851, -29.322129314316385 ], [ -56.178051061607157, -29.377270720367388 ], [ -56.219865414257413, -29.400157141738646 ], [ -56.291315492316073, -29.417217338509317 ], [ -56.363590321536087, -29.397726893880986 ], [ -56.430025402150534, -29.427374832982135 ], [ -56.481731618319479, -29.393381507350625 ], [ -56.59747885236709, -29.393287756624598 ], [ -56.660469261547121, -29.423344292804813 ], [ -56.703113792767283, -29.400186659286874 ], [ -56.778787939711599, -29.419726947040942 ], [ -56.768457863539538, -29.377764395110713 ], [ -56.705645641533067, -29.361410885603842 ], [ -56.655069964007566, -29.277950329244273 ], [ -56.653367054545868, -29.226606597416488 ], [ -56.579515109434737, -29.114277139678222 ], [ -56.543907806500044, -29.115196796295095 ], [ -56.500657521627254, -29.08753026061299 ], [ -56.430094274930809, -29.079652125744985 ], [ -56.39861529995607, -29.017009519473671 ], [ -56.3947795628265, -28.958630286958112 ], [ -56.324577912840361, -28.924019646889118 ], [ -56.27917171650148, -28.940643888304749 ], [ -56.231800264970218, -28.937522232664886 ], [ -56.178709984977786, -28.900991721690556 ], [ -56.166814540758423, -28.864852967090712 ], [ -56.081581332512428, -28.856681641544466 ] ] } }
]
}
