{
"type": "FeatureCollection",
"features": [
{ "type": "Feature", "properties": { "Name": "IVOTI", "Description": "IVOTI \/ RS" }, "geometry": { "type": "LineString", "coordinates": [ [ -51.116373518822797, -29.544059753254938 ], [ -51.11764647410547, -29.550950107861123 ], [ -51.129879156897509, -29.638570647417396 ], [ -51.134601692114359, -29.638074043582204 ], [ -51.196441057208972, -29.616456333592847 ], [ -51.204361462011832, -29.558326657549173 ], [ -51.157824035450858, -29.538734747810338 ], [ -51.116373518822797, -29.544059753254938 ] ] } }
]
}
