{
"type": "FeatureCollection",
"features": [
{ "type": "Feature", "properties": { "Name": "JAGUARÃO", "Description": "JAGUARÃO \/ RS" }, "geometry": { "type": "LineString", "coordinates": [ [ -53.305303129835522, -32.218303689663514 ], [ -53.292330656634476, -32.272727478989907 ], [ -53.260993481364039, -32.325045778240053 ], [ -53.186036389068072, -32.371846994842883 ], [ -53.140641013372033, -32.365809052745533 ], [ -53.008909816534754, -32.423576147321285 ], [ -52.973104475690945, -32.460308493142406 ], [ -52.970201146665538, -32.499222410785592 ], [ -52.997438958441137, -32.591248092325543 ], [ -53.06299639966408, -32.618059700994358 ], [ -53.083650655153576, -32.656730030966116 ], [ -53.146714797050208, -32.64060971206851 ], [ -53.174727859503093, -32.656746905845011 ], [ -53.242815977675207, -32.626504048123252 ], [ -53.283345995021591, -32.622156726251887 ], [ -53.336846186901937, -32.585045976290758 ], [ -53.388628656587173, -32.587585393750885 ], [ -53.433484204332494, -32.556706153266305 ], [ -53.466955192927742, -32.493103967673903 ], [ -53.52673003746122, -32.487985731656124 ], [ -53.583086264819201, -32.452346188026127 ], [ -53.644661356036693, -32.38468804381813 ], [ -53.633566227499387, -32.357319471516348 ], [ -53.676441409643296, -32.238063032482899 ], [ -53.65132962036563, -32.185885868338119 ], [ -53.583230925266939, -32.147484700958152 ], [ -53.496257547747568, -32.19090477333657 ], [ -53.349673882743446, -32.185221292728443 ], [ -53.305303129835522, -32.218303689663514 ] ] } }
]
}
