{
"type": "FeatureCollection",
"features": [
{ "type": "Feature", "properties": { "Name": "JÃLIO DE CASTILHOS", "Description": "JÃLIO DE CASTILHOS \/ RS" }, "geometry": { "type": "LineString", "coordinates": [ [ -53.510630955154397, -29.037637518356746 ], [ -53.494380544826242, -29.073078359478643 ], [ -53.44584283987512, -29.08648563600326 ], [ -53.38577976352525, -29.123743674231147 ], [ -53.29020731591487, -29.127813377185589 ], [ -53.261436750005942, -29.144295022996857 ], [ -53.266560356775017, -29.190666014724737 ], [ -53.328877275365926, -29.169321661765249 ], [ -53.434873058844573, -29.182644429896467 ], [ -53.465792173469993, -29.25364701519754 ], [ -53.467678558118905, -29.303971668557605 ], [ -53.440169926300996, -29.33867211042951 ], [ -53.494812620505961, -29.358454584711296 ], [ -53.526109326284313, -29.399563038803134 ], [ -53.499087094593676, -29.455023727562946 ], [ -53.518403680485449, -29.471020765595824 ], [ -53.554978144026101, -29.450537363308626 ], [ -53.654658580529031, -29.508068172707965 ], [ -53.629855213747071, -29.568374414947243 ], [ -53.582850847488601, -29.577038243420137 ], [ -53.627227319185401, -29.604728965469349 ], [ -53.687154607798846, -29.575897723201305 ], [ -53.701443725347588, -29.549493027181427 ], [ -53.716575975300998, -29.521744237706343 ], [ -53.687578760451395, -29.46610610641164 ], [ -53.69670390516103, -29.410889180691068 ], [ -53.762883731199167, -29.362423890050422 ], [ -53.834911084978557, -29.36856087088745 ], [ -53.945860099563902, -29.403974318659834 ], [ -54.02706458426308, -29.40474581107026 ], [ -53.993179978573096, -29.317683777484319 ], [ -53.94765259858849, -29.273459808323423 ], [ -53.919914734077679, -29.220669983732709 ], [ -53.848560830417966, -29.141762381029029 ], [ -53.757633842527753, -29.163891182931703 ], [ -53.67143077211238, -29.102420948168174 ], [ -53.664082721940019, -29.058336703076346 ], [ -53.566234940090396, -28.963673203855254 ], [ -53.510630955154397, -29.037637518356746 ] ] } }
]
}
