{
"type": "FeatureCollection",
"features": [
{ "type": "Feature", "properties": { "Name": "LAGOA DOS TRÃS CANTOS", "Description": "LAGOA DOS TRÃS CANTOS \/ RS" }, "geometry": { "type": "LineString", "coordinates": [ [ -52.760104103221742, -28.542885701114184 ], [ -52.749397558250671, -28.597712874149749 ], [ -52.762791302676419, -28.626834223320714 ], [ -52.91632884500018, -28.59590848698701 ], [ -52.927036044677664, -28.584443587801271 ], [ -52.920706307649937, -28.540353990843979 ], [ -52.880471117747838, -28.520464919920069 ], [ -52.852346520475521, -28.535140942000847 ], [ -52.795460370299793, -28.518675163827709 ], [ -52.760104103221742, -28.542885701114184 ] ] } }
]
}
