{
"type": "FeatureCollection",
"features": [
{ "type": "Feature", "properties": { "Name": "LINHA NOVA", "Description": "LINHA NOVA \/ RS" }, "geometry": { "type": "LineString", "coordinates": [ [ -51.168998862807257, -29.4394357821356 ], [ -51.178001739288788, -29.494056532882666 ], [ -51.26515059972035, -29.504419396537855 ], [ -51.27291334527461, -29.489341905404558 ], [ -51.235384047235925, -29.422740017637633 ], [ -51.196682451433958, -29.409391276186398 ], [ -51.168998862807257, -29.4394357821356 ] ] } }
]
}
