{
"type": "FeatureCollection",
"features": [
{ "type": "Feature", "properties": { "Name": "MANOEL VIANA", "Description": "MANOEL VIANA \/ RS" }, "geometry": { "type": "LineString", "coordinates": [ [ -55.480374067609091, -29.198550148970128 ], [ -55.459114875051398, -29.215144060749761 ], [ -55.420623776366142, -29.270510543726569 ], [ -55.416458365760946, -29.321754235869264 ], [ -55.459165192119883, -29.325257954091285 ], [ -55.33323615582389, -29.510015954072969 ], [ -55.367067807633191, -29.555413576275495 ], [ -55.378126638633432, -29.614872443108705 ], [ -55.414437634988808, -29.659953405924909 ], [ -55.469332419055831, -29.647263420570365 ], [ -55.539616745516355, -29.662297707373227 ], [ -55.547552762549913, -29.602878469166001 ], [ -55.65750929881505, -29.560040188004219 ], [ -55.688924559520785, -29.493484855441697 ], [ -55.767085047736714, -29.483080586100129 ], [ -55.779183730644604, -29.420414407698729 ], [ -55.829289718345763, -29.428872706909829 ], [ -55.850122707796686, -29.411276972853955 ], [ -55.798658575632714, -29.344667770900852 ], [ -55.736366802985515, -29.336946430133594 ], [ -55.69379698204505, -29.285717494067054 ], [ -55.645115566330276, -29.276927654387691 ], [ -55.639154928157382, -29.241906530461961 ], [ -55.568586633566269, -29.223627905203614 ], [ -55.538946287441142, -29.197246563677936 ], [ -55.480374067609091, -29.198550148970128 ] ] } }
]
}
