{
"type": "FeatureCollection",
"features": [
{ "type": "Feature", "properties": { "Name": "MARATÃ", "Description": "MARATÃ \/ RS" }, "geometry": { "type": "LineString", "coordinates": [ [ -51.521682105444768, -29.512212550868465 ], [ -51.503489962591679, -29.577568060117812 ], [ -51.540591403670305, -29.613885384103128 ], [ -51.575522720397203, -29.613490873105267 ], [ -51.569955041891596, -29.56205319090202 ], [ -51.589153954191602, -29.537278329031608 ], [ -51.587802913473638, -29.476620004909247 ], [ -51.521682105444768, -29.512212550868465 ] ] } }
]
}
