{
"type": "FeatureCollection",
"features": [
{ "type": "Feature", "properties": { "Name": "MARQUES DE SOUZA", "Description": "MARQUES DE SOUZA \/ RS" }, "geometry": { "type": "LineString", "coordinates": [ [ -52.164965827710709, -29.226825785581468 ], [ -52.157549618819814, -29.258094851596066 ], [ -52.106026441666927, -29.292248568616511 ], [ -52.062831039720663, -29.354055000537809 ], [ -52.034200600777069, -29.403234034523049 ], [ -52.040454710216636, -29.401661182317635 ], [ -52.089467584561362, -29.360404294222743 ], [ -52.164286553581519, -29.328626391794497 ], [ -52.187497462937522, -29.286579451080737 ], [ -52.20175145296713, -29.239672230489024 ], [ -52.24902256354045, -29.19918687977065 ], [ -52.19636515602707, -29.199438602709279 ], [ -52.164965827710709, -29.226825785581468 ] ] } }
]
}
