{
"type": "FeatureCollection",
"features": [
{ "type": "Feature", "properties": { "Name": "MONTE BELO DO SUL", "Description": "MONTE BELO DO SUL \/ RS" }, "geometry": { "type": "LineString", "coordinates": [ [ -51.665504386817929, -29.188117558178703 ], [ -51.695429608489576, -29.158392090322646 ], [ -51.695475051232563, -29.097251405827649 ], [ -51.681712648619786, -29.088989907957849 ], [ -51.615043370155377, -29.125300207338626 ], [ -51.616651948828348, -29.18723972273494 ], [ -51.665504386817929, -29.188117558178703 ] ] } }
]
}
