{
"type": "FeatureCollection",
"features": [
{ "type": "Feature", "properties": { "Name": "NÃO-ME-TOQUE", "Description": "NÃO-ME-TOQUE \/ RS" }, "geometry": { "type": "LineString", "coordinates": [ [ -52.774262156273437, -28.370827722021712 ], [ -52.692471963810021, -28.469005868026329 ], [ -52.727142282889979, -28.548593783576223 ], [ -52.760104103221742, -28.542885701114184 ], [ -52.795460370299793, -28.518675163827709 ], [ -52.852346520475521, -28.535140942000847 ], [ -52.880471117747838, -28.520464919920069 ], [ -52.920706307649937, -28.540353990843979 ], [ -52.945381387041323, -28.498387285844501 ], [ -52.928060225898655, -28.40736111352453 ], [ -52.940651829917954, -28.379861261787767 ], [ -52.837597551685626, -28.386333007162531 ], [ -52.774262156273437, -28.370827722021712 ] ] } }
]
}
