{
"type": "FeatureCollection",
"features": [
{ "type": "Feature", "properties": { "Name": "NICOLAU VERGUEIRO", "Description": "NICOLAU VERGUEIRO \/ RS" }, "geometry": { "type": "LineString", "coordinates": [ [ -52.390642659730929, -28.569968970691377 ], [ -52.433280285057094, -28.549488303242583 ], [ -52.457036227639776, -28.565589701303622 ], [ -52.545906713324143, -28.546534252453736 ], [ -52.552248778258445, -28.531440653563262 ], [ -52.544566014809675, -28.498033493450919 ], [ -52.511663021830941, -28.476011584067294 ], [ -52.391642708544111, -28.467629813564997 ], [ -52.349052054808446, -28.530091473542594 ], [ -52.390642659730929, -28.569968970691377 ] ] } }
]
}
