{
"type": "FeatureCollection",
"features": [
{ "type": "Feature", "properties": { "Name": "NOVA ESPERANÃA DO SUL", "Description": "NOVA ESPERANÃA DO SUL \/ RS" }, "geometry": { "type": "LineString", "coordinates": [ [ -54.750877944461529, -29.391459497857511 ], [ -54.750558517861293, -29.46097819818527 ], [ -54.834503866360308, -29.505535752872674 ], [ -54.865680809421804, -29.397662966472698 ], [ -54.895673387616682, -29.349315582348197 ], [ -54.927725144399858, -29.32695657918276 ], [ -54.833719162009686, -29.318709590974773 ], [ -54.834980756156938, -29.351369095207531 ], [ -54.779911681678698, -29.345419802881569 ], [ -54.750877944461529, -29.391459497857511 ] ] } }
]
}
