{
"type": "FeatureCollection",
"features": [
{ "type": "Feature", "properties": { "Name": "NOVA PETRÃPOLIS", "Description": "NOVA PETRÃPOLIS \/ RS" }, "geometry": { "type": "LineString", "coordinates": [ [ -50.985418123047907, -29.320785730776834 ], [ -50.95518970843824, -29.374825458328189 ], [ -50.981324468449429, -29.390400726012675 ], [ -51.014651337089497, -29.445789356593483 ], [ -51.087501341213908, -29.450301758019688 ], [ -51.168998862807257, -29.4394357821356 ], [ -51.196682451433958, -29.409391276186398 ], [ -51.226294629893225, -29.389881585166957 ], [ -51.212298503373177, -29.358571188109806 ], [ -51.180500347313114, -29.32619435518529 ], [ -51.13691152344802, -29.338797714243071 ], [ -51.088624692475541, -29.290941940917776 ], [ -51.032314966362549, -29.294251425362972 ], [ -50.985418123047907, -29.320785730776834 ] ] } }
]
}
