{
"type": "FeatureCollection",
"features": [
{ "type": "Feature", "properties": { "Name": "NOVO CABRAIS", "Description": "NOVO CABRAIS \/ RS" }, "geometry": { "type": "LineString", "coordinates": [ [ -52.927963410283098, -29.720730007983434 ], [ -52.927486936872583, -29.771139205709744 ], [ -52.899660145599164, -29.84609396606362 ], [ -52.964161278220388, -29.834069915194391 ], [ -52.999214882061096, -29.808549491965433 ], [ -53.058225694060468, -29.823415222434502 ], [ -53.078506450312375, -29.793619539110406 ], [ -53.05567256733508, -29.768638055301945 ], [ -53.068477448275587, -29.727809916294575 ], [ -53.041728570916746, -29.676352256551354 ], [ -52.927963410283098, -29.720730007983434 ] ] } }
]
}
