{
"type": "FeatureCollection",
"features": [
{ "type": "Feature", "properties": { "Name": "PAIM FILHO", "Description": "PAIM FILHO \/ RS" }, "geometry": { "type": "LineString", "coordinates": [ [ -51.701204450325058, -27.692245738050303 ], [ -51.692545032127498, -27.740654903800703 ], [ -51.734969332868388, -27.804827299140523 ], [ -51.752522176457262, -27.782317601975706 ], [ -51.776805806142988, -27.76027804069895 ], [ -51.856948710414592, -27.750106633714154 ], [ -51.881027955675556, -27.719776153246812 ], [ -51.892773006269181, -27.679053330246969 ], [ -51.754648411195198, -27.667164737962253 ], [ -51.701204450325058, -27.692245738050303 ] ] } }
]
}
