{
"type": "FeatureCollection",
"features": [
{ "type": "Feature", "properties": { "Name": "PARAÃSO DO SUL", "Description": "PARAÃSO DO SUL \/ RS" }, "geometry": { "type": "LineString", "coordinates": [ [ -53.05817580776727, -29.57009502126817 ], [ -53.041728570916746, -29.676352256551354 ], [ -53.068477448275587, -29.727809916294575 ], [ -53.05567256733508, -29.768638055301945 ], [ -53.078506450312375, -29.793619539110406 ], [ -53.109549850345267, -29.852269134812673 ], [ -53.158275317551841, -29.816528348204653 ], [ -53.174889983885635, -29.770276139831935 ], [ -53.208973800200674, -29.758838402869969 ], [ -53.203859171363604, -29.669470659543261 ], [ -53.186833655149023, -29.631960808444486 ], [ -53.13667143553829, -29.608219938499307 ], [ -53.136526222906809, -29.55907149765147 ], [ -53.05817580776727, -29.57009502126817 ] ] } }
]
}
