{
"type": "FeatureCollection",
"features": [
{ "type": "Feature", "properties": { "Name": "PARECI NOVO", "Description": "PARECI NOVO \/ RS" }, "geometry": { "type": "LineString", "coordinates": [ [ -51.386417377859686, -29.583610493429489 ], [ -51.391358766693713, -29.653248907910719 ], [ -51.427903316984441, -29.653793839514034 ], [ -51.466938947074702, -29.621830517564263 ], [ -51.45682291134824, -29.564894236479798 ], [ -51.424039319558915, -29.588302759264877 ], [ -51.386417377859686, -29.583610493429489 ] ] } }
]
}
