{
"type": "FeatureCollection",
"features": [
{ "type": "Feature", "properties": { "Name": "PASSO FUNDO", "Description": "PASSO FUNDO \/ RS" }, "geometry": { "type": "LineString", "coordinates": [ [ -52.488854752444809, -28.120164042636414 ], [ -52.465076175724903, -28.16758949935587 ], [ -52.410729809033398, -28.174876291307726 ], [ -52.335970872457779, -28.200632968236846 ], [ -52.30339379468785, -28.191593492045964 ], [ -52.276281045333917, -28.229063333206227 ], [ -52.304415145742318, -28.302081077080004 ], [ -52.21346942407461, -28.357378582055901 ], [ -52.250957416251708, -28.36866419959307 ], [ -52.282020335170273, -28.334938118299476 ], [ -52.341725059563828, -28.393963843756353 ], [ -52.372847834659808, -28.376853241783635 ], [ -52.44366996649569, -28.404159473980485 ], [ -52.508023363887105, -28.372574317850422 ], [ -52.556992537475594, -28.321589589088205 ], [ -52.60073393941974, -28.332684330017795 ], [ -52.673464777977074, -28.270218279549908 ], [ -52.608132434364336, -28.233817564129254 ], [ -52.631806820128588, -28.170848416721014 ], [ -52.57536656911185, -28.125715559425483 ], [ -52.531564993529571, -28.138475930219954 ], [ -52.488854752444809, -28.120164042636414 ] ] } }
]
}
