{
"type": "FeatureCollection",
"features": [
{ "type": "Feature", "properties": { "Name": "PEJUÃARA", "Description": "PEJUÃARA \/ RS" }, "geometry": { "type": "LineString", "coordinates": [ [ -53.460210273984899, -28.491951468385537 ], [ -53.463501365495574, -28.554039374617389 ], [ -53.512979439349571, -28.571367315749001 ], [ -53.573119414029691, -28.526906855466962 ], [ -53.676360618147946, -28.504056370105332 ], [ -53.705094114002115, -28.481228683456948 ], [ -53.759232635677556, -28.437920998455297 ], [ -53.683497068634779, -28.393442907863857 ], [ -53.659645843780652, -28.319780190003712 ], [ -53.624974443715587, -28.361626110656459 ], [ -53.565379170412371, -28.398630413262932 ], [ -53.519999861104679, -28.378083420813198 ], [ -53.475539963798269, -28.414697155049623 ], [ -53.494682750308641, -28.476885876182223 ], [ -53.460210273984899, -28.491951468385537 ] ] } }
]
}
