{
"type": "FeatureCollection",
"features": [
{ "type": "Feature", "properties": { "Name": "POÃO DAS ANTAS", "Description": "POÃO DAS ANTAS \/ RS" }, "geometry": { "type": "LineString", "coordinates": [ [ -51.601757063237805, -29.475654706799215 ], [ -51.669373680351036, -29.480862107899895 ], [ -51.691229481355435, -29.423525458533053 ], [ -51.657530402206241, -29.399303453991134 ], [ -51.610878977582729, -29.401090099328595 ], [ -51.607971285046744, -29.411588688666995 ], [ -51.569469883728111, -29.458017014873292 ], [ -51.601757063237805, -29.475654706799215 ] ] } }
]
}
