{
"type": "FeatureCollection",
"features": [
{ "type": "Feature", "properties": { "Name": "PONTÃO", "Description": "PONTÃO \/ RS" }, "geometry": { "type": "LineString", "coordinates": [ [ -52.608591422256261, -27.937052710314273 ], [ -52.579492389761917, -27.945835606328103 ], [ -52.506408023211627, -28.036024495434049 ], [ -52.513378375211801, -28.061657351905239 ], [ -52.488854752444809, -28.120164042636414 ], [ -52.531564993529571, -28.138475930219954 ], [ -52.57536656911185, -28.125715559425483 ], [ -52.631806820128588, -28.170848416721014 ], [ -52.654370605219242, -28.169165568436195 ], [ -52.655062075953992, -28.13885903781431 ], [ -52.689864331873366, -28.11323470601684 ], [ -52.754210938483993, -28.036719905199444 ], [ -52.836029293217273, -28.0488256702684 ], [ -52.799103873744741, -27.984897971464193 ], [ -52.747322265610023, -27.943348591464257 ], [ -52.713058143318619, -27.920162443142203 ], [ -52.651410015459817, -27.948097926478056 ], [ -52.608591422256261, -27.937052710314273 ] ] } }
]
}
