{
"type": "FeatureCollection",
"features": [
{ "type": "Feature", "properties": { "Name": "PORTO XAVIER", "Description": "PORTO XAVIER \/ RS" }, "geometry": { "type": "LineString", "coordinates": [ [ -55.048581151798658, -27.922799007168404 ], [ -55.079570838023699, -27.942181678841333 ], [ -55.073036796610829, -28.009846163269799 ], [ -55.108762023148813, -28.033707452436943 ], [ -55.157400705777881, -28.034561426168864 ], [ -55.168257301733036, -27.992433217319103 ], [ -55.212499681814847, -27.953494141141675 ], [ -55.277782730888305, -27.935353168813663 ], [ -55.196560148232209, -27.856615288864415 ], [ -55.126265300603102, -27.859997733508578 ], [ -55.08709322357339, -27.842231734406994 ], [ -55.051851812511067, -27.85284155998994 ], [ -55.048581151798658, -27.922799007168404 ] ] } }
]
}
