{
"type": "FeatureCollection",
"features": [
{ "type": "Feature", "properties": { "Name": "POUSO NOVO", "Description": "POUSO NOVO \/ RS" }, "geometry": { "type": "LineString", "coordinates": [ [ -52.194937851000986, -29.117337647714233 ], [ -52.159363778015916, -29.214686936253088 ], [ -52.164965827710709, -29.226825785581468 ], [ -52.19636515602707, -29.199438602709279 ], [ -52.24902256354045, -29.19918687977065 ], [ -52.292362558485252, -29.163912920444886 ], [ -52.290455421080765, -29.129658493744444 ], [ -52.212142636273597, -29.094977787494823 ], [ -52.194937851000986, -29.117337647714233 ] ] } }
]
}
