{
"type": "FeatureCollection",
"features": [
{ "type": "Feature", "properties": { "Name": "RONDINHA", "Description": "RONDINHA \/ RS" }, "geometry": { "type": "LineString", "coordinates": [ [ -52.772148834900747, -27.915446935227862 ], [ -52.856809936729178, -27.87946606560638 ], [ -52.923653512799319, -27.887382016067136 ], [ -52.990518535901678, -27.864316858036545 ], [ -53.018384927022737, -27.805067147430861 ], [ -52.984430058200587, -27.790489354699901 ], [ -52.912191432988202, -27.738316872425685 ], [ -52.894779114764276, -27.750837340970463 ], [ -52.855394020717426, -27.803082059489384 ], [ -52.818606412455949, -27.830365117056488 ], [ -52.781266792228621, -27.826508175711695 ], [ -52.758023364286771, -27.880146578102028 ], [ -52.772148834900747, -27.915446935227862 ] ] } }
]
}
