{
"type": "FeatureCollection",
"features": [
{ "type": "Feature", "properties": { "Name": "ROQUE GONZALES", "Description": "ROQUE GONZALES \/ RS" }, "geometry": { "type": "LineString", "coordinates": [ [ -55.073036796610829, -28.009846163269799 ], [ -55.045541121325641, -28.003338711212507 ], [ -54.990565449535836, -28.055030013923954 ], [ -54.928007832795231, -28.057554883051353 ], [ -54.927556863258587, -28.129123034900086 ], [ -54.943499595729691, -28.182235196297199 ], [ -54.958704076531887, -28.186542608054879 ], [ -54.993453942445456, -28.149226004176683 ], [ -55.02436706758607, -28.175072106092784 ], [ -55.049746737921566, -28.117397569742025 ], [ -55.0885594332712, -28.126565118385486 ], [ -55.112064447915877, -28.076524843246887 ], [ -55.188995235541654, -28.010279934171592 ], [ -55.337950379506367, -27.966180554389037 ], [ -55.325263276479006, -27.929188806318336 ], [ -55.277782730888305, -27.935353168813663 ], [ -55.212499681814847, -27.953494141141675 ], [ -55.168257301733036, -27.992433217319103 ], [ -55.157400705777881, -28.034561426168864 ], [ -55.108762023148813, -28.033707452436943 ], [ -55.073036796610829, -28.009846163269799 ] ] } }
]
}
