{
"type": "FeatureCollection",
"features": [
{ "type": "Feature", "properties": { "Name": "SAGRADA FAMÃLIA", "Description": "SAGRADA FAMÃLIA \/ RS" }, "geometry": { "type": "LineString", "coordinates": [ [ -53.074726284090673, -27.675157000395185 ], [ -53.103383033600096, -27.680913760461635 ], [ -53.112424786874385, -27.758498585441316 ], [ -53.179101365135864, -27.757362902675762 ], [ -53.197492513568591, -27.732888991733546 ], [ -53.151920092837997, -27.699193301229794 ], [ -53.155071230952501, -27.661913763809082 ], [ -53.113273352982787, -27.650202758850185 ], [ -53.074726284090673, -27.675157000395185 ] ] } }
]
}
