{
"type": "FeatureCollection",
"features": [
{ "type": "Feature", "properties": { "Name": "SANTO ANTÃNIO DO PALMA", "Description": "SANTO ANTÃNIO DO PALMA \/ RS" }, "geometry": { "type": "LineString", "coordinates": [ [ -51.991050070504286, -28.439433389239468 ], [ -51.920234974964103, -28.494200093659341 ], [ -51.916522840656512, -28.51026246653953 ], [ -52.019782858592009, -28.528052656504826 ], [ -52.035152326318773, -28.54592982530113 ], [ -52.090253636995726, -28.535674025935521 ], [ -52.088560470789048, -28.495623763625758 ], [ -52.062452086094879, -28.474087463865317 ], [ -51.991050070504286, -28.439433389239468 ] ] } }
]
}
