{
"type": "FeatureCollection",
"features": [
{ "type": "Feature", "properties": { "Name": "SANTA VITÃRIA DO PALMAR", "Description": "SANTA VITÃRIA DO PALMAR \/ RS" }, "geometry": { "type": "LineString", "coordinates": [ [ -52.425746674169659, -32.642157437215921 ], [ -52.450768962017946, -32.746325438568078 ], [ -52.493420611372073, -32.864931655171688 ], [ -52.608451042581521, -33.082507242215399 ], [ -52.662388661107798, -33.161079552479293 ], [ -52.772898078983133, -33.283482588050958 ], [ -53.082200061283743, -33.529057470725661 ], [ -53.152142189410483, -33.58945354984138 ], [ -53.369912995888001, -33.743837650986734 ], [ -53.42324599840407, -33.744645425645842 ], [ -53.300952288017641, -33.66217383485457 ], [ -53.413391787700789, -33.56059999989003 ], [ -53.478597210892531, -33.617459350268746 ], [ -53.523107428864698, -33.690043933880418 ], [ -53.53152412993461, -33.601121801030274 ], [ -53.512223508807836, -33.536879037337656 ], [ -53.459820706560322, -33.542559703067809 ], [ -53.434654636002612, -33.500401150192886 ], [ -53.428788788171971, -33.420619482902794 ], [ -53.466085222055312, -33.287764938401153 ], [ -53.469196207239115, -33.250897442462929 ], [ -53.431114131012293, -33.156111289204603 ], [ -53.407118689076178, -33.163060069166818 ], [ -53.3449797175399, -33.093191332913648 ], [ -53.261764690488008, -33.109546277738502 ], [ -53.20277041612178, -33.037516866310284 ], [ -53.159989372311657, -32.969677542884256 ], [ -53.166956229546308, -32.906288020875422 ], [ -53.150457732238522, -32.822372736712396 ], [ -53.131730920845257, -32.795164695194501 ], [ -53.076250901158119, -32.834022223546754 ], [ -53.003381745071401, -32.785428051063661 ], [ -52.985623569172333, -32.816819678485331 ], [ -52.883469169666398, -32.900697824245128 ], [ -52.833495163770749, -32.91389295249769 ], [ -52.761743080778494, -32.876974663749706 ], [ -52.704664406437182, -32.792167009299988 ], [ -52.62074910878431, -32.638157475786841 ], [ -52.585447724632729, -32.64414639673879 ], [ -52.425746674169659, -32.642157437215921 ] ] } }
]
}
