{
"type": "FeatureCollection",
"features": [
{ "type": "Feature", "properties": { "Name": "SÃO GABRIEL", "Description": "SÃO GABRIEL \/ RS" }, "geometry": { "type": "LineString", "coordinates": [ [ -54.039851748559322, -29.91802103734096 ], [ -54.033483832612717, -29.957573021277881 ], [ -54.000492293284651, -29.985906925863901 ], [ -53.8920027185506, -29.983424265517385 ], [ -53.869710492745007, -29.994153520168766 ], [ -53.916038817037759, -30.086245331556768 ], [ -53.951942475364888, -30.120271970774809 ], [ -53.974776315174772, -30.169549017373186 ], [ -53.954645125172362, -30.207502848477645 ], [ -54.000523722791506, -30.247369473722188 ], [ -54.097255545806775, -30.188930739362092 ], [ -54.163691423220541, -30.175582536604736 ], [ -54.191957573782986, -30.206533957576024 ], [ -54.252573293422699, -30.22292276457387 ], [ -54.269188041594816, -30.263701640518267 ], [ -54.251419104408114, -30.287739795754931 ], [ -54.245118892123116, -30.347380962361456 ], [ -54.271198851945421, -30.396921998651294 ], [ -54.230704450449991, -30.453963439261258 ], [ -54.139718666683052, -30.520721094103177 ], [ -54.08195510644299, -30.46397293770087 ], [ -54.048067712854618, -30.545440392260275 ], [ -53.943555670457776, -30.559585261250788 ], [ -53.93444109817807, -30.574404802539561 ], [ -53.986597501473454, -30.616261588801251 ], [ -54.018161297805584, -30.693464854819126 ], [ -54.058499297304706, -30.686922443415991 ], [ -54.13660094377849, -30.710647771277593 ], [ -54.160382657333741, -30.777364582509453 ], [ -54.278871395498463, -30.730151291149127 ], [ -54.346296992112457, -30.737084870770101 ], [ -54.373946891236017, -30.676972435129755 ], [ -54.439022984722953, -30.622846575009362 ], [ -54.504015675083281, -30.631349495882485 ], [ -54.52661780636663, -30.614084143968 ], [ -54.608130053459149, -30.623175165701294 ], [ -54.675787626597639, -30.605088380224512 ], [ -54.689684380729545, -30.628650107016767 ], [ -54.72431842025884, -30.59962554018648 ], [ -54.735201349262809, -30.530732208624499 ], [ -54.71921217849922, -30.458045666174485 ], [ -54.749388213894917, -30.416457750224932 ], [ -54.794065383810391, -30.386266212315775 ], [ -54.780151028147365, -30.360739354437612 ], [ -54.86284029444397, -30.294030695560082 ], [ -54.847293435443646, -30.266357498599632 ], [ -54.74993006352156, -30.279456849953643 ], [ -54.698049978723475, -30.271915916786096 ], [ -54.675039029127838, -30.224761848480451 ], [ -54.691580826094196, -30.20028722617451 ], [ -54.631394042600952, -30.125331016113478 ], [ -54.66961880706225, -30.096968754104694 ], [ -54.702201340119693, -30.02945924354918 ], [ -54.652125037240637, -30.025074918172891 ], [ -54.599676308414864, -29.975362987311993 ], [ -54.50002018058683, -29.933501708037337 ], [ -54.470259953034372, -29.95938848539026 ], [ -54.328285248765155, -29.928120721593984 ], [ -54.29936235748675, -29.934131714606906 ], [ -54.247835561461955, -29.893571671595335 ], [ -54.194346169540033, -29.926719994232315 ], [ -54.039851748559322, -29.91802103734096 ] ] } }
]
}
