{
"type": "FeatureCollection",
"features": [
{ "type": "Feature", "properties": { "Name": "SÃO FRANCISCO DE PAULA", "Description": "SÃO FRANCISCO DE PAULA \/ RS" }, "geometry": { "type": "LineString", "coordinates": [ [ -50.706033800919158, -28.79530571238865 ], [ -50.604645877405282, -28.810152896139186 ], [ -50.560435072520534, -28.882127037932431 ], [ -50.519668716937701, -28.895717036911659 ], [ -50.463187957758002, -28.960517914470131 ], [ -50.456128567479368, -29.037396632248715 ], [ -50.431758077673116, -29.075249351676177 ], [ -50.44459205977568, -29.129058303297995 ], [ -50.358132162769039, -29.116773273667604 ], [ -50.357917003566797, -29.189210006936207 ], [ -50.332207773070252, -29.241340202188553 ], [ -50.28823740103519, -29.295705018471775 ], [ -50.249356314042643, -29.276755355974839 ], [ -50.202980447989262, -29.297688022684042 ], [ -50.149133709552984, -29.282489593419939 ], [ -50.072278494656757, -29.324696803214863 ], [ -50.041002734988183, -29.355065888879604 ], [ -50.082058384486793, -29.351330765202587 ], [ -50.108681885560543, -29.323756546727221 ], [ -50.157214302498005, -29.337512200827351 ], [ -50.208404008338277, -29.33102522993039 ], [ -50.238358243937739, -29.34760068762159 ], [ -50.21334795484421, -29.399127052871165 ], [ -50.240148991082997, -29.427456895219503 ], [ -50.209801777829739, -29.452325847759592 ], [ -50.168372780179595, -29.53621663439014 ], [ -50.266440761931555, -29.459504214747653 ], [ -50.312712842623569, -29.448611657601869 ], [ -50.348317103151771, -29.494622942095077 ], [ -50.432850063279773, -29.538546754429149 ], [ -50.552957016353155, -29.538815909826326 ], [ -50.589973435525565, -29.553800916479076 ], [ -50.630503204659128, -29.560460161507191 ], [ -50.651311318862213, -29.502615112797177 ], [ -50.688545087985403, -29.483588812773458 ], [ -50.657255553401001, -29.422332975486366 ], [ -50.64502383198419, -29.378356013219388 ], [ -50.674482406238042, -29.33731811723726 ], [ -50.743978985941396, -29.327376323358578 ], [ -50.761503298538344, -29.277319814557757 ], [ -50.859708729074555, -29.248733261630662 ], [ -50.838771617016441, -29.194690531242994 ], [ -50.841015575708184, -29.127951245953167 ], [ -50.904939027913763, -29.116992738823797 ], [ -50.886281410358777, -29.062822652743193 ], [ -50.822894517068278, -29.054293159601571 ], [ -50.785034532018017, -29.006671894392358 ], [ -50.812268956047426, -28.961907266307264 ], [ -50.793636273994821, -28.935128008950414 ], [ -50.820274969114507, -28.893587865887241 ], [ -50.794989561219204, -28.875738409699807 ], [ -50.849237695862939, -28.832760445837831 ], [ -50.746493345591375, -28.780639543280245 ], [ -50.706033800919158, -28.79530571238865 ] ] } }
]
}
