{
"type": "FeatureCollection",
"features": [
{ "type": "Feature", "properties": { "Name": "SÃO MARTINHO DA SERRA", "Description": "SÃO MARTINHO DA SERRA \/ RS" }, "geometry": { "type": "LineString", "coordinates": [ [ -53.687578760451395, -29.46610610641164 ], [ -53.772272629977863, -29.525732401828861 ], [ -53.840943111335491, -29.563741957625208 ], [ -53.856064849113466, -29.592266418660241 ], [ -53.859177290299669, -29.610636679439153 ], [ -53.94251113937753, -29.596471987592111 ], [ -53.999872101016585, -29.567425973729655 ], [ -54.042293953802869, -29.544251772001644 ], [ -54.055165027543921, -29.508468134496752 ], [ -54.099690353227174, -29.461044052840748 ], [ -54.02706458426308, -29.40474581107026 ], [ -53.945860099563902, -29.403974318659834 ], [ -53.834911084978557, -29.36856087088745 ], [ -53.762883731199167, -29.362423890050422 ], [ -53.69670390516103, -29.410889180691068 ], [ -53.687578760451395, -29.46610610641164 ] ] } }
]
}
