{
"type": "FeatureCollection",
"features": [
{ "type": "Feature", "properties": { "Name": "SAPIRANGA", "Description": "SAPIRANGA \/ RS" }, "geometry": { "type": "LineString", "coordinates": [ [ -50.946982731967466, -29.552372849727195 ], [ -50.947071695602233, -29.596764580221134 ], [ -50.958838806565602, -29.680667983440625 ], [ -50.942086327222164, -29.691573862243899 ], [ -50.946645559045294, -29.693143842014646 ], [ -50.996161044696407, -29.706315395439105 ], [ -51.007840499639315, -29.65249594693034 ], [ -51.057010586269485, -29.615609418639732 ], [ -51.048858974761856, -29.561713052915024 ], [ -51.043784320789712, -29.544914830455014 ], [ -50.971310399655181, -29.541468622079211 ], [ -50.946982731967466, -29.552372849727195 ] ] } }
]
}
