{
"type": "FeatureCollection",
"features": [
{ "type": "Feature", "properties": { "Name": "SARANDI", "Description": "SARANDI \/ RS" }, "geometry": { "type": "LineString", "coordinates": [ [ -53.018384927022737, -27.805067147430861 ], [ -52.990518535901678, -27.864316858036545 ], [ -52.923653512799319, -27.887382016067136 ], [ -52.856809936729178, -27.87946606560638 ], [ -52.772148834900747, -27.915446935227862 ], [ -52.747322265610023, -27.943348591464257 ], [ -52.799103873744741, -27.984897971464193 ], [ -52.836029293217273, -28.0488256702684 ], [ -52.866178519822768, -28.069796461937127 ], [ -52.944660966230572, -28.044288685874104 ], [ -52.908803260561967, -28.014498822062933 ], [ -52.934636853807717, -27.961449678859537 ], [ -52.97636080480725, -27.953416490078894 ], [ -52.965121247847264, -27.916498127586465 ], [ -53.049078140943429, -27.882518455462332 ], [ -53.069081091219346, -27.813799767745024 ], [ -53.055963545681038, -27.79741025028278 ], [ -53.018384927022737, -27.805067147430861 ] ] } }
]
}
