{
"type": "FeatureCollection",
"features": [
{ "type": "Feature", "properties": { "Name": "SEDE NOVA", "Description": "SEDE NOVA \/ RS" }, "geometry": { "type": "LineString", "coordinates": [ [ -53.897712873050637, -27.595298196454564 ], [ -53.881336713218673, -27.670150431397246 ], [ -53.917538404173968, -27.692419288319456 ], [ -53.988026336246378, -27.663222366419006 ], [ -54.027165483700053, -27.667475094000338 ], [ -54.036944217901286, -27.655156707615902 ], [ -54.03144635556481, -27.627088441178557 ], [ -53.897712873050637, -27.595298196454564 ] ] } }
]
}
