{
"type": "FeatureCollection",
"features": [
{ "type": "Feature", "properties": { "Name": "TAPERA", "Description": "TAPERA \/ RS" }, "geometry": { "type": "LineString", "coordinates": [ [ -52.762791302676419, -28.626834223320714 ], [ -52.769248610335069, -28.647598716807295 ], [ -52.782571416237829, -28.681084910240369 ], [ -52.832457989144814, -28.724876418811618 ], [ -52.925248125000905, -28.730069847145668 ], [ -52.936615652790124, -28.700464146503123 ], [ -52.933976151578065, -28.620608976722846 ], [ -52.91632884500018, -28.59590848698701 ], [ -52.762791302676419, -28.626834223320714 ] ] } }
]
}
