{
"type": "FeatureCollection",
"features": [
{ "type": "Feature", "properties": { "Name": "TAPEJARA", "Description": "TAPEJARA \/ RS" }, "geometry": { "type": "LineString", "coordinates": [ [ -51.933871455403278, -28.000124769842216 ], [ -51.909267123878635, -28.067545693578836 ], [ -51.917514130972336, -28.112526755205522 ], [ -51.989320893644269, -28.129429044514723 ], [ -52.080259254361067, -28.119558899623485 ], [ -52.084623421433719, -28.055339914005796 ], [ -52.124196331695309, -28.024092679033853 ], [ -52.089190663518245, -27.976926739677253 ], [ -51.994470588846575, -28.014280060176588 ], [ -51.96283496636056, -27.981203314581251 ], [ -51.933871455403278, -28.000124769842216 ] ] } }
]
}
