{
"type": "FeatureCollection",
"features": [
{ "type": "Feature", "properties": { "Name": "TRÃS DE MAIO", "Description": "TRÃS DE MAIO \/ RS" }, "geometry": { "type": "LineString", "coordinates": [ [ -54.142364436169771, -27.625826865917077 ], [ -54.171848651893754, -27.664586378058857 ], [ -54.168852155802313, -27.691954684161317 ], [ -54.197034300692387, -27.731397591125869 ], [ -54.177751131809259, -27.760703845406113 ], [ -54.12541326061347, -27.768873772506534 ], [ -54.161008478458477, -27.79748702900315 ], [ -54.209393794188202, -27.822545602697346 ], [ -54.294492499828948, -27.806841321869456 ], [ -54.332782563164699, -27.821712298084037 ], [ -54.369373849423589, -27.835147746771042 ], [ -54.365071728377529, -27.809339360622971 ], [ -54.423763196514237, -27.724759091658711 ], [ -54.420877446536906, -27.702135909044898 ], [ -54.324635998652347, -27.694418663790259 ], [ -54.284331937768684, -27.675241863121414 ], [ -54.263944246729572, -27.631568646875508 ], [ -54.198993998074506, -27.591672932160062 ], [ -54.142364436169771, -27.625826865917077 ] ] } }
]
}
