{
"type": "FeatureCollection",
"features": [
{ "type": "Feature", "properties": { "Name": "TRINDADE DO SUL", "Description": "TRINDADE DO SUL \/ RS" }, "geometry": { "type": "LineString", "coordinates": [ [ -53.016657716980035, -27.461688354533862 ], [ -52.971851118434301, -27.485694992130163 ], [ -52.903682336470631, -27.467223697015982 ], [ -52.865648305624745, -27.471261171865535 ], [ -52.818482008337973, -27.502748140014603 ], [ -52.79997440399552, -27.496167070353973 ], [ -52.747200164655851, -27.538382988284241 ], [ -52.76810648212841, -27.584752480842269 ], [ -52.820299926700208, -27.596914912193423 ], [ -52.8439315290168, -27.563747792826348 ], [ -52.891996938807658, -27.549112881454278 ], [ -52.962696451679847, -27.581095070281204 ], [ -53.006834413277488, -27.561952278374918 ], [ -53.035459491362417, -27.45398096764751 ], [ -53.016657716980035, -27.461688354533862 ] ] } }
]
}
