{
"type": "FeatureCollection",
"features": [
{ "type": "Feature", "properties": { "Name": "TUCUNDUVA", "Description": "TUCUNDUVA \/ RS" }, "geometry": { "type": "LineString", "coordinates": [ [ -54.284331937768684, -27.675241863121414 ], [ -54.324635998652347, -27.694418663790259 ], [ -54.420877446536906, -27.702135909044898 ], [ -54.442797016668919, -27.706750064263982 ], [ -54.469376905120043, -27.662352348781837 ], [ -54.538756410180156, -27.655523431361242 ], [ -54.566194232977409, -27.631202976236295 ], [ -54.443233624931793, -27.579429129250855 ], [ -54.423710636536605, -27.54749146495908 ], [ -54.410978484669272, -27.565632167490492 ], [ -54.378496074933878, -27.640959107776553 ], [ -54.324861963209003, -27.672111673814641 ], [ -54.284331937768684, -27.675241863121414 ] ] } }
]
}
