{
"type": "FeatureCollection",
"features": [
{ "type": "Feature", "properties": { "Name": "TUPARENDI", "Description": "TUPARENDI \/ RS" }, "geometry": { "type": "LineString", "coordinates": [ [ -54.566194232977409, -27.631202976236295 ], [ -54.538756410180156, -27.655523431361242 ], [ -54.469376905120043, -27.662352348781837 ], [ -54.442797016668919, -27.706750064263982 ], [ -54.457044095408662, -27.783625795394073 ], [ -54.543260067498068, -27.757432778200098 ], [ -54.553245845419383, -27.788120832710202 ], [ -54.593759903396801, -27.793097104447778 ], [ -54.632329178348868, -27.7636613594841 ], [ -54.669063240975731, -27.686480321109912 ], [ -54.66739086439685, -27.645486187037875 ], [ -54.604815523817308, -27.629684576182228 ], [ -54.593230346603143, -27.59884937100162 ], [ -54.566194232977409, -27.631202976236295 ] ] } }
]
}
