{
"type": "FeatureCollection",
"features": [
{ "type": "Feature", "properties": { "Name": "UBIRETAMA", "Description": "UBIRETAMA \/ RS" }, "geometry": { "type": "LineString", "coordinates": [ [ -54.595724084798633, -27.944722653927272 ], [ -54.584901530880927, -28.014702549083321 ], [ -54.584726650514483, -28.093665701111149 ], [ -54.640385339411864, -28.097754686429596 ], [ -54.696749586923822, -28.067807225423053 ], [ -54.738222493073579, -28.059065387957219 ], [ -54.717613544529399, -28.010791128607647 ], [ -54.616997010003949, -28.011858831619747 ], [ -54.617237997735344, -27.936504064510927 ], [ -54.595724084798633, -27.944722653927272 ] ] } }
]
}
