{
"type": "FeatureCollection",
"features": [
{ "type": "Feature", "properties": { "Name": "VERA CRUZ", "Description": "VERA CRUZ \/ RS" }, "geometry": { "type": "LineString", "coordinates": [ [ -52.5649947832826, -29.584726159084934 ], [ -52.510465492688297, -29.621797623961129 ], [ -52.471693363957513, -29.69414754207537 ], [ -52.486949696071576, -29.801611427425371 ], [ -52.477817911667273, -29.875282395665977 ], [ -52.505549455742766, -29.839422405719404 ], [ -52.544235029223159, -29.833273565522575 ], [ -52.581077585162404, -29.793674082093158 ], [ -52.599289460040495, -29.737941034551053 ], [ -52.595300503615299, -29.695900779397391 ], [ -52.614261578509002, -29.653559928547793 ], [ -52.620521336590343, -29.580762063518364 ], [ -52.5649947832826, -29.584726159084934 ] ] } }
]
}
