{
"type": "FeatureCollection",
"features": [
{ "type": "Feature", "properties": { "Name": "VIAMÃO", "Description": "VIAMÃO \/ RS" }, "geometry": { "type": "LineString", "coordinates": [ [ -50.820481041566779, -29.999279269122948 ], [ -50.717853626543615, -29.978934016191829 ], [ -50.700487932771864, -30.033998639025924 ], [ -50.654480007246491, -30.043698860613858 ], [ -50.634657801816047, -30.058351993149927 ], [ -50.62081958095888, -30.198406254544974 ], [ -50.658888055839043, -30.199923311911277 ], [ -50.673244081149392, -30.296640845598514 ], [ -50.750731218171154, -30.296707229055357 ], [ -50.782008610109244, -30.284772850486601 ], [ -50.796979977643787, -30.338382131929791 ], [ -50.844017043251881, -30.320757096162989 ], [ -50.914836049943688, -30.326391328097255 ], [ -50.938553327074317, -30.375099075062224 ], [ -50.973408390284931, -30.407617091655425 ], [ -51.047399989318023, -30.381495995044077 ], [ -51.01980142619481, -30.296508541835689 ], [ -51.067839498394108, -30.250795244105174 ], [ -51.011942198673466, -30.198930770638523 ], [ -51.076138828044456, -30.175372185178158 ], [ -51.123616154961553, -30.055962459399947 ], [ -51.084771971649097, -30.04607410593519 ], [ -51.039631215608097, -30.0066056249496 ], [ -50.962414738549285, -29.990116567825282 ], [ -50.949306027051477, -29.966566699493566 ], [ -50.91440853922267, -30.002895908919012 ], [ -50.86320700549885, -30.016093405086504 ], [ -50.820481041566779, -29.999279269122948 ] ] } }
]
}
