{
"type": "FeatureCollection",
"features": [
{ "type": "Feature", "properties": { "Name": "VICENTE DUTRA", "Description": "VICENTE DUTRA \/ RS" }, "geometry": { "type": "LineString", "coordinates": [ [ -53.322460902148862, -27.209894371228188 ], [ -53.326870213389611, -27.220540670615435 ], [ -53.348921016191923, -27.239573426872081 ], [ -53.40081398467759, -27.236540931818521 ], [ -53.447102504976549, -27.199812262425947 ], [ -53.488167335653998, -27.193773198873998 ], [ -53.455369998626502, -27.1568938741529 ], [ -53.406214638394822, -27.136544201953313 ], [ -53.381040609736317, -27.09411465816487 ], [ -53.29293691300807, -27.140808893215819 ], [ -53.322460902148862, -27.209894371228188 ] ] } }
]
}
