{
"type": "FeatureCollection",
"features": [
{ "type": "Feature", "properties": { "Name": "VILA FLORES", "Description": "VILA FLORES \/ RS" }, "geometry": { "type": "LineString", "coordinates": [ [ -51.462513077516462, -28.856433469129229 ], [ -51.456222895370274, -28.887402816286908 ], [ -51.559457436411492, -28.879809361812534 ], [ -51.620777876497748, -28.886390998046064 ], [ -51.667182177315567, -28.834838514685654 ], [ -51.494096659832962, -28.823978438354171 ], [ -51.462513077516462, -28.856433469129229 ] ] } }
]
}
