{
"type": "FeatureCollection",
"features": [
{ "type": "Feature", "properties": { "Name": "VILA NOVA DO SUL", "Description": "VILA NOVA DO SUL \/ RS" }, "geometry": { "type": "LineString", "coordinates": [ [ -53.954645125172362, -30.207502848477645 ], [ -53.836505445369994, -30.260697366190467 ], [ -53.761367217023405, -30.256735637639508 ], [ -53.789054539635231, -30.306586654050818 ], [ -53.741677151679134, -30.322224464187627 ], [ -53.745901158511629, -30.385679964958399 ], [ -53.780689396698278, -30.39440169358323 ], [ -53.826863801123466, -30.44291869883881 ], [ -53.845325499572077, -30.483538821959026 ], [ -53.887276083324529, -30.497188065576719 ], [ -53.945625331543795, -30.48914235643457 ], [ -53.967800011461293, -30.442179847322056 ], [ -53.940435058031483, -30.424374793362006 ], [ -53.966991010126939, -30.337231148098965 ], [ -54.018009879852059, -30.266380990690148 ], [ -54.000523722791506, -30.247369473722188 ], [ -53.954645125172362, -30.207502848477645 ] ] } }
]
}
