{
"type": "FeatureCollection",
"features": [
{ "type": "Feature", "properties": { "Name": "WESTFALIA", "Description": "WESTFALIA \/ RS" }, "geometry": { "type": "LineString", "coordinates": [ [ -51.691205335457816, -29.415069791637503 ], [ -51.739186887065152, -29.414381618716675 ], [ -51.7441313398894, -29.462219937999691 ], [ -51.781594854319053, -29.46137840009305 ], [ -51.781056783643628, -29.387943706237028 ], [ -51.727892067664754, -29.362164024649985 ], [ -51.691079890824255, -29.371372707384467 ], [ -51.691205335457816, -29.415069791637503 ] ] } }
]
}
