{
"type": "FeatureCollection",
"features": [
{ "type": "Feature", "properties": { "Name": "ADAMANTINA", "Description": "ADAMANTINA \/ SP" }, "geometry": { "type": "LineString", "coordinates": [ [ -50.993014557875483, -21.437107034262169 ], [ -50.992662245765985, -21.441206806948514 ], [ -50.977281517627887, -21.453297843820394 ], [ -50.967548866486936, -21.475430791597717 ], [ -50.965590417363835, -21.48382704927883 ], [ -50.965346848578179, -21.520276443203272 ], [ -50.967258362983046, -21.526789191368039 ], [ -50.966985044624096, -21.542516933709464 ], [ -50.974141019392498, -21.545305754756722 ], [ -50.975441128805016, -21.561077960479452 ], [ -50.973491430984723, -21.570924593495135 ], [ -50.980108461835982, -21.579300225225154 ], [ -50.978395129231785, -21.590844386159461 ], [ -50.98857889380087, -21.600495195396888 ], [ -50.996966117792056, -21.604282669509526 ], [ -51.007163195025385, -21.616771983740023 ], [ -51.007049494638409, -21.623088287594328 ], [ -51.014109356161839, -21.635383698099133 ], [ -51.03427336872096, -21.649708356855115 ], [ -51.037705756315574, -21.663013551334302 ], [ -51.035867843326287, -21.676901612619304 ], [ -51.038348640277491, -21.683564750812536 ], [ -51.037861201433259, -21.700867475853272 ], [ -51.039575347024595, -21.704767795996929 ], [ -51.052365029422504, -21.709866233439868 ], [ -51.077352144785607, -21.722687857958249 ], [ -51.083413998057495, -21.722085387730431 ], [ -51.082011616842578, -21.737051940294744 ], [ -51.086781514854977, -21.73797946508023 ], [ -51.092103984211462, -21.749108652742109 ], [ -51.092277913095188, -21.765810089264164 ], [ -51.103628271927164, -21.761186569404629 ], [ -51.114456161522583, -21.760616885760612 ], [ -51.13300983453621, -21.750581290793889 ], [ -51.130541673959044, -21.737965950068482 ], [ -51.147182445813201, -21.718769669184837 ], [ -51.150436358451145, -21.706110233800189 ], [ -51.155754506565188, -21.707243647576203 ], [ -51.167506259805968, -21.699748768690654 ], [ -51.171409122333095, -21.693125493846424 ], [ -51.177310666953701, -21.692428281839682 ], [ -51.179157778208832, -21.688298350388493 ], [ -51.172503161091981, -21.680619841632335 ], [ -51.17255205183568, -21.675883415487192 ], [ -51.163143466897452, -21.671744351420614 ], [ -51.162110403072575, -21.661331434198303 ], [ -51.135728912259417, -21.65661530395306 ], [ -51.130261659248106, -21.651645446180339 ], [ -51.110274738488329, -21.646931022848378 ], [ -51.109820600640148, -21.63669563359656 ], [ -51.100523403931895, -21.636916478312799 ], [ -51.089607296239699, -21.632094588694258 ], [ -51.085333715178756, -21.619200101103729 ], [ -51.080197498115972, -21.61489507075089 ], [ -51.080129468899827, -21.591239773097016 ], [ -51.090393170608309, -21.580613386498555 ], [ -51.092839908434996, -21.572862636101718 ], [ -51.105398010010106, -21.56367417102615 ], [ -51.101774840236658, -21.542438370734203 ], [ -51.108685254221086, -21.529339686677133 ], [ -51.103825981583718, -21.524480087585914 ], [ -51.106730548975634, -21.518666165710954 ], [ -51.101712609849017, -21.507514660473134 ], [ -51.099732535627986, -21.484436307589476 ], [ -51.096313504764396, -21.476903913484762 ], [ -51.087500561501656, -21.468606453524956 ], [ -51.08695146243997, -21.457845663246697 ], [ -51.082624248510228, -21.450004191040534 ], [ -51.087656592078019, -21.439101190967165 ], [ -51.086529370134258, -21.430953289162915 ], [ -51.072931087499626, -21.41890393047197 ], [ -51.072346230494077, -21.414796546823137 ], [ -51.061191184625443, -21.405160371353983 ], [ -51.058755719800558, -21.398550927183521 ], [ -51.055172520395438, -21.40417241932164 ], [ -51.034128340450536, -21.408445950020504 ], [ -51.025851651232699, -21.425607708129178 ], [ -51.0048100118725, -21.438336151192402 ], [ -50.993014557875483, -21.437107034262169 ] ] } }
]
}
