{
"type": "FeatureCollection",
"features": [
{ "type": "Feature", "properties": { "Name": "ALTO ALEGRE", "Description": "ALTO ALEGRE \/ SP" }, "geometry": { "type": "LineString", "coordinates": [ [ -50.06085343633697, -21.583941499500551 ], [ -50.061109360008913, -21.589435438994254 ], [ -50.071419474828872, -21.593568021646831 ], [ -50.079796672278576, -21.610321956992664 ], [ -50.089216726270877, -21.616830096131991 ], [ -50.099875991183978, -21.620577257234572 ], [ -50.100124809312433, -21.643493763626221 ], [ -50.103412069711226, -21.646879640982604 ], [ -50.109625314856373, -21.673202349408822 ], [ -50.107741158727428, -21.683929767644599 ], [ -50.11533880674051, -21.692363305821853 ], [ -50.121279464675524, -21.685160177799901 ], [ -50.129280325526558, -21.690959134956074 ], [ -50.143875896055704, -21.686577961703502 ], [ -50.146742110959622, -21.682779608492069 ], [ -50.159191240783116, -21.682413806551892 ], [ -50.1633853154799, -21.69123830160629 ], [ -50.172555640330465, -21.695355932130497 ], [ -50.176134684867748, -21.689920632930807 ], [ -50.183017997782315, -21.693236232765912 ], [ -50.209322081249013, -21.687771770350878 ], [ -50.210522235512713, -21.694350847113867 ], [ -50.223582711872609, -21.700515622398029 ], [ -50.234703027722496, -21.697275521548022 ], [ -50.245896245315407, -21.696749202313811 ], [ -50.251810491960605, -21.690418388797582 ], [ -50.252982284304949, -21.67776822991982 ], [ -50.260201417561348, -21.661370011516794 ], [ -50.271273758177351, -21.651804763778784 ], [ -50.282042694514693, -21.646486077870179 ], [ -50.292786037045914, -21.635776920368524 ], [ -50.300023838429347, -21.624664916053007 ], [ -50.303756113953455, -21.618197449652541 ], [ -50.305579584730026, -21.605454399800692 ], [ -50.299453206000635, -21.596578999521171 ], [ -50.301887419868478, -21.584907740100107 ], [ -50.296261628970967, -21.573408789883725 ], [ -50.288859386551394, -21.574171272885906 ], [ -50.276395804622659, -21.566451522120015 ], [ -50.274231454817766, -21.559167641273575 ], [ -50.268669129077011, -21.55847803303476 ], [ -50.265639856294285, -21.551613015927899 ], [ -50.258191547002241, -21.551500407317917 ], [ -50.255295769584052, -21.544723932063786 ], [ -50.247199740675455, -21.542478208002876 ], [ -50.240161324385554, -21.536224341380205 ], [ -50.231832093176536, -21.535070094808987 ], [ -50.222698430088428, -21.529898206137258 ], [ -50.212139282202081, -21.533238123640444 ], [ -50.203790596858539, -21.529385258023183 ], [ -50.190796040804571, -21.528014184906681 ], [ -50.147169109067079, -21.527748835440377 ], [ -50.14744670729965, -21.539536160465389 ], [ -50.144751345598081, -21.55126660876692 ], [ -50.123470973106862, -21.551710871159742 ], [ -50.113141612795168, -21.556495547731288 ], [ -50.104135782939977, -21.55784368543766 ], [ -50.110299941289206, -21.577912204384688 ], [ -50.106664316804711, -21.589281507435597 ], [ -50.089648276746516, -21.586433816767169 ], [ -50.079753203547455, -21.587938041707218 ], [ -50.06085343633697, -21.583941499500551 ] ] } }
]
}
