{
"type": "FeatureCollection",
"features": [
{ "type": "Feature", "properties": { "Name": "AMPARO", "Description": "AMPARO \/ SP" }, "geometry": { "type": "LineString", "coordinates": [ [ -46.727679561562468, -22.654944512679094 ], [ -46.727934831427262, -22.670206046471833 ], [ -46.724291490759633, -22.675088710475563 ], [ -46.728331378490282, -22.681637230074045 ], [ -46.718944363791309, -22.685961318859711 ], [ -46.720899035761875, -22.692252335576764 ], [ -46.711897913857563, -22.705274909109733 ], [ -46.70838038834421, -22.714420356014553 ], [ -46.701938236960011, -22.713990055596522 ], [ -46.683031436151794, -22.737006184387837 ], [ -46.682869303675375, -22.749069469080666 ], [ -46.688530419043552, -22.751228736816699 ], [ -46.695231646223476, -22.759226357410398 ], [ -46.702550722937474, -22.761219107575695 ], [ -46.71036921926401, -22.772962846058476 ], [ -46.708057592883563, -22.779496866786928 ], [ -46.721280285356841, -22.783670498094978 ], [ -46.728452283346144, -22.800778441671692 ], [ -46.729450064069162, -22.816788627792903 ], [ -46.746121674575591, -22.823300388502105 ], [ -46.755755946179931, -22.824085345562196 ], [ -46.760424360195998, -22.836034399268044 ], [ -46.760879343406941, -22.847852392074174 ], [ -46.766682667670921, -22.852343120738396 ], [ -46.775552385134404, -22.846660552942126 ], [ -46.784288019976088, -22.851733191533526 ], [ -46.786239105450306, -22.843468496573792 ], [ -46.798040359175211, -22.834410513234559 ], [ -46.818201567648202, -22.845069958012118 ], [ -46.837139580327346, -22.843391725947356 ], [ -46.837333741259094, -22.832134150170869 ], [ -46.84020847903804, -22.825355557912644 ], [ -46.829543900930219, -22.80157067064988 ], [ -46.83565518723708, -22.799506975666361 ], [ -46.835301875081427, -22.776375977369412 ], [ -46.844511730531906, -22.768383450535794 ], [ -46.849764781219619, -22.760534708210173 ], [ -46.848528943655765, -22.749948827076651 ], [ -46.856835672927893, -22.748047040638369 ], [ -46.863623586659166, -22.728096525334308 ], [ -46.87352128587861, -22.717298317863026 ], [ -46.884553586878496, -22.715618787177217 ], [ -46.878460752861429, -22.69689003504703 ], [ -46.879611567619691, -22.690941521533944 ], [ -46.887421533876648, -22.685637675338398 ], [ -46.897708927325084, -22.689440349792278 ], [ -46.909840013705605, -22.68659467450459 ], [ -46.915531448817262, -22.695776230988201 ], [ -46.922333326321905, -22.68703334761085 ], [ -46.930706028960003, -22.682118153330066 ], [ -46.925962890275109, -22.671885695868127 ], [ -46.90952826551699, -22.664671352400941 ], [ -46.903908841819543, -22.656787047284354 ], [ -46.897831698274217, -22.656918177431915 ], [ -46.8981555450423, -22.643059779385283 ], [ -46.893350038373512, -22.636917720975987 ], [ -46.89872242639882, -22.628012163730318 ], [ -46.890660981818826, -22.618568123919715 ], [ -46.882473037700485, -22.618460547915902 ], [ -46.863740734147541, -22.602539274168123 ], [ -46.87030126329261, -22.594228836091872 ], [ -46.869278736824185, -22.583941813164074 ], [ -46.864430064495821, -22.58616791221931 ], [ -46.854631810509602, -22.580012426032567 ], [ -46.83252292229497, -22.578981498097619 ], [ -46.820094484972458, -22.561242602763855 ], [ -46.818684470312007, -22.553227999372609 ], [ -46.807971702931695, -22.545251093762939 ], [ -46.801086102141873, -22.547052570719529 ], [ -46.797688720657902, -22.54140837699498 ], [ -46.785053053455613, -22.5465612935688 ], [ -46.785856196606119, -22.558179224991193 ], [ -46.756710429043032, -22.569473236800377 ], [ -46.754028914202991, -22.574263024219135 ], [ -46.738589069130171, -22.589336883890041 ], [ -46.742062255368751, -22.59470981600515 ], [ -46.74988083173497, -22.590565782284955 ], [ -46.764124455279322, -22.599548850299129 ], [ -46.766252472473582, -22.604098904540763 ], [ -46.758560230170417, -22.615476895941924 ], [ -46.751386451523501, -22.616672510427975 ], [ -46.755182511463715, -22.628115636127689 ], [ -46.743342590488112, -22.65084357357199 ], [ -46.727679561562468, -22.654944512679094 ] ] } }
]
}
