{
"type": "FeatureCollection",
"features": [
{ "type": "Feature", "properties": { "Name": "ANALÃNDIA", "Description": "ANALÃNDIA \/ SP" }, "geometry": { "type": "LineString", "coordinates": [ [ -47.626466184566709, -22.043603733725263 ], [ -47.612076094735926, -22.054421401626314 ], [ -47.606807753774774, -22.066414057162945 ], [ -47.579330717838332, -22.087146139982337 ], [ -47.578386666211649, -22.088927041349848 ], [ -47.56203352902412, -22.113794952475018 ], [ -47.56186761489846, -22.120561437160575 ], [ -47.555899388246132, -22.132421194482504 ], [ -47.550338939390485, -22.150800676909682 ], [ -47.552601752368957, -22.154681588784225 ], [ -47.575906908876675, -22.15613703269787 ], [ -47.58289052227974, -22.14980555188464 ], [ -47.590396164251558, -22.152506805944309 ], [ -47.596755134641683, -22.162383128278691 ], [ -47.599315488319064, -22.179069539827367 ], [ -47.618172642953084, -22.184581408205361 ], [ -47.636426914570393, -22.187143230475669 ], [ -47.642366034664747, -22.191838911036882 ], [ -47.658919019197349, -22.189514938763352 ], [ -47.67452614896257, -22.19349332455721 ], [ -47.68283756010527, -22.201178374981964 ], [ -47.69494456354073, -22.20158070108846 ], [ -47.701231501832297, -22.20991808824914 ], [ -47.707080416328097, -22.210729518652329 ], [ -47.713953626258785, -22.22872214780881 ], [ -47.713178854020839, -22.240091623529562 ], [ -47.731188000126053, -22.202742000143132 ], [ -47.728223000091354, -22.189509999686663 ], [ -47.732782999935459, -22.186473999975078 ], [ -47.750358000121594, -22.193216999764672 ], [ -47.759707999624425, -22.184292000075686 ], [ -47.75651099968286, -22.175321000064059 ], [ -47.760337999898752, -22.16339999981011 ], [ -47.773238000333379, -22.152344999921748 ], [ -47.788703000343162, -22.145879000315574 ], [ -47.799767274939768, -22.128151550653513 ], [ -47.786982999265945, -22.112599976507678 ], [ -47.789479609896034, -22.097593896041417 ], [ -47.778423110837878, -22.091969474811378 ], [ -47.771717269236547, -22.092835743174987 ], [ -47.76332021205809, -22.087690818876126 ], [ -47.752252911242806, -22.089352811882691 ], [ -47.750969379033563, -22.079087880801012 ], [ -47.745954762901931, -22.070308634236028 ], [ -47.74818119110904, -22.063808342580895 ], [ -47.743983551499639, -22.054477543603696 ], [ -47.726417120953329, -22.041516348800428 ], [ -47.720717113503945, -22.036574574157214 ], [ -47.703643111240524, -22.03468582519065 ], [ -47.675769761165498, -22.013546698421347 ], [ -47.668322596710425, -22.03344046470562 ], [ -47.668933368580042, -22.039433235655281 ], [ -47.65807613050896, -22.051797793233501 ], [ -47.646702158178009, -22.051853360544101 ], [ -47.636535270286458, -22.054910128299753 ], [ -47.626466184566709, -22.043603733725263 ] ] } }
]
}
