{
"type": "FeatureCollection",
"features": [
{ "type": "Feature", "properties": { "Name": "ANDRADINA", "Description": "ANDRADINA \/ SP" }, "geometry": { "type": "LineString", "coordinates": [ [ -51.142969919725999, -20.854529250724283 ], [ -51.178778940595578, -20.853658752849128 ], [ -51.183222383805912, -20.862031203677077 ], [ -51.188487539368396, -20.864026262402035 ], [ -51.206668336374605, -20.861279819208217 ], [ -51.21306169234316, -20.861993061630471 ], [ -51.216530847820302, -20.856479729156149 ], [ -51.226924185902419, -20.848952346073869 ], [ -51.242134894509718, -20.858058733623636 ], [ -51.251289334635032, -20.857219544746158 ], [ -51.262260472742582, -20.861385699090704 ], [ -51.274649051212691, -20.861516259068079 ], [ -51.290646114426579, -20.869180248269799 ], [ -51.282366954771071, -20.886168644966972 ], [ -51.289423362897821, -20.886539542465869 ], [ -51.29576533700066, -20.896847591543064 ], [ -51.296940722136583, -20.905819477386899 ], [ -51.283151873160364, -20.919378733941357 ], [ -51.288582184719985, -20.954282493642093 ], [ -51.300164785376516, -20.961330163056516 ], [ -51.305470385250032, -20.97565753686581 ], [ -51.320270583920262, -20.974895279593454 ], [ -51.323729490723395, -20.979249850899862 ], [ -51.344525706895809, -20.981976437062883 ], [ -51.358256295091905, -20.994685544702065 ], [ -51.360327876230478, -21.003783126989674 ], [ -51.36960699836424, -21.012340567463184 ], [ -51.37176981212707, -21.020889871770123 ], [ -51.382941268824482, -21.036541582727807 ], [ -51.389006331776727, -21.063207924805848 ], [ -51.392625003141347, -21.067222734041877 ], [ -51.393716198243908, -21.080145207635155 ], [ -51.401972207551296, -21.075381013123206 ], [ -51.415224755717873, -21.078944096492815 ], [ -51.417756135037564, -21.083056529834948 ], [ -51.434010584221021, -21.083828139157276 ], [ -51.444208100323522, -21.081460243095705 ], [ -51.461612973959518, -21.057385280406322 ], [ -51.47556110456128, -21.04971195084579 ], [ -51.477417038165754, -21.040419804730163 ], [ -51.474690622873879, -21.020874448397024 ], [ -51.468608878396985, -21.013954585235865 ], [ -51.466155851611227, -20.99509646922661 ], [ -51.471498985589676, -20.988657632743525 ], [ -51.469833940284047, -20.97678699902076 ], [ -51.477272440670561, -20.968133417423246 ], [ -51.478715397497581, -20.957962215483803 ], [ -51.474307455024977, -20.954965552118495 ], [ -51.468366492219786, -20.937815747798481 ], [ -51.465283457065823, -20.923841886693651 ], [ -51.468147818467003, -20.90946608439225 ], [ -51.459709436541232, -20.902709907735982 ], [ -51.459414333904363, -20.898371486454888 ], [ -51.451708769044387, -20.891252222012383 ], [ -51.452212984741429, -20.871912747475275 ], [ -51.448184390697008, -20.770670667017612 ], [ -51.451005359809471, -20.766604083811387 ], [ -51.443509242557468, -20.758260623528884 ], [ -51.439896847561442, -20.742827428942633 ], [ -51.443091009242664, -20.737045318786386 ], [ -51.43591421516885, -20.723127747147768 ], [ -51.424354928537063, -20.712326913656113 ], [ -51.424579396621816, -20.701489784425974 ], [ -51.421252716239849, -20.694858694473108 ], [ -51.419364326102709, -20.681076558036693 ], [ -51.392704510404769, -20.687939320543137 ], [ -51.371597589257306, -20.690075649271758 ], [ -51.360700217141243, -20.684181890981449 ], [ -51.342769526092695, -20.682200015418346 ], [ -51.337581637582439, -20.682610999298106 ], [ -51.324774171990384, -20.67571818774411 ], [ -51.31543026899169, -20.674320438937059 ], [ -51.297922020984458, -20.665376195554927 ], [ -51.282569768979613, -20.666608988014332 ], [ -51.272463195919727, -20.663358673563891 ], [ -51.260997862361421, -20.651977656843371 ], [ -51.253990680425538, -20.652517087293688 ], [ -51.233276180251494, -20.646276461389558 ], [ -51.217896249812036, -20.650683384930232 ], [ -51.200017429860452, -20.651250054046724 ], [ -51.196400531059624, -20.667908781764822 ], [ -51.19889777840973, -20.686016725591344 ], [ -51.195196545683984, -20.687770457540523 ], [ -51.187413104930783, -20.705770541177515 ], [ -51.168236735936546, -20.722761249132304 ], [ -51.168682512787711, -20.726577892755529 ], [ -51.159139086199843, -20.740309079900044 ], [ -51.153565089057565, -20.758124053382286 ], [ -51.142512260132662, -20.76411222879625 ], [ -51.140727861301741, -20.770685301685262 ], [ -51.142431474932607, -20.781978054443584 ], [ -51.134868625286799, -20.794501668816906 ], [ -51.137817093084323, -20.802021600116689 ], [ -51.134554099991703, -20.813171979403307 ], [ -51.140215806214428, -20.827628622662758 ], [ -51.138597271147091, -20.835783474427785 ], [ -51.142969919725999, -20.854529250724283 ] ] } }
]
}
