{
"type": "FeatureCollection",
"features": [
{ "type": "Feature", "properties": { "Name": "ANHEMBI", "Description": "ANHEMBI \/ SP" }, "geometry": { "type": "LineString", "coordinates": [ [ -48.08846431607526, -22.651898357822915 ], [ -48.08953999967121, -22.667004000434247 ], [ -48.098580000166798, -22.688369000029297 ], [ -48.093890999769769, -22.702239000229611 ], [ -48.086357000375244, -22.707112000118684 ], [ -48.083881999554592, -22.723929999569805 ], [ -48.075918000115557, -22.726226000229701 ], [ -48.071713999601343, -22.736350000352218 ], [ -48.058552999721137, -22.73390700010793 ], [ -48.046272999998905, -22.724849999727667 ], [ -48.038777999704905, -22.725275000440888 ], [ -48.031539000424516, -22.719249000440982 ], [ -48.021730999585941, -22.724085000422406 ], [ -48.01428000042165, -22.73464900015119 ], [ -48.01820899994533, -22.744314999837343 ], [ -48.027506999748198, -22.752894999804369 ], [ -48.026800000419648, -22.762480000251742 ], [ -48.029418999786969, -22.77747099998663 ], [ -48.026856000304122, -22.788811000427302 ], [ -48.031737999708866, -22.79620299956872 ], [ -48.030665999736073, -22.805923999992558 ], [ -48.033584000301346, -22.818623000151263 ], [ -48.031998000007661, -22.82574400028534 ], [ -48.047528628943041, -22.83189295019946 ], [ -48.051710060970493, -22.82543829913817 ], [ -48.057367911799645, -22.82652836828953 ], [ -48.068972812045615, -22.822600413778048 ], [ -48.078834400786945, -22.829690365717738 ], [ -48.08618972197803, -22.821296320368845 ], [ -48.09206657481252, -22.825885672285892 ], [ -48.104765241322809, -22.82946784376594 ], [ -48.109328895112355, -22.83423323167824 ], [ -48.113853119026203, -22.848001823425363 ], [ -48.102305762800654, -22.852764485492571 ], [ -48.121602575298596, -22.862589985339525 ], [ -48.114796952117608, -22.86856421946311 ], [ -48.114083787037089, -22.878426146349511 ], [ -48.131951340282114, -22.881365357425238 ], [ -48.132225970751897, -22.888588219270844 ], [ -48.1218938863937, -22.890347505432995 ], [ -48.128438879750426, -22.898882550988901 ], [ -48.137696928970058, -22.90286129741088 ], [ -48.134274969913861, -22.911629827654394 ], [ -48.139504677798584, -22.917354280475593 ], [ -48.122518115718428, -22.930421255336626 ], [ -48.129071255134249, -22.938032939968139 ], [ -48.132431678978776, -22.946718107554602 ], [ -48.129464963936869, -22.95319448084058 ], [ -48.135225000233504, -22.956924460395498 ], [ -48.138222618678867, -22.964940412769806 ], [ -48.133563728483239, -22.971518261058861 ], [ -48.132167751340603, -22.982226134328585 ], [ -48.144248102467941, -22.991887680571949 ], [ -48.162189379436256, -22.998170409137003 ], [ -48.177597031477774, -22.979130949333808 ], [ -48.184962235318835, -22.982671742107183 ], [ -48.19771052012436, -22.984874600882108 ], [ -48.200266558854587, -22.990530123366455 ], [ -48.208863127930954, -22.995636423582027 ], [ -48.218029420221512, -22.993477565936871 ], [ -48.240346450228458, -22.973667442898147 ], [ -48.250583165080961, -22.969093115954479 ], [ -48.268962837265065, -22.965050747893656 ], [ -48.271655846340195, -22.961990146328162 ], [ -48.291337474244983, -22.958249130293098 ], [ -48.29495954055033, -22.953198439656202 ], [ -48.295512994129346, -22.93864494930494 ], [ -48.306553582381866, -22.931976748827879 ], [ -48.31037719395232, -22.924291545518372 ], [ -48.301713870898368, -22.914132072537086 ], [ -48.302109327983032, -22.904513969843773 ], [ -48.296242323624313, -22.893973813840375 ], [ -48.293217695839928, -22.876789868557523 ], [ -48.281908159933607, -22.871765385963727 ], [ -48.26709873242055, -22.870672904830656 ], [ -48.260348670254871, -22.8664775009359 ], [ -48.260423964194551, -22.858396162452891 ], [ -48.254050513820111, -22.849032093955941 ], [ -48.260045953957558, -22.846188134574732 ], [ -48.258774507737314, -22.838130425778502 ], [ -48.253005614017809, -22.833062333260045 ], [ -48.25721881369725, -22.828465338004889 ], [ -48.259223033815935, -22.801949251057067 ], [ -48.263213599128278, -22.789874430760335 ], [ -48.261308094892627, -22.785024470602764 ], [ -48.263790590663177, -22.766846840109562 ], [ -48.272866327518955, -22.760452324914809 ], [ -48.280641200431035, -22.758982419902733 ], [ -48.289440145746077, -22.752414898528684 ], [ -48.284888634602737, -22.743501647582946 ], [ -48.284508731292874, -22.736352272039653 ], [ -48.259026172220047, -22.738172472881274 ], [ -48.248217128817366, -22.732754432570967 ], [ -48.247477252073509, -22.72257172470529 ], [ -48.24961997588116, -22.707824054536442 ], [ -48.25001618929565, -22.678029160817061 ], [ -48.245209255402756, -22.664817106424266 ], [ -48.245179447373566, -22.657360214901928 ], [ -48.240097989130845, -22.649097214264998 ], [ -48.243833258498057, -22.638328794138488 ], [ -48.246377642014515, -22.619038722059312 ], [ -48.240810524685905, -22.615594182825248 ], [ -48.23698893748945, -22.600851056930708 ], [ -48.227237627214663, -22.593963349029305 ], [ -48.218995793021406, -22.59699363085133 ], [ -48.215312145638954, -22.604301746628266 ], [ -48.213808306508099, -22.6152061226644 ], [ -48.205791485388716, -22.620438072558951 ], [ -48.190482834315333, -22.625273496974273 ], [ -48.17996338430271, -22.625667491761305 ], [ -48.156305969644734, -22.637757731833801 ], [ -48.145335122917572, -22.63067350407891 ], [ -48.136428187910496, -22.628687723659482 ], [ -48.11768218768276, -22.629577666675914 ], [ -48.096353133090588, -22.623423685055002 ], [ -48.091006730076515, -22.628304309396299 ], [ -48.091332435743254, -22.636959964830449 ], [ -48.09517223780847, -22.644859327296047 ], [ -48.08846431607526, -22.651898357822915 ] ] } }
]
}
