{
"type": "FeatureCollection",
"features": [
{ "type": "Feature", "properties": { "Name": "ANHUMAS", "Description": "ANHUMAS \/ SP" }, "geometry": { "type": "LineString", "coordinates": [ [ -51.399267002769932, -22.203466160334983 ], [ -51.400462091152519, -22.20740253429949 ], [ -51.391851000723079, -22.213132856096365 ], [ -51.386471799433934, -22.225415497127472 ], [ -51.37220092643156, -22.237080872284366 ], [ -51.364318778788572, -22.253326257200968 ], [ -51.356099027448124, -22.258978008828024 ], [ -51.354309212899807, -22.273450081755811 ], [ -51.357182230275662, -22.280286297174825 ], [ -51.353398498242086, -22.29109832272934 ], [ -51.346415481089537, -22.30013352893917 ], [ -51.350997928911227, -22.313239473223064 ], [ -51.352416215535861, -22.323881704976653 ], [ -51.347931691294491, -22.332120173906844 ], [ -51.349013018136247, -22.348757635356545 ], [ -51.361647585467658, -22.363723837185319 ], [ -51.364111144213894, -22.379806293725437 ], [ -51.372640949420258, -22.389778085390272 ], [ -51.382412220147785, -22.394202826299363 ], [ -51.390380459890252, -22.402579245835454 ], [ -51.392729411732944, -22.41026122687407 ], [ -51.390900464085121, -22.425897078287505 ], [ -51.407075951893603, -22.446052251410208 ], [ -51.406576597032313, -22.463329442000084 ], [ -51.413331341967819, -22.472946259562207 ], [ -51.427426398409523, -22.47768169375513 ], [ -51.433751477848375, -22.482248362971518 ], [ -51.440966958058652, -22.504681113242725 ], [ -51.452759468574584, -22.515665121548068 ], [ -51.454233217289129, -22.509190190774632 ], [ -51.467343668075785, -22.48473195861294 ], [ -51.474233772670452, -22.48128264128081 ], [ -51.482255819750264, -22.483843648765344 ], [ -51.493361711373836, -22.477894509324074 ], [ -51.496264275076214, -22.472778578268731 ], [ -51.52000931967433, -22.458527430096751 ], [ -51.517175883260336, -22.444672025893226 ], [ -51.507847534935763, -22.431080269638699 ], [ -51.508442510213627, -22.418106947477611 ], [ -51.500795608130773, -22.404478563634768 ], [ -51.499356190136041, -22.384660447421652 ], [ -51.500815625240875, -22.375978950867818 ], [ -51.49714034425142, -22.36585729347928 ], [ -51.492666644250164, -22.362011418292298 ], [ -51.482306626049933, -22.355261255402581 ], [ -51.480833237064182, -22.343116767324886 ], [ -51.472955723627706, -22.333355610373076 ], [ -51.472948738593345, -22.314488457975926 ], [ -51.460463520774788, -22.308490680500483 ], [ -51.455878564743898, -22.302014669641267 ], [ -51.457293416857674, -22.296996180129554 ], [ -51.450395167103238, -22.274232133106405 ], [ -51.44433443078929, -22.272280669916938 ], [ -51.420832427974119, -22.257810213970174 ], [ -51.413042903307314, -22.244603395430314 ], [ -51.417958712724385, -22.232039035473065 ], [ -51.417133493915571, -22.223642204024429 ], [ -51.424200139025174, -22.22034939390937 ], [ -51.427656234547555, -22.208737495139246 ], [ -51.434035525119327, -22.205469991946529 ], [ -51.428502783476631, -22.205345129174304 ], [ -51.419858314709415, -22.198386186872995 ], [ -51.407225989387882, -22.198055795738355 ], [ -51.399267002769932, -22.203466160334983 ] ] } }
]
}
