{
"type": "FeatureCollection",
"features": [
{ "type": "Feature", "properties": { "Name": "APARECIDA D'OESTE", "Description": "APARECIDA D'OESTE \/ SP" }, "geometry": { "type": "LineString", "coordinates": [ [ -50.843703776108327, -20.4146451173782 ], [ -50.838547979905286, -20.412071558955233 ], [ -50.843502600464603, -20.423973856008612 ], [ -50.848973686386501, -20.426685079053129 ], [ -50.857922784308983, -20.438603710492828 ], [ -50.859370355557417, -20.455426321667343 ], [ -50.856548699362911, -20.464963390048354 ], [ -50.859688564475618, -20.474591140668565 ], [ -50.862917837488169, -20.498594216050204 ], [ -50.862988449557228, -20.525835330136317 ], [ -50.870871980357549, -20.532367632260385 ], [ -50.87309821970706, -20.542395316790419 ], [ -50.88188785434096, -20.543026788355576 ], [ -50.884311487684954, -20.556367859489058 ], [ -50.896414007100695, -20.557528578481083 ], [ -50.893468041217091, -20.54421825067169 ], [ -50.902509103812065, -20.538910410586936 ], [ -50.913000409541212, -20.540866642881213 ], [ -50.917056256640876, -20.550417968214614 ], [ -50.926713994255408, -20.547339716554632 ], [ -50.927646343903632, -20.552840332615233 ], [ -50.936487257880628, -20.554818700822352 ], [ -50.946802531211802, -20.551070590035636 ], [ -50.953733050439887, -20.557092111411748 ], [ -50.960313330495751, -20.557117336495818 ], [ -50.966284908022033, -20.549228027551408 ], [ -50.969178099889341, -20.510667139676684 ], [ -50.981872975757199, -20.496863577791828 ], [ -50.98252770828708, -20.483797816116294 ], [ -50.979345186531077, -20.47447861209821 ], [ -50.980720861478517, -20.457480464052136 ], [ -50.985688113915266, -20.452717499812707 ], [ -50.984993216763485, -20.444664075386697 ], [ -50.990836987137186, -20.431723037987748 ], [ -50.977498754264047, -20.410649850410209 ], [ -50.970399729064184, -20.403267675462814 ], [ -50.967082579697255, -20.399979812518268 ], [ -50.96160070370945, -20.398173709449111 ], [ -50.950498188140841, -20.406976859094698 ], [ -50.939334548350701, -20.406980808917126 ], [ -50.931623655007627, -20.41320916896791 ], [ -50.925883653807539, -20.411659060617126 ], [ -50.914625648155095, -20.417817713316765 ], [ -50.918642998875271, -20.431374969778972 ], [ -50.909753843465069, -20.439378598743303 ], [ -50.894403658102306, -20.440552040444285 ], [ -50.888191093743956, -20.435927258835875 ], [ -50.888972906774192, -20.430798385636933 ], [ -50.880820440011227, -20.42335625019075 ], [ -50.867908948039478, -20.421821098464875 ], [ -50.859512484413578, -20.41584619074905 ], [ -50.843703776108327, -20.4146451173782 ] ] } }
]
}
