{
"type": "FeatureCollection",
"features": [
{ "type": "Feature", "properties": { "Name": "ARAÃOIABA DA SERRA", "Description": "ARAÃOIABA DA SERRA \/ SP" }, "geometry": { "type": "LineString", "coordinates": [ [ -47.565001000395796, -23.46787300023874 ], [ -47.563130000449121, -23.475930000369203 ], [ -47.55222200014515, -23.487608000208979 ], [ -47.549564999924769, -23.50551599956367 ], [ -47.554853000065862, -23.523117000049467 ], [ -47.554663000297182, -23.5293420002331 ], [ -47.565496999886591, -23.542043999630831 ], [ -47.563285000402402, -23.552922000350009 ], [ -47.559235999841462, -23.554113999561366 ], [ -47.55400799976934, -23.567112000018763 ], [ -47.557326999941033, -23.574351000198472 ], [ -47.567918625044456, -23.580697514978283 ], [ -47.581823860682562, -23.585115960633004 ], [ -47.592127164037322, -23.581322634631817 ], [ -47.598361386768545, -23.582421740171128 ], [ -47.607683350805928, -23.574690351278662 ], [ -47.622559984655538, -23.571768896417382 ], [ -47.630081816222791, -23.565365125400149 ], [ -47.634013620731992, -23.578276478876376 ], [ -47.640302394539844, -23.580845343737565 ], [ -47.640896733097691, -23.592436828796565 ], [ -47.644564321286332, -23.597874041753581 ], [ -47.63989702153026, -23.604253764899283 ], [ -47.641391924997322, -23.615570001654191 ], [ -47.652346844731085, -23.62082946181016 ], [ -47.66082206108922, -23.620966612019455 ], [ -47.668703795943365, -23.630840497191173 ], [ -47.684583229632324, -23.626836952863016 ], [ -47.702773762698939, -23.626630616909377 ], [ -47.705969414556819, -23.628924985299761 ], [ -47.721556044275985, -23.6222133439706 ], [ -47.725369882014377, -23.630045418261375 ], [ -47.732914319839949, -23.626206226835848 ], [ -47.731331397925658, -23.610962589551832 ], [ -47.740728500320017, -23.604048108833126 ], [ -47.753949047010849, -23.604231919467452 ], [ -47.755111388379817, -23.594119505310857 ], [ -47.76384059846481, -23.588740321108901 ], [ -47.753071384236925, -23.580856492632961 ], [ -47.747790179373226, -23.572355715743637 ], [ -47.760511554664447, -23.560791990957568 ], [ -47.745656955104373, -23.556196178310927 ], [ -47.738783708301469, -23.550789755442793 ], [ -47.737400498833892, -23.545119461593856 ], [ -47.717513932521904, -23.534224814423624 ], [ -47.714937177908382, -23.521165371384711 ], [ -47.708722464170364, -23.518261934440659 ], [ -47.696965455291483, -23.493674065905395 ], [ -47.679919948946463, -23.481910806738309 ], [ -47.675380718945007, -23.476457535486816 ], [ -47.651636729251607, -23.466669252284131 ], [ -47.650662769770975, -23.458592413109329 ], [ -47.630804133703748, -23.454571421034185 ], [ -47.61950817216438, -23.463655959554842 ], [ -47.608646092143374, -23.465170631919079 ], [ -47.605858606589379, -23.47084340699757 ], [ -47.591476464067512, -23.472734992425899 ], [ -47.588500247688216, -23.480558266850494 ], [ -47.580910955276295, -23.477634378423772 ], [ -47.581411399216677, -23.472584993602535 ], [ -47.565001000395796, -23.46787300023874 ] ] } }
]
}
