{
"type": "FeatureCollection",
"features": [
{ "type": "Feature", "properties": { "Name": "ARAPEÃ", "Description": "ARAPEÃ \/ SP" }, "geometry": { "type": "LineString", "coordinates": [ [ -44.360946406151697, -22.611832654153602 ], [ -44.366503585072337, -22.612342074227286 ], [ -44.366067904909862, -22.624180585065915 ], [ -44.375943988923893, -22.622837577991788 ], [ -44.384177240886913, -22.628231090192628 ], [ -44.382374057017103, -22.636583294583318 ], [ -44.377594175630634, -22.642313325899238 ], [ -44.377342245847899, -22.654711189869488 ], [ -44.384111830496522, -22.656412351948457 ], [ -44.395404252304324, -22.680887949119494 ], [ -44.392673512172792, -22.687435466873239 ], [ -44.404320503388469, -22.706606295144354 ], [ -44.412615079222462, -22.724846947428659 ], [ -44.421411323873429, -22.734139848974792 ], [ -44.427625973759632, -22.724980459880271 ], [ -44.433309967880689, -22.730415063004727 ], [ -44.450011806399687, -22.732818947236581 ], [ -44.45283117741684, -22.739401917164685 ], [ -44.462036574927936, -22.736280273215982 ], [ -44.469961859452212, -22.739919299835776 ], [ -44.480541975032054, -22.741046889602217 ], [ -44.482535577754675, -22.747391515805759 ], [ -44.495645970984754, -22.755326718053539 ], [ -44.497081235010967, -22.761642121686521 ], [ -44.50849360839328, -22.769340923644677 ], [ -44.518860932685868, -22.757017902154413 ], [ -44.527561370760623, -22.759983113529813 ], [ -44.531273681335279, -22.754851596324045 ], [ -44.528990269385361, -22.746609879941953 ], [ -44.533151049381381, -22.740743390894746 ], [ -44.526510858289441, -22.735393604631099 ], [ -44.530476447629887, -22.730154283893057 ], [ -44.521172755118521, -22.716021133968127 ], [ -44.51056740006544, -22.713318415812182 ], [ -44.473620103684823, -22.685802538156565 ], [ -44.467056664333541, -22.67880992074123 ], [ -44.461982721725171, -22.66568185313497 ], [ -44.465473412368056, -22.656744499459023 ], [ -44.453373791467243, -22.645642384088713 ], [ -44.452057844993526, -22.626783186195041 ], [ -44.466208166573608, -22.615688475842429 ], [ -44.452409472718955, -22.60897246021085 ], [ -44.439301859293323, -22.604730058645256 ], [ -44.429793143838481, -22.598704205234867 ], [ -44.415439385719026, -22.602104401596819 ], [ -44.406619657071474, -22.608848413123724 ], [ -44.400764647870169, -22.603431702011392 ], [ -44.405825758052231, -22.599098333121503 ], [ -44.405052532648192, -22.591204820745816 ], [ -44.400247785906572, -22.582190752201427 ], [ -44.390998006852499, -22.573958632484846 ], [ -44.382397778434665, -22.573494189305336 ], [ -44.370706400280085, -22.58050901547864 ], [ -44.359808366263053, -22.581173882468644 ], [ -44.36708847535283, -22.593256668960066 ], [ -44.359861609725442, -22.593054087675966 ], [ -44.362744862285524, -22.605910300120229 ], [ -44.360946406151697, -22.611832654153602 ] ] } }
]
}
