{
"type": "FeatureCollection",
"features": [
{ "type": "Feature", "properties": { "Name": "ARCO-ÃRIS", "Description": "ARCO-ÃRIS \/ SP" }, "geometry": { "type": "LineString", "coordinates": [ [ -50.454119451451497, -21.68824373995659 ], [ -50.450996945952227, -21.69293321789365 ], [ -50.433545131302708, -21.695893202409309 ], [ -50.426612066093924, -21.694868025638812 ], [ -50.420290925685599, -21.705115354290115 ], [ -50.410141011598341, -21.706490206357895 ], [ -50.399674870698675, -21.716564486561765 ], [ -50.386450157448792, -21.719348575376387 ], [ -50.379578839691646, -21.718343574896039 ], [ -50.371089200905828, -21.723337331252765 ], [ -50.360593848227495, -21.724243734560673 ], [ -50.355448046190354, -21.71567137433442 ], [ -50.348435702145878, -21.70959938300507 ], [ -50.341532048365309, -21.715537172102756 ], [ -50.332318186435089, -21.71411068276177 ], [ -50.330653172605764, -21.709515756846656 ], [ -50.317715769367226, -21.707305001124837 ], [ -50.308477346052655, -21.714514978383477 ], [ -50.306053539139498, -21.718491008852936 ], [ -50.311599946879994, -21.727504815694658 ], [ -50.320398365192375, -21.733040436966576 ], [ -50.322831910863954, -21.743519736746407 ], [ -50.329210115054707, -21.754913365559332 ], [ -50.325172075430885, -21.764957053525166 ], [ -50.330050226636615, -21.781583813042516 ], [ -50.329534504114008, -21.793656993875118 ], [ -50.334465485993348, -21.796477902732988 ], [ -50.338038561730166, -21.806518009598392 ], [ -50.349447727230768, -21.821952574751492 ], [ -50.358955159353052, -21.822791670998754 ], [ -50.362124810011949, -21.82771488273562 ], [ -50.379873501660711, -21.825463160196648 ], [ -50.387591918732028, -21.82047004865376 ], [ -50.388266428253011, -21.81495578538113 ], [ -50.399114802605993, -21.815007485606941 ], [ -50.403039182312398, -21.809069626362145 ], [ -50.425742456748928, -21.804289640654357 ], [ -50.428303652191744, -21.809368203080055 ], [ -50.437470562316548, -21.813060185379186 ], [ -50.450151227097422, -21.823072360201195 ], [ -50.460442503818456, -21.828127905378491 ], [ -50.468173891811603, -21.834973417089486 ], [ -50.472663427974794, -21.850330736774026 ], [ -50.48688927102301, -21.851856016641818 ], [ -50.494631522826467, -21.849042523593539 ], [ -50.507383127029641, -21.826240448737678 ], [ -50.517857833072462, -21.825427014644958 ], [ -50.528429215335962, -21.819551805771194 ], [ -50.535914950814288, -21.820066609186593 ], [ -50.539973128057397, -21.814729265043525 ], [ -50.534770858488287, -21.804592841686258 ], [ -50.536924947028638, -21.799213827456128 ], [ -50.530256924617333, -21.790042373057016 ], [ -50.526749046131556, -21.764916411363231 ], [ -50.527349326510148, -21.757258229083959 ], [ -50.520893134910182, -21.753024530257843 ], [ -50.520193337352616, -21.742667653389447 ], [ -50.511950144283666, -21.731990867884178 ], [ -50.51407251733275, -21.725295547451481 ], [ -50.511888520938435, -21.718166985817675 ], [ -50.517062478050882, -21.709925689418981 ], [ -50.509584866148593, -21.708153416147184 ], [ -50.503738149595897, -21.715638652501752 ], [ -50.495966736375742, -21.715286741489876 ], [ -50.490010699134416, -21.705181869047976 ], [ -50.474927216717617, -21.701904132469679 ], [ -50.464116928653311, -21.706488926622626 ], [ -50.461626058395829, -21.690636440219521 ], [ -50.454119451451497, -21.68824373995659 ] ] } }
]
}
