{
"type": "FeatureCollection",
"features": [
{ "type": "Feature", "properties": { "Name": "ASSIS", "Description": "ASSIS \/ SP" }, "geometry": { "type": "LineString", "coordinates": [ [ -50.349994334271052, -22.478972122865116 ], [ -50.344042909652501, -22.491721487756422 ], [ -50.33099951051895, -22.506444681077141 ], [ -50.331243874305301, -22.516035557694806 ], [ -50.328463406161234, -22.52628256528811 ], [ -50.321407386541637, -22.534342676173534 ], [ -50.320054620024671, -22.542960133803092 ], [ -50.313639801735405, -22.547515024598681 ], [ -50.301260569020023, -22.545748024951362 ], [ -50.305091656654611, -22.550798890056683 ], [ -50.318695603219453, -22.555390751981573 ], [ -50.334262305760774, -22.553725013298671 ], [ -50.340816873300014, -22.556532334299732 ], [ -50.329491744948022, -22.56537299196998 ], [ -50.319707360306381, -22.567531075298856 ], [ -50.31417032709885, -22.578997664310691 ], [ -50.309951940129899, -22.597987351135316 ], [ -50.312701399649825, -22.613112468565532 ], [ -50.316353178656243, -22.621017585792909 ], [ -50.320268646980423, -22.658450580829594 ], [ -50.325030929533739, -22.67738646661212 ], [ -50.367877131024727, -22.688074177980866 ], [ -50.402097414064372, -22.70463650287229 ], [ -50.405754738290511, -22.702640018721866 ], [ -50.419906734408244, -22.704797217117854 ], [ -50.433712558987331, -22.711534918101961 ], [ -50.436701162628538, -22.705087835735014 ], [ -50.44928084073814, -22.702254111537968 ], [ -50.451107436658837, -22.698207642568605 ], [ -50.460331477115915, -22.696848812822395 ], [ -50.473841429238519, -22.698385708333717 ], [ -50.482102836276852, -22.696020539915931 ], [ -50.494987377365533, -22.698954198577383 ], [ -50.503778372673708, -22.693854287145598 ], [ -50.508241922926345, -22.702481132797967 ], [ -50.51915853423889, -22.697391478134136 ], [ -50.522746904745816, -22.704940248893308 ], [ -50.53509558209538, -22.708687123112213 ], [ -50.540474387682821, -22.701225985890517 ], [ -50.549888043898079, -22.694601857589589 ], [ -50.550300333593498, -22.685064514915382 ], [ -50.561431673332997, -22.686726794805679 ], [ -50.571609486188777, -22.69150827518672 ], [ -50.568884471141416, -22.67499524393531 ], [ -50.5697581526166, -22.652652444754494 ], [ -50.573257013600255, -22.643188322183278 ], [ -50.556298973518778, -22.634785314190879 ], [ -50.544887137931021, -22.6205803354141 ], [ -50.534040698919057, -22.617786631048148 ], [ -50.519945485095995, -22.605740523406382 ], [ -50.514276190393844, -22.603673998256397 ], [ -50.506581572081863, -22.607000049112912 ], [ -50.498338735144443, -22.604108003881205 ], [ -50.494608212399044, -22.589932886193708 ], [ -50.489568740804714, -22.581599209635783 ], [ -50.475216617652734, -22.568993651735578 ], [ -50.465990056395924, -22.556620475054842 ], [ -50.458737194965515, -22.550599391648575 ], [ -50.459606721572925, -22.529570219589914 ], [ -50.454642612266696, -22.525131532893909 ], [ -50.441506013691537, -22.52717147858084 ], [ -50.433047768439735, -22.525811327730537 ], [ -50.43006544296577, -22.521398680005003 ], [ -50.413971651370559, -22.517545374619317 ], [ -50.420431517600434, -22.504978204280633 ], [ -50.418467278641963, -22.498246068301341 ], [ -50.430736738309804, -22.49179772328625 ], [ -50.439412924366934, -22.491248961470376 ], [ -50.44834615465129, -22.459843693131912 ], [ -50.449767083484055, -22.45919224672474 ], [ -50.418236441558463, -22.455760450884043 ], [ -50.410911081281313, -22.448360229241132 ], [ -50.39817728815126, -22.444815309478884 ], [ -50.382398399566455, -22.454603381340917 ], [ -50.373846002491007, -22.46752689634917 ], [ -50.360786626001925, -22.471606736461695 ], [ -50.349994334271052, -22.478972122865116 ] ] } }
]
}
