{
"type": "FeatureCollection",
"features": [
{ "type": "Feature", "properties": { "Name": "ATIBAIA", "Description": "ATIBAIA \/ SP" }, "geometry": { "type": "LineString", "coordinates": [ [ -46.432468885530618, -23.038015449753171 ], [ -46.430914913692277, -23.042754951579695 ], [ -46.434748482556351, -23.05715656082657 ], [ -46.431971314924226, -23.066819998344215 ], [ -46.433939742025416, -23.076992781291779 ], [ -46.444389291332698, -23.092853641282488 ], [ -46.467763642578007, -23.099031738224085 ], [ -46.473717632063028, -23.106294343808884 ], [ -46.482683999666783, -23.112287999691375 ], [ -46.49141500030197, -23.116948999696547 ], [ -46.503855000208034, -23.138436999567826 ], [ -46.510454999698425, -23.145262999587711 ], [ -46.512791999551098, -23.15462200040497 ], [ -46.522907000157886, -23.162538000328425 ], [ -46.528295999560669, -23.16971999967819 ], [ -46.52105700028028, -23.175790999954643 ], [ -46.521470999586938, -23.181376000302123 ], [ -46.543316999779677, -23.208360000013954 ], [ -46.540395999975374, -23.21658799993622 ], [ -46.530654000381787, -23.223421000278904 ], [ -46.523624999993729, -23.221820000192793 ], [ -46.513099000218631, -23.223983000115311 ], [ -46.50936299970266, -23.232545000151617 ], [ -46.51538009371631, -23.237501891499051 ], [ -46.528356999675736, -23.241403000348157 ], [ -46.545370000025457, -23.241358000071614 ], [ -46.552266999722235, -23.236970000065412 ], [ -46.568253000375648, -23.2337350001701 ], [ -46.58366799987823, -23.232879000265598 ], [ -46.589858000246466, -23.236681000227918 ], [ -46.601339500017843, -23.234223500214338 ], [ -46.605815999608637, -23.227730000239259 ], [ -46.615063999803681, -23.227305000425361 ], [ -46.618943999765747, -23.241602999678662 ], [ -46.622764999704941, -23.245702999893467 ], [ -46.622170000145324, -23.25430600002181 ], [ -46.630092000345478, -23.259049000211117 ], [ -46.637107000087951, -23.258079999592265 ], [ -46.638446999829114, -23.257666000285667 ], [ -46.642980414814247, -23.254592343262004 ], [ -46.652468150884424, -23.259879426993905 ], [ -46.66775284311916, -23.258294576033791 ], [ -46.675312347286933, -23.261527385180614 ], [ -46.68340893377524, -23.25736915476261 ], [ -46.694200258734895, -23.259200995529454 ], [ -46.704060404064357, -23.25212406217571 ], [ -46.704246512466511, -23.237000137246469 ], [ -46.713284243073304, -23.230461618109132 ], [ -46.716452259664038, -23.21631974206241 ], [ -46.711125182181377, -23.211457304710791 ], [ -46.708421040398662, -23.204707000627536 ], [ -46.692123079316616, -23.209533042415956 ], [ -46.683529098489089, -23.207138164894332 ], [ -46.670021566442074, -23.213906160440899 ], [ -46.670138292148401, -23.20690913454888 ], [ -46.659422273718917, -23.195428228329998 ], [ -46.659211012178446, -23.178583818488391 ], [ -46.654579575586922, -23.174608995808455 ], [ -46.654004368306914, -23.163899856293312 ], [ -46.664121129786274, -23.155181607145437 ], [ -46.670329541974752, -23.141813218205414 ], [ -46.674748555101701, -23.122334394616587 ], [ -46.674674824183739, -23.111701196552929 ], [ -46.678729186502721, -23.104654981342264 ], [ -46.674425736258677, -23.09429454135994 ], [ -46.676344176342639, -23.083639165115358 ], [ -46.685851322480517, -23.067235564269822 ], [ -46.684109966102028, -23.05929279152906 ], [ -46.676463981327629, -23.040491684443623 ], [ -46.682816219392976, -23.025818200249716 ], [ -46.688666874976263, -23.023536988041542 ], [ -46.695671724970111, -23.010740361978094 ], [ -46.685887642500632, -23.010409085011243 ], [ -46.676155168526179, -23.000775101189902 ], [ -46.663102354390105, -22.99758087026089 ], [ -46.656766301423602, -23.006070755460936 ], [ -46.636829075401458, -23.018447194882071 ], [ -46.636051449614683, -23.013743575105877 ], [ -46.628174177196456, -23.006680848342455 ], [ -46.621012012394424, -23.00714837529722 ], [ -46.621784664030997, -23.015380895212104 ], [ -46.600502047731254, -23.01812753625677 ], [ -46.586779989604793, -23.018346876407179 ], [ -46.571334802559022, -23.032500647786605 ], [ -46.568270695436183, -23.043315982846309 ], [ -46.561702701018817, -23.04200375866651 ], [ -46.553115583817082, -23.033636183063379 ], [ -46.541079955075816, -23.030815192367186 ], [ -46.536582450919354, -23.026153076303387 ], [ -46.524998997705552, -23.033165222496962 ], [ -46.520392019076382, -23.028533397398348 ], [ -46.498282849373936, -23.027137190928556 ], [ -46.491520518656955, -23.031581204309077 ], [ -46.480304300003404, -23.031306899393826 ], [ -46.464939450295333, -23.051705690764944 ], [ -46.452953268078829, -23.043626201288134 ], [ -46.445509007534611, -23.029695232449001 ], [ -46.435316763257958, -23.033282628990094 ], [ -46.432468885530618, -23.038015449753171 ] ] } }
]
}
