{
"type": "FeatureCollection",
"features": [
{ "type": "Feature", "properties": { "Name": "AVANHANDAVA", "Description": "AVANHANDAVA \/ SP" }, "geometry": { "type": "LineString", "coordinates": [ [ -49.843200711743407, -21.355330367602335 ], [ -49.848125994618897, -21.365687222887004 ], [ -49.855509849499924, -21.36810352405837 ], [ -49.861984139956064, -21.378471333984802 ], [ -49.86480181485183, -21.390954141620284 ], [ -49.868552534571791, -21.392625654850061 ], [ -49.862142193107672, -21.410146849497437 ], [ -49.863152612902695, -21.425521441561216 ], [ -49.861145646254556, -21.430480077593469 ], [ -49.869682131625041, -21.44098035226142 ], [ -49.8713425580126, -21.451753821181853 ], [ -49.868592027400098, -21.459482150580751 ], [ -49.872242925970227, -21.468861120843997 ], [ -49.892678552673033, -21.471333904835774 ], [ -49.89350523737675, -21.481938053898034 ], [ -49.908597251661767, -21.504451707180522 ], [ -49.911449411061426, -21.519779520108727 ], [ -49.902634101682395, -21.522841485945776 ], [ -49.902980382038947, -21.528629179093286 ], [ -49.908778424584568, -21.538653814921588 ], [ -49.909631878508321, -21.549497591040961 ], [ -49.915782382450971, -21.557460119189102 ], [ -49.933156871592303, -21.553716555374706 ], [ -49.940527521727688, -21.563518248368439 ], [ -49.954075877599621, -21.577034091050393 ], [ -49.964654368104561, -21.579159011878854 ], [ -49.969578614961051, -21.576438274007103 ], [ -49.981790277898938, -21.579519308169495 ], [ -49.986644587177921, -21.587863371897072 ], [ -49.993899403734467, -21.59089827803308 ], [ -50.004802891240381, -21.587261567167555 ], [ -50.013266655631575, -21.590043348321842 ], [ -50.028206282493898, -21.589234942338692 ], [ -50.038540914631483, -21.595341726639329 ], [ -50.044807186502396, -21.607913996133959 ], [ -50.054933566231057, -21.608809407927765 ], [ -50.06027858968514, -21.599060875658836 ], [ -50.057421452537938, -21.590142599301487 ], [ -50.06085343633697, -21.583941499500551 ], [ -50.044970193119866, -21.566830893031238 ], [ -50.048825538167989, -21.56167776062011 ], [ -50.042229396769187, -21.556448451135054 ], [ -50.033766971468538, -21.543271587213948 ], [ -50.027445331936462, -21.538290897107174 ], [ -50.024794975907355, -21.527759970845921 ], [ -50.012953715841263, -21.521245656062149 ], [ -50.014980377642239, -21.514632454524133 ], [ -50.007043911847006, -21.510971375628458 ], [ -50.000612645856904, -21.50086934234622 ], [ -49.994047309835416, -21.497128753489164 ], [ -49.987161787286595, -21.486744166709851 ], [ -49.999374331560091, -21.481183627922064 ], [ -49.999765943143693, -21.46732468488625 ], [ -50.00418400748589, -21.464655158009066 ], [ -49.999306964244965, -21.447321297539812 ], [ -50.005480995351604, -21.42431870984052 ], [ -50.001379150627258, -21.41002451471951 ], [ -49.993619504136745, -21.399699135706499 ], [ -49.994628168455165, -21.391509308407819 ], [ -49.991069760660878, -21.386021581430782 ], [ -49.980306685205335, -21.377901454288633 ], [ -49.977612810982407, -21.364955189130626 ], [ -49.978073108287276, -21.349739473997488 ], [ -49.966875488512926, -21.349284031233022 ], [ -49.942188141469501, -21.341966478869836 ], [ -49.941049010703239, -21.332282223845478 ], [ -49.933995799666377, -21.325588943974537 ], [ -49.922598872140213, -21.333170807986335 ], [ -49.920414565479746, -21.342229141161905 ], [ -49.913205064861813, -21.340943700591254 ], [ -49.895147305903379, -21.341822405679409 ], [ -49.883751487241284, -21.336683622850842 ], [ -49.879908451214021, -21.34255089520758 ], [ -49.865267513484923, -21.351340636860868 ], [ -49.856759673320191, -21.354243670908659 ], [ -49.843200711743407, -21.355330367602335 ] ] } }
]
}
