{
"type": "FeatureCollection",
"features": [
{ "type": "Feature", "properties": { "Name": "BALBINOS", "Description": "BALBINOS \/ SP" }, "geometry": { "type": "LineString", "coordinates": [ [ -49.285039077491376, -21.86025067352972 ], [ -49.279675223132976, -21.866674945492317 ], [ -49.266478689240095, -21.865452428686581 ], [ -49.26945998139297, -21.874627646748479 ], [ -49.289507700819684, -21.897805790204981 ], [ -49.298677773860099, -21.913074487997161 ], [ -49.3149250662388, -21.927172131788382 ], [ -49.317399366487507, -21.937150736717054 ], [ -49.327950248704951, -21.935144695471251 ], [ -49.335233802198154, -21.941099868464104 ], [ -49.341007259077685, -21.936040449007464 ], [ -49.354785119237818, -21.940828712075358 ], [ -49.352004331834387, -21.951574324495425 ], [ -49.363097793028658, -21.952707762553132 ], [ -49.372256681200838, -21.938447124734978 ], [ -49.388052684783531, -21.936411351003017 ], [ -49.38332793363719, -21.922145382003748 ], [ -49.383509359269453, -21.885991365009431 ], [ -49.38067199911341, -21.878758226610842 ], [ -49.366507318957588, -21.876828887643001 ], [ -49.354399093343424, -21.862658188324701 ], [ -49.353639879376885, -21.855085031548921 ], [ -49.340544626233452, -21.841201359854832 ], [ -49.339982616504521, -21.838183580407868 ], [ -49.320812955553436, -21.837775735161983 ], [ -49.307751184169767, -21.845347278554016 ], [ -49.293446471477402, -21.848574099115353 ], [ -49.285039077491376, -21.86025067352972 ] ] } }
]
}
