{
"type": "FeatureCollection",
"features": [
{ "type": "Feature", "properties": { "Name": "BARIRI", "Description": "BARIRI \/ SP" }, "geometry": { "type": "LineString", "coordinates": [ [ -48.606930955299333, -21.987736287000018 ], [ -48.603278073724084, -21.991951980499437 ], [ -48.613514305640649, -22.026063306176582 ], [ -48.611060777932494, -22.046196272340069 ], [ -48.614406641753078, -22.060371848681822 ], [ -48.616391063296867, -22.081374174178734 ], [ -48.61509548556819, -22.088851165548814 ], [ -48.622240101899138, -22.10348730989142 ], [ -48.633165089497254, -22.107164448880155 ], [ -48.644024904125956, -22.117466437426117 ], [ -48.631281039488329, -22.12427289517791 ], [ -48.632418466938645, -22.132449175988654 ], [ -48.646249750425625, -22.143086381431317 ], [ -48.631380678975113, -22.146635233029539 ], [ -48.624021072514431, -22.152724991365233 ], [ -48.632057897254128, -22.162697790270784 ], [ -48.632507664397167, -22.167398259721832 ], [ -48.649610079841295, -22.165006622457611 ], [ -48.656102227235976, -22.168924286926252 ], [ -48.663937021076606, -22.184796086270296 ], [ -48.669247543839042, -22.184174405624276 ], [ -48.674099918676291, -22.19282217220541 ], [ -48.68188289627858, -22.18958342663376 ], [ -48.699099800815134, -22.190797257787153 ], [ -48.705092751629131, -22.183868285393032 ], [ -48.714487938467528, -22.180240641492389 ], [ -48.720885559021269, -22.172935931448023 ], [ -48.747281332867196, -22.16123231082241 ], [ -48.754234224529796, -22.153735718728399 ], [ -48.753893863510932, -22.13940007475361 ], [ -48.756543151145479, -22.121825218459037 ], [ -48.766954262529168, -22.104837614064593 ], [ -48.776181653860192, -22.105290401131072 ], [ -48.783174280268781, -22.122138821049699 ], [ -48.79426568381421, -22.125334231889269 ], [ -48.802201778189435, -22.11969037810843 ], [ -48.807805952082958, -22.107942073767617 ], [ -48.817818847261947, -22.107394570103278 ], [ -48.844120789442854, -22.129050701828358 ], [ -48.85792324696024, -22.125382149566516 ], [ -48.86390157749576, -22.11851092533891 ], [ -48.866501504940452, -22.105311294180865 ], [ -48.860378962718926, -22.089207205348202 ], [ -48.853745191887072, -22.065528575683174 ], [ -48.854515946853439, -22.039948909614452 ], [ -48.856278160308818, -22.033550442798628 ], [ -48.867213111495857, -22.024066347184142 ], [ -48.86001682551602, -22.017437331067924 ], [ -48.852147237804729, -22.017108288017027 ], [ -48.842057101653893, -22.020528955646739 ], [ -48.832768527645385, -22.012578106094679 ], [ -48.823283178375959, -22.011574761266161 ], [ -48.800679418420373, -22.01461554806906 ], [ -48.790222643959794, -22.019863489708257 ], [ -48.77252790443918, -22.02072627859485 ], [ -48.764326733092211, -22.005637977610547 ], [ -48.748326611284028, -21.996812289155795 ], [ -48.735611039317973, -21.986386088946801 ], [ -48.721918933112242, -21.983295318723947 ], [ -48.714548640907026, -21.976485637801886 ], [ -48.712558196603425, -21.966633464962396 ], [ -48.68944739258307, -21.949395831052698 ], [ -48.685603164954038, -21.94382428546237 ], [ -48.68443394197282, -21.931894649918092 ], [ -48.67939688865544, -21.928793798295086 ], [ -48.669375458910281, -21.941874352019678 ], [ -48.671626654446527, -21.946632371786507 ], [ -48.65692445759759, -21.955516091694218 ], [ -48.651270492738995, -21.963804470300033 ], [ -48.642424404962291, -21.970061437785091 ], [ -48.628948687332013, -21.969793746484182 ], [ -48.61338480686328, -21.984310689286811 ], [ -48.606930955299333, -21.987736287000018 ] ] } }
]
}
