{
"type": "FeatureCollection",
"features": [
{ "type": "Feature", "properties": { "Name": "BARRA BONITA", "Description": "BARRA BONITA \/ SP" }, "geometry": { "type": "LineString", "coordinates": [ [ -48.509673680895617, -22.436118529846226 ], [ -48.50393835886814, -22.435335463161035 ], [ -48.505359128520922, -22.449051578567431 ], [ -48.503201798823909, -22.457389749936965 ], [ -48.47228203218998, -22.483469587451452 ], [ -48.462259462104441, -22.483884705514694 ], [ -48.458713205050344, -22.497931788521157 ], [ -48.460600765113156, -22.509984170732821 ], [ -48.448069145874342, -22.523088050173328 ], [ -48.451912452597583, -22.539421622609723 ], [ -48.460751123665375, -22.540252476570515 ], [ -48.487336237177544, -22.546811138722997 ], [ -48.490330721485577, -22.546076292786665 ], [ -48.49751813115676, -22.530484423617224 ], [ -48.505387245824693, -22.525929594874867 ], [ -48.511669837692807, -22.528703942233108 ], [ -48.52458663926194, -22.528993779339373 ], [ -48.549004236456312, -22.504345671515466 ], [ -48.560151587725557, -22.499603792780757 ], [ -48.577318172495609, -22.502733331877721 ], [ -48.591421589035065, -22.508665409381081 ], [ -48.606463052427898, -22.509689261450205 ], [ -48.621095164210431, -22.501914713193397 ], [ -48.627238814419684, -22.490163271118035 ], [ -48.637692613023603, -22.487036930909596 ], [ -48.641975806937921, -22.482313630369674 ], [ -48.630430204390393, -22.474444534587576 ], [ -48.627771384841481, -22.468927879118269 ], [ -48.619883980661143, -22.466147554865699 ], [ -48.618872300915939, -22.461391398494182 ], [ -48.601933564782144, -22.442332947707314 ], [ -48.59769141952335, -22.435848783594452 ], [ -48.608789658815681, -22.425119789746475 ], [ -48.596735687501962, -22.424161232055155 ], [ -48.586325497024006, -22.412198880973506 ], [ -48.564520977161351, -22.412635284190969 ], [ -48.557999215091677, -22.425132113156451 ], [ -48.547273928249119, -22.427627861336703 ], [ -48.530938901608977, -22.428140611599872 ], [ -48.523076816042192, -22.431291997027984 ], [ -48.518843458059102, -22.438749415553048 ], [ -48.509673680895617, -22.436118529846226 ] ] } }
]
}
