{
"type": "FeatureCollection",
"features": [
{ "type": "Feature", "properties": { "Name": "BARRA DO CHAPÃU", "Description": "BARRA DO CHAPÃU \/ SP" }, "geometry": { "type": "LineString", "coordinates": [ [ -48.98189174320936, -24.523782711303056 ], [ -48.995163308439885, -24.526119736336739 ], [ -49.003784166406092, -24.524548655795797 ], [ -49.012587432963642, -24.528240505894587 ], [ -49.009618367093928, -24.535707221610949 ], [ -49.024407797281974, -24.547329973399485 ], [ -49.048683725173753, -24.549798454135328 ], [ -49.05476144788247, -24.554204057471225 ], [ -49.069376936596313, -24.549752528456395 ], [ -49.089799791127398, -24.539798947163661 ], [ -49.132440698979053, -24.53752997562782 ], [ -49.147411776032584, -24.535224472731159 ], [ -49.147477904081939, -24.52166604804961 ], [ -49.144699726511135, -24.517555412452278 ], [ -49.129461298100402, -24.518197784699964 ], [ -49.123446518042329, -24.495111236294463 ], [ -49.131920066158102, -24.484202199971492 ], [ -49.144091338744261, -24.482404279833588 ], [ -49.161421116291422, -24.473126973431022 ], [ -49.163994467870339, -24.462810664980168 ], [ -49.171186531533181, -24.4578988134794 ], [ -49.171378070941159, -24.450766889280487 ], [ -49.180770891663258, -24.4514143310065 ], [ -49.193400237530909, -24.446284877744858 ], [ -49.196217605757852, -24.433033607514915 ], [ -49.185977262140909, -24.42258857010637 ], [ -49.205450607059845, -24.410229260072239 ], [ -49.212294130369798, -24.418161864178671 ], [ -49.224302805529987, -24.425302152971938 ], [ -49.226128856461514, -24.431036123318393 ], [ -49.250517312024272, -24.44541950690467 ], [ -49.252662148339425, -24.434152310180934 ], [ -49.240683207464023, -24.422014793647747 ], [ -49.235460629404486, -24.41104093329238 ], [ -49.237850278267672, -24.404472846244801 ], [ -49.253500143816552, -24.405038632227047 ], [ -49.241434760106074, -24.396312665097355 ], [ -49.230409700447296, -24.397858345186421 ], [ -49.203254412261288, -24.380860117100664 ], [ -49.187228667868681, -24.376373045079902 ], [ -49.16495036266906, -24.355495636314515 ], [ -49.153269623494282, -24.351808334087305 ], [ -49.150374147348998, -24.344560099668797 ], [ -49.137186594985337, -24.334084872019162 ], [ -49.131075353644633, -24.340269754345623 ], [ -49.119901214269589, -24.330071142868913 ], [ -49.108493199001884, -24.336166112775857 ], [ -49.102456251554713, -24.33590616283908 ], [ -49.097962348283716, -24.344233731201712 ], [ -49.090406371256961, -24.344641200530926 ], [ -49.079863454334884, -24.359838949907555 ], [ -49.065965715445373, -24.36493092572158 ], [ -49.058354412126391, -24.374521858996559 ], [ -49.049683669665569, -24.379382062432171 ], [ -49.044509416676192, -24.376605312984733 ], [ -49.037025722658939, -24.381258459210471 ], [ -49.0334326136242, -24.376494981458166 ], [ -49.023203417103957, -24.375872164968371 ], [ -49.019899762963632, -24.367770527887501 ], [ -49.008855695234104, -24.360201177941974 ], [ -49.004453070452826, -24.361486675169886 ], [ -48.999406193840741, -24.370759409419179 ], [ -49.003928060631438, -24.374895739546673 ], [ -49.002790718616723, -24.390165888844646 ], [ -48.999762001615068, -24.403475365895357 ], [ -49.012081525641861, -24.416854853368761 ], [ -49.014640618469741, -24.428006796576369 ], [ -49.01119959018888, -24.435447564153716 ], [ -49.003234755279664, -24.440807555923925 ], [ -48.981025974868828, -24.429827219550475 ], [ -48.975608531708303, -24.429013961724934 ], [ -48.971281292597546, -24.436371944009977 ], [ -48.967387150796355, -24.450188197127542 ], [ -48.95875553873708, -24.454844381263115 ], [ -48.95151451328411, -24.453087013354946 ], [ -48.947301997988795, -24.473229491647658 ], [ -48.941710471261217, -24.485143755979493 ], [ -48.947882270250538, -24.488177274461577 ], [ -48.984459605326492, -24.513700883089257 ], [ -48.98189174320936, -24.523782711303056 ] ] } }
]
}
