{
"type": "FeatureCollection",
"features": [
{ "type": "Feature", "properties": { "Name": "BIRITIBA-MIRIM", "Description": "BIRITIBA-MIRIM \/ SP" }, "geometry": { "type": "LineString", "coordinates": [ [ -46.077039000049751, -23.514675000151101 ], [ -46.071793000046853, -23.524666000435499 ], [ -46.076267000421694, -23.532660000358703 ], [ -46.071495999840458, -23.537154999903294 ], [ -46.056635999851494, -23.542171000091514 ], [ -46.040858999842953, -23.538070999876709 ], [ -46.034431000190466, -23.525504000409228 ], [ -46.021209000195135, -23.531197000341251 ], [ -46.006388000206009, -23.527793999893163 ], [ -45.997492000055729, -23.519130999695847 ], [ -45.992664000443199, -23.519915999923398 ], [ -45.985342000033256, -23.525156999695753 ], [ -45.980450000167302, -23.541682000024252 ], [ -45.969816999954553, -23.538857000150415 ], [ -45.965068000387866, -23.553597000001503 ], [ -45.965248298270289, -23.580801282353264 ], [ -45.945007784881341, -23.581594189420287 ], [ -45.935738724362579, -23.586247752032079 ], [ -45.929251365857795, -23.598477060567856 ], [ -45.930268152852932, -23.609100498289308 ], [ -45.93400774346253, -23.613459243349379 ], [ -45.959646586720567, -23.633991818767356 ], [ -45.947354653894138, -23.635689801742899 ], [ -45.939387208253038, -23.632324761678372 ], [ -45.928409719133185, -23.637453955035937 ], [ -45.935509988095419, -23.642878804113479 ], [ -45.933313531594131, -23.652256699686916 ], [ -45.921008000119059, -23.659308999710504 ], [ -45.916139000414482, -23.666904000119473 ], [ -45.918810000381143, -23.678257000260317 ], [ -45.924411999713982, -23.681334000063998 ], [ -45.919764000308298, -23.688433000082853 ], [ -45.936096999876604, -23.701209000195149 ], [ -45.95046000032869, -23.702287999591476 ], [ -45.976513000274679, -23.694005999876936 ], [ -45.98543599987147, -23.698238999929853 ], [ -45.992029999984481, -23.705458000086594 ], [ -45.996865999965905, -23.704537999928732 ], [ -46.008248999691546, -23.708616000028314 ], [ -46.016654999728409, -23.714846999589327 ], [ -46.026094999784391, -23.715801000415809 ], [ -46.033689000147206, -23.720822999981408 ], [ -46.044993999873157, -23.719774000169934 ], [ -46.05410700013789, -23.716325000298468 ], [ -46.066083000230208, -23.723615000132099 ], [ -46.067740000200779, -23.7290390002496 ], [ -46.077423999817711, -23.732626000189725 ], [ -46.095608000208983, -23.733789999908534 ], [ -46.100904999865804, -23.718450000267239 ], [ -46.093218999756971, -23.704897000296285 ], [ -46.082168000053116, -23.679965999930914 ], [ -46.081732999778069, -23.667047999565455 ], [ -46.084594999559556, -23.664265999875965 ], [ -46.096999999650222, -23.667503999909627 ], [ -46.097921999900329, -23.652160000083882 ], [ -46.092160000383672, -23.648230999660882 ], [ -46.088425999959895, -23.638636999697724 ], [ -46.094622999751607, -23.622581000312891 ], [ -46.088313000144801, -23.613191999910839 ], [ -46.08764499991679, -23.602602999928479 ], [ -46.091285999649124, -23.592979000380524 ], [ -46.088009999661722, -23.575430999640901 ], [ -46.094493000051841, -23.562313999991034 ], [ -46.108748250931001, -23.553322147399115 ], [ -46.112126000214687, -23.540789000212158 ], [ -46.108000999746309, -23.530871999742942 ], [ -46.100002999638662, -23.521440000055918 ], [ -46.105104000149424, -23.514637000197354 ], [ -46.099941000376816, -23.507848000085119 ], [ -46.089910000046416, -23.50805199960007 ], [ -46.084800000019925, -23.513204999810853 ], [ -46.077039000049751, -23.514675000151101 ] ] } }
]
}
