{
"type": "FeatureCollection",
"features": [
{ "type": "Feature", "properties": { "Name": "BOA ESPERANÃA DO SUL", "Description": "BOA ESPERANÃA DO SUL \/ SP" }, "geometry": { "type": "LineString", "coordinates": [ [ -48.396582124165654, -21.854154062360067 ], [ -48.392139628840766, -21.858283868805469 ], [ -48.377588750120701, -21.8544224560315 ], [ -48.364833588199467, -21.855992817114782 ], [ -48.344737849472146, -21.853202408764105 ], [ -48.321180588713162, -21.859358334719332 ], [ -48.313073676209164, -21.867738638427397 ], [ -48.3015806660149, -21.870261445409312 ], [ -48.294750232337321, -21.865982009761922 ], [ -48.29024621978715, -21.870497808826769 ], [ -48.277965238005265, -21.866752122612297 ], [ -48.263288918248918, -21.871839930968008 ], [ -48.258491643974139, -21.886885025823229 ], [ -48.25442678746623, -21.8931451310429 ], [ -48.258990917896483, -21.909767822027334 ], [ -48.275489160696161, -21.936345883055989 ], [ -48.278589965554431, -21.938273808289576 ], [ -48.288716031419654, -21.954675379365199 ], [ -48.280807786350238, -21.962352388052238 ], [ -48.284298895177812, -21.979838835593739 ], [ -48.27606540129721, -21.983773281411739 ], [ -48.281287149282491, -21.989704673631763 ], [ -48.291496916849212, -21.989747501146212 ], [ -48.300426773776564, -21.985916453981133 ], [ -48.315733917586151, -21.991224704156707 ], [ -48.322197031267933, -21.989118722151261 ], [ -48.349126520372572, -22.009014463346773 ], [ -48.36475886263139, -22.014042105258909 ], [ -48.372074426593485, -22.019269223995423 ], [ -48.398856815389649, -22.026183487078242 ], [ -48.414216104589514, -22.034490863862231 ], [ -48.416131572414088, -22.044020339267203 ], [ -48.42562526469419, -22.054852946706092 ], [ -48.441325080388083, -22.061085692750453 ], [ -48.444863050189554, -22.063153961685941 ], [ -48.457584487534007, -22.048325287781779 ], [ -48.47685759839942, -22.041826811857845 ], [ -48.480911323099058, -22.032205308827884 ], [ -48.487368516543768, -22.02711327995388 ], [ -48.481482182156917, -22.014171713753569 ], [ -48.494967602572785, -22.011047474361419 ], [ -48.503311424382673, -22.019421006174468 ], [ -48.530275242408493, -22.028841403707755 ], [ -48.536588206180738, -22.03507768408781 ], [ -48.544293238642013, -22.034539668271009 ], [ -48.55547071270319, -22.015680299506187 ], [ -48.564424759594942, -22.004827915975511 ], [ -48.572234519007793, -22.002006220210831 ], [ -48.587409118935625, -22.000413975924232 ], [ -48.594601661037757, -21.98999746051436 ], [ -48.606930955299333, -21.987736287000018 ], [ -48.61338480686328, -21.984310689286811 ], [ -48.628948687332013, -21.969793746484182 ], [ -48.642424404962291, -21.970061437785091 ], [ -48.651270492738995, -21.963804470300033 ], [ -48.65692445759759, -21.955516091694218 ], [ -48.671626654446527, -21.946632371786507 ], [ -48.669375458910281, -21.941874352019678 ], [ -48.67939688865544, -21.928793798295086 ], [ -48.678904366843028, -21.927797498755524 ], [ -48.662704168362666, -21.921954428054391 ], [ -48.642829508175225, -21.90463149075066 ], [ -48.657864799520837, -21.844637237718302 ], [ -48.648033114136865, -21.839348149397551 ], [ -48.636224335784448, -21.835987345139813 ], [ -48.628554588223608, -21.843655616913164 ], [ -48.618385044634067, -21.840190264668934 ], [ -48.59617771662829, -21.848952201982513 ], [ -48.594517578923103, -21.84589942631743 ], [ -48.578924046007899, -21.858936207340037 ], [ -48.568542015101855, -21.864694305597652 ], [ -48.564037396408644, -21.857019145017489 ], [ -48.549716862842892, -21.86826612857891 ], [ -48.541503803357784, -21.863960825731453 ], [ -48.535535965212595, -21.867574937533277 ], [ -48.516585848558009, -21.869318626753167 ], [ -48.514694864776175, -21.864801270961831 ], [ -48.498931185525748, -21.863639593292529 ], [ -48.50032146456391, -21.851158305511319 ], [ -48.490087214753089, -21.852072597672191 ], [ -48.489430938986629, -21.845678158919839 ], [ -48.481655080417561, -21.845402008595784 ], [ -48.471223972608186, -21.854108566557041 ], [ -48.466614727687499, -21.844818917858731 ], [ -48.457531934750925, -21.852030459038417 ], [ -48.450495992496023, -21.844788762691223 ], [ -48.434928311492342, -21.849535786447348 ], [ -48.434550054841104, -21.844221035971994 ], [ -48.42367181670096, -21.842876659230395 ], [ -48.409225785441606, -21.855176580734565 ], [ -48.396582124165654, -21.854154062360067 ] ] } }
]
}
