{
"type": "FeatureCollection",
"features": [
{ "type": "Feature", "properties": { "Name": "BRAÃNA", "Description": "BRAÃNA \/ SP" }, "geometry": { "type": "LineString", "coordinates": [ [ -50.274231454817766, -21.559167641273575 ], [ -50.276395804622659, -21.566451522120015 ], [ -50.288859386551394, -21.574171272885906 ], [ -50.296261628970967, -21.573408789883725 ], [ -50.301887419868478, -21.584907740100107 ], [ -50.299453206000635, -21.596578999521171 ], [ -50.305579584730026, -21.605454399800692 ], [ -50.303756113953455, -21.618197449652541 ], [ -50.300023838429347, -21.624664916053007 ], [ -50.325391191650112, -21.624939212874324 ], [ -50.335849874472103, -21.635195682234894 ], [ -50.343397993222766, -21.631156922254092 ], [ -50.355217863813316, -21.629968340466515 ], [ -50.36454958189762, -21.622816352392704 ], [ -50.37750081940726, -21.630902854782903 ], [ -50.388368076825252, -21.63305711599304 ], [ -50.40344524600124, -21.626785802522704 ], [ -50.424854911325042, -21.631483626168347 ], [ -50.412605181883578, -21.615427097982145 ], [ -50.406720245043232, -21.610917339663445 ], [ -50.406176331472466, -21.601465178075443 ], [ -50.409046975537414, -21.588569412548281 ], [ -50.405869365878516, -21.583751875648488 ], [ -50.403423780083358, -21.565654297407832 ], [ -50.398739582066014, -21.561604157405895 ], [ -50.394372026347924, -21.545703465542427 ], [ -50.398314423971442, -21.5373482457249 ], [ -50.394960766626014, -21.52223693288812 ], [ -50.386197760917867, -21.502671940757409 ], [ -50.384533668893653, -21.48971188089854 ], [ -50.375493461553958, -21.495263675578144 ], [ -50.3684509749325, -21.490590184889072 ], [ -50.353839374887173, -21.494321629439582 ], [ -50.342663928797208, -21.495066144886607 ], [ -50.322283755191108, -21.477447753311139 ], [ -50.312206342648551, -21.476488484256095 ], [ -50.304867606754613, -21.471807945580167 ], [ -50.29962572204937, -21.4570412034887 ], [ -50.25903602119535, -21.494181149940061 ], [ -50.270792786357958, -21.512070447892825 ], [ -50.272998567929505, -21.52020826469959 ], [ -50.279864775738758, -21.532145233315816 ], [ -50.279844294578481, -21.541199234457054 ], [ -50.274231454817766, -21.559167641273575 ] ] } }
]
}
