{
"type": "FeatureCollection",
"features": [
{ "type": "Feature", "properties": { "Name": "BURITIZAL", "Description": "BURITIZAL \/ SP" }, "geometry": { "type": "LineString", "coordinates": [ [ -47.609122977443398, -20.15960315066485 ], [ -47.599248921400545, -20.170538421111189 ], [ -47.593123240545083, -20.180217085050401 ], [ -47.605834092869031, -20.195166386819267 ], [ -47.610880900233326, -20.197156854505181 ], [ -47.619160728085092, -20.218865234143209 ], [ -47.609705897309254, -20.231778983413335 ], [ -47.602649947836767, -20.252646013103003 ], [ -47.607311996451415, -20.260424288150315 ], [ -47.61060708724721, -20.277296752343204 ], [ -47.623121609474651, -20.279718361313257 ], [ -47.632369606072416, -20.286112557248657 ], [ -47.643480904420187, -20.283798142969886 ], [ -47.645442214286732, -20.288264416369657 ], [ -47.65600199709445, -20.282235031321591 ], [ -47.666487871817765, -20.283752635475707 ], [ -47.684955182035992, -20.280772073572276 ], [ -47.693294070165166, -20.275309486243771 ], [ -47.699200355112282, -20.277354244202968 ], [ -47.714899856942793, -20.26647649799196 ], [ -47.719492013845297, -20.257417734940475 ], [ -47.726306803815874, -20.256309075003742 ], [ -47.732912343130067, -20.249192555292154 ], [ -47.747367168859732, -20.250151026648496 ], [ -47.771254651680806, -20.248283043927302 ], [ -47.781887949569182, -20.258803610897871 ], [ -47.792027831718997, -20.261487549410845 ], [ -47.801572421130288, -20.255369708844963 ], [ -47.823145380854612, -20.258383631099662 ], [ -47.826068452696909, -20.251993246491111 ], [ -47.835600536135814, -20.24608942748506 ], [ -47.836525277519513, -20.241915742217657 ], [ -47.832307302440029, -20.236769039959196 ], [ -47.818322567632322, -20.23583866881944 ], [ -47.800901660882914, -20.232335999206949 ], [ -47.791013795750011, -20.223873421021494 ], [ -47.794756619422401, -20.215179007505128 ], [ -47.794535791793294, -20.199453338101023 ], [ -47.77326277575645, -20.198008592522456 ], [ -47.766984527613829, -20.188756385298916 ], [ -47.770237038208677, -20.17871987752028 ], [ -47.784900680222165, -20.169118831368905 ], [ -47.784244459314323, -20.164701222983012 ], [ -47.768462623651146, -20.161180273750574 ], [ -47.765645491046534, -20.155632713978548 ], [ -47.757300752827454, -20.160806490327218 ], [ -47.741641968701856, -20.151744303556711 ], [ -47.734122977193579, -20.152467317112951 ], [ -47.727702360975115, -20.157115088090791 ], [ -47.71644386878949, -20.153458917694877 ], [ -47.712664682828802, -20.144387260163853 ], [ -47.700157711309259, -20.141601310651936 ], [ -47.695063894583022, -20.143357577789914 ], [ -47.686886276480436, -20.139933683392712 ], [ -47.676296213499427, -20.13119875991481 ], [ -47.674948326703884, -20.126158903410612 ], [ -47.659273710013679, -20.12982423789822 ], [ -47.635537532730893, -20.132925226218159 ], [ -47.620613161068491, -20.139626329291616 ], [ -47.619415774018705, -20.148123817360215 ], [ -47.609122977443398, -20.15960315066485 ] ] } }
]
}
