{
"type": "FeatureCollection",
"features": [
{ "type": "Feature", "properties": { "Name": "BURITAMA", "Description": "BURITAMA \/ SP" }, "geometry": { "type": "LineString", "coordinates": [ [ -50.179976776606907, -20.982384564695849 ], [ -50.173049421193809, -20.985597226330867 ], [ -50.165734808714433, -20.980197801087627 ], [ -50.156738277849229, -20.978141604651285 ], [ -50.14870510525634, -20.981399570533711 ], [ -50.13781658246927, -20.980612536938963 ], [ -50.125289814173527, -20.983965046749461 ], [ -50.11626817243814, -20.988798443193556 ], [ -50.109744262787437, -20.988925742229185 ], [ -50.095535371959784, -21.001662350237211 ], [ -50.083001387503998, -21.001757254793404 ], [ -50.082304068477924, -20.997773178089627 ], [ -50.066637426975653, -20.990637599945217 ], [ -50.05503751616839, -20.997333249529788 ], [ -50.074469442810482, -21.017471994736695 ], [ -50.081314689221465, -21.027139838932385 ], [ -50.078641142374806, -21.032956009112468 ], [ -50.083562657090908, -21.039086676708735 ], [ -50.08999026733693, -21.039747388830904 ], [ -50.091715353180966, -21.047460775993954 ], [ -50.10951393202231, -21.073086537713493 ], [ -50.109233959579512, -21.087411764841022 ], [ -50.112198419121675, -21.095375300229875 ], [ -50.109661142947338, -21.103441040871303 ], [ -50.115463883551342, -21.113115052617559 ], [ -50.122369248741791, -21.116927262583033 ], [ -50.134021545957523, -21.130212951666351 ], [ -50.151316124939171, -21.139886073983064 ], [ -50.15730428416532, -21.13637002245855 ], [ -50.176355537677864, -21.114284234229956 ], [ -50.188225101207422, -21.110562856690422 ], [ -50.196614417921005, -21.117374011601328 ], [ -50.218484226765611, -21.122995156601178 ], [ -50.235377825925859, -21.118767288079823 ], [ -50.252994947658692, -21.117084807617744 ], [ -50.271962491375859, -21.103581762288457 ], [ -50.275533761274005, -21.096855330708877 ], [ -50.271382733526309, -21.087103628329714 ], [ -50.27320569078995, -21.074427725459145 ], [ -50.279931547702738, -21.071393522592928 ], [ -50.303466804749178, -21.073905982874749 ], [ -50.311933346246917, -21.077297523262018 ], [ -50.322119550676689, -21.070170226075049 ], [ -50.33020345942208, -21.068653947521625 ], [ -50.339370116837358, -21.062182507916361 ], [ -50.346979824759039, -21.060273677987823 ], [ -50.350980454384398, -21.056618731569188 ], [ -50.353450147406363, -21.046669432847978 ], [ -50.358189763446774, -21.043547731342699 ], [ -50.34668171299063, -21.042773595824769 ], [ -50.336286871242059, -21.024518282792485 ], [ -50.323229873459859, -21.008390334945943 ], [ -50.314125046233869, -21.004723573234287 ], [ -50.301741059702124, -21.002962039666329 ], [ -50.299238351668578, -20.999544943244473 ], [ -50.285007004769398, -21.00394916702038 ], [ -50.279875769051444, -21.000513328727095 ], [ -50.271556763134072, -21.004223719249183 ], [ -50.266780294674838, -21.001659178328396 ], [ -50.247777359037855, -21.007915125982208 ], [ -50.240932440879419, -20.996725101881907 ], [ -50.2350508764967, -20.991648392958947 ], [ -50.233085129375183, -20.980281768089071 ], [ -50.220542480850781, -20.980118111261788 ], [ -50.205595743948379, -20.977716129995372 ], [ -50.196497172406566, -20.98589692000678 ], [ -50.179976776606907, -20.982384564695849 ] ] } }
]
}
