{
"type": "FeatureCollection",
"features": [
{ "type": "Feature", "properties": { "Name": "CAIABU", "Description": "CAIABU \/ SP" }, "geometry": { "type": "LineString", "coordinates": [ [ -51.154844169622663, -21.863409396526375 ], [ -51.151542674754573, -21.877555684647064 ], [ -51.159691430015414, -21.895687980315984 ], [ -51.164987160728849, -21.900911470288062 ], [ -51.163636934796664, -21.910908541895651 ], [ -51.168231932657534, -21.929549871829067 ], [ -51.185148125485568, -21.956059972889417 ], [ -51.174777260562109, -21.981781006088507 ], [ -51.172259155235793, -21.994340116702972 ], [ -51.173851945410888, -22.004571658655095 ], [ -51.178931899087843, -22.003563649942464 ], [ -51.190838399572435, -22.011300328647224 ], [ -51.196234995548537, -22.022455869143013 ], [ -51.196544552089392, -22.032117694176176 ], [ -51.201695250035698, -22.036224577801985 ], [ -51.204481125803284, -22.057339329346519 ], [ -51.20778695000768, -22.068249647203402 ], [ -51.227712372428016, -22.071424340360977 ], [ -51.265097189883363, -22.06745154924954 ], [ -51.270385388774628, -22.063745553714284 ], [ -51.274631540513155, -22.052550543772554 ], [ -51.286926989688766, -22.048037867153823 ], [ -51.288655655733862, -22.044626788095741 ], [ -51.28597409772641, -22.039484978149176 ], [ -51.291159599435893, -22.02554221829871 ], [ -51.287688434873303, -22.013640017472767 ], [ -51.283841483197875, -22.0139864767944 ], [ -51.279210831714458, -22.000645496492439 ], [ -51.288812509189874, -21.990751119368607 ], [ -51.288797853837821, -21.983676335394534 ], [ -51.277506393405304, -21.9733695453682 ], [ -51.277092778109193, -21.962946560235537 ], [ -51.272179840227409, -21.950245859458789 ], [ -51.273192730460089, -21.939785351912406 ], [ -51.266486229655747, -21.931597830475425 ], [ -51.275015479980368, -21.924448893801355 ], [ -51.269087309131969, -21.916651080982547 ], [ -51.272722153904226, -21.913349449417524 ], [ -51.265646021846408, -21.902679043702847 ], [ -51.258669710938364, -21.90235719253036 ], [ -51.264813704688663, -21.885706058687617 ], [ -51.262938321446313, -21.880123528777801 ], [ -51.255130952431443, -21.877838934219366 ], [ -51.256952364659867, -21.868962048259903 ], [ -51.251646641579214, -21.859056099559321 ], [ -51.240566512834278, -21.844036025642026 ], [ -51.225792604944729, -21.835807507710285 ], [ -51.224034965441255, -21.828824405122134 ], [ -51.210535372609343, -21.833313817178862 ], [ -51.202722033894702, -21.823433786040368 ], [ -51.182476897091071, -21.833348263911205 ], [ -51.174767096424318, -21.843200675071046 ], [ -51.166402208894795, -21.861035830239302 ], [ -51.154844169622663, -21.863409396526375 ] ] } }
]
}
