{
"type": "FeatureCollection",
"features": [
{ "type": "Feature", "properties": { "Name": "CAPÃO BONITO", "Description": "CAPÃO BONITO \/ SP" }, "geometry": { "type": "LineString", "coordinates": [ [ -48.20746193472047, -23.849510682372056 ], [ -48.195114386919386, -23.851618297546334 ], [ -48.188427415792546, -23.856715246611316 ], [ -48.182109807921272, -23.869933312971966 ], [ -48.188459874123843, -23.876726907720581 ], [ -48.180258910520251, -23.895655608819251 ], [ -48.172365367567636, -23.890703608884394 ], [ -48.168537338527294, -23.89815373390763 ], [ -48.166205931558466, -23.913542760989568 ], [ -48.16688920587211, -23.922245553489461 ], [ -48.161691805232579, -23.926475610061289 ], [ -48.154774908035563, -23.938226681616015 ], [ -48.139885135090879, -23.947486327132253 ], [ -48.13904357739915, -23.95221193713115 ], [ -48.129865307038237, -23.955208649059841 ], [ -48.121191277555397, -23.96775067165612 ], [ -48.126627354668642, -23.979363273696094 ], [ -48.121482210935255, -23.984126019400204 ], [ -48.120269422096101, -23.99174766941934 ], [ -48.126011838875229, -24.00029432522291 ], [ -48.125138502739674, -24.01427894671599 ], [ -48.104574688471075, -24.010438940504628 ], [ -48.100076764331163, -24.016720678916158 ], [ -48.093649271896311, -24.010914235803284 ], [ -48.085090980664177, -24.007737252072502 ], [ -48.077192607452844, -24.014975986052889 ], [ -48.063621874649748, -24.013664942682908 ], [ -48.057433459786296, -24.01698312627019 ], [ -48.055094548874308, -24.024134602629772 ], [ -48.049293707638469, -24.0242854405206 ], [ -48.039567451576602, -24.030639604933754 ], [ -48.027439696284887, -24.049620656468051 ], [ -48.02192639079027, -24.048385316229314 ], [ -48.01262893417794, -24.06048146125039 ], [ -48.002273558278034, -24.06633037754483 ], [ -47.997672347001185, -24.073940730280412 ], [ -47.986924709307857, -24.071998345747033 ], [ -47.980350607594403, -24.075452298184985 ], [ -47.971019758255181, -24.090026360528043 ], [ -47.971701212341024, -24.099704923743218 ], [ -47.964509155872804, -24.103213692557802 ], [ -47.961526175692427, -24.109279540618274 ], [ -47.953412288046593, -24.111960719111835 ], [ -47.953127777624786, -24.119831784409257 ], [ -47.95682064935346, -24.115766766922714 ], [ -47.981161111695883, -24.113485443198613 ], [ -47.990401058462055, -24.122583987760777 ], [ -47.997158479779948, -24.125738868853656 ], [ -48.008753814836666, -24.135402904420459 ], [ -48.01330978122138, -24.129550232557165 ], [ -48.024157517955075, -24.13468897671487 ], [ -48.049354696062323, -24.137623099426431 ], [ -48.056646230139393, -24.14597099786323 ], [ -48.050585780709177, -24.156294462219591 ], [ -48.060139136711761, -24.159134627361141 ], [ -48.058149512589864, -24.177185522693662 ], [ -48.075970376631517, -24.190539380388032 ], [ -48.09296517560233, -24.195686526911629 ], [ -48.094879682950989, -24.201327473184275 ], [ -48.106293948506902, -24.20148249472129 ], [ -48.139523430461907, -24.194375873847434 ], [ -48.143473164754703, -24.200365294822461 ], [ -48.138514520628576, -24.209237119397471 ], [ -48.145749354249233, -24.21230694890653 ], [ -48.144333327620927, -24.22223494448707 ], [ -48.148224694114276, -24.229342309100215 ], [ -48.154581598761752, -24.2297277459387 ], [ -48.17111255440085, -24.245040114809399 ], [ -48.181043926036295, -24.247710431291349 ], [ -48.197388674347792, -24.255337830676297 ], [ -48.204944245780268, -24.263289903306372 ], [ -48.220144678733902, -24.264207219887226 ], [ -48.241375303427439, -24.263122758008816 ], [ -48.253083198530753, -24.258194778066525 ], [ -48.263611073392262, -24.273587294517995 ], [ -48.280967076968977, -24.281912687420512 ], [ -48.292664918551111, -24.275432663786376 ], [ -48.283841548548587, -24.260809129737478 ], [ -48.286577423809035, -24.254195942588638 ], [ -48.278443104465673, -24.25012368106297 ], [ -48.283310626584125, -24.241572935142813 ], [ -48.27824787693794, -24.23472900893654 ], [ -48.284488074764795, -24.217421780091058 ], [ -48.292383716735117, -24.214497112851404 ], [ -48.289100299139477, -24.208385036939831 ], [ -48.295225082471511, -24.201572256954023 ], [ -48.288452627186928, -24.196581727364784 ], [ -48.302839090051918, -24.180113416700749 ], [ -48.293135566153403, -24.171160880670072 ], [ -48.288998101081454, -24.163940896654992 ], [ -48.301663750781408, -24.157160765656783 ], [ -48.306402119462177, -24.148555132313447 ], [ -48.302034434241705, -24.140881505976665 ], [ -48.306128534903905, -24.13541129239718 ], [ -48.315295741805016, -24.114283106779908 ], [ -48.311859792895063, -24.111111393076271 ], [ -48.310795183550852, -24.099172793989226 ], [ -48.313306005267862, -24.084017381996546 ], [ -48.306273279887925, -24.076318290456697 ], [ -48.300742871086584, -24.060807210084647 ], [ -48.308368327036646, -24.052065997647613 ], [ -48.317858599194942, -24.058109966101995 ], [ -48.32873615564904, -24.059893303732963 ], [ -48.343646702033652, -24.066171982650815 ], [ -48.350862232605891, -24.072863928827189 ], [ -48.357539863373972, -24.069897644560626 ], [ -48.365010548697796, -24.071776585520976 ], [ -48.368521797842675, -24.067240129028676 ], [ -48.377276258192694, -24.065731349921801 ], [ -48.398060647380923, -24.067383770544552 ], [ -48.413342325987514, -24.074247645512401 ], [ -48.409057401777602, -24.077597076044185 ], [ -48.407436609411938, -24.086278633751874 ], [ -48.41062061774727, -24.090801854921608 ], [ -48.411180966428383, -24.108049747397899 ], [ -48.419896011291819, -24.120109317890634 ], [ -48.42381674514661, -24.137891913081262 ], [ -48.421868006902969, -24.147125110435468 ], [ -48.42910116148937, -24.156438785421585 ], [ -48.423648853411805, -24.162039888130266 ], [ -48.42481823737171, -24.170283249372403 ], [ -48.420945923015893, -24.180195064350698 ], [ -48.427137902791912, -24.183006417911827 ], [ -48.435888727182999, -24.174119649302327 ], [ -48.450201675866595, -24.171564022461606 ], [ -48.460648011896176, -24.175139410355484 ], [ -48.47513401622183, -24.169385291597901 ], [ -48.474597763076247, -24.160018941520889 ], [ -48.481766601747211, -24.152780961172368 ], [ -48.490297537401375, -24.149406902706346 ], [ -48.506163680009763, -24.138292104197205 ], [ -48.520654897705292, -24.139536605829672 ], [ -48.527846718551181, -24.134270675051596 ], [ -48.530337078893012, -24.121449418355951 ], [ -48.541890340067084, -24.119166353544358 ], [ -48.547433574100125, -24.114791036676934 ], [ -48.546230934110262, -24.108505923109814 ], [ -48.569352301567449, -24.090608164335265 ], [ -48.568930098645069, -24.084041078233156 ], [ -48.575339892422051, -24.076066569316648 ], [ -48.57343937492714, -24.057622870798809 ], [ -48.580723589422064, -24.056758515293211 ], [ -48.582611179162541, -24.050110847237761 ], [ -48.577703150679838, -24.042643730423777 ], [ -48.570608495285796, -24.048154099631972 ], [ -48.568823647693137, -24.027321996912576 ], [ -48.556934850363007, -24.02519031228303 ], [ -48.549858643661423, -24.003650745285594 ], [ -48.552481312262728, -23.995484976650289 ], [ -48.562219753238985, -23.994738489889357 ], [ -48.565517089641958, -23.984840020850243 ], [ -48.581861729135426, -23.982904828195217 ], [ -48.585486374696416, -23.977606207960093 ], [ -48.576446929981785, -23.969843760980723 ], [ -48.571964819520758, -23.959526769045112 ], [ -48.560946427435624, -23.959587274533018 ], [ -48.562331351010982, -23.945685834033952 ], [ -48.551537464782143, -23.941190114132436 ], [ -48.551657717629496, -23.934691845052555 ], [ -48.475233079243196, -23.890370035948365 ], [ -48.464779581012806, -23.88851595224935 ], [ -48.452677250454705, -23.893029074931803 ], [ -48.431380639804615, -23.892498192537516 ], [ -48.417035781376171, -23.875441007596351 ], [ -48.408942487305922, -23.872032557256656 ], [ -48.392397166795774, -23.860945621543181 ], [ -48.379463975981643, -23.857347599512082 ], [ -48.372326362671458, -23.84997563816512 ], [ -48.35564453047067, -23.841748760596772 ], [ -48.349061225095397, -23.831138571687688 ], [ -48.344349966477751, -23.83103030770252 ], [ -48.33151697542803, -23.840567556847247 ], [ -48.339864150809888, -23.846926960710618 ], [ -48.33848035228641, -23.854378843908478 ], [ -48.329785640195098, -23.850414692583968 ], [ -48.324875312145878, -23.854936490126875 ], [ -48.315544261358525, -23.844686836728101 ], [ -48.318667170653377, -23.835678528341361 ], [ -48.294598794598635, -23.826370900396682 ], [ -48.276817839771468, -23.840381756912503 ], [ -48.277657726522818, -23.845892888745766 ], [ -48.270974168323164, -23.851821926540651 ], [ -48.264467097578454, -23.851158669337053 ], [ -48.254186443649417, -23.855647716269061 ], [ -48.253216210959351, -23.859965880321056 ], [ -48.240304642545198, -23.861384838739298 ], [ -48.237202755802514, -23.852329696358368 ], [ -48.229177726570811, -23.849501980531954 ], [ -48.216807536538511, -23.852767654503623 ], [ -48.20746193472047, -23.849510682372056 ] ] } }
]
}
