{
"type": "FeatureCollection",
"features": [
{ "type": "Feature", "properties": { "Name": "CAPELA DO ALTO", "Description": "CAPELA DO ALTO \/ SP" }, "geometry": { "type": "LineString", "coordinates": [ [ -47.725632142309451, -23.385536816770639 ], [ -47.70765439513417, -23.391154391461953 ], [ -47.702144802040948, -23.39779172091113 ], [ -47.687731583445782, -23.401413954490351 ], [ -47.683522070986726, -23.41585623018085 ], [ -47.677335125615514, -23.424687773222104 ], [ -47.668566906537478, -23.429592441837656 ], [ -47.654811577092573, -23.43271324761821 ], [ -47.650854009704744, -23.445239904398022 ], [ -47.654723449827308, -23.452877392377729 ], [ -47.650662769770975, -23.458592413109329 ], [ -47.651636729251607, -23.466669252284131 ], [ -47.675380718945007, -23.476457535486816 ], [ -47.679919948946463, -23.481910806738309 ], [ -47.696965455291483, -23.493674065905395 ], [ -47.708722464170364, -23.518261934440659 ], [ -47.714937177908382, -23.521165371384711 ], [ -47.717513932521904, -23.534224814423624 ], [ -47.737400498833892, -23.545119461593856 ], [ -47.738783708301469, -23.550789755442793 ], [ -47.745656955104373, -23.556196178310927 ], [ -47.760511554664447, -23.560791990957568 ], [ -47.767897209988234, -23.552691244205505 ], [ -47.768289007731482, -23.547084599874324 ], [ -47.779851620056206, -23.532138714629923 ], [ -47.781745446595039, -23.519024155740169 ], [ -47.793199016121662, -23.517771383042827 ], [ -47.787277963407234, -23.505208709314442 ], [ -47.795266034999486, -23.495240340469309 ], [ -47.807214331476189, -23.488696195173244 ], [ -47.801925711702211, -23.482124234745584 ], [ -47.803243311129847, -23.473417057151437 ], [ -47.785850708743169, -23.476813431394703 ], [ -47.788866657170445, -23.468449097847554 ], [ -47.783289187745766, -23.448000974165552 ], [ -47.775552702395252, -23.44883064731647 ], [ -47.760007805715645, -23.441101213550098 ], [ -47.764665632013248, -23.432861264335827 ], [ -47.77627771964103, -23.429993374894309 ], [ -47.767209528097226, -23.423802396963026 ], [ -47.763883644514522, -23.410022028593684 ], [ -47.758406025018019, -23.399421414766433 ], [ -47.75186241751652, -23.399618863619594 ], [ -47.742114392465218, -23.387514407064202 ], [ -47.73692820996888, -23.390080939983363 ], [ -47.725632142309451, -23.385536816770639 ] ] } }
]
}
