{
"type": "FeatureCollection",
"features": [
{ "type": "Feature", "properties": { "Name": "CESÃRIO LANGE", "Description": "CESÃRIO LANGE \/ SP" }, "geometry": { "type": "LineString", "coordinates": [ [ -47.817140541902461, -23.152644368742585 ], [ -47.806798046092915, -23.163527308538388 ], [ -47.804467248864398, -23.168850810316595 ], [ -47.814907474000677, -23.171276530987086 ], [ -47.818237089769802, -23.177908825132135 ], [ -47.807330061633024, -23.18705711029736 ], [ -47.819098720329634, -23.192589864530589 ], [ -47.818601626363943, -23.199124727923788 ], [ -47.827326992746464, -23.203341028465672 ], [ -47.819594246777001, -23.211997879998137 ], [ -47.805058339071024, -23.216639120099273 ], [ -47.814574379503995, -23.228279707242674 ], [ -47.81936747103191, -23.233394845095972 ], [ -47.814654444347063, -23.239993841842303 ], [ -47.821646752395679, -23.244638491273292 ], [ -47.82579812818102, -23.252119790395966 ], [ -47.840396043242777, -23.247797975096432 ], [ -47.840108395086304, -23.238633119922497 ], [ -47.851001960372116, -23.238279983134646 ], [ -47.858904301392322, -23.250834480227013 ], [ -47.871260880185446, -23.255600621771233 ], [ -47.875471694862767, -23.262020379137141 ], [ -47.883568345202946, -23.261178904183055 ], [ -47.891771952813315, -23.266164845431206 ], [ -47.895939166559224, -23.263149229753083 ], [ -47.907261019580346, -23.267195711312979 ], [ -47.909972210249236, -23.272613298365002 ], [ -47.919964265438466, -23.274376237573279 ], [ -47.931636614837885, -23.279408524483756 ], [ -47.944512436999332, -23.274764464108667 ], [ -47.949954885809291, -23.27933617852176 ], [ -47.976038190210261, -23.275976371612217 ], [ -47.989907724561817, -23.28275678319892 ], [ -47.988812383584616, -23.271542892890125 ], [ -47.983302068335718, -23.255740383611794 ], [ -47.986493032927058, -23.243347007258535 ], [ -47.999715281135252, -23.246070544719828 ], [ -48.007043059689408, -23.240016304209007 ], [ -48.00900172375048, -23.223559700020076 ], [ -47.995579726223355, -23.223452757138997 ], [ -47.981318995774984, -23.21875215638687 ], [ -47.972399590768475, -23.207455033822725 ], [ -47.977935740841701, -23.202753961825806 ], [ -47.980140734607176, -23.191542794664201 ], [ -47.975675124007751, -23.187538023660803 ], [ -47.962716702713635, -23.183012065854086 ], [ -47.949469454251869, -23.182196190102047 ], [ -47.945470025221425, -23.17819692115097 ], [ -47.948695822354296, -23.169337320161159 ], [ -47.940461245689903, -23.163222277386126 ], [ -47.927007047936847, -23.157563289813936 ], [ -47.923114727262828, -23.162190823347771 ], [ -47.90996389961424, -23.160912529689423 ], [ -47.901351685931495, -23.160079361773057 ], [ -47.882918082303597, -23.162901086316026 ], [ -47.876066894071869, -23.160081762962932 ], [ -47.865005319240019, -23.169767705115476 ], [ -47.844459210823857, -23.174585092727796 ], [ -47.839051951586271, -23.173979732978239 ], [ -47.836555622443996, -23.154336033980712 ], [ -47.827892519723946, -23.150287758273407 ], [ -47.817140541902461, -23.152644368742585 ] ] } }
]
}
