{
"type": "FeatureCollection",
"features": [
{ "type": "Feature", "properties": { "Name": "CHAVANTES", "Description": "CHAVANTES \/ SP" }, "geometry": { "type": "LineString", "coordinates": [ [ -49.677289838954835, -23.008748031796184 ], [ -49.672514340864097, -23.020423344461733 ], [ -49.67726914465527, -23.034821565962428 ], [ -49.680441262154488, -23.03806488908333 ], [ -49.671452736154833, -23.048634825236945 ], [ -49.672304868075173, -23.053758794432778 ], [ -49.681848304555558, -23.054216524173228 ], [ -49.682837539021186, -23.068232717266028 ], [ -49.677248044761427, -23.079330973645483 ], [ -49.678811247241242, -23.08454611161369 ], [ -49.675350177568589, -23.096931182727868 ], [ -49.67167178762287, -23.099298933099249 ], [ -49.665464966335094, -23.113115241974807 ], [ -49.672887813122031, -23.120067468139098 ], [ -49.682979771299358, -23.115653573053919 ], [ -49.694907715218847, -23.135054444307116 ], [ -49.716493242069411, -23.148393258142278 ], [ -49.728130161777528, -23.143093801537642 ], [ -49.734905116278071, -23.132889286910995 ], [ -49.730046942612262, -23.126057468277509 ], [ -49.725550952014771, -23.10943814525416 ], [ -49.735331604469934, -23.104561568761369 ], [ -49.74023931369333, -23.099168334451008 ], [ -49.751381968702844, -23.097757410575976 ], [ -49.762948186409631, -23.105575955465952 ], [ -49.778673062611681, -23.101296324665611 ], [ -49.789179060565168, -23.103345549557446 ], [ -49.799465362236617, -23.093395788584758 ], [ -49.806603497153617, -23.094334107033376 ], [ -49.813906592914861, -23.078626826067136 ], [ -49.819389905119976, -23.076953812768178 ], [ -49.811157873537013, -23.072314428867742 ], [ -49.808019019262304, -23.06057585429221 ], [ -49.803405405435058, -23.059386070110975 ], [ -49.794166078301828, -23.04997995830837 ], [ -49.79337068101205, -23.042497256243337 ], [ -49.769596018141669, -23.033319482308229 ], [ -49.748013182961984, -23.032031958008417 ], [ -49.748960653811082, -23.024863606769998 ], [ -49.75712197709754, -23.016265187788122 ], [ -49.757296720766988, -22.99657202607807 ], [ -49.746985968327742, -22.991648387163309 ], [ -49.750811673519877, -22.97584459545169 ], [ -49.757150136669452, -22.970551181391841 ], [ -49.755368677722231, -22.962536418820605 ], [ -49.744526203821181, -22.965925551722762 ], [ -49.74310459689957, -22.958404464794167 ], [ -49.731770526588491, -22.958768666840456 ], [ -49.725490040932584, -22.954590554210654 ], [ -49.734495453502348, -22.946849887012604 ], [ -49.727517330460387, -22.941643824103153 ], [ -49.704137083259752, -22.953698022945332 ], [ -49.700387533557773, -22.943168844966181 ], [ -49.693522316801413, -22.934880297287858 ], [ -49.682120087771807, -22.938267068570326 ], [ -49.680633887943536, -22.943308774979922 ], [ -49.686444060544943, -22.949410200220541 ], [ -49.684237951620105, -22.96351412937355 ], [ -49.685436111187521, -22.974937178607888 ], [ -49.6785064328256, -22.980985171528403 ], [ -49.680170893571812, -22.98776881887585 ], [ -49.677404689574693, -22.995261238115575 ], [ -49.677289838954835, -23.008748031796184 ] ] } }
]
}
