{
"type": "FeatureCollection",
"features": [
{ "type": "Feature", "properties": { "Name": "COROADOS", "Description": "COROADOS \/ SP" }, "geometry": { "type": "LineString", "coordinates": [ [ -50.206277105404062, -21.258414450666294 ], [ -50.209076006052776, -21.267319489003171 ], [ -50.205217793965971, -21.281549218021951 ], [ -50.214491446423096, -21.287910840512836 ], [ -50.21665475751098, -21.29264378897966 ], [ -50.227996540407958, -21.298696830694155 ], [ -50.231027958073746, -21.30886755689221 ], [ -50.241081477428217, -21.311817114668088 ], [ -50.238937511656786, -21.325531497980194 ], [ -50.248449468268291, -21.361865398269458 ], [ -50.243706861082728, -21.371478417994524 ], [ -50.24575620828233, -21.380476590122498 ], [ -50.25427256682547, -21.389243929663564 ], [ -50.25355795833309, -21.400621450719314 ], [ -50.256929861124149, -21.40704127013845 ], [ -50.266144411935045, -21.414342264184082 ], [ -50.271348562885805, -21.424850600374839 ], [ -50.282357713537628, -21.431307979979238 ], [ -50.29962572204937, -21.4570412034887 ], [ -50.304867606754613, -21.471807945580167 ], [ -50.312206342648551, -21.476488484256095 ], [ -50.322283755191108, -21.477447753311139 ], [ -50.342663928797208, -21.495066144886607 ], [ -50.353839374887173, -21.494321629439582 ], [ -50.3684509749325, -21.490590184889072 ], [ -50.375493461553958, -21.495263675578144 ], [ -50.384533668893653, -21.48971188089854 ], [ -50.388395512442905, -21.489404762419781 ], [ -50.398738342800236, -21.501580591870777 ], [ -50.418790205403639, -21.512091036971754 ], [ -50.425248742435485, -21.503333299492112 ], [ -50.440799089906022, -21.49101796630606 ], [ -50.440778930703061, -21.488357021659169 ], [ -50.442736815051944, -21.478699015147413 ], [ -50.441863375494329, -21.468021235891285 ], [ -50.434457246204886, -21.462590535824518 ], [ -50.422534156825861, -21.445668212318083 ], [ -50.419010640029001, -21.465459077274545 ], [ -50.413367406780367, -21.468112447831174 ], [ -50.403366852997806, -21.464700081843258 ], [ -50.381168616238597, -21.451981537617826 ], [ -50.377928989331338, -21.44492150162597 ], [ -50.367318508142603, -21.452073329620415 ], [ -50.353893958339484, -21.450380437706997 ], [ -50.343192244526449, -21.453699517019061 ], [ -50.343611791750732, -21.442922221483286 ], [ -50.347655137374659, -21.43420150999162 ], [ -50.346185416723586, -21.402092281133832 ], [ -50.333092414583234, -21.38015294210453 ], [ -50.330882059959038, -21.368275634512884 ], [ -50.31962206230827, -21.361366440908455 ], [ -50.313496826617204, -21.354137056280081 ], [ -50.31612571492974, -21.344076585166249 ], [ -50.315588839453312, -21.326010021844979 ], [ -50.31074365739385, -21.322832601043672 ], [ -50.312195303470446, -21.299229385827459 ], [ -50.300764788064491, -21.2860876026607 ], [ -50.300172677127307, -21.280190154452043 ], [ -50.292077380266846, -21.275383323081822 ], [ -50.288376478491671, -21.261721180488053 ], [ -50.268818921056322, -21.260402194305755 ], [ -50.262754726849089, -21.248984192966077 ], [ -50.257148570849836, -21.245626680227076 ], [ -50.261997105581941, -21.224768252552789 ], [ -50.251705199335447, -21.221661129957113 ], [ -50.248667955861436, -21.213189132272586 ], [ -50.244511324438008, -21.223383450385882 ], [ -50.238657571589613, -21.228377412687394 ], [ -50.234967297103026, -21.240151748804124 ], [ -50.223900329036894, -21.24410323857353 ], [ -50.206277105404062, -21.258414450666294 ] ] } }
]
}
