{
"type": "FeatureCollection",
"features": [
{ "type": "Feature", "properties": { "Name": "CORUMBATAÃ", "Description": "CORUMBATAÃ \/ SP" }, "geometry": { "type": "LineString", "coordinates": [ [ -47.550338939390485, -22.150800676909682 ], [ -47.54441222634312, -22.156627332285495 ], [ -47.543064261306597, -22.171386523669067 ], [ -47.527128483292813, -22.175605622901116 ], [ -47.512008833740644, -22.163101086745712 ], [ -47.497419673579031, -22.160242263369692 ], [ -47.491293295748953, -22.161655740420031 ], [ -47.49045598285727, -22.187553085706266 ], [ -47.48373827380226, -22.204401685489358 ], [ -47.485129079843084, -22.215002011533556 ], [ -47.477828998609368, -22.223048255772365 ], [ -47.474144449206904, -22.240408781140275 ], [ -47.469779551884756, -22.245362511370786 ], [ -47.554255414056058, -22.243679422067657 ], [ -47.594202471966469, -22.249310685339822 ], [ -47.594635016193024, -22.278478876598854 ], [ -47.601901796430695, -22.2887173145524 ], [ -47.613785553060779, -22.29643576669724 ], [ -47.618582283245757, -22.30337015570808 ], [ -47.634052832971804, -22.335203897941483 ], [ -47.671807787999001, -22.334800955799437 ], [ -47.678752029982149, -22.323879981875621 ], [ -47.68679717435009, -22.324260338443821 ], [ -47.697155524307959, -22.31627859178354 ], [ -47.703277776048473, -22.306021989323312 ], [ -47.713663643462326, -22.301909911213382 ], [ -47.72245731964955, -22.281172587145136 ], [ -47.723231691689193, -22.27266722461269 ], [ -47.716771136578643, -22.265079410686209 ], [ -47.710616004724784, -22.252620699485647 ], [ -47.713178854020839, -22.240091623529562 ], [ -47.713953626258785, -22.22872214780881 ], [ -47.707080416328097, -22.210729518652329 ], [ -47.701231501832297, -22.20991808824914 ], [ -47.69494456354073, -22.20158070108846 ], [ -47.68283756010527, -22.201178374981964 ], [ -47.67452614896257, -22.19349332455721 ], [ -47.658919019197349, -22.189514938763352 ], [ -47.642366034664747, -22.191838911036882 ], [ -47.636426914570393, -22.187143230475669 ], [ -47.618172642953084, -22.184581408205361 ], [ -47.599315488319064, -22.179069539827367 ], [ -47.596755134641683, -22.162383128278691 ], [ -47.590396164251558, -22.152506805944309 ], [ -47.58289052227974, -22.14980555188464 ], [ -47.575906908876675, -22.15613703269787 ], [ -47.552601752368957, -22.154681588784225 ], [ -47.550338939390485, -22.150800676909682 ] ] } }
]
}
