{
"type": "FeatureCollection",
"features": [
{ "type": "Feature", "properties": { "Name": "COSMÃPOLIS", "Description": "COSMÃPOLIS \/ SP" }, "geometry": { "type": "LineString", "coordinates": [ [ -47.097420507150616, -22.635304063831423 ], [ -47.092353347229164, -22.640116342395231 ], [ -47.106126917623101, -22.653652079879521 ], [ -47.114463747204127, -22.653465843773628 ], [ -47.114913605178685, -22.661242125923309 ], [ -47.108719074025998, -22.665196286679247 ], [ -47.102537535378922, -22.682569443025329 ], [ -47.103458420469678, -22.690119600539106 ], [ -47.110263149724517, -22.690031061384332 ], [ -47.117788511130868, -22.681925676828481 ], [ -47.127577660380659, -22.685627682971131 ], [ -47.122201874716716, -22.694024040477018 ], [ -47.134089172876998, -22.694133635458854 ], [ -47.13842664267537, -22.683965630609293 ], [ -47.152849305051348, -22.698487375791728 ], [ -47.158364923602278, -22.699381500655704 ], [ -47.16913253703688, -22.695395918486781 ], [ -47.179355881668585, -22.715025564678001 ], [ -47.189035295642327, -22.720125298044024 ], [ -47.182208840565522, -22.726333051928748 ], [ -47.184464462564847, -22.734529955093308 ], [ -47.194211242954452, -22.729787377585353 ], [ -47.194102547294676, -22.720571718809708 ], [ -47.198781812530569, -22.710756362416134 ], [ -47.202911368065145, -22.708964030665413 ], [ -47.204258957185061, -22.698270706627738 ], [ -47.212953496606531, -22.692262430466769 ], [ -47.21884171417372, -22.691710051577559 ], [ -47.2395007243789, -22.680423119231531 ], [ -47.254947703773496, -22.68834542969779 ], [ -47.254982490449549, -22.674357220809043 ], [ -47.257516905880429, -22.671107032263706 ], [ -47.27017964177702, -22.670271744645273 ], [ -47.279055115800929, -22.663484720343547 ], [ -47.26579865558346, -22.651726879591759 ], [ -47.267270024691868, -22.645149279515579 ], [ -47.260853394268679, -22.639342882268181 ], [ -47.253765789559509, -22.624867203958274 ], [ -47.233324480040665, -22.611847632362299 ], [ -47.227280756201878, -22.602765548990874 ], [ -47.243085151358628, -22.585580888746961 ], [ -47.232896407243345, -22.581942761449227 ], [ -47.226958806103994, -22.569961197251416 ], [ -47.222283880996258, -22.573368450593478 ], [ -47.220902622158235, -22.582935964623005 ], [ -47.21136326590198, -22.602102281894759 ], [ -47.200966124586955, -22.606526706242448 ], [ -47.169338428725432, -22.604420398682407 ], [ -47.128056921689563, -22.613304132979295 ], [ -47.120324482388916, -22.620618582681402 ], [ -47.121357520133415, -22.625977793840093 ], [ -47.112337597002458, -22.638771042049878 ], [ -47.097420507150616, -22.635304063831423 ] ] } }
]
}
