{
"type": "FeatureCollection",
"features": [
{ "type": "Feature", "properties": { "Name": "ECHAPORÃ", "Description": "ECHAPORÃ \/ SP" }, "geometry": { "type": "LineString", "coordinates": [ [ -50.149943123676159, -22.260527893247627 ], [ -50.144840394668449, -22.275060850277953 ], [ -50.126032780088678, -22.286887399234043 ], [ -50.130899477528828, -22.291020740914401 ], [ -50.127512958955833, -22.298114951144044 ], [ -50.13208844332695, -22.317853285800478 ], [ -50.143674273448937, -22.32561559968013 ], [ -50.137743892066908, -22.337828681748192 ], [ -50.115062093440827, -22.347365947080732 ], [ -50.099532064353241, -22.363747606266998 ], [ -50.111563829607007, -22.369895173923112 ], [ -50.116537684866216, -22.377412683348609 ], [ -50.115688640318467, -22.389016313751824 ], [ -50.124633041981262, -22.402012149541005 ], [ -50.129350053562057, -22.41695234657351 ], [ -50.123484096913501, -22.422245784015672 ], [ -50.11466885588294, -22.416057909644788 ], [ -50.107190592871511, -22.415462640288581 ], [ -50.101581521270134, -22.427212927634457 ], [ -50.100923431571061, -22.436566065771274 ], [ -50.091438800859919, -22.449431308308192 ], [ -50.081577629404023, -22.456648408197452 ], [ -50.075913965357188, -22.468523114949733 ], [ -50.069242693695344, -22.492992610220767 ], [ -50.087906963535488, -22.490533929397259 ], [ -50.099892441582881, -22.506004222816557 ], [ -50.104326763869032, -22.517818929499924 ], [ -50.109645698889835, -22.518081623268245 ], [ -50.119729004689759, -22.509682059679278 ], [ -50.124663443563009, -22.511692141579033 ], [ -50.123374769929626, -22.523612396294993 ], [ -50.125205354343564, -22.538208637718412 ], [ -50.119241191727554, -22.559327674532483 ], [ -50.138773823553095, -22.573941040846307 ], [ -50.151418077482276, -22.586349409797378 ], [ -50.16920828543396, -22.592565768395446 ], [ -50.169554011808138, -22.579682419807792 ], [ -50.174419362063873, -22.564865425399034 ], [ -50.182028668887938, -22.554825590128814 ], [ -50.18611999424229, -22.544011177773598 ], [ -50.20076144908154, -22.543625440561584 ], [ -50.224392593643245, -22.526906212751499 ], [ -50.233410873712785, -22.525913418769221 ], [ -50.234737111128709, -22.533401957434364 ], [ -50.252082723039223, -22.553830313118397 ], [ -50.264350218587651, -22.562668519236748 ], [ -50.276249497516233, -22.556823497906066 ], [ -50.297944467363209, -22.551317395981016 ], [ -50.301260569020023, -22.545748024951362 ], [ -50.313639801735405, -22.547515024598681 ], [ -50.320054620024671, -22.542960133803092 ], [ -50.321407386541637, -22.534342676173534 ], [ -50.328463406161234, -22.52628256528811 ], [ -50.331243874305301, -22.516035557694806 ], [ -50.33099951051895, -22.506444681077141 ], [ -50.344042909652501, -22.491721487756422 ], [ -50.349994334271052, -22.478972122865116 ], [ -50.3435252275072, -22.465085154256428 ], [ -50.335762412705144, -22.454682778887104 ], [ -50.335669559502549, -22.444445524441335 ], [ -50.319751582669369, -22.443574151525809 ], [ -50.304919754842786, -22.434960931501731 ], [ -50.299519978863884, -22.422443543134989 ], [ -50.283043618368247, -22.414840906582526 ], [ -50.275476771235958, -22.397647176675829 ], [ -50.270344712638348, -22.39611858190699 ], [ -50.254832862446619, -22.383872167366576 ], [ -50.248147763708289, -22.380472096909727 ], [ -50.236787654426671, -22.379346496443588 ], [ -50.234520064249523, -22.366420802378059 ], [ -50.228871295673741, -22.353635654361934 ], [ -50.219600906856328, -22.353235956973773 ], [ -50.215340544030823, -22.346555487046029 ], [ -50.209051643418547, -22.348567227295632 ], [ -50.199544420838322, -22.339877548709865 ], [ -50.1944086516379, -22.342160071230239 ], [ -50.192956134118276, -22.329864693101058 ], [ -50.174810678669871, -22.324912099613641 ], [ -50.169379719598339, -22.32002625830512 ], [ -50.17758749196912, -22.307040588452367 ], [ -50.173544935050643, -22.290205047724726 ], [ -50.182877111789253, -22.263389029679956 ], [ -50.177072114786192, -22.249158555123188 ], [ -50.172626837858218, -22.246138950052455 ], [ -50.16404004980842, -22.257196315157781 ], [ -50.152995635839886, -22.253014480234011 ], [ -50.149943123676159, -22.260527893247627 ] ] } }
]
}
