{
"type": "FeatureCollection",
"features": [
{ "type": "Feature", "properties": { "Name": "EMBU DAS ARTES", "Description": "EMBU DAS ARTES \/ SP" }, "geometry": { "type": "LineString", "coordinates": [ [ -46.792713000204742, -23.647191000264399 ], [ -46.791897000346239, -23.652147000383703 ], [ -46.795480000101861, -23.670265999576202 ], [ -46.801536359415422, -23.685368749068459 ], [ -46.819879000215614, -23.687296999856585 ], [ -46.8268099996817, -23.675787999716359 ], [ -46.845719000231611, -23.680810000181339 ], [ -46.849297999802786, -23.685266999772178 ], [ -46.861087445429234, -23.681912794739617 ], [ -46.871833000292661, -23.683057000380241 ], [ -46.887452000209578, -23.66784799958549 ], [ -46.901558999648046, -23.669275999787484 ], [ -46.903359999963975, -23.664815000012194 ], [ -46.914549999782594, -23.662159999884068 ], [ -46.918289000436971, -23.656815999858448 ], [ -46.909732999778093, -23.644235999791533 ], [ -46.90695800041135, -23.632777000158399 ], [ -46.887784000231363, -23.62446299986749 ], [ -46.879770000285241, -23.619307000417678 ], [ -46.86946800004813, -23.623949999592753 ], [ -46.858141000206956, -23.612403000398103 ], [ -46.854077999899744, -23.619770000185326 ], [ -46.836831999597052, -23.626406000436532 ], [ -46.82256199983641, -23.619054999588514 ], [ -46.818734999620517, -23.613442999794586 ], [ -46.810172999584211, -23.610109999876556 ], [ -46.810074113729343, -23.625279042893453 ], [ -46.819036000011351, -23.636306000121746 ], [ -46.792713000204742, -23.647191000264399 ] ] } }
]
}
