{
"type": "FeatureCollection",
"features": [
{ "type": "Feature", "properties": { "Name": "ENGENHEIRO COELHO", "Description": "ENGENHEIRO COELHO \/ SP" }, "geometry": { "type": "LineString", "coordinates": [ [ -47.188907573925349, -22.43267158132835 ], [ -47.181299751882023, -22.438334574480962 ], [ -47.172852033194715, -22.452143491828622 ], [ -47.162811593580159, -22.463868302280275 ], [ -47.153486659981354, -22.481723905333922 ], [ -47.146330138425121, -22.479482620326621 ], [ -47.136040035319354, -22.469887592438397 ], [ -47.129894215945285, -22.474884163673153 ], [ -47.120156836169031, -22.474661801800664 ], [ -47.110052634621354, -22.464693428458929 ], [ -47.099620917071604, -22.469779701671825 ], [ -47.094556295036966, -22.475187213618995 ], [ -47.08635420188488, -22.474234925101655 ], [ -47.082466838273945, -22.482876870371229 ], [ -47.090419513449717, -22.494807046408027 ], [ -47.095642090609942, -22.507909981560374 ], [ -47.105236801936819, -22.517740326055161 ], [ -47.124467356882974, -22.526430181807427 ], [ -47.140540988375847, -22.52636014260645 ], [ -47.16879681472119, -22.517116423184348 ], [ -47.173916525627128, -22.518953255188531 ], [ -47.188259946938956, -22.515603901099094 ], [ -47.188496793292359, -22.520318530375846 ], [ -47.200351958675924, -22.521682218259741 ], [ -47.214255839935049, -22.527025333352412 ], [ -47.236573805236901, -22.520592080759855 ], [ -47.236127334109142, -22.511194892030574 ], [ -47.247268566391199, -22.493634906026045 ], [ -47.243911902612183, -22.481555352597411 ], [ -47.252896683834877, -22.476862366405044 ], [ -47.246805722206261, -22.47069238764351 ], [ -47.237522406533799, -22.468268408060567 ], [ -47.22527624740087, -22.455060509434929 ], [ -47.221919589917093, -22.438695852831302 ], [ -47.211502698590607, -22.431161156462164 ], [ -47.197374453568152, -22.433975355478253 ], [ -47.188907573925349, -22.43267158132835 ] ] } }
]
}
