{
"type": "FeatureCollection",
"features": [
{ "type": "Feature", "properties": { "Name": "ESTIVA GERBI", "Description": "ESTIVA GERBI \/ SP" }, "geometry": { "type": "LineString", "coordinates": [ [ -46.897081614225101, -22.204884712259627 ], [ -46.899994902342826, -22.245745144123077 ], [ -46.906623957129852, -22.251042574555129 ], [ -46.913359255125499, -22.262829904976115 ], [ -46.925081502509272, -22.269943710533767 ], [ -46.956849288463843, -22.295611663947113 ], [ -46.969557102877957, -22.295384340514882 ], [ -46.974688894376925, -22.277424348654733 ], [ -46.973778597903902, -22.270944044432042 ], [ -46.977543292189118, -22.255720195830349 ], [ -46.978676437067861, -22.225005511495112 ], [ -46.983724184223661, -22.19992871034168 ], [ -46.974194129655295, -22.200269290795063 ], [ -46.958330155312346, -22.197823955910792 ], [ -46.952849781192405, -22.192445240255608 ], [ -46.954766991903114, -22.187042444353267 ], [ -46.945753283087519, -22.183568521569953 ], [ -46.927332375188932, -22.184816110575014 ], [ -46.915569315671341, -22.197908531753285 ], [ -46.915142035176757, -22.208998210399045 ], [ -46.910638590998133, -22.215794351128352 ], [ -46.897081614225101, -22.204884712259627 ] ] } }
]
}
