{
"type": "FeatureCollection",
"features": [
{ "type": "Feature", "properties": { "Name": "ESTRELA D'OESTE", "Description": "ESTRELA D'OESTE \/ SP" }, "geometry": { "type": "LineString", "coordinates": [ [ -50.339392000940052, -20.338469091175568 ], [ -50.353741748083166, -20.333347365788256 ], [ -50.364418520997901, -20.342819128100242 ], [ -50.374976518651351, -20.341026938442383 ], [ -50.389916877561795, -20.343660250520088 ], [ -50.3923738748544, -20.355036692389376 ], [ -50.40957833007581, -20.36824029495358 ], [ -50.420408101052992, -20.381234540741389 ], [ -50.426405087125033, -20.404981572841276 ], [ -50.430178628041233, -20.412345454678928 ], [ -50.443176028650782, -20.402906831485041 ], [ -50.448891099744401, -20.403036695387129 ], [ -50.456220466501293, -20.394404170515998 ], [ -50.468659664212112, -20.390465657963716 ], [ -50.47191090946086, -20.361758666928893 ], [ -50.47116176160597, -20.343348853966404 ], [ -50.465059155555537, -20.333450227545939 ], [ -50.467930973235809, -20.327079880731844 ], [ -50.468020151808503, -20.315315535183743 ], [ -50.479398259222251, -20.30468565831643 ], [ -50.48089692185539, -20.300074181278376 ], [ -50.476540625649307, -20.287593562592804 ], [ -50.4582794031719, -20.273759515489189 ], [ -50.458230650923781, -20.265328796686561 ], [ -50.462647376175426, -20.255827238935865 ], [ -50.465809679373137, -20.236926100259268 ], [ -50.461927792633503, -20.227767001645759 ], [ -50.454703984701098, -20.221896748036443 ], [ -50.451076758085883, -20.214375211446793 ], [ -50.45236492450163, -20.207377618981866 ], [ -50.466424080007236, -20.195608321766599 ], [ -50.464980635747679, -20.185620675054054 ], [ -50.460112798866533, -20.179393133386327 ], [ -50.4598701374968, -20.168619648278082 ], [ -50.450660906175813, -20.158887170706294 ], [ -50.436140174529385, -20.155381544122918 ], [ -50.414187557010109, -20.144324395754207 ], [ -50.406109637749523, -20.132315892364488 ], [ -50.394791357734903, -20.110078181662686 ], [ -50.393950997940181, -20.103596946641744 ], [ -50.388964622319406, -20.106031342172685 ], [ -50.383630826901083, -20.115951581100546 ], [ -50.378183052305985, -20.136959113672106 ], [ -50.374017364709573, -20.142526737319031 ], [ -50.376018755561063, -20.153129187561888 ], [ -50.372423868566614, -20.161458334234677 ], [ -50.372766131651588, -20.170855097584649 ], [ -50.363383813212344, -20.185581839630174 ], [ -50.359544085790901, -20.201727569771492 ], [ -50.358018817614315, -20.217905689895645 ], [ -50.348430900665505, -20.225940221364052 ], [ -50.354207453910817, -20.234270835730456 ], [ -50.358070278620403, -20.252144246259888 ], [ -50.361576934028221, -20.259414890884443 ], [ -50.358270344500738, -20.268707040597402 ], [ -50.352545419535424, -20.275181851760976 ], [ -50.342471340779696, -20.281511697606728 ], [ -50.340017089117339, -20.291658886748166 ], [ -50.330908151989604, -20.301943727021353 ], [ -50.335073719976144, -20.309394592186607 ], [ -50.337709382881656, -20.325370356756537 ], [ -50.335910635367497, -20.334344180639391 ], [ -50.339392000940052, -20.338469091175568 ] ] } }
]
}
