{
"type": "FeatureCollection",
"features": [
{ "type": "Feature", "properties": { "Name": "FERNÃO", "Description": "FERNÃO \/ SP" }, "geometry": { "type": "LineString", "coordinates": [ [ -49.459180557336822, -22.337458566659507 ], [ -49.464082015372696, -22.335810550916165 ], [ -49.473782249551107, -22.346847704657819 ], [ -49.473971452520459, -22.351806025027997 ], [ -49.483216581180216, -22.357107586046194 ], [ -49.482812059828632, -22.36484718484968 ], [ -49.490914438850204, -22.372873891316999 ], [ -49.495494551132595, -22.383328209729029 ], [ -49.50951614195634, -22.390296720816991 ], [ -49.512792389257292, -22.395682673316685 ], [ -49.524533981957632, -22.393506946188552 ], [ -49.532392192345753, -22.395254865819368 ], [ -49.543842845370989, -22.391038145294146 ], [ -49.556355091414275, -22.39203244384214 ], [ -49.569430330145565, -22.383598922752014 ], [ -49.570959515769005, -22.398997729061875 ], [ -49.575109141473661, -22.407757433358825 ], [ -49.576107561614663, -22.417081677177634 ], [ -49.581618819352961, -22.423400761735703 ], [ -49.596457759917655, -22.434260389305447 ], [ -49.603930076611732, -22.443076987413008 ], [ -49.613250571156868, -22.435521412383252 ], [ -49.619014207439704, -22.42508108562356 ], [ -49.610444653098227, -22.416852740361602 ], [ -49.605620364987821, -22.417589526135654 ], [ -49.601392507258367, -22.406777162436072 ], [ -49.60278294277856, -22.398883834421383 ], [ -49.609072927973216, -22.392342017470071 ], [ -49.602931127669358, -22.378817302976131 ], [ -49.60035820057044, -22.368563575648466 ], [ -49.584699137655036, -22.364069529385233 ], [ -49.584543404754299, -22.355560315955756 ], [ -49.574487012065902, -22.344382732177277 ], [ -49.577821131639894, -22.337589781343297 ], [ -49.570991521741291, -22.329288104462417 ], [ -49.570939838602612, -22.324597208294506 ], [ -49.545006330677552, -22.329771646544202 ], [ -49.537163116484578, -22.321229312882451 ], [ -49.504162256582838, -22.318781660445211 ], [ -49.494785729777561, -22.310788199215949 ], [ -49.492606459320598, -22.31786421975789 ], [ -49.480622189962048, -22.31984807113156 ], [ -49.461462221903957, -22.332893714972897 ], [ -49.459180557336822, -22.337458566659507 ] ] } }
]
}
