{
"type": "FeatureCollection",
"features": [
{ "type": "Feature", "properties": { "Name": "FERNANDÃPOLIS", "Description": "FERNANDÃPOLIS \/ SP" }, "geometry": { "type": "LineString", "coordinates": [ [ -50.222034208811635, -20.205364889478005 ], [ -50.230790836527831, -20.214764395760195 ], [ -50.230547491673349, -20.219059821353653 ], [ -50.215989220526069, -20.222168658057058 ], [ -50.199604525228608, -20.232728621628553 ], [ -50.181239988634502, -20.238812545162773 ], [ -50.164103829727935, -20.242415239171919 ], [ -50.164662951733817, -20.256471073481237 ], [ -50.174543646571976, -20.267894272902311 ], [ -50.172707525931507, -20.271272762328067 ], [ -50.161758905948716, -20.273238488765173 ], [ -50.156019391281859, -20.27782443764761 ], [ -50.151218070057837, -20.289261279784171 ], [ -50.152158394893945, -20.297397414858779 ], [ -50.145040478535236, -20.313725395310712 ], [ -50.152352668241008, -20.315364894474271 ], [ -50.174266252485488, -20.325142461355483 ], [ -50.181186325188719, -20.320983105885603 ], [ -50.193266087260099, -20.318288216328085 ], [ -50.199349991908548, -20.325140189667991 ], [ -50.208893704480829, -20.329540201918746 ], [ -50.206938118799087, -20.335330477919168 ], [ -50.217294924621058, -20.341381769552978 ], [ -50.230538225058979, -20.362400307128439 ], [ -50.219825294901391, -20.381449914881614 ], [ -50.227429445912151, -20.386718279225132 ], [ -50.231103902223253, -20.393697094745107 ], [ -50.240989433615425, -20.398896079090715 ], [ -50.240072809512526, -20.407868967678667 ], [ -50.260466465754739, -20.412574307857994 ], [ -50.268096764553995, -20.425207809492747 ], [ -50.277737193816392, -20.43485756472478 ], [ -50.284773323130302, -20.448491608900607 ], [ -50.306271059062112, -20.455316387641119 ], [ -50.311342764157189, -20.469385172187913 ], [ -50.317780162624388, -20.474715590651954 ], [ -50.326634248971345, -20.47656157775458 ], [ -50.33030035597659, -20.4694153759188 ], [ -50.344352384355034, -20.475697128719446 ], [ -50.3579738928808, -20.471997902381244 ], [ -50.363827044982088, -20.475301447703597 ], [ -50.372971199561164, -20.472697764690054 ], [ -50.377406762012413, -20.460236204437251 ], [ -50.375989647204385, -20.452327830764716 ], [ -50.365293085607391, -20.436307698141714 ], [ -50.351785371897336, -20.425387617244667 ], [ -50.341438373182307, -20.430867517421973 ], [ -50.335416371568272, -20.42698575119141 ], [ -50.330959836027546, -20.415709956049568 ], [ -50.322519926153632, -20.407023356742453 ], [ -50.324252953910666, -20.393046869617308 ], [ -50.328992376596887, -20.382895286388305 ], [ -50.322748333268912, -20.373236677330738 ], [ -50.326577999974688, -20.358432052197429 ], [ -50.334627436806727, -20.349625562469669 ], [ -50.339392000940052, -20.338469091175568 ], [ -50.335910635367497, -20.334344180639391 ], [ -50.337709382881656, -20.325370356756537 ], [ -50.335073719976144, -20.309394592186607 ], [ -50.330908151989604, -20.301943727021353 ], [ -50.340017089117339, -20.291658886748166 ], [ -50.342471340779696, -20.281511697606728 ], [ -50.352545419535424, -20.275181851760976 ], [ -50.358270344500738, -20.268707040597402 ], [ -50.361576934028221, -20.259414890884443 ], [ -50.358070278620403, -20.252144246259888 ], [ -50.354207453910817, -20.234270835730456 ], [ -50.348430900665505, -20.225940221364052 ], [ -50.358018817614315, -20.217905689895645 ], [ -50.359544085790901, -20.201727569771492 ], [ -50.363383813212344, -20.185581839630174 ], [ -50.372766131651588, -20.170855097584649 ], [ -50.372423868566614, -20.161458334234677 ], [ -50.376018755561063, -20.153129187561888 ], [ -50.374017364709573, -20.142526737319031 ], [ -50.378183052305985, -20.136959113672106 ], [ -50.383630826901083, -20.115951581100546 ], [ -50.388964622319406, -20.106031342172685 ], [ -50.370345427399506, -20.10092394298556 ], [ -50.349686082646535, -20.106297694383045 ], [ -50.33254116434324, -20.103724135060759 ], [ -50.32801806907861, -20.105363629727663 ], [ -50.318408789633899, -20.0986495521351 ], [ -50.308809875775125, -20.088590281616177 ], [ -50.301438890192571, -20.097471969056073 ], [ -50.292945440979281, -20.099844515511961 ], [ -50.282849682266992, -20.099280670266694 ], [ -50.277627713048496, -20.104025692131927 ], [ -50.257956648580425, -20.107204447527181 ], [ -50.26419287050453, -20.119130803243934 ], [ -50.270131523850694, -20.135267325226835 ], [ -50.266530625787702, -20.145403454505754 ], [ -50.258363320211004, -20.147120676677844 ], [ -50.232672360341091, -20.172837029805009 ], [ -50.224876514339599, -20.176611958375133 ], [ -50.219835206329655, -20.202101926062994 ], [ -50.222034208811635, -20.205364889478005 ] ] } }
]
}
