{
"type": "FeatureCollection",
"features": [
{ "type": "Feature", "properties": { "Name": "FLORA RICA", "Description": "FLORA RICA \/ SP" }, "geometry": { "type": "LineString", "coordinates": [ [ -51.354700157186471, -21.635663243363922 ], [ -51.335256122072337, -21.637624302319637 ], [ -51.323563506450625, -21.637136073870689 ], [ -51.322699731007724, -21.657247775564372 ], [ -51.313633492791439, -21.656199995233521 ], [ -51.302086009761524, -21.663673454066608 ], [ -51.286310541298405, -21.661955627550128 ], [ -51.270341047701152, -21.664762208409172 ], [ -51.2650061407208, -21.675153820692227 ], [ -51.271420217968625, -21.691094290469096 ], [ -51.279370348063082, -21.696603880864359 ], [ -51.279010944799211, -21.703844134699011 ], [ -51.285359113432321, -21.709470716999931 ], [ -51.280527849280759, -21.7160602115095 ], [ -51.283561171710687, -21.721668610417964 ], [ -51.290283146250147, -21.722976055600441 ], [ -51.29426803054514, -21.734066528347569 ], [ -51.304256971382074, -21.737908617388712 ], [ -51.313384910285322, -21.749677986549784 ], [ -51.323825219957882, -21.756426993810692 ], [ -51.329900018071328, -21.771174710744273 ], [ -51.342953017467721, -21.774569371779023 ], [ -51.363581255570466, -21.762720069075893 ], [ -51.367128563032736, -21.750025753485716 ], [ -51.373065749584612, -21.741032997075138 ], [ -51.382164131369507, -21.738076703377089 ], [ -51.394554038138324, -21.744761328172725 ], [ -51.406859043509996, -21.744140357991057 ], [ -51.415387220044124, -21.747951677627782 ], [ -51.434647436429998, -21.742989292321965 ], [ -51.456985613994846, -21.742424345407187 ], [ -51.470921255711346, -21.736760830647768 ], [ -51.482571528553137, -21.729884546834342 ], [ -51.489553839737873, -21.710701646064077 ], [ -51.496450781878018, -21.707439828385304 ], [ -51.493197872883513, -21.707660690188675 ], [ -51.476381217019529, -21.68531235927793 ], [ -51.459533976112084, -21.682519474194347 ], [ -51.447033698246514, -21.672252032205449 ], [ -51.443693368853872, -21.663984373979645 ], [ -51.428447825906403, -21.660986929103444 ], [ -51.416446257188966, -21.651140790714862 ], [ -51.413753570970471, -21.642894654164934 ], [ -51.406955773689951, -21.643978015273149 ], [ -51.393280983030877, -21.629010272905703 ], [ -51.372713756734463, -21.629059494599971 ], [ -51.354700157186471, -21.635663243363922 ] ] } }
]
}
