{
"type": "FeatureCollection",
"features": [
{ "type": "Feature", "properties": { "Name": "FLORÃNEA", "Description": "FLORÃNEA \/ SP" }, "geometry": { "type": "LineString", "coordinates": [ [ -50.552267436892599, -22.840610740693101 ], [ -50.557206875097201, -22.852305402272496 ], [ -50.574247970267599, -22.874551808519101 ], [ -50.578357900796398, -22.882659555594 ], [ -50.573107574155202, -22.8970837926828 ], [ -50.577242804411902, -22.904007089455501 ], [ -50.588808487921298, -22.910446818066099 ], [ -50.603808385548497, -22.923178532862899 ], [ -50.612717033764099, -22.922547829318798 ], [ -50.620315458791396, -22.912160065234801 ], [ -50.637296698683699, -22.9069371526274 ], [ -50.648506639170002, -22.897084900647595 ], [ -50.663546136644896, -22.895669204969796 ], [ -50.672557211346195, -22.8982208981759 ], [ -50.682082881719602, -22.906197149079102 ], [ -50.693503431738002, -22.9235537192287 ], [ -50.702718986192203, -22.942144747382098 ], [ -50.709838769543502, -22.9534421981988 ], [ -50.729526779037599, -22.962498570852297 ], [ -50.736369966001092, -22.9633510130388 ], [ -50.745223147630099, -22.959983483650795 ], [ -50.750330084565697, -22.9514990384498 ], [ -50.758662985908003, -22.947654255939099 ], [ -50.779694971045998, -22.946638667740299 ], [ -50.795935031076802, -22.951179367234001 ], [ -50.80399198444249, -22.9457366126545 ], [ -50.8061462294649, -22.940299334046998 ], [ -50.800498915092803, -22.928313534941701 ], [ -50.797528914827502, -22.914959090889297 ], [ -50.793138081956897, -22.905117262951297 ], [ -50.79295170106009, -22.8943535103062 ], [ -50.7978170567118, -22.888552352508995 ], [ -50.817013101073698, -22.8795410188029 ], [ -50.823622686437794, -22.866137804516001 ], [ -50.8026779984908, -22.871607472206996 ], [ -50.797994550508093, -22.876258852164302 ], [ -50.779252016267499, -22.882171425171101 ], [ -50.7605308058519, -22.8807534479133 ], [ -50.7502257209403, -22.869324654709001 ], [ -50.732007678511501, -22.852100310081202 ], [ -50.7266313181808, -22.8503634584068 ], [ -50.716340602636599, -22.827185645001499 ], [ -50.714522676180501, -22.8171588714847 ], [ -50.717514518280304, -22.8005719123638 ], [ -50.707533879984503, -22.783859455549401 ], [ -50.706276431711899, -22.772774191675602 ], [ -50.695585971115598, -22.782539025055897 ], [ -50.678781737587094, -22.780700592258501 ], [ -50.676794761069303, -22.797361375826799 ], [ -50.654694054886697, -22.817855214746299 ], [ -50.648567085302702, -22.826218215498198 ], [ -50.644507530298299, -22.839207937696099 ], [ -50.636182033973597, -22.8506617419458 ], [ -50.631019421808801, -22.851580888647099 ], [ -50.61307245123259, -22.871101720468001 ], [ -50.6050618246434, -22.872562714997201 ], [ -50.598208476240103, -22.862409036347898 ], [ -50.58990938311149, -22.860042989292499 ], [ -50.569455016335901, -22.845153432185096 ], [ -50.552267436892599, -22.840610740693101 ] ] } }
]
}
