{
"type": "FeatureCollection",
"features": [
{ "type": "Feature", "properties": { "Name": "FRANCISCO MORATO", "Description": "FRANCISCO MORATO \/ SP" }, "geometry": { "type": "LineString", "coordinates": [ [ -46.704060404064357, -23.25212406217571 ], [ -46.694200258734895, -23.259200995529454 ], [ -46.68340893377524, -23.25736915476261 ], [ -46.675312347286933, -23.261527385180614 ], [ -46.66775284311916, -23.258294576033791 ], [ -46.652468150884424, -23.259879426993905 ], [ -46.642980414814247, -23.254592343262004 ], [ -46.638446999829114, -23.257666000285667 ], [ -46.651983999961601, -23.267516000363056 ], [ -46.66860052969065, -23.270054614728622 ], [ -46.676896000350098, -23.273542000362966 ], [ -46.688700999751291, -23.29030099979127 ], [ -46.697574999786347, -23.289624000047525 ], [ -46.705448696500127, -23.295885325647191 ], [ -46.711454000401766, -23.294572999844036 ], [ -46.717780999893193, -23.302351999744928 ], [ -46.751496999786696, -23.301647999655412 ], [ -46.757846000292659, -23.292769000289066 ], [ -46.764839999965993, -23.289971999907834 ], [ -46.773819000346521, -23.281399000263605 ], [ -46.783686000308649, -23.265377999794794 ], [ -46.778846000142778, -23.256649000151185 ], [ -46.766154000306813, -23.259221000049077 ], [ -46.756834000388778, -23.253416000348068 ], [ -46.743755694969309, -23.250279243292425 ], [ -46.730212939175772, -23.252743951372221 ], [ -46.725748942859404, -23.248514832793262 ], [ -46.715947763378551, -23.253644923674244 ], [ -46.704060404064357, -23.25212406217571 ] ] } }
]
}
