{
"type": "FeatureCollection",
"features": [
{ "type": "Feature", "properties": { "Name": "GENERAL SALGADO", "Description": "GENERAL SALGADO \/ SP" }, "geometry": { "type": "LineString", "coordinates": [ [ -50.448533378212794, -20.486220065403643 ], [ -50.448590322385428, -20.500977987843839 ], [ -50.450913882769441, -20.520219631430788 ], [ -50.455159209829617, -20.528631223452177 ], [ -50.445570280244169, -20.538220382364727 ], [ -50.432146303309196, -20.535854289443876 ], [ -50.424095584943245, -20.547092608037357 ], [ -50.415646930961032, -20.550405038661552 ], [ -50.414077480890967, -20.56103591107836 ], [ -50.395910279835505, -20.568268941558358 ], [ -50.381098934967838, -20.566747319233343 ], [ -50.371897664445612, -20.568991302206765 ], [ -50.342921584563442, -20.570383991428002 ], [ -50.334898845904945, -20.565838862773262 ], [ -50.326370018261684, -20.565545260205568 ], [ -50.324640231661306, -20.570597028230221 ], [ -50.315178770184048, -20.571369606122403 ], [ -50.285882052314832, -20.586025913265246 ], [ -50.280791518114022, -20.597080237762725 ], [ -50.293258920362852, -20.609188261029374 ], [ -50.302736285451147, -20.633821229665955 ], [ -50.300402903571126, -20.641681209020529 ], [ -50.290816461510474, -20.639666848146472 ], [ -50.286119997639723, -20.643823509247511 ], [ -50.284740226280341, -20.651421357809397 ], [ -50.290024923211597, -20.664228726274644 ], [ -50.284418399389551, -20.681550079872238 ], [ -50.288219191562405, -20.690145782901538 ], [ -50.289679832658123, -20.702431851248889 ], [ -50.295960102476727, -20.704888957359458 ], [ -50.296192702231394, -20.712773083510967 ], [ -50.307042169260683, -20.710092862795364 ], [ -50.315698369683957, -20.717558427379458 ], [ -50.334332290103077, -20.723100574132161 ], [ -50.337898927593415, -20.721740643615757 ], [ -50.371194040272712, -20.723512513991295 ], [ -50.378698195665152, -20.722190796567986 ], [ -50.397628227760435, -20.723398441284985 ], [ -50.407981327476243, -20.7178047031245 ], [ -50.415872948577658, -20.710821359518093 ], [ -50.416664307911446, -20.721337753634373 ], [ -50.412965599582719, -20.726742575709238 ], [ -50.413599135091943, -20.739458107205845 ], [ -50.419072440540674, -20.741617483759796 ], [ -50.4182866372185, -20.749041836911204 ], [ -50.423076751091166, -20.761874494312394 ], [ -50.420631501642447, -20.773919970630118 ], [ -50.424379251800985, -20.790772419511484 ], [ -50.432160446947023, -20.797491860660784 ], [ -50.449477997311703, -20.801022542356407 ], [ -50.452363678041245, -20.799032969495897 ], [ -50.454592189977518, -20.784223341434028 ], [ -50.457591151110705, -20.778023058217514 ], [ -50.505582695085252, -20.761605923474519 ], [ -50.505738742748747, -20.751232884889703 ], [ -50.499738847369883, -20.73600856774118 ], [ -50.502117495725827, -20.724365618978084 ], [ -50.497761798468161, -20.718434260033007 ], [ -50.494150114835861, -20.706809454192921 ], [ -50.480178787121304, -20.695415584361683 ], [ -50.476507542289198, -20.687766098526595 ], [ -50.483249937734399, -20.660287566118257 ], [ -50.479671521823207, -20.653542055421497 ], [ -50.483073678707285, -20.644850618661053 ], [ -50.490401949190584, -20.646633878050974 ], [ -50.505154125862191, -20.632821358019214 ], [ -50.511495434466667, -20.623333374635475 ], [ -50.509054684326202, -20.612877146962717 ], [ -50.510057157711621, -20.601020111888602 ], [ -50.506584636971354, -20.587895802549212 ], [ -50.513261630120098, -20.579613882874352 ], [ -50.514010798659399, -20.56290347381622 ], [ -50.508280064073631, -20.551268123425132 ], [ -50.510252716189875, -20.54554594049273 ], [ -50.519124403168625, -20.536891795020267 ], [ -50.528037103729332, -20.537200119489849 ], [ -50.554147046049309, -20.528341016724482 ], [ -50.554494879535014, -20.523451365887809 ], [ -50.547800618503686, -20.519038388111085 ], [ -50.549182173218696, -20.509255785026426 ], [ -50.544768381555514, -20.503622689835197 ], [ -50.527954401174611, -20.508914253090268 ], [ -50.513604260128488, -20.502704811178035 ], [ -50.493064539596787, -20.499457434812708 ], [ -50.485560799691086, -20.493433691211862 ], [ -50.473615166106981, -20.49454377027871 ], [ -50.46857470615771, -20.48990289800031 ], [ -50.448533378212794, -20.486220065403643 ] ] } }
]
}
