{
"type": "FeatureCollection",
"features": [
{ "type": "Feature", "properties": { "Name": "GUARARAPES", "Description": "GUARARAPES \/ SP" }, "geometry": { "type": "LineString", "coordinates": [ [ -50.622271116418858, -21.451718949969518 ], [ -50.639914715991317, -21.461598884880573 ], [ -50.638813361247571, -21.472917660421672 ], [ -50.651444792643019, -21.482145915101853 ], [ -50.652764254566648, -21.492979381393297 ], [ -50.660130184160607, -21.50171472845193 ], [ -50.671850521384378, -21.501806935041998 ], [ -50.681234802144388, -21.514274410135897 ], [ -50.688652717948514, -21.511678396540731 ], [ -50.69246103564825, -21.519862237951884 ], [ -50.699686763633167, -21.527265642295504 ], [ -50.719036729661298, -21.527484141579805 ], [ -50.73110862086611, -21.529589115445276 ], [ -50.738339016332475, -21.525658468363588 ], [ -50.749435833796667, -21.523836900552453 ], [ -50.769198802682574, -21.532355299657294 ], [ -50.773520257353937, -21.544623326705103 ], [ -50.782237743876749, -21.543820776207838 ], [ -50.789125829493393, -21.550667833853421 ], [ -50.785891169541799, -21.556705596985694 ], [ -50.79421179693685, -21.559059201920604 ], [ -50.798894635179238, -21.555731024167414 ], [ -50.793381143524918, -21.543046087606797 ], [ -50.797137368894425, -21.541613835410146 ], [ -50.809242652826129, -21.560081936132406 ], [ -50.817594868008712, -21.563348316071881 ], [ -50.821961696175315, -21.558588067785081 ], [ -50.813002971010235, -21.545468112063702 ], [ -50.815860040708287, -21.539886485073168 ], [ -50.829441266800984, -21.536603772546016 ], [ -50.848534095072409, -21.53504756049648 ], [ -50.855262788446908, -21.529664845556113 ], [ -50.868134485418125, -21.526313922149765 ], [ -50.872684925468889, -21.514169871142599 ], [ -50.866110746413767, -21.51107146837353 ], [ -50.86598550502697, -21.500486473971534 ], [ -50.873626303411129, -21.489166614747433 ], [ -50.866202278512276, -21.476971952593484 ], [ -50.859368126138065, -21.476400982019641 ], [ -50.856573115057188, -21.468819698070547 ], [ -50.849035895190354, -21.464478618393457 ], [ -50.842000737144247, -21.454122416016617 ], [ -50.820268388775105, -21.446750765835134 ], [ -50.807566074614613, -21.44577909243111 ], [ -50.796377938191256, -21.440447250340299 ], [ -50.784758436552579, -21.420620667010152 ], [ -50.768821577553695, -21.406175009868775 ], [ -50.767593945404201, -21.394850733174735 ], [ -50.752187218765073, -21.38471831539789 ], [ -50.745621551793135, -21.387578935619331 ], [ -50.740302348774321, -21.383141499880249 ], [ -50.721860544228711, -21.380603040198082 ], [ -50.715697541508291, -21.376971834982157 ], [ -50.71319563477067, -21.369033441939735 ], [ -50.718327242807959, -21.354415517861806 ], [ -50.700931535062239, -21.340224956116799 ], [ -50.695364746885502, -21.329229698191966 ], [ -50.698784410871838, -21.320538685911572 ], [ -50.693606753948472, -21.30945996820293 ], [ -50.693181702873233, -21.283497592040188 ], [ -50.694425482350084, -21.262355109001021 ], [ -50.697023888141864, -21.256732900103202 ], [ -50.706178759042466, -21.252147042951606 ], [ -50.712243245529294, -21.252656745412423 ], [ -50.720024611546535, -21.247312623978356 ], [ -50.727941015265628, -21.250351070745296 ], [ -50.73150034216701, -21.256563225012769 ], [ -50.743647561485716, -21.258354103459055 ], [ -50.746921083840903, -21.263356205524417 ], [ -50.753906742302263, -21.263283235432937 ], [ -50.752836501403351, -21.248812785781411 ], [ -50.741209712558145, -21.228170778158812 ], [ -50.73060244554636, -21.224685900733672 ], [ -50.728916504493036, -21.207689505466249 ], [ -50.735952193139155, -21.199048066514987 ], [ -50.74147842099228, -21.195167340800083 ], [ -50.754366713153274, -21.192698798011065 ], [ -50.759292501447753, -21.188254687503782 ], [ -50.775614205531099, -21.183114915420958 ], [ -50.795002082480096, -21.186962647707958 ], [ -50.794529854768932, -21.181037508474219 ], [ -50.781011264658105, -21.172118781556492 ], [ -50.77921558383207, -21.166759394130679 ], [ -50.770346543558105, -21.158466026086213 ], [ -50.767862632254605, -21.152183216582159 ], [ -50.755575877724532, -21.136009944703115 ], [ -50.755546103869563, -21.130834859840888 ], [ -50.766972441924622, -21.124616414815648 ], [ -50.755341847148486, -21.105054874282985 ], [ -50.745753430176592, -21.094640558614856 ], [ -50.768026173968735, -21.08788144657143 ], [ -50.782453303277286, -21.077472279522055 ], [ -50.7843064157085, -21.072518403601407 ], [ -50.802347469759859, -21.059759495104572 ], [ -50.798120332387384, -21.05258278466772 ], [ -50.801746591332062, -21.046994524277803 ], [ -50.796659639131001, -21.040440373124682 ], [ -50.802929257379276, -21.026900599483042 ], [ -50.802051063106035, -21.013950871935151 ], [ -50.796080648403176, -20.992141132407312 ], [ -50.797304758807506, -20.985221180213273 ], [ -50.707943384479563, -21.02641972748836 ], [ -50.694696121628681, -21.0318624766719 ], [ -50.686930595370654, -21.039999708020048 ], [ -50.670314647502948, -21.037484176553448 ], [ -50.664058093706046, -21.04159960104073 ], [ -50.653225302805424, -21.040936860048021 ], [ -50.64075799138817, -21.046718043003239 ], [ -50.638491786166981, -21.06208462480555 ], [ -50.639101452769808, -21.071350689682561 ], [ -50.63187213559052, -21.081515753748988 ], [ -50.625505214294151, -21.086587412978702 ], [ -50.616604592527892, -21.106035509431194 ], [ -50.622860552772238, -21.128781194996119 ], [ -50.615352817178746, -21.134915729677118 ], [ -50.605496138735759, -21.130456749779114 ], [ -50.59947298868741, -21.13363656007914 ], [ -50.602317864477811, -21.142982446082954 ], [ -50.593283325564983, -21.153923740188418 ], [ -50.595040959672531, -21.163678123446573 ], [ -50.582950605386088, -21.18096763205051 ], [ -50.573738552891882, -21.182720735373607 ], [ -50.572009822994914, -21.191682122531859 ], [ -50.577209429671427, -21.20288359230392 ], [ -50.56411917136262, -21.218991813521313 ], [ -50.56108623024528, -21.232196370266252 ], [ -50.550987765472939, -21.248605659323687 ], [ -50.544895001602974, -21.25222245020586 ], [ -50.544144463396208, -21.270862301653835 ], [ -50.554267967992303, -21.282694754659133 ], [ -50.55862728052454, -21.292430295321822 ], [ -50.573027977858828, -21.295896776215216 ], [ -50.580712261161864, -21.312266830549731 ], [ -50.589190248331249, -21.322104372318901 ], [ -50.589440785963461, -21.332738446322193 ], [ -50.599918071261925, -21.347471562762394 ], [ -50.603118463446265, -21.364693924385051 ], [ -50.601879844279324, -21.387707548564492 ], [ -50.604090368875404, -21.415953894256745 ], [ -50.607617634945882, -21.42511917391073 ], [ -50.613325562724519, -21.426086337214652 ], [ -50.624563819264779, -21.442609453463433 ], [ -50.622271116418858, -21.451718949969518 ] ] } }
]
}
