{
"type": "FeatureCollection",
"features": [
{ "type": "Feature", "properties": { "Name": "GUZOLÃNDIA", "Description": "GUZOLÃNDIA \/ SP" }, "geometry": { "type": "LineString", "coordinates": [ [ -50.679306967742313, -20.530096063482517 ], [ -50.679465123416662, -20.557544409247043 ], [ -50.677175086161242, -20.569623448263485 ], [ -50.667892585274558, -20.583772103399781 ], [ -50.661905858668369, -20.587920393611228 ], [ -50.66072341745172, -20.598594544102866 ], [ -50.654950263643684, -20.608722584879331 ], [ -50.646852626747261, -20.611133178953025 ], [ -50.633746451337629, -20.625419596736947 ], [ -50.626216858621092, -20.637066219230576 ], [ -50.622436824599731, -20.65072984120917 ], [ -50.617117775364989, -20.658953556761162 ], [ -50.619435820206888, -20.665455816132972 ], [ -50.629571332550938, -20.668457471634952 ], [ -50.633031257386563, -20.675704459593078 ], [ -50.649052143641477, -20.689461496850527 ], [ -50.650321123021335, -20.694478740801173 ], [ -50.664157213384669, -20.705701131501996 ], [ -50.678457638109478, -20.708715658101085 ], [ -50.685546751881077, -20.707797050993065 ], [ -50.692144243162261, -20.70871918434284 ], [ -50.70221245024436, -20.703843995503917 ], [ -50.72288497636054, -20.706846830017128 ], [ -50.735411550402652, -20.71301275733282 ], [ -50.743710188474381, -20.721714928401184 ], [ -50.750608977822026, -20.715724686345141 ], [ -50.753056192289421, -20.705998653315131 ], [ -50.752990718047151, -20.687251181796569 ], [ -50.750976510057853, -20.681409530225608 ], [ -50.776777713320769, -20.679230130266259 ], [ -50.779367175354821, -20.671874222717179 ], [ -50.799772568649075, -20.671376847263673 ], [ -50.803186052494311, -20.661084520134466 ], [ -50.8038005898253, -20.647048879202373 ], [ -50.801209313858692, -20.637295928564185 ], [ -50.80579500643438, -20.627019878264718 ], [ -50.801810027710587, -20.602402435523913 ], [ -50.791913920291165, -20.607670305240333 ], [ -50.786579279510079, -20.614240208019112 ], [ -50.780884838864154, -20.611021009212152 ], [ -50.764515545356119, -20.621394622463811 ], [ -50.763583252365152, -20.607895916363418 ], [ -50.765332909486119, -20.600056030561287 ], [ -50.762857927551288, -20.591808907455057 ], [ -50.76188727038118, -20.575138892345933 ], [ -50.769452088642936, -20.564721380487299 ], [ -50.772847174157732, -20.554441934347722 ], [ -50.768650960873117, -20.544740292730296 ], [ -50.766990978750641, -20.55316750597558 ], [ -50.755948143092262, -20.54841914492755 ], [ -50.755805014190003, -20.541681432252233 ], [ -50.739112019603965, -20.544968616208621 ], [ -50.735246055361131, -20.534000015987885 ], [ -50.724993045692486, -20.526853392370128 ], [ -50.711526653132466, -20.528274181808001 ], [ -50.704974585708499, -20.534311820833807 ], [ -50.690109865178101, -20.524645613404289 ], [ -50.682931017052738, -20.524858055754635 ], [ -50.679306967742313, -20.530096063482517 ] ] } }
]
}
