{
"type": "FeatureCollection",
"features": [
{ "type": "Feature", "properties": { "Name": "HORTOLÃNDIA", "Description": "HORTOLÃNDIA \/ SP" }, "geometry": { "type": "LineString", "coordinates": [ [ -47.157707927478839, -22.86089281984772 ], [ -47.155768490923087, -22.871673414096733 ], [ -47.159990613675859, -22.87846292232598 ], [ -47.157376000302122, -22.888198999883912 ], [ -47.166898692120924, -22.903671096443873 ], [ -47.178591000174492, -22.911736999862622 ], [ -47.192619999613271, -22.910581999659481 ], [ -47.215663668343552, -22.913269945551519 ], [ -47.223510194739674, -22.905736131417314 ], [ -47.246767000096952, -22.909478000009642 ], [ -47.248417996193545, -22.904671005862212 ], [ -47.257662999847525, -22.898799000373515 ], [ -47.256522000290026, -22.891911000192465 ], [ -47.260794737786846, -22.878098016110528 ], [ -47.242353999837178, -22.876834000088991 ], [ -47.235573000093837, -22.857493000301698 ], [ -47.240990999934631, -22.852256999860629 ], [ -47.238739999551278, -22.841593000016868 ], [ -47.235252344120333, -22.840007002421203 ], [ -47.2350599998191, -22.828913999881138 ], [ -47.22811199956908, -22.827254999818365 ], [ -47.213549999832594, -22.841458000086618 ], [ -47.213311999649022, -22.847876000177223 ], [ -47.203663999893649, -22.845194999749367 ], [ -47.192272999799059, -22.852184000091484 ], [ -47.189154999903273, -22.858339999791099 ], [ -47.166651999989767, -22.858057000230303 ], [ -47.157707927478839, -22.86089281984772 ] ] } }
]
}
