{
"type": "FeatureCollection",
"features": [
{ "type": "Feature", "properties": { "Name": "IACANGA", "Description": "IACANGA \/ SP" }, "geometry": { "type": "LineString", "coordinates": [ [ -48.892171000691064, -21.906656957352652 ], [ -48.896478720016887, -21.911898793494458 ], [ -48.905788412804952, -21.915701144192379 ], [ -48.908800415906455, -21.924928107446135 ], [ -48.903002621573705, -21.933303983791742 ], [ -48.909916882857829, -21.946141086541843 ], [ -48.932041296968237, -21.947635112270575 ], [ -48.942192064512142, -21.955118049958003 ], [ -48.960975465745094, -21.963265587536796 ], [ -48.966417629469959, -21.974643300148159 ], [ -48.966303646695906, -21.981815634483894 ], [ -48.998285020737057, -22.002601277327017 ], [ -48.999390462000179, -22.013297231881722 ], [ -49.003926397784994, -22.021101169982956 ], [ -49.01235867781071, -22.026887990788111 ], [ -49.020316321740836, -22.02253789810544 ], [ -49.023563261934953, -22.015796816569775 ], [ -49.045353166915099, -22.010615127086396 ], [ -49.053521280982295, -22.004332137717938 ], [ -49.071405271136314, -22.018864779086243 ], [ -49.082007918330696, -22.014792382662279 ], [ -49.100974828025869, -22.022398675858138 ], [ -49.107199606976224, -22.023312797147806 ], [ -49.124070961405721, -22.038307945455298 ], [ -49.134380524041887, -22.049886477578809 ], [ -49.139344125231162, -22.045750455918778 ], [ -49.136594146802388, -22.039138627645514 ], [ -49.138290519991472, -22.031795524643712 ], [ -49.131343119589246, -22.027462588327751 ], [ -49.12478205175023, -22.013656153108911 ], [ -49.126418203637172, -22.010786283360233 ], [ -49.11829193052813, -21.999420301505666 ], [ -49.123317766601588, -21.991102499780482 ], [ -49.127140629936093, -21.967660582469875 ], [ -49.135090056760646, -21.962368662183962 ], [ -49.133978938976831, -21.956297244622078 ], [ -49.14225760760246, -21.94671166770928 ], [ -49.123307943306877, -21.922535596040859 ], [ -49.125783993636333, -21.912744805528291 ], [ -49.136282414801542, -21.89728791470543 ], [ -49.138757916544591, -21.886807626570658 ], [ -49.146814299740072, -21.874197045057542 ], [ -49.152116840120016, -21.859706277023008 ], [ -49.149399005259845, -21.851922325454893 ], [ -49.151123135124521, -21.828607049775485 ], [ -49.149206495483327, -21.82292381288363 ], [ -49.137925674030605, -21.807671878454357 ], [ -49.133926520192688, -21.797844352434879 ], [ -49.132702535693397, -21.783668447840565 ], [ -49.128702612035845, -21.775512706646055 ], [ -49.106423669216895, -21.762200674621397 ], [ -49.104503169685472, -21.750999380217195 ], [ -49.093680312696215, -21.754881629383647 ], [ -49.084027045611606, -21.755594837631634 ], [ -49.066717368811453, -21.763747574191143 ], [ -49.040064844816698, -21.77394366486817 ], [ -49.016020797221984, -21.769994995372709 ], [ -49.004923444661188, -21.765081524192965 ], [ -48.980140902580558, -21.758961485683983 ], [ -48.973122791183812, -21.758612158424341 ], [ -48.963001382008144, -21.764436430596731 ], [ -48.96022977398485, -21.771736113430848 ], [ -48.963567365841236, -21.788672061666261 ], [ -48.970423833093378, -21.797306136069267 ], [ -48.985220890431719, -21.810301773108279 ], [ -48.98849709006862, -21.815411000617132 ], [ -48.989837833549124, -21.82743054408428 ], [ -48.98193467864246, -21.839424890346379 ], [ -48.964809948320408, -21.849836822811085 ], [ -48.918072147411628, -21.860535898013211 ], [ -48.906122177296595, -21.868186437853748 ], [ -48.89834631782827, -21.891829163884779 ], [ -48.892171000691064, -21.906656957352652 ] ] } }
]
}
