{
"type": "FeatureCollection",
"features": [
{ "type": "Feature", "properties": { "Name": "IACRI", "Description": "IACRI \/ SP" }, "geometry": { "type": "LineString", "coordinates": [ [ -50.609580230842937, -21.656925000788135 ], [ -50.601046207816182, -21.658224047201998 ], [ -50.59896982429791, -21.671112628944623 ], [ -50.590063582668165, -21.673744138780929 ], [ -50.58878069347417, -21.67941295864108 ], [ -50.572961290431181, -21.687135428956822 ], [ -50.570554165941985, -21.691872916301975 ], [ -50.560710048330009, -21.691130829923793 ], [ -50.554507555479233, -21.693884485680428 ], [ -50.551051288186386, -21.701272101526229 ], [ -50.538245790310953, -21.699468103769902 ], [ -50.517062478050882, -21.709925689418981 ], [ -50.511888520938435, -21.718166985817675 ], [ -50.51407251733275, -21.725295547451481 ], [ -50.511950144283666, -21.731990867884178 ], [ -50.520193337352616, -21.742667653389447 ], [ -50.520893134910182, -21.753024530257843 ], [ -50.527349326510148, -21.757258229083959 ], [ -50.526749046131556, -21.764916411363231 ], [ -50.530256924617333, -21.790042373057016 ], [ -50.536924947028638, -21.799213827456128 ], [ -50.534770858488287, -21.804592841686258 ], [ -50.539973128057397, -21.814729265043525 ], [ -50.55181894588759, -21.824382506047755 ], [ -50.557275620173698, -21.831823293410196 ], [ -50.565646653670115, -21.833585111163927 ], [ -50.581638284978851, -21.842324290233762 ], [ -50.599405097067518, -21.844093350227865 ], [ -50.609151599566644, -21.855520505766659 ], [ -50.605891282856362, -21.869274237116315 ], [ -50.609131827971453, -21.878256740356221 ], [ -50.615865555750752, -21.883683237891091 ], [ -50.611564153263032, -21.896584067500669 ], [ -50.619037888187954, -21.903215434444689 ], [ -50.627728904964954, -21.906361881695432 ], [ -50.621855470453568, -21.916964164664417 ], [ -50.635407509948607, -21.926773904791844 ], [ -50.64406826453876, -21.925710595867258 ], [ -50.664880898734452, -21.935307131019211 ], [ -50.664976101865591, -21.91914532010037 ], [ -50.66722366144279, -21.913591217760427 ], [ -50.669099869363436, -21.894364271793677 ], [ -50.691898344233152, -21.896121338428998 ], [ -50.694427170377594, -21.882377527500864 ], [ -50.707248940586105, -21.890007168895689 ], [ -50.714249717550381, -21.88814793388002 ], [ -50.731034939410897, -21.887919591515868 ], [ -50.737096404175645, -21.877559691126805 ], [ -50.728050425886401, -21.869796153269817 ], [ -50.725507210589228, -21.86144333554148 ], [ -50.715875653138824, -21.854133124344173 ], [ -50.706418241308761, -21.856648098231119 ], [ -50.71056345853674, -21.846777750093054 ], [ -50.711421019664272, -21.827154894682621 ], [ -50.721357084861545, -21.816742682528741 ], [ -50.722567634388781, -21.806759298602685 ], [ -50.718353529991361, -21.799533412337041 ], [ -50.715862615667163, -21.790401155788686 ], [ -50.708035395916738, -21.778876562303481 ], [ -50.696618392824512, -21.782469245059588 ], [ -50.693689749682157, -21.792920251268523 ], [ -50.685396091156633, -21.790172746874699 ], [ -50.681426151795449, -21.77650792250256 ], [ -50.66379158861087, -21.777216990271825 ], [ -50.634911157923561, -21.76664281291545 ], [ -50.632188185236544, -21.753226545868358 ], [ -50.637962521653037, -21.745534015782141 ], [ -50.628671407059755, -21.727177615354606 ], [ -50.628038090985058, -21.721363191657929 ], [ -50.619034391623813, -21.707099615754597 ], [ -50.618302825514945, -21.70274161173597 ], [ -50.609562296562672, -21.689725382020693 ], [ -50.611827624944901, -21.679044534277807 ], [ -50.61108799821249, -21.669072935067845 ], [ -50.615202028750559, -21.65890716773157 ], [ -50.609580230842937, -21.656925000788135 ] ] } }
]
}
