{
"type": "FeatureCollection",
"features": [
{ "type": "Feature", "properties": { "Name": "IBITINGA", "Description": "IBITINGA \/ SP" }, "geometry": { "type": "LineString", "coordinates": [ [ -48.7267669444389, -21.686707515339492 ], [ -48.740667496407809, -21.696906276103732 ], [ -48.73979809480619, -21.710014987601536 ], [ -48.744144431020629, -21.735584334849136 ], [ -48.739283570180589, -21.753571078842185 ], [ -48.748452501981319, -21.7686908318164 ], [ -48.740678933086251, -21.775624148835334 ], [ -48.714957702935578, -21.778150995571931 ], [ -48.708676974462776, -21.780829101082077 ], [ -48.712211849697042, -21.791625058449654 ], [ -48.724298393555955, -21.79806573764364 ], [ -48.72809719732777, -21.803446380546003 ], [ -48.725101257916656, -21.810312854554525 ], [ -48.713340810929644, -21.815177428695332 ], [ -48.713448770044636, -21.820546936192102 ], [ -48.704904263620847, -21.830636161329721 ], [ -48.68942305692849, -21.832980307195385 ], [ -48.676560113958033, -21.830566861371491 ], [ -48.669727500323859, -21.831593510332198 ], [ -48.657864799520837, -21.844637237718302 ], [ -48.642829508175225, -21.90463149075066 ], [ -48.662704168362666, -21.921954428054391 ], [ -48.678904366843028, -21.927797498755524 ], [ -48.690754104818041, -21.912281887598965 ], [ -48.704109385239917, -21.912161389236701 ], [ -48.708770258440609, -21.909201494653189 ], [ -48.721120422369552, -21.90763167046515 ], [ -48.720033104244351, -21.902020497148158 ], [ -48.726689032572779, -21.890998902577223 ], [ -48.744773769393873, -21.88842247351829 ], [ -48.754711742952509, -21.883804953935453 ], [ -48.761788714077852, -21.884531860656807 ], [ -48.76927151596766, -21.892881343699003 ], [ -48.78285616038346, -21.89513246818882 ], [ -48.794229165943193, -21.891705114099693 ], [ -48.814885913454077, -21.8923584364926 ], [ -48.822404454402033, -21.889570621786731 ], [ -48.832558787757819, -21.894857243267094 ], [ -48.850033757252049, -21.910927085016908 ], [ -48.864564446192219, -21.916460325783358 ], [ -48.870775908881058, -21.914214996524834 ], [ -48.877615545321135, -21.921046046238015 ], [ -48.892171000691064, -21.906656957352652 ], [ -48.89834631782827, -21.891829163884779 ], [ -48.906122177296595, -21.868186437853748 ], [ -48.918072147411628, -21.860535898013211 ], [ -48.964809948320408, -21.849836822811085 ], [ -48.98193467864246, -21.839424890346379 ], [ -48.989837833549124, -21.82743054408428 ], [ -48.98849709006862, -21.815411000617132 ], [ -48.985220890431719, -21.810301773108279 ], [ -48.970423833093378, -21.797306136069267 ], [ -48.963567365841236, -21.788672061666261 ], [ -48.96022977398485, -21.771736113430848 ], [ -48.963001382008144, -21.764436430596731 ], [ -48.973122791183812, -21.758612158424341 ], [ -48.980140902580558, -21.758961485683983 ], [ -49.004923444661188, -21.765081524192965 ], [ -49.016020797221984, -21.769994995372709 ], [ -49.040064844816698, -21.77394366486817 ], [ -49.066717368811453, -21.763747574191143 ], [ -49.084027045611606, -21.755594837631634 ], [ -49.07773552257629, -21.747399356295205 ], [ -49.064420518292252, -21.742161943918518 ], [ -49.064269219948528, -21.732370621906625 ], [ -49.059264156415622, -21.727749948401367 ], [ -49.052808181552273, -21.730367015125577 ], [ -49.043728592000882, -21.728722846681986 ], [ -49.036568623343271, -21.722109014719194 ], [ -49.032674470750173, -21.712778073649133 ], [ -49.021760462075633, -21.715519157782865 ], [ -49.016215665020859, -21.712327752523716 ], [ -49.017321835634164, -21.705127893537394 ], [ -49.005142287486535, -21.698673341401559 ], [ -48.999909260204163, -21.69158402348387 ], [ -48.992907046123264, -21.695584689082068 ], [ -48.992159877676158, -21.701073044685245 ], [ -48.97884013126702, -21.698282133613532 ], [ -48.977836362857829, -21.701539911537623 ], [ -48.95965445968551, -21.698855481994826 ], [ -48.949613909454335, -21.687661216691765 ], [ -48.926654068330542, -21.688286578262932 ], [ -48.921146227116651, -21.679998374125603 ], [ -48.914680270677934, -21.680992358810272 ], [ -48.91152474387178, -21.674204967585126 ], [ -48.8980647958536, -21.668148588486527 ], [ -48.899770991438061, -21.661156086184405 ], [ -48.890114496686635, -21.65657280109383 ], [ -48.881627114299818, -21.657951174906771 ], [ -48.875059065023777, -21.655241370093108 ], [ -48.851034253927651, -21.670655980189281 ], [ -48.837737232487257, -21.673761475911363 ], [ -48.83427477336204, -21.682489328919356 ], [ -48.827575050747953, -21.689451516873984 ], [ -48.82487760441785, -21.696898951125661 ], [ -48.80760661465348, -21.709672680449785 ], [ -48.805552335571804, -21.714868787864248 ], [ -48.795545016189514, -21.716355746720296 ], [ -48.783461056082835, -21.70719813198815 ], [ -48.776275902810596, -21.698603462279891 ], [ -48.758376704221455, -21.699571113915738 ], [ -48.753830883088767, -21.689939742624972 ], [ -48.743051846465498, -21.684605320379205 ], [ -48.732484392440711, -21.682531780517195 ], [ -48.7267669444389, -21.686707515339492 ] ] } }
]
}
