{
"type": "FeatureCollection",
"features": [
{ "type": "Feature", "properties": { "Name": "INDIANA", "Description": "INDIANA \/ SP" }, "geometry": { "type": "LineString", "coordinates": [ [ -51.20778695000768, -22.068249647203402 ], [ -51.208128336253651, -22.072573039913834 ], [ -51.219717089172256, -22.076003243954517 ], [ -51.229221305318958, -22.090281242285467 ], [ -51.242359015456145, -22.124242189625306 ], [ -51.239680404527007, -22.134741555977996 ], [ -51.227557652163853, -22.143960998201464 ], [ -51.223413828885043, -22.157594894888458 ], [ -51.212560153028619, -22.165039015138404 ], [ -51.203535298914858, -22.178310885239114 ], [ -51.206695456330181, -22.193185366111717 ], [ -51.222264408075944, -22.215242173687329 ], [ -51.230244054819252, -22.221064425083114 ], [ -51.246431446054366, -22.20541167540847 ], [ -51.257252469325977, -22.209621582669854 ], [ -51.268352473088093, -22.206219799903803 ], [ -51.280011364133088, -22.194741819179569 ], [ -51.286912087922474, -22.178795941779242 ], [ -51.284927025162062, -22.171221996298073 ], [ -51.286795039359554, -22.160142452112435 ], [ -51.290985886389478, -22.157106170913039 ], [ -51.297908960130371, -22.143661215492671 ], [ -51.307487321782446, -22.139061262367303 ], [ -51.315696905387817, -22.129357881461033 ], [ -51.316871969465751, -22.119885168565645 ], [ -51.321429408040729, -22.108376174720661 ], [ -51.319635443121172, -22.096212584143416 ], [ -51.306981868618323, -22.086331402771975 ], [ -51.305531963629164, -22.075255356049809 ], [ -51.293557873696898, -22.059500237445945 ], [ -51.292380842801606, -22.048870802145757 ], [ -51.288655655733862, -22.044626788095741 ], [ -51.286926989688766, -22.048037867153823 ], [ -51.274631540513155, -22.052550543772554 ], [ -51.270385388774628, -22.063745553714284 ], [ -51.265097189883363, -22.06745154924954 ], [ -51.227712372428016, -22.071424340360977 ], [ -51.20778695000768, -22.068249647203402 ] ] } }
]
}
