{
"type": "FeatureCollection",
"features": [
{ "type": "Feature", "properties": { "Name": "IPAUSSU", "Description": "IPAUSSU \/ SP" }, "geometry": { "type": "LineString", "coordinates": [ [ -49.557746503598189, -23.000181087287327 ], [ -49.55729118494019, -23.008648495731446 ], [ -49.550811038098914, -23.020828025892627 ], [ -49.550143097226112, -23.034401212046248 ], [ -49.554425821694281, -23.043676358277249 ], [ -49.553274226324447, -23.048356726981297 ], [ -49.543237180751248, -23.055336584815507 ], [ -49.539974128303356, -23.062387575426214 ], [ -49.533719717590827, -23.092698034286798 ], [ -49.529160982193559, -23.100542810602178 ], [ -49.5354484295014, -23.118193809796423 ], [ -49.541838085659094, -23.128813884053443 ], [ -49.547524436003869, -23.128798444492588 ], [ -49.573352880630921, -23.138555553595893 ], [ -49.57819908791754, -23.145568437233518 ], [ -49.585580530816799, -23.147919501583658 ], [ -49.593385186577052, -23.145977445302833 ], [ -49.596884460349543, -23.140424117279164 ], [ -49.606076605450937, -23.135758069379335 ], [ -49.619919453320044, -23.139558569272481 ], [ -49.62210103233673, -23.134925004885019 ], [ -49.630981168446112, -23.136581055171519 ], [ -49.637154752589709, -23.129435187883583 ], [ -49.650988293375008, -23.127602280520762 ], [ -49.6539880441129, -23.120938669284101 ], [ -49.665464966335094, -23.113115241974807 ], [ -49.67167178762287, -23.099298933099249 ], [ -49.675350177568589, -23.096931182727868 ], [ -49.678811247241242, -23.08454611161369 ], [ -49.677248044761427, -23.079330973645483 ], [ -49.682837539021186, -23.068232717266028 ], [ -49.681848304555558, -23.054216524173228 ], [ -49.672304868075173, -23.053758794432778 ], [ -49.671452736154833, -23.048634825236945 ], [ -49.680441262154488, -23.03806488908333 ], [ -49.67726914465527, -23.034821565962428 ], [ -49.672514340864097, -23.020423344461733 ], [ -49.677289838954835, -23.008748031796184 ], [ -49.651338597298377, -22.981759141571104 ], [ -49.632643665073033, -23.002128650117072 ], [ -49.594956430794575, -22.978227643291063 ], [ -49.587698061016681, -22.991488889700463 ], [ -49.573555593215985, -22.995060162296621 ], [ -49.567502582078475, -22.999507629073776 ], [ -49.557746503598189, -23.000181087287327 ] ] } }
]
}
