{
"type": "FeatureCollection",
"features": [
{ "type": "Feature", "properties": { "Name": "ITANHAÃM", "Description": "ITANHAÃM \/ SP" }, "geometry": { "type": "LineString", "coordinates": [ [ -46.6499079995545, -24.001600999686332 ], [ -46.64253630530618, -24.010200916938739 ], [ -46.669665822519676, -24.022547253353025 ], [ -46.689315627014537, -24.029929540715671 ], [ -46.696783980396333, -24.035157782705483 ], [ -46.699526911737564, -24.044019561853247 ], [ -46.724229089500852, -24.049483517050643 ], [ -46.74294091189352, -24.064289377852447 ], [ -46.744211265437514, -24.080405941181198 ], [ -46.732259673844851, -24.088225631807401 ], [ -46.734078568870814, -24.094551483763894 ], [ -46.730387087494023, -24.102217592667728 ], [ -46.732757275927497, -24.108510274929188 ], [ -46.727250002185819, -24.118190163744998 ], [ -46.725023347349577, -24.132403377613741 ], [ -46.710321256620659, -24.143399779476166 ], [ -46.713200713142328, -24.146807814329122 ], [ -46.785775572384694, -24.186635289387027 ], [ -46.804858439765148, -24.20044933646767 ], [ -46.816329068531672, -24.202102033182257 ], [ -46.844863227855626, -24.218702934492796 ], [ -46.890602245297316, -24.249493230228325 ], [ -46.897856180518261, -24.252745362208653 ], [ -46.926593262868721, -24.231489864965223 ], [ -46.925578000224498, -24.222306999968051 ], [ -46.931272000202625, -24.218143000399095 ], [ -46.938609999551772, -24.202326000344613 ], [ -46.951305368248086, -24.192610956130693 ], [ -46.952216000168214, -24.186395999575666 ], [ -46.943127420094299, -24.173785222010338 ], [ -46.941107960963564, -24.154538843492787 ], [ -46.946812813960143, -24.141287651503887 ], [ -46.96922700042569, -24.136418999836906 ], [ -46.974097000176357, -24.137977999784823 ], [ -46.981678999985832, -24.130089000207136 ], [ -46.983249000440992, -24.123283000210222 ], [ -46.977936000046327, -24.121963999638808 ], [ -46.968429999644741, -24.107717000039486 ], [ -46.969602999778601, -24.091976999938538 ], [ -46.978673999905141, -24.086384000121484 ], [ -46.98319799988775, -24.074137000122388 ], [ -46.978605559698785, -24.064250680924147 ], [ -46.964674777019297, -24.058394274176351 ], [ -46.967810167105483, -24.044730475930692 ], [ -46.960823477121721, -24.045947310819713 ], [ -46.945842002106644, -24.040574374207949 ], [ -46.936206672000253, -24.033386657867936 ], [ -46.930288347828935, -24.044514117932124 ], [ -46.920588598385052, -24.041526397425226 ], [ -46.900341265437014, -24.046144408937263 ], [ -46.894042314001524, -24.041709457125705 ], [ -46.89028329893506, -24.031170571864379 ], [ -46.882618863669563, -24.023290608674586 ], [ -46.87186706121588, -24.023879521622575 ], [ -46.8676694180092, -24.019174605923293 ], [ -46.87103500486154, -23.998573232368756 ], [ -46.875117757878172, -24.001809484120372 ], [ -46.881430244110447, -23.9933768263794 ], [ -46.883089719914608, -23.985229478557528 ], [ -46.87514369612461, -23.979265189137148 ], [ -46.867616280666766, -23.980148842295193 ], [ -46.862290961358724, -23.974188417261587 ], [ -46.85531343097, -23.973497310752236 ], [ -46.845171978603901, -23.962681713989866 ], [ -46.83478537914192, -23.956270541552215 ], [ -46.82378731892959, -23.956235862794813 ], [ -46.829923288029249, -23.94730517399455 ], [ -46.817234829723589, -23.943545366625298 ], [ -46.806897999642892, -23.93815300016081 ], [ -46.800124000222411, -23.93800000029972 ], [ -46.794468000197973, -23.942588999682528 ], [ -46.785635000255013, -23.942327000190858 ], [ -46.77513699997251, -23.956387000159907 ], [ -46.754928999773483, -23.97542200022508 ], [ -46.766436999867608, -23.991657999816766 ], [ -46.772016999984537, -24.007698000262447 ], [ -46.762731999881851, -24.006005999577155 ], [ -46.755047999865269, -23.996782999635684 ], [ -46.74272199982039, -23.991877000023464 ], [ -46.730321999960267, -23.995471000286386 ], [ -46.72103999999598, -23.992999999650237 ], [ -46.714798999973823, -23.99616499991475 ], [ -46.70813700032226, -23.991019000026768 ], [ -46.699310999802776, -23.990283000260202 ], [ -46.692061000015087, -23.984363999798688 ], [ -46.683349000256101, -23.982384000221373 ], [ -46.675374000309823, -23.989425000263509 ], [ -46.661791999900856, -23.988221999645532 ], [ -46.6499079995545, -24.001600999686332 ] ] } }
]
}
