{
"type": "FeatureCollection",
"features": [
{ "type": "Feature", "properties": { "Name": "ITAPUÃ", "Description": "ITAPUÃ \/ SP" }, "geometry": { "type": "LineString", "coordinates": [ [ -48.674099918676291, -22.19282217220541 ], [ -48.6733943825447, -22.197622855810096 ], [ -48.663267397572326, -22.198892359494778 ], [ -48.653784615867259, -22.209362186715509 ], [ -48.652200792832268, -22.225973662254656 ], [ -48.638521529844695, -22.244460540821251 ], [ -48.629770651494312, -22.250098394325391 ], [ -48.630886745227087, -22.260639965861685 ], [ -48.64826508616477, -22.273456140488463 ], [ -48.648925073433361, -22.282648648915995 ], [ -48.655319593124659, -22.288633292692282 ], [ -48.655779048664101, -22.293951966010354 ], [ -48.666135129632494, -22.294969490449603 ], [ -48.676441519460525, -22.305106146731248 ], [ -48.683915361404786, -22.307146376603953 ], [ -48.699734760850504, -22.318696008114213 ], [ -48.713756565712913, -22.318780532695371 ], [ -48.723487587282307, -22.316382244944577 ], [ -48.73272833624366, -22.317505660957465 ], [ -48.736631720377545, -22.296940557061021 ], [ -48.74458912778595, -22.290005635651539 ], [ -48.751975507063946, -22.266050379021749 ], [ -48.766020088156495, -22.254310992358342 ], [ -48.77069088717468, -22.241960045119924 ], [ -48.771539734770897, -22.226993279416263 ], [ -48.764527943809519, -22.216188255083861 ], [ -48.756633041081955, -22.217546555129385 ], [ -48.745393869931092, -22.22391353578098 ], [ -48.736952968104958, -22.21683861510996 ], [ -48.736918551050223, -22.205562527688468 ], [ -48.733704029617229, -22.198780207740352 ], [ -48.716885687524439, -22.186029779850401 ], [ -48.714487938467528, -22.180240641492389 ], [ -48.705092751629131, -22.183868285393032 ], [ -48.699099800815134, -22.190797257787153 ], [ -48.68188289627858, -22.18958342663376 ], [ -48.674099918676291, -22.19282217220541 ] ] } }
]
}
