{
"type": "FeatureCollection",
"features": [
{ "type": "Feature", "properties": { "Name": "ITAPETININGA", "Description": "ITAPETININGA \/ SP" }, "geometry": { "type": "LineString", "coordinates": [ [ -47.807214331476189, -23.488696195173244 ], [ -47.81175612814274, -23.487438689344003 ], [ -47.826362580468697, -23.499368729583182 ], [ -47.8339691002937, -23.49816763822588 ], [ -47.840793042664757, -23.510164030445594 ], [ -47.851049652319546, -23.506803700130604 ], [ -47.883365654201555, -23.515553744809434 ], [ -47.901809677374672, -23.513440882091004 ], [ -47.926823782291699, -23.519172813674345 ], [ -47.935056378648937, -23.513150758100949 ], [ -47.945612490424026, -23.510343264430048 ], [ -47.956073788474498, -23.50441108979993 ], [ -47.962832808787027, -23.50753600278426 ], [ -47.962860778602021, -23.517784171402354 ], [ -47.966709871563296, -23.52205876779783 ], [ -47.962088912972888, -23.528992694557186 ], [ -47.96202619425344, -23.536674682790306 ], [ -47.951099640036318, -23.543796079525407 ], [ -47.953027453753919, -23.553667935826521 ], [ -47.942055783247774, -23.555309732757902 ], [ -47.93373957781921, -23.561141965729064 ], [ -47.937895435825673, -23.567675226530412 ], [ -47.937630786031882, -23.579099923322758 ], [ -47.931807621824248, -23.58770453233825 ], [ -47.932620725865775, -23.605414255463472 ], [ -47.915478103531598, -23.608460945416255 ], [ -47.910376767573723, -23.605828785370079 ], [ -47.91746327600935, -23.619466710120545 ], [ -47.906908212843689, -23.627633238682957 ], [ -47.901250186646735, -23.646447422810294 ], [ -47.881791698528048, -23.660854776926385 ], [ -47.888441708418043, -23.665732047695826 ], [ -47.88531082033802, -23.676697502088018 ], [ -47.884657260524136, -23.695558959078653 ], [ -47.872046193377052, -23.704930772537068 ], [ -47.856610769371457, -23.720889202674524 ], [ -47.84074264105999, -23.720590071974186 ], [ -47.840358432695496, -23.730359904685827 ], [ -47.848533475139732, -23.749487095153256 ], [ -47.852065544489221, -23.750518322562471 ], [ -47.857000080489279, -23.7632555933709 ], [ -47.85997811080113, -23.777035153249695 ], [ -47.865683864918367, -23.783348953391453 ], [ -47.889105340638928, -23.779574438509485 ], [ -47.897729425372631, -23.78173543114519 ], [ -47.900570347743326, -23.786812985430913 ], [ -47.911131720552419, -23.794434536524591 ], [ -47.923194432377102, -23.793147767655284 ], [ -47.930119166266479, -23.778549174504747 ], [ -47.933527198421416, -23.77780107436007 ], [ -47.944011167481335, -23.754166890089834 ], [ -47.938471975900931, -23.74589941352707 ], [ -47.959074465514107, -23.749030564209136 ], [ -47.963843159334317, -23.744038578617449 ], [ -47.983059726225349, -23.747805322457623 ], [ -47.996827257671782, -23.743316369954471 ], [ -48.001799932121116, -23.747091508965923 ], [ -48.010489465016747, -23.74670477890237 ], [ -48.012289013826887, -23.754961987006027 ], [ -48.018491037231513, -23.761663684531356 ], [ -48.028586652951617, -23.767533773564761 ], [ -48.036224602283539, -23.758736490196835 ], [ -48.043858711510268, -23.759587541132078 ], [ -48.052110734123062, -23.755868564782418 ], [ -48.058833652950682, -23.758982429595388 ], [ -48.062537503602869, -23.766456086279334 ], [ -48.074124100846518, -23.779707225208256 ], [ -48.090934999250742, -23.791061927765725 ], [ -48.09492772113736, -23.79847519587355 ], [ -48.112274259349526, -23.808993997474943 ], [ -48.118921263705317, -23.817933826984472 ], [ -48.120192770180154, -23.824072030000139 ], [ -48.133397669566762, -23.825163279062053 ], [ -48.141942127427171, -23.834659347350964 ], [ -48.151789648973079, -23.840504801255516 ], [ -48.16879374423587, -23.845747011515297 ], [ -48.178401853662585, -23.841674137551362 ], [ -48.192257256966798, -23.840961401447487 ], [ -48.200463662368065, -23.843308156246394 ], [ -48.20746193472047, -23.849510682372056 ], [ -48.216807536538511, -23.852767654503623 ], [ -48.229177726570811, -23.849501980531954 ], [ -48.237202755802514, -23.852329696358368 ], [ -48.240304642545198, -23.861384838739298 ], [ -48.253216210959351, -23.859965880321056 ], [ -48.254186443649417, -23.855647716269061 ], [ -48.264467097578454, -23.851158669337053 ], [ -48.270974168323164, -23.851821926540651 ], [ -48.277657726522818, -23.845892888745766 ], [ -48.276817839771468, -23.840381756912503 ], [ -48.294598794598635, -23.826370900396682 ], [ -48.318667170653377, -23.835678528341361 ], [ -48.315544261358525, -23.844686836728101 ], [ -48.324875312145878, -23.854936490126875 ], [ -48.329785640195098, -23.850414692583968 ], [ -48.33848035228641, -23.854378843908478 ], [ -48.339864150809888, -23.846926960710618 ], [ -48.33151697542803, -23.840567556847247 ], [ -48.344349966477751, -23.83103030770252 ], [ -48.349061225095397, -23.831138571687688 ], [ -48.35367904505182, -23.824417350780095 ], [ -48.370059509039095, -23.820564893455014 ], [ -48.374442762423477, -23.814029589394007 ], [ -48.36526509460839, -23.810296704129538 ], [ -48.368821756818583, -23.797095295011783 ], [ -48.383165563939599, -23.791096905997392 ], [ -48.384565348811748, -23.785663317308202 ], [ -48.392643755504871, -23.781166303282248 ], [ -48.391141593609632, -23.771509313004344 ], [ -48.385044668576541, -23.763933201955634 ], [ -48.385243491593819, -23.758150071068883 ], [ -48.398129754884224, -23.753755408884956 ], [ -48.406509195243132, -23.737538728529444 ], [ -48.396639887620658, -23.740345124128112 ], [ -48.394913786442025, -23.725234398548594 ], [ -48.407813276061802, -23.714635292884395 ], [ -48.402427135603773, -23.712532366775235 ], [ -48.399206935851332, -23.7003926118295 ], [ -48.391019694103534, -23.687189922077206 ], [ -48.374345340664888, -23.6804073080508 ], [ -48.366467722907032, -23.672834315850935 ], [ -48.364106284877096, -23.66010462992466 ], [ -48.371033824651249, -23.645575691065233 ], [ -48.370926141628104, -23.631531770075071 ], [ -48.373401582217184, -23.620455610937654 ], [ -48.381646242979684, -23.60327880717119 ], [ -48.383785084414058, -23.58623871024821 ], [ -48.380247682984134, -23.578319452980335 ], [ -48.366093425970803, -23.574531220739175 ], [ -48.353869076296803, -23.574516685896295 ], [ -48.348051600301055, -23.582416087932074 ], [ -48.343329491362908, -23.575219237178032 ], [ -48.334333793269877, -23.581342381945319 ], [ -48.335790200357394, -23.591941296053903 ], [ -48.3312019429153, -23.594387845022993 ], [ -48.318594705980843, -23.586576799579575 ], [ -48.316033754254306, -23.589458493614529 ], [ -48.303691474681784, -23.590365083981396 ], [ -48.294168013942624, -23.573726644069325 ], [ -48.293701326954647, -23.569091479787915 ], [ -48.274673189615953, -23.572042381150936 ], [ -48.262790850317458, -23.564448639792829 ], [ -48.261140858763554, -23.551875867577166 ], [ -48.251655956457171, -23.539121140028556 ], [ -48.249601069433766, -23.5315608345648 ], [ -48.243762517825871, -23.531299028427384 ], [ -48.236859209384988, -23.519135650090107 ], [ -48.219919780773239, -23.511877807314931 ], [ -48.209325199598254, -23.499760810612884 ], [ -48.194740340893986, -23.499292999472289 ], [ -48.192842689538452, -23.490207213591987 ], [ -48.174422304145992, -23.494653380848771 ], [ -48.16605599658692, -23.482642469074619 ], [ -48.167948803294621, -23.477202197523354 ], [ -48.153534577458743, -23.471601778299373 ], [ -48.151301809930537, -23.466222695720774 ], [ -48.139909558878969, -23.464420212422795 ], [ -48.136736917075041, -23.460834036261701 ], [ -48.116757164811247, -23.457541387125271 ], [ -48.113976019477661, -23.451093346080995 ], [ -48.107160638652488, -23.450434089061901 ], [ -48.087560985750827, -23.437140320469382 ], [ -48.084826388427011, -23.427733123185018 ], [ -48.077877919630225, -23.418749842930879 ], [ -48.05435399044427, -23.420123236298252 ], [ -48.048752350840289, -23.424291800825927 ], [ -48.042963278132724, -23.433012097730057 ], [ -48.033141380070617, -23.429351522454738 ], [ -48.029502714078944, -23.432879665364226 ], [ -47.999891857623084, -23.430739040574224 ], [ -47.986824350363463, -23.421941716736796 ], [ -47.979412313427474, -23.422456537239384 ], [ -47.968384280609996, -23.412659953294167 ], [ -47.960402061805667, -23.41590175386278 ], [ -47.950253047040455, -23.40850518976265 ], [ -47.943518105176395, -23.410237725590488 ], [ -47.931707047042551, -23.419958806953332 ], [ -47.939384350707201, -23.442146953319195 ], [ -47.939445362513425, -23.450890374491166 ], [ -47.935851187782021, -23.461858847907479 ], [ -47.923063754588554, -23.461503612101978 ], [ -47.911609111271446, -23.449323846318407 ], [ -47.900130993850262, -23.443985522813588 ], [ -47.892917508336325, -23.444482635665054 ], [ -47.889051569274443, -23.449718551569845 ], [ -47.870018920037069, -23.445529692940909 ], [ -47.862504666157349, -23.456032740218745 ], [ -47.851034932216287, -23.463945407254698 ], [ -47.846858602942113, -23.483076414444952 ], [ -47.825419197937606, -23.476829988812881 ], [ -47.810207786959779, -23.48303014432565 ], [ -47.807214331476189, -23.488696195173244 ] ] } }
]
}
