{
"type": "FeatureCollection",
"features": [
{ "type": "Feature", "properties": { "Name": "ITARARÃ", "Description": "ITARARÃ \/ SP" }, "geometry": { "type": "LineString", "coordinates": [ [ -49.199626209881615, -24.09794523648344 ], [ -49.198709332169926, -24.102204008408194 ], [ -49.183285753134946, -24.112260214936953 ], [ -49.166687127109185, -24.116907480495794 ], [ -49.158290055541606, -24.123910916755335 ], [ -49.153452790214025, -24.134918391070869 ], [ -49.142260279488255, -24.145597014790383 ], [ -49.135655809468005, -24.163536762011912 ], [ -49.138704509405557, -24.181194208445898 ], [ -49.137037484692144, -24.18582920905072 ], [ -49.125654387839688, -24.196319662222606 ], [ -49.121455579111625, -24.21026751223587 ], [ -49.13668060852325, -24.213243421946345 ], [ -49.142594365937214, -24.233355567005788 ], [ -49.149481539641272, -24.234862580743481 ], [ -49.152457156172773, -24.242895788409839 ], [ -49.148460293807489, -24.258385717626709 ], [ -49.14510064068196, -24.268753720907455 ], [ -49.150795353822502, -24.27860021362892 ], [ -49.159545523507056, -24.277904714830697 ], [ -49.173896264401037, -24.286781402040049 ], [ -49.181006295504119, -24.280394313446777 ], [ -49.194009686497793, -24.289995921674404 ], [ -49.196843150790755, -24.296218317421388 ], [ -49.205173876673022, -24.302705745173967 ], [ -49.21421271974117, -24.305114911124178 ], [ -49.227036626738879, -24.292706920787737 ], [ -49.231594913374522, -24.292552425354074 ], [ -49.236593614203912, -24.300411212207621 ], [ -49.246482504563915, -24.306145518900507 ], [ -49.25423565615057, -24.317917276660921 ], [ -49.269821125744329, -24.307175002524275 ], [ -49.286900309901341, -24.302598895822314 ], [ -49.29144947741139, -24.29115524851585 ], [ -49.301234974514443, -24.276303879320547 ], [ -49.298709866167371, -24.268056519692607 ], [ -49.305374067359253, -24.251430972461378 ], [ -49.3127058793728, -24.243396796225113 ], [ -49.319623712764091, -24.243806479685247 ], [ -49.322677991196315, -24.235976403688028 ], [ -49.334740185910789, -24.231036995161162 ], [ -49.336907898280856, -24.227555705131635 ], [ -49.350677247257124, -24.220800431394764 ], [ -49.355762425995124, -24.209073713481075 ], [ -49.342817953185936, -24.204275215228961 ], [ -49.346317476969944, -24.19119242309182 ], [ -49.339825889852868, -24.174794529344013 ], [ -49.340345435393488, -24.157179442777018 ], [ -49.333156011240874, -24.151835635206339 ], [ -49.336566257526727, -24.137581853819427 ], [ -49.35737284827826, -24.130417403840056 ], [ -49.362954298102352, -24.126838037345522 ], [ -49.370846521749513, -24.114383451335186 ], [ -49.377993086012047, -24.118092938038615 ], [ -49.392346517677588, -24.115058828701933 ], [ -49.408708249685958, -24.106892438635096 ], [ -49.404882198254825, -24.095848756714702 ], [ -49.42487970223641, -24.090266754706931 ], [ -49.431843833625976, -24.085601332735276 ], [ -49.429012156285921, -24.078037373326083 ], [ -49.42978620097233, -24.068708755204852 ], [ -49.440017510000018, -24.066833928642836 ], [ -49.437823454688662, -24.058786342615576 ], [ -49.449847736683637, -24.056421685012705 ], [ -49.457540139965431, -24.049485219467268 ], [ -49.462657303991364, -24.038167358536725 ], [ -49.463443070441315, -24.027435777339235 ], [ -49.474381702553494, -24.020059736667463 ], [ -49.487153298685769, -24.024599720300785 ], [ -49.490154919114161, -24.018659557892249 ], [ -49.481019708292877, -24.008804641221161 ], [ -49.492269897937376, -23.993378625023468 ], [ -49.498350636072928, -23.992887384744961 ], [ -49.493684705085002, -23.977595777622977 ], [ -49.500600669685127, -23.969489496443089 ], [ -49.507242210659456, -23.967394164209278 ], [ -49.500035807306631, -23.957976247905492 ], [ -49.505668845840546, -23.954844099875288 ], [ -49.50291341392289, -23.948542202260796 ], [ -49.521099741759656, -23.94610179745996 ], [ -49.524350066102613, -23.936518491335278 ], [ -49.509402736547031, -23.93637525361504 ], [ -49.511604590779193, -23.925899799336207 ], [ -49.522335860811268, -23.916564567600687 ], [ -49.507743357869629, -23.91240065256801 ], [ -49.502198462788783, -23.907006931724482 ], [ -49.475837170748775, -23.915262395143372 ], [ -49.46067807153571, -23.914832653204314 ], [ -49.456768527045817, -23.918887626162984 ], [ -49.429737362389339, -23.906106111407894 ], [ -49.40463363193652, -23.907175158906398 ], [ -49.389293947957299, -23.906685574279777 ], [ -49.380021388176488, -23.903864720280581 ], [ -49.362696938213105, -23.903640152371111 ], [ -49.353640196837546, -23.90583875825206 ], [ -49.338730946376018, -23.898101278251318 ], [ -49.328151808359223, -23.90325930387371 ], [ -49.300207251763197, -23.892209939137331 ], [ -49.289362614093307, -23.891524190788743 ], [ -49.282710476407317, -23.8846207114766 ], [ -49.275917375386541, -23.889402592055944 ], [ -49.270207712815647, -23.90066476426739 ], [ -49.261156561625967, -23.899549860337743 ], [ -49.251657110986855, -23.90574312524501 ], [ -49.254492730954723, -23.914819343238037 ], [ -49.244230686696767, -23.923816800404946 ], [ -49.246014099870763, -23.942194627180243 ], [ -49.237257771628833, -23.945898289874151 ], [ -49.234698721968414, -23.957549856840387 ], [ -49.23033419876424, -23.963972262709714 ], [ -49.219236171711941, -23.972085120631785 ], [ -49.225851121532003, -23.980432505555651 ], [ -49.220620435184912, -23.983278602625372 ], [ -49.211183452354419, -23.981182675939692 ], [ -49.201123624255779, -24.001551047742623 ], [ -49.204014819628185, -24.004777659661215 ], [ -49.20442414425878, -24.019114029388902 ], [ -49.193316702204015, -24.031378074238713 ], [ -49.189849409222802, -24.044690367066721 ], [ -49.191921071300385, -24.05842023130856 ], [ -49.201153807302319, -24.06993333235738 ], [ -49.196819534593821, -24.082536742676496 ], [ -49.20073389315462, -24.084143723254158 ], [ -49.199626209881615, -24.09794523648344 ] ] } }
]
}
