{
"type": "FeatureCollection",
"features": [
{ "type": "Feature", "properties": { "Name": "ITATIBA", "Description": "ITATIBA \/ SP" }, "geometry": { "type": "LineString", "coordinates": [ [ -46.681600032915128, -22.930223472834939 ], [ -46.676721048937225, -22.933101959887495 ], [ -46.686675016938466, -22.941897404141855 ], [ -46.697399957541954, -22.957031810669491 ], [ -46.703763775277991, -22.959722937463539 ], [ -46.712512751562201, -22.958413108178377 ], [ -46.720670090851961, -22.967187205225287 ], [ -46.716328042605021, -22.977340135638709 ], [ -46.725384258776501, -22.979285345842015 ], [ -46.72654642387829, -22.98378128967471 ], [ -46.742440264706424, -22.989258385765819 ], [ -46.741253095753734, -22.994632415953159 ], [ -46.761389638520939, -23.001535942030046 ], [ -46.750595441126677, -23.012135021613915 ], [ -46.731896009593129, -23.014018907946195 ], [ -46.732823510996184, -23.022366238910763 ], [ -46.723929481260484, -23.028261723899391 ], [ -46.727880192217064, -23.039225477673597 ], [ -46.743389497327364, -23.058750928412564 ], [ -46.745833216129995, -23.06833855398105 ], [ -46.752641693759131, -23.073071554608532 ], [ -46.750843733151726, -23.087939792387484 ], [ -46.766159426816046, -23.099243102287289 ], [ -46.773436083408455, -23.09681483653543 ], [ -46.779954069224857, -23.099517031285927 ], [ -46.78636900892257, -23.097042663588013 ], [ -46.792604020359192, -23.102838703343419 ], [ -46.804884585754962, -23.100968246587286 ], [ -46.816218504979986, -23.10637759764796 ], [ -46.819527095499041, -23.099276331337588 ], [ -46.828086184429822, -23.096859339486855 ], [ -46.834808943178125, -23.099625336639917 ], [ -46.846858526699577, -23.097612608035373 ], [ -46.854614315997821, -23.082879860317234 ], [ -46.865329801129349, -23.076376732200398 ], [ -46.876317230455747, -23.067519176268945 ], [ -46.894595946545671, -23.060071553159617 ], [ -46.901667814018367, -23.060673961334199 ], [ -46.910306808612283, -23.057026610589556 ], [ -46.915993696751684, -23.045748247883296 ], [ -46.910882944891959, -23.039206347295021 ], [ -46.904374643874682, -23.038217443779956 ], [ -46.90600697724016, -23.028468709163572 ], [ -46.910530495186151, -23.025900284970135 ], [ -46.910475525924767, -23.017485496758241 ], [ -46.927635113069982, -22.985175136323448 ], [ -46.92619481823624, -22.974544825982889 ], [ -46.914771690760858, -22.963558552285292 ], [ -46.906893803206394, -22.959430722549765 ], [ -46.902662340094878, -22.948323546694269 ], [ -46.895531342197614, -22.945237251497929 ], [ -46.886610282438539, -22.945888945218599 ], [ -46.875562156068611, -22.937464824741824 ], [ -46.878488946607547, -22.92745972128904 ], [ -46.878453999852177, -22.927069000034294 ], [ -46.871032294304882, -22.939853699288733 ], [ -46.860107660140386, -22.941538008971918 ], [ -46.853389481639226, -22.935922464050407 ], [ -46.8421513393128, -22.935412787669975 ], [ -46.83962166330906, -22.939025492032783 ], [ -46.822659560090585, -22.930386158394469 ], [ -46.800006905794021, -22.935293521378867 ], [ -46.789086697193284, -22.923858564221291 ], [ -46.765420153517248, -22.922429400296551 ], [ -46.757788932912888, -22.936539995224564 ], [ -46.75009509611175, -22.93843667351365 ], [ -46.740688267549444, -22.933259208145895 ], [ -46.715799544313484, -22.928953771299458 ], [ -46.711534701964858, -22.931373031240355 ], [ -46.703857640217905, -22.92629785566146 ], [ -46.681600032915128, -22.930223472834939 ] ] } }
]
}
