{
"type": "FeatureCollection",
"features": [
{ "type": "Feature", "properties": { "Name": "ITATINGA", "Description": "ITATINGA \/ SP" }, "geometry": { "type": "LineString", "coordinates": [ [ -48.476342947868716, -23.081649196553141 ], [ -48.470344114589182, -23.087387593362674 ], [ -48.462249951773792, -23.119216727469961 ], [ -48.467428968472063, -23.134485311048195 ], [ -48.461446511846987, -23.14150156984152 ], [ -48.460521093273769, -23.154255154351858 ], [ -48.455682293702864, -23.158294145458399 ], [ -48.450136916585386, -23.174451346452429 ], [ -48.436843710069127, -23.192480179616553 ], [ -48.427782706806454, -23.199430112509614 ], [ -48.42836786868213, -23.203084089459139 ], [ -48.439334663963507, -23.212050600055075 ], [ -48.4520247122706, -23.210675513264277 ], [ -48.464689620929221, -23.224731557115604 ], [ -48.470686782369057, -23.24094657102739 ], [ -48.482372234890704, -23.241842854264291 ], [ -48.491921570923694, -23.251442998395589 ], [ -48.491538866225653, -23.261133308555316 ], [ -48.503287423275935, -23.26897919823136 ], [ -48.514493272746279, -23.27185139092893 ], [ -48.537061823344402, -23.273195662449837 ], [ -48.547574043707129, -23.280598966069363 ], [ -48.554097614313434, -23.279363810191626 ], [ -48.566548896214556, -23.295728417332555 ], [ -48.57985983376426, -23.297432360115295 ], [ -48.584406932833637, -23.308027265046178 ], [ -48.592709859772185, -23.31538468075837 ], [ -48.60365264405425, -23.316211545326496 ], [ -48.62478777873298, -23.325611607389703 ], [ -48.647460604823031, -23.329077814889217 ], [ -48.664626480927318, -23.333916008317086 ], [ -48.677457857693923, -23.341761165945002 ], [ -48.685768601539678, -23.343059797771389 ], [ -48.704182366123234, -23.341619934612254 ], [ -48.709414515667333, -23.337508112809132 ], [ -48.707447575145409, -23.323424323973313 ], [ -48.709402606844776, -23.319081390793482 ], [ -48.732773186333418, -23.319638312158361 ], [ -48.754057716390435, -23.308241322578908 ], [ -48.773997887692303, -23.302420808673332 ], [ -48.77657541302483, -23.285677764117448 ], [ -48.772788167340025, -23.276633078153964 ], [ -48.766881028036948, -23.271859444357801 ], [ -48.772428186711409, -23.265786218259336 ], [ -48.745644965142958, -23.251401682641472 ], [ -48.74745068689964, -23.240279743515316 ], [ -48.740652104510957, -23.23010624021077 ], [ -48.741192815595923, -23.221068777601939 ], [ -48.73602649192901, -23.208318035848606 ], [ -48.743804460307558, -23.201994994273548 ], [ -48.744702752629905, -23.18518420108995 ], [ -48.742423771639722, -23.171905907131872 ], [ -48.744458271032329, -23.165893656866729 ], [ -48.733907567779966, -23.147783557365244 ], [ -48.735800784578487, -23.137862908346506 ], [ -48.74736621627784, -23.122265556909895 ], [ -48.750860380102438, -23.1141307888048 ], [ -48.741319020156595, -23.089897730695668 ], [ -48.75294829742591, -23.084452719717206 ], [ -48.771176454529716, -23.06872637941882 ], [ -48.775638049656202, -23.057528876556376 ], [ -48.777488005467035, -23.046506289133902 ], [ -48.770024864555801, -23.03331235608033 ], [ -48.769346938510353, -23.019974598049203 ], [ -48.761096906097293, -23.011089858310243 ], [ -48.761406177552999, -22.992985875097986 ], [ -48.766629173797291, -22.986883352684512 ], [ -48.777645921921703, -22.965544972122697 ], [ -48.765965046949297, -22.96132195454453 ], [ -48.760814668262299, -22.955446907548719 ], [ -48.751783129487812, -22.95684645859717 ], [ -48.748765081143517, -22.953195951232146 ], [ -48.7324256334362, -22.952181524058059 ], [ -48.720038139548478, -22.944438930512206 ], [ -48.70541685290538, -22.943301538135412 ], [ -48.694425195866074, -22.947576608473639 ], [ -48.688249588247857, -22.946871012087513 ], [ -48.673613202886941, -22.952628022165467 ], [ -48.66137340915548, -22.963155122710702 ], [ -48.645141963730616, -22.966450104688533 ], [ -48.640196214083971, -22.970285089085564 ], [ -48.642983580927478, -22.978965397634965 ], [ -48.640609305974635, -22.988633093442445 ], [ -48.636505207549249, -22.992653730285383 ], [ -48.636331176142846, -23.020634963033046 ], [ -48.627758310497597, -23.030532040820958 ], [ -48.617107168261157, -23.038742118154175 ], [ -48.607195625777472, -23.040522020374908 ], [ -48.599865937063328, -23.03632637546184 ], [ -48.586068296314807, -23.035309080349748 ], [ -48.575080208684653, -23.039068395789794 ], [ -48.566266471320546, -23.0365255348255 ], [ -48.546710556047287, -23.052386764437585 ], [ -48.525689630771808, -23.059677454950528 ], [ -48.519912858991233, -23.056905488997071 ], [ -48.515251027113152, -23.063514028449614 ], [ -48.501886572707122, -23.063286236470617 ], [ -48.496065026379824, -23.068681021212111 ], [ -48.48005291750809, -23.076221447162027 ], [ -48.476342947868716, -23.081649196553141 ] ] } }
]
}
