{
"type": "FeatureCollection",
"features": [
{ "type": "Feature", "properties": { "Name": "ITIRAPUÃ", "Description": "ITIRAPUÃ \/ SP" }, "geometry": { "type": "LineString", "coordinates": [ [ -47.186246075296083, -20.73143926261184 ], [ -47.194985670752089, -20.729862327484394 ], [ -47.197738680795453, -20.722947341346696 ], [ -47.208676299371682, -20.705891718527937 ], [ -47.221508114108126, -20.706676551481621 ], [ -47.226310424586359, -20.694418493418709 ], [ -47.236963932039771, -20.686344645389056 ], [ -47.249848799582367, -20.655542277154325 ], [ -47.251965286568684, -20.647968228251102 ], [ -47.239755559871128, -20.642344666772885 ], [ -47.231441830276189, -20.634472461135147 ], [ -47.228985852814787, -20.628171712854225 ], [ -47.219303071779279, -20.623858695622232 ], [ -47.214434174597443, -20.617610199750857 ], [ -47.200644090852045, -20.609539503844985 ], [ -47.18405911023973, -20.60285085188525 ], [ -47.175375658559744, -20.602119500714366 ], [ -47.166050237528395, -20.604811498052129 ], [ -47.153330529580217, -20.599280205217269 ], [ -47.151292420308891, -20.586862438350806 ], [ -47.143640044952065, -20.583843541945839 ], [ -47.141164454176192, -20.577250782897295 ], [ -47.142752215342398, -20.565591388231951 ], [ -47.135549965058772, -20.578842401255766 ], [ -47.132396049837773, -20.5907838691802 ], [ -47.122761789924596, -20.594681293506824 ], [ -47.125729855748204, -20.603006813213824 ], [ -47.123322583770175, -20.61272249774504 ], [ -47.115901934926342, -20.615276559765391 ], [ -47.108506990505191, -20.62188630880604 ], [ -47.11268085024102, -20.638084308444036 ], [ -47.097456449455535, -20.643876828252985 ], [ -47.096787258525126, -20.66178321602257 ], [ -47.10271023758736, -20.66988713288481 ], [ -47.101235285579946, -20.683165819846636 ], [ -47.113321818646966, -20.697691827815557 ], [ -47.115300849654432, -20.707204836633878 ], [ -47.126675363377274, -20.709318544715018 ], [ -47.134121710348609, -20.706432790241021 ], [ -47.147425366087759, -20.707469024176078 ], [ -47.157289731935521, -20.703576364457604 ], [ -47.169240770445185, -20.703430847855312 ], [ -47.173124792175372, -20.711918625044458 ], [ -47.170273479937123, -20.718630569445168 ], [ -47.186246075296083, -20.73143926261184 ] ] } }
]
}
