{
"type": "FeatureCollection",
"features": [
{ "type": "Feature", "properties": { "Name": "JANDIRA", "Description": "JANDIRA \/ SP" }, "geometry": { "type": "LineString", "coordinates": [ [ -46.860627999782302, -23.544836999827623 ], [ -46.863589999678709, -23.554688999997325 ], [ -46.872418000290445, -23.554284000206394 ], [ -46.871450666115322, -23.561496981200662 ], [ -46.875955999769531, -23.56528000007188 ], [ -46.886457000190369, -23.569377000148393 ], [ -46.902494260401738, -23.568602593934543 ], [ -46.911118999841904, -23.563057000080448 ], [ -46.907574000040029, -23.553578000024629 ], [ -46.917015041510922, -23.545885665990625 ], [ -46.916309322816971, -23.536264671976994 ], [ -46.92252000039764, -23.522962000096186 ], [ -46.929018999727013, -23.523514000370767 ], [ -46.929600999586398, -23.51318299969563 ], [ -46.915190999664837, -23.512473000228738 ], [ -46.914423000221234, -23.518571999997732 ], [ -46.903197999687904, -23.519540999717321 ], [ -46.89410600039156, -23.525797000431169 ], [ -46.891784404126895, -23.531494529349004 ], [ -46.894626000089772, -23.538464000013558 ], [ -46.890670509236543, -23.550101133760279 ], [ -46.886440628032517, -23.553188074669887 ], [ -46.876356198979344, -23.548456977907165 ], [ -46.872556000359111, -23.550407000382734 ], [ -46.860627999782302, -23.544836999827623 ] ] } }
]
}
