{
"type": "FeatureCollection",
"features": [
{ "type": "Feature", "properties": { "Name": "JARDINÃPOLIS", "Description": "JARDINÃPOLIS \/ SP" }, "geometry": { "type": "LineString", "coordinates": [ [ -47.779746420061201, -20.894437787973516 ], [ -47.774909138545858, -20.90872489014151 ], [ -47.769038206847711, -20.916938527890693 ], [ -47.766195411189244, -20.930889220660958 ], [ -47.756245268004648, -20.93355133622515 ], [ -47.75352196346779, -20.939133349924134 ], [ -47.742552485508782, -20.94376795932379 ], [ -47.733586696169027, -20.94052353453344 ], [ -47.724267988576742, -20.941974753432074 ], [ -47.718502784775637, -20.938363005947906 ], [ -47.71747199983286, -20.94487899976599 ], [ -47.711013999696263, -20.949203999564872 ], [ -47.709927999977197, -20.95592800027697 ], [ -47.723048999811454, -20.966579000420495 ], [ -47.726034999915271, -20.974217000114436 ], [ -47.686864000273374, -21.002747000073953 ], [ -47.688375999852497, -21.018337999598941 ], [ -47.679504999955725, -21.025953000030881 ], [ -47.683065000449346, -21.039171999887856 ], [ -47.672472000282539, -21.062808999935328 ], [ -47.673983999861662, -21.074751000258402 ], [ -47.680808999835449, -21.081210000441104 ], [ -47.690999000303577, -21.08123599984145 ], [ -47.68974700012393, -21.09016899989939 ], [ -47.698847999835266, -21.103242000218074 ], [ -47.712173000083851, -21.111863000277197 ], [ -47.719052999896007, -21.120072000222592 ], [ -47.730989999988481, -21.115239000379518 ], [ -47.750967000326739, -21.112658000066627 ], [ -47.762776999958533, -21.095684999762909 ], [ -47.755006000426533, -21.082492000205605 ], [ -47.769433000232709, -21.082104000299353 ], [ -47.778296999806628, -21.0888429999045 ], [ -47.785487000424666, -21.086422999821536 ], [ -47.78486200038099, -21.080803999704756 ], [ -47.776410000021428, -21.071793999693284 ], [ -47.778567999713339, -21.061755999939404 ], [ -47.796084999922755, -21.060063000107334 ], [ -47.801823000131321, -21.066837000427199 ], [ -47.808351999944819, -21.065729999739631 ], [ -47.820818000150545, -21.068142000352964 ], [ -47.849842999554767, -21.063908000253946 ], [ -47.872007202370469, -21.064274868790108 ], [ -47.88485961068244, -21.055436519679574 ], [ -47.892696743659769, -21.039231567382899 ], [ -47.890273469145257, -21.032220697327261 ], [ -47.876063673599617, -21.024055774953979 ], [ -47.870876000027351, -21.018037000107427 ], [ -47.875876408669285, -21.010631231446155 ], [ -47.895984996010725, -21.021852941360123 ], [ -47.907172250199153, -21.031959920014231 ], [ -47.923812531023422, -21.035338359077969 ], [ -47.93602517422238, -21.034568808303789 ], [ -47.945438472507476, -21.0312915438696 ], [ -47.951850819459708, -21.018157301518215 ], [ -47.957303552017265, -21.011985566380758 ], [ -47.957080458995961, -20.999147057990285 ], [ -47.959653440054183, -20.994565544564182 ], [ -47.969406551671, -20.998921589859435 ], [ -47.97958777925254, -20.997396648136771 ], [ -47.988039815584955, -20.992054941382374 ], [ -48.000058463327377, -20.983365313158625 ], [ -48.001791478493885, -20.968414917814187 ], [ -47.991798318037922, -20.957800276361638 ], [ -47.978485899304758, -20.948577173897434 ], [ -47.967830149841518, -20.928921236925476 ], [ -47.965299141941784, -20.921568952744906 ], [ -47.953193190713129, -20.917201203672562 ], [ -47.947922956679065, -20.912773564248539 ], [ -47.939718207829003, -20.899946699380621 ], [ -47.935695296600613, -20.892968043040696 ], [ -47.922715243913331, -20.882951970556974 ], [ -47.912701063603151, -20.890450146357125 ], [ -47.903266463976081, -20.890883584509766 ], [ -47.897098494300053, -20.89718597585204 ], [ -47.8901783055843, -20.90962650186151 ], [ -47.878483352624585, -20.905180628683013 ], [ -47.870586108961724, -20.894537537177541 ], [ -47.856042930236981, -20.898615105602573 ], [ -47.840108797083303, -20.910697598015702 ], [ -47.818151798966312, -20.89426417924841 ], [ -47.800072132522871, -20.889614362312894 ], [ -47.796531799303068, -20.899520489978553 ], [ -47.779746420061201, -20.894437787973516 ] ] } }
]
}
