{
"type": "FeatureCollection",
"features": [
{ "type": "Feature", "properties": { "Name": "JOÃO RAMALHO", "Description": "JOÃO RAMALHO \/ SP" }, "geometry": { "type": "LineString", "coordinates": [ [ -50.783544408447646, -22.435186584892961 ], [ -50.796932890040807, -22.443834130240873 ], [ -50.803171505060845, -22.442884200645324 ], [ -50.829558075244961, -22.428279924678748 ], [ -50.829777782318786, -22.422289121445772 ], [ -50.836564049391313, -22.420011655813198 ], [ -50.842130253008747, -22.424414263507401 ], [ -50.855736884949238, -22.427983934410975 ], [ -50.880478274053075, -22.420653143127993 ], [ -50.886673887090183, -22.42256055392636 ], [ -50.898179502182238, -22.43300798802818 ], [ -50.914890668469525, -22.442188794477261 ], [ -50.922303027362773, -22.444545192706414 ], [ -50.934501737365224, -22.426472208225785 ], [ -50.933446244448589, -22.417852005865313 ], [ -50.925928452635958, -22.403580243433453 ], [ -50.905486423659511, -22.34822520702761 ], [ -50.900231817144629, -22.345790488640088 ], [ -50.887103774719371, -22.347816986764485 ], [ -50.868506226481138, -22.341400749345041 ], [ -50.858218058716375, -22.34697878084603 ], [ -50.853115989811037, -22.354688297327016 ], [ -50.843527383981552, -22.34174022722965 ], [ -50.846811380740569, -22.323392629366307 ], [ -50.855607712625783, -22.308385645081387 ], [ -50.851924267590846, -22.299622687936676 ], [ -50.858873863238159, -22.287882982913288 ], [ -50.859346095445915, -22.282259445716818 ], [ -50.847991319144, -22.273705302157907 ], [ -50.84282579857171, -22.261326835664875 ], [ -50.843167683042111, -22.249551346617295 ], [ -50.838418569261535, -22.239414471800387 ], [ -50.823353451900225, -22.238679206779921 ], [ -50.767931447478304, -22.102605778234022 ], [ -50.777067589997216, -22.09466390571464 ], [ -50.773328670281835, -22.087482955873664 ], [ -50.760161010022557, -22.084757591889286 ], [ -50.751025169675813, -22.05816751861607 ], [ -50.741039490679896, -22.057528143808725 ], [ -50.736876706095074, -22.046719241599703 ], [ -50.731226286363999, -22.049605023053346 ], [ -50.72346820019726, -22.045676072092984 ], [ -50.713043919141512, -22.036639367612679 ], [ -50.713542550048601, -22.03179018626804 ], [ -50.705772447140703, -22.021953011422283 ], [ -50.703724574829202, -22.028380289818472 ], [ -50.704794163719612, -22.044430852801554 ], [ -50.712875047145644, -22.058244773077774 ], [ -50.714827738809049, -22.069117842814133 ], [ -50.725151731067506, -22.091306762596957 ], [ -50.721463846079587, -22.109250639505376 ], [ -50.714893357842122, -22.120885040212386 ], [ -50.709625810083025, -22.139340663740594 ], [ -50.712657631544403, -22.142390045364266 ], [ -50.713376563077873, -22.153344086460379 ], [ -50.718853819248295, -22.153531791159196 ], [ -50.725542308430761, -22.166858929096236 ], [ -50.725403572716687, -22.177027279285483 ], [ -50.717371756301475, -22.187854192217173 ], [ -50.721294885950158, -22.197296879447379 ], [ -50.730183955924758, -22.200470968260504 ], [ -50.727547672487049, -22.213796759912498 ], [ -50.731103563978252, -22.21992426279445 ], [ -50.726731758963467, -22.228374948345163 ], [ -50.728798142020594, -22.235774186129728 ], [ -50.721778050316736, -22.240456054003626 ], [ -50.716623614787977, -22.249702371567139 ], [ -50.719910290627354, -22.257729748928735 ], [ -50.728974134848386, -22.266852950203429 ], [ -50.736319673214325, -22.281600521446876 ], [ -50.745798424157897, -22.287497617121286 ], [ -50.74779655676565, -22.295349114969611 ], [ -50.758941911539921, -22.303492508472459 ], [ -50.762556405553653, -22.325045505945297 ], [ -50.770005072775859, -22.349841021645773 ], [ -50.761806345786169, -22.366054700963613 ], [ -50.764305670570195, -22.387518698828842 ], [ -50.772657467568017, -22.398887639452937 ], [ -50.786298762078161, -22.41132477321969 ], [ -50.785547924397179, -22.429748370091147 ], [ -50.783544408447646, -22.435186584892961 ] ] } }
]
}
