{
"type": "FeatureCollection",
"features": [
{ "type": "Feature", "properties": { "Name": "LAGOINHA", "Description": "LAGOINHA \/ SP" }, "geometry": { "type": "LineString", "coordinates": [ [ -45.155951221871362, -23.015428110518823 ], [ -45.164287126049999, -23.026430912856313 ], [ -45.161407329584563, -23.032714059606118 ], [ -45.154454995501624, -23.028553426199608 ], [ -45.147605954850917, -23.035449932168603 ], [ -45.146722381732502, -23.045154927357942 ], [ -45.13909646712824, -23.048762341908514 ], [ -45.124457345130338, -23.048798535124259 ], [ -45.125428472645865, -23.054281880604265 ], [ -45.137846475134666, -23.062640443201872 ], [ -45.139952522790679, -23.069510516297267 ], [ -45.131751976472515, -23.078130515410919 ], [ -45.131682477764116, -23.083559651556641 ], [ -45.140165361741992, -23.100214345815345 ], [ -45.148909173219749, -23.105273966720119 ], [ -45.144288534788011, -23.110789649122978 ], [ -45.141582142002221, -23.125991949069146 ], [ -45.136583405199929, -23.127108840500568 ], [ -45.13080554074304, -23.167182476190305 ], [ -45.141476738760446, -23.175213253888497 ], [ -45.146209487577721, -23.1875050707024 ], [ -45.154252074273757, -23.186326919251883 ], [ -45.170959317718314, -23.194852962594098 ], [ -45.186807520650511, -23.197286510064316 ], [ -45.194973862153972, -23.184994961248435 ], [ -45.197323757385441, -23.167323798354573 ], [ -45.204363689932279, -23.168179362087869 ], [ -45.211639935534549, -23.161174080419414 ], [ -45.213069791937301, -23.152951382000651 ], [ -45.222521225074445, -23.15792316522186 ], [ -45.230459367205981, -23.157727202048704 ], [ -45.229271727008545, -23.149554927717702 ], [ -45.233835862834781, -23.137679143577543 ], [ -45.228249326445223, -23.131207149090585 ], [ -45.22877290184789, -23.125306687253783 ], [ -45.246533653405322, -23.127175095354346 ], [ -45.252368004279958, -23.123804773571404 ], [ -45.263712906025773, -23.126584086086666 ], [ -45.27012348940746, -23.114530920565468 ], [ -45.269616792480974, -23.106983443930744 ], [ -45.275402309269111, -23.097545977264982 ], [ -45.273653938178654, -23.092812947859212 ], [ -45.279562899508157, -23.087232705824647 ], [ -45.300115066656979, -23.091987051860883 ], [ -45.296506838219955, -23.085042949272633 ], [ -45.312195527501558, -23.059106878279749 ], [ -45.29341832349678, -23.049595325463827 ], [ -45.289077698876667, -23.045261144486176 ], [ -45.297815194415648, -23.032242352602452 ], [ -45.294223248204275, -23.027080352875942 ], [ -45.268983991717782, -23.017921683239024 ], [ -45.257747731672453, -23.008000613337572 ], [ -45.245559475389427, -22.998796416421442 ], [ -45.234386703883217, -23.001112732766387 ], [ -45.225686495135619, -22.998497315398762 ], [ -45.211935584959235, -23.002730328042162 ], [ -45.196933437228324, -22.998448419259091 ], [ -45.176622114818706, -23.008489746504551 ], [ -45.167981416908844, -23.004855499781456 ], [ -45.158693629807139, -23.009817160233695 ], [ -45.155951221871362, -23.015428110518823 ] ] } }
]
}
