{
"type": "FeatureCollection",
"features": [
{ "type": "Feature", "properties": { "Name": "LOURDES", "Description": "LOURDES \/ SP" }, "geometry": { "type": "LineString", "coordinates": [ [ -50.181029255895396, -20.9006231298535 ], [ -50.182683369042195, -20.927045904944521 ], [ -50.180206037178834, -20.940196120154781 ], [ -50.168294199217875, -20.957030259738644 ], [ -50.168295580576569, -20.964103207297114 ], [ -50.178424931665234, -20.975213734026568 ], [ -50.179976776606907, -20.982384564695849 ], [ -50.196497172406566, -20.98589692000678 ], [ -50.205595743948379, -20.977716129995372 ], [ -50.220542480850781, -20.980118111261788 ], [ -50.233085129375183, -20.980281768089071 ], [ -50.2350508764967, -20.991648392958947 ], [ -50.240932440879419, -20.996725101881907 ], [ -50.247777359037855, -21.007915125982208 ], [ -50.266780294674838, -21.001659178328396 ], [ -50.271556763134072, -21.004223719249183 ], [ -50.279875769051444, -21.000513328727095 ], [ -50.285007004769398, -21.00394916702038 ], [ -50.299238351668578, -20.999544943244473 ], [ -50.300158941781717, -20.994675372470397 ], [ -50.294326285229829, -20.983023838779104 ], [ -50.297446683617515, -20.977300233119191 ], [ -50.28780804130804, -20.963337689083062 ], [ -50.280377252608105, -20.941131873736936 ], [ -50.28289457642353, -20.936789517022532 ], [ -50.280465558838443, -20.927213822759654 ], [ -50.276216998715483, -20.926949129798459 ], [ -50.26801741647057, -20.917871663546407 ], [ -50.262769008083239, -20.905831137097266 ], [ -50.25099828454313, -20.899237228715094 ], [ -50.236314646104006, -20.894080722047647 ], [ -50.226627053695552, -20.888638930642113 ], [ -50.220953489012288, -20.897550359561421 ], [ -50.214847109406548, -20.898676244213277 ], [ -50.199869710119003, -20.895836113245991 ], [ -50.18577093498061, -20.901658475258387 ], [ -50.181029255895396, -20.9006231298535 ] ] } }
]
}
