{
"type": "FeatureCollection",
"features": [
{ "type": "Feature", "properties": { "Name": "LUCIANÃPOLIS", "Description": "LUCIANÃPOLIS \/ SP" }, "geometry": { "type": "LineString", "coordinates": [ [ -49.512792389257292, -22.395682673316685 ], [ -49.48447002836906, -22.394056819566515 ], [ -49.480652714750931, -22.396519339595784 ], [ -49.481888035204626, -22.407125796318383 ], [ -49.47720987613485, -22.417930379083657 ], [ -49.48117506707564, -22.426874026215273 ], [ -49.489817276745889, -22.432332984779407 ], [ -49.489606019702023, -22.439306675062937 ], [ -49.497082282621193, -22.44986353597335 ], [ -49.502941354959546, -22.469882388961025 ], [ -49.503317126783941, -22.478724534109915 ], [ -49.491668749712971, -22.485717175806993 ], [ -49.484642635249372, -22.503092351131041 ], [ -49.485045694303317, -22.507769249351327 ], [ -49.501318733372784, -22.511084162104339 ], [ -49.503016582349346, -22.513846729243141 ], [ -49.513656013614082, -22.51601557475891 ], [ -49.526724730461922, -22.524264483019408 ], [ -49.524072984080924, -22.531223041310284 ], [ -49.530131891173824, -22.536694828703332 ], [ -49.534499018814643, -22.545781918600596 ], [ -49.542993238746931, -22.547369829953652 ], [ -49.538870714112136, -22.556680112696995 ], [ -49.545367178252604, -22.56376910326145 ], [ -49.556794721399228, -22.561142474945196 ], [ -49.560279147364724, -22.575362694532654 ], [ -49.566193298681746, -22.57504647671351 ], [ -49.564996493493311, -22.570567934762323 ], [ -49.576300977008422, -22.560599663943265 ], [ -49.585122022263477, -22.557475768092157 ], [ -49.596284883240742, -22.541618320129317 ], [ -49.607023070858013, -22.535597762826455 ], [ -49.607545373719972, -22.530507720554795 ], [ -49.616028710056867, -22.519082208077407 ], [ -49.61587626957413, -22.508703894968733 ], [ -49.612181574020383, -22.498208652906953 ], [ -49.608284254914395, -22.496533808588364 ], [ -49.617183516006435, -22.47871171607278 ], [ -49.624945114925076, -22.475122683664893 ], [ -49.628511789287586, -22.469153383222022 ], [ -49.610220624781959, -22.466221864047725 ], [ -49.595628952813854, -22.456111639740357 ], [ -49.604099463019736, -22.453554820398608 ], [ -49.603930076611732, -22.443076987413008 ], [ -49.596457759917655, -22.434260389305447 ], [ -49.581618819352961, -22.423400761735703 ], [ -49.576107561614663, -22.417081677177634 ], [ -49.575109141473661, -22.407757433358825 ], [ -49.570959515769005, -22.398997729061875 ], [ -49.569430330145565, -22.383598922752014 ], [ -49.556355091414275, -22.39203244384214 ], [ -49.543842845370989, -22.391038145294146 ], [ -49.532392192345753, -22.395254865819368 ], [ -49.524533981957632, -22.393506946188552 ], [ -49.512792389257292, -22.395682673316685 ] ] } }
]
}
