{
"type": "FeatureCollection",
"features": [
{ "type": "Feature", "properties": { "Name": "LUPÃRCIO", "Description": "LUPÃRCIO \/ SP" }, "geometry": { "type": "LineString", "coordinates": [ [ -49.73546761074158, -22.382319985179151 ], [ -49.746205078001879, -22.392928883561069 ], [ -49.739880177528107, -22.406470203137303 ], [ -49.748276293116412, -22.405462335618267 ], [ -49.753747631747785, -22.412313182107596 ], [ -49.762988795296621, -22.412729144634284 ], [ -49.764801146855405, -22.419886835309171 ], [ -49.773301495667454, -22.430204455870921 ], [ -49.780347741455039, -22.43062047235685 ], [ -49.786697403862028, -22.436520140991661 ], [ -49.795663932444484, -22.437710660818311 ], [ -49.80192390186653, -22.454577606771068 ], [ -49.80057641796725, -22.464266768496543 ], [ -49.803170587952252, -22.468972330808356 ], [ -49.805274329746453, -22.488614464086197 ], [ -49.811162365650603, -22.497491198060288 ], [ -49.818128028585583, -22.503134815319413 ], [ -49.820463150653836, -22.5160457560068 ], [ -49.817607250074502, -22.526077195206369 ], [ -49.824747905791185, -22.525876403573132 ], [ -49.833686523014592, -22.51942676353428 ], [ -49.849516565037391, -22.523524002830413 ], [ -49.853453996604628, -22.511645403812281 ], [ -49.864002929091839, -22.513226574746565 ], [ -49.885385094046789, -22.505813946956039 ], [ -49.884697127070687, -22.498807846005263 ], [ -49.876042279227761, -22.489441905119804 ], [ -49.876758373400151, -22.474013196351905 ], [ -49.869977521145643, -22.469804484289455 ], [ -49.867756277530134, -22.463168585661663 ], [ -49.872222272140107, -22.457080304912097 ], [ -49.862593381179579, -22.452569830733069 ], [ -49.854501655526917, -22.429182240567908 ], [ -49.856517017346448, -22.421108029212121 ], [ -49.851749315478457, -22.400940449042423 ], [ -49.85512282715672, -22.396511019068214 ], [ -49.852633537907423, -22.376083272225173 ], [ -49.85486755279527, -22.369928963251027 ], [ -49.854722279009934, -22.356918383076845 ], [ -49.844986749139132, -22.353410571140898 ], [ -49.832509118001326, -22.359769792441909 ], [ -49.813432931684417, -22.358494512411767 ], [ -49.810650496722978, -22.35537010214847 ], [ -49.796067487024857, -22.354832092626907 ], [ -49.787864716683259, -22.350977878026583 ], [ -49.767116667300286, -22.355034599267295 ], [ -49.758031010023046, -22.35221891726917 ], [ -49.749688764724681, -22.356493324807047 ], [ -49.751339007189415, -22.361820514704959 ], [ -49.750038453511763, -22.375091653656849 ], [ -49.741555970631509, -22.381476886948743 ], [ -49.73546761074158, -22.382319985179151 ] ] } }
]
}
