{
"type": "FeatureCollection",
"features": [
{ "type": "Feature", "properties": { "Name": "MAIRINQUE", "Description": "MAIRINQUE \/ SP" }, "geometry": { "type": "LineString", "coordinates": [ [ -47.187198999634063, -23.417767999993146 ], [ -47.189065000249514, -23.434746999674246 ], [ -47.185747000123911, -23.441258999603122 ], [ -47.176324999998712, -23.444740000050899 ], [ -47.17496300014232, -23.454710000266232 ], [ -47.17734500027148, -23.465342999579718 ], [ -47.187096000280121, -23.482481000297867 ], [ -47.18009000005344, -23.501671000316374 ], [ -47.169552999771099, -23.503656000124238 ], [ -47.158356999675725, -23.540201000076024 ], [ -47.16976000032372, -23.548724000112486 ], [ -47.169275000440848, -23.559873999885156 ], [ -47.17396199984637, -23.567190000018456 ], [ -47.176724999559042, -23.581964999684939 ], [ -47.184057000430187, -23.590593000066857 ], [ -47.183388000156008, -23.602230999860691 ], [ -47.201456999740685, -23.606445999982896 ], [ -47.208869999850549, -23.613146999634296 ], [ -47.205324000002577, -23.616674999551549 ], [ -47.221163400370585, -23.618261860496432 ], [ -47.22938662938941, -23.616582672452353 ], [ -47.250206583167255, -23.620276936331493 ], [ -47.260791278094985, -23.615475595322437 ], [ -47.268065394102621, -23.609221235871303 ], [ -47.270051711417295, -23.601264665731719 ], [ -47.277274610135123, -23.597189454429724 ], [ -47.277201823505315, -23.587862471275969 ], [ -47.263500459678419, -23.569914812718366 ], [ -47.254387007953994, -23.568948623380209 ], [ -47.24773404379107, -23.557400335457089 ], [ -47.239575033560918, -23.561231726163214 ], [ -47.233291043246993, -23.552852375736506 ], [ -47.23063880403754, -23.541528126921488 ], [ -47.237603702548768, -23.533780391951492 ], [ -47.233334446327596, -23.530092038416797 ], [ -47.233665544329369, -23.521221637468557 ], [ -47.230006119286941, -23.513397898993784 ], [ -47.24334116856005, -23.506511101206282 ], [ -47.252129973119736, -23.508376492980744 ], [ -47.271446529333844, -23.494501095948749 ], [ -47.27559725760733, -23.482841971080063 ], [ -47.281890965995217, -23.476461680462137 ], [ -47.297285898925054, -23.477172112502956 ], [ -47.302704376305883, -23.471173013024099 ], [ -47.310077318813171, -23.472425247027502 ], [ -47.316967523232563, -23.463439750843804 ], [ -47.320855000158076, -23.46050999973664 ], [ -47.326391000044566, -23.439923000046345 ], [ -47.322747579337261, -23.435212387141917 ], [ -47.298387248272832, -23.41733673190458 ], [ -47.294316112698425, -23.426512079468864 ], [ -47.284366899412817, -23.431798794478709 ], [ -47.276006640693872, -23.430166522267143 ], [ -47.266606067815758, -23.42262543981218 ], [ -47.257256893890478, -23.424192239580123 ], [ -47.252219158887044, -23.419755630318036 ], [ -47.242238892011187, -23.418270643675214 ], [ -47.235996569086353, -23.421125493846432 ], [ -47.222128255114846, -23.417642924081633 ], [ -47.20750323538595, -23.417487262227326 ], [ -47.199760263225528, -23.421795116451392 ], [ -47.187198999634063, -23.417767999993146 ] ] } }
]
}
