{
"type": "FeatureCollection",
"features": [
{ "type": "Feature", "properties": { "Name": "MANDURI", "Description": "MANDURI \/ SP" }, "geometry": { "type": "LineString", "coordinates": [ [ -49.222037819789534, -23.0364807072188 ], [ -49.233794260296861, -23.040015143583958 ], [ -49.22546448949452, -23.051394760959397 ], [ -49.225947573821429, -23.06106763236528 ], [ -49.236010796860739, -23.062148742470466 ], [ -49.241326093224579, -23.072979413668975 ], [ -49.235817400352687, -23.091991944172829 ], [ -49.238785685610878, -23.109451462414995 ], [ -49.237831283686774, -23.119263119897024 ], [ -49.243425579426912, -23.125807371313101 ], [ -49.241734011315543, -23.133121478373482 ], [ -49.245447427156989, -23.144750047876357 ], [ -49.252986741544817, -23.139985261610487 ], [ -49.259842364333622, -23.121691702210228 ], [ -49.278067106711546, -23.121863023959349 ], [ -49.287779936794607, -23.129072134271553 ], [ -49.299337350138558, -23.12581362070199 ], [ -49.311850102500209, -23.125594118673572 ], [ -49.321338638966949, -23.129617395926058 ], [ -49.3303824175145, -23.126033471667313 ], [ -49.333360755394494, -23.11923950549874 ], [ -49.329675882236131, -23.113114619643909 ], [ -49.344245792409367, -23.103127001709705 ], [ -49.346555377328741, -23.096681415814658 ], [ -49.35861230291539, -23.084395634350983 ], [ -49.371440255963023, -23.090578501296758 ], [ -49.381939399283787, -23.079271195709055 ], [ -49.380057295407823, -23.066476213606336 ], [ -49.387636952483319, -23.053663165023011 ], [ -49.387464597413214, -23.043954123783749 ], [ -49.383439686991892, -23.039496267138986 ], [ -49.382800157501208, -23.029779966572164 ], [ -49.376323986562682, -23.01657738024187 ], [ -49.368618535017333, -22.984579762645865 ], [ -49.361542184424252, -22.991139223396374 ], [ -49.357236991294087, -22.989910721602485 ], [ -49.352818792952917, -22.977919216298744 ], [ -49.318618275213169, -22.969925459192552 ], [ -49.303675500723728, -22.952736638684883 ], [ -49.289087276756391, -22.961667826608846 ], [ -49.284198312102376, -22.967173044500381 ], [ -49.256348677149674, -22.975520330498796 ], [ -49.258990611927175, -22.984738056815843 ], [ -49.249479506074294, -22.992087515326546 ], [ -49.245884293525307, -23.012525746465997 ], [ -49.239472224463555, -23.017374511424521 ], [ -49.222037819789534, -23.0364807072188 ] ] } }
]
}
