{
"type": "FeatureCollection",
"features": [
{ "type": "Feature", "properties": { "Name": "MINEIROS DO TIETÃ", "Description": "MINEIROS DO TIETÃ \/ SP" }, "geometry": { "type": "LineString", "coordinates": [ [ -48.384492513618568, -22.580016090769902 ], [ -48.405807085528522, -22.561200169152411 ], [ -48.414805500473449, -22.554949988850865 ], [ -48.445621898132053, -22.539480789906463 ], [ -48.451912452597583, -22.539421622609723 ], [ -48.448069145874342, -22.523088050173328 ], [ -48.460600765113156, -22.509984170732821 ], [ -48.458713205050344, -22.497931788521157 ], [ -48.462259462104441, -22.483884705514694 ], [ -48.47228203218998, -22.483469587451452 ], [ -48.503201798823909, -22.457389749936965 ], [ -48.505359128520922, -22.449051578567431 ], [ -48.50393835886814, -22.435335463161035 ], [ -48.509673680895617, -22.436118529846226 ], [ -48.51596527857469, -22.421946962682114 ], [ -48.515369738522566, -22.41105624105262 ], [ -48.503051132703547, -22.40282823303647 ], [ -48.503865070416623, -22.396431839158026 ], [ -48.493375852913232, -22.395221187108064 ], [ -48.488472506301086, -22.389929705691316 ], [ -48.486377826075788, -22.37467700593902 ], [ -48.48129631387377, -22.36840734901989 ], [ -48.480782529390176, -22.356185857391381 ], [ -48.477151224349484, -22.352519841217656 ], [ -48.467774968240178, -22.352728420979815 ], [ -48.442595199209052, -22.369714342742668 ], [ -48.425848306454156, -22.379157690075317 ], [ -48.413349332605549, -22.380474198625333 ], [ -48.406585609738045, -22.391129438172978 ], [ -48.399137948857231, -22.417290673325851 ], [ -48.393908355186397, -22.422082354716849 ], [ -48.397795005634968, -22.429045710890819 ], [ -48.398770893262054, -22.43942919689988 ], [ -48.390417410934724, -22.462513401672084 ], [ -48.384877788579047, -22.468036181524493 ], [ -48.381368901053918, -22.478677075986241 ], [ -48.371999140747732, -22.489607199612522 ], [ -48.36414176403116, -22.494701826627931 ], [ -48.361974367323171, -22.501751113922747 ], [ -48.367199369954903, -22.514162542367387 ], [ -48.360061837583714, -22.530295220647872 ], [ -48.360846690322433, -22.55469743044199 ], [ -48.359683597120295, -22.562841715172965 ], [ -48.364226222062477, -22.570078463450272 ], [ -48.377471325641125, -22.574307830242102 ], [ -48.384492513618568, -22.580016090769902 ] ] } }
]
}
