{
"type": "FeatureCollection",
"features": [
{ "type": "Feature", "properties": { "Name": "MIRANDÃPOLIS", "Description": "MIRANDÃPOLIS \/ SP" }, "geometry": { "type": "LineString", "coordinates": [ [ -50.899600769160145, -20.909771386240433 ], [ -50.917027327249279, -20.92607023135605 ], [ -50.923617443190437, -20.941841937055699 ], [ -50.932158772309435, -20.952532797850267 ], [ -50.93960770752966, -20.956798737371798 ], [ -50.943917068118132, -20.968342578147425 ], [ -50.951788511130815, -20.977480598450825 ], [ -50.96405564155458, -20.981011535553872 ], [ -50.980651417628792, -20.996562552120054 ], [ -50.984024545296506, -21.003182321406939 ], [ -50.993099114832262, -21.004980715487591 ], [ -51.002212356115301, -21.017744839152954 ], [ -51.009306265971361, -21.018856544194136 ], [ -51.015356047643422, -21.026814141359463 ], [ -51.018201934271815, -21.036799549659463 ], [ -51.031010932308611, -21.043098702543034 ], [ -51.031279491455336, -21.05018455447356 ], [ -51.044530170830683, -21.058646202760031 ], [ -51.052721955953473, -21.069260056406449 ], [ -51.050253357406461, -21.084854231437589 ], [ -51.042725023740786, -21.09510377871635 ], [ -51.053998642523311, -21.14344387113772 ], [ -51.063664299567733, -21.148994649583354 ], [ -51.069045872369081, -21.147196008189155 ], [ -51.082015376008769, -21.150362925808338 ], [ -51.096689617431878, -21.150510335483546 ], [ -51.102622012395898, -21.153773350159948 ], [ -51.104536236458102, -21.160112572337312 ], [ -51.112600210831033, -21.164218392065095 ], [ -51.116179173529986, -21.171294599665998 ], [ -51.117239711643322, -21.187521305663665 ], [ -51.125644895095775, -21.193549073730704 ], [ -51.130454499975144, -21.204370675266432 ], [ -51.141724763387053, -21.215133456643684 ], [ -51.138532070298766, -21.219934050316112 ], [ -51.144711018898363, -21.236530343500533 ], [ -51.148418667387539, -21.241799114337596 ], [ -51.157419838754493, -21.246478840925704 ], [ -51.159251551817647, -21.252707942917198 ], [ -51.173923036818671, -21.265490757192651 ], [ -51.172397472765113, -21.268267021006181 ], [ -51.177280192526837, -21.285451272058538 ], [ -51.184026687981202, -21.29233996921414 ], [ -51.18180678885215, -21.296743390794802 ], [ -51.183264876772618, -21.308734917682273 ], [ -51.188038729104051, -21.314183766067913 ], [ -51.202977553771063, -21.323808242256518 ], [ -51.218514356552241, -21.342358778434857 ], [ -51.225401676845877, -21.3420411918475 ], [ -51.232209962919399, -21.337986020138654 ], [ -51.237777160287692, -21.32680804335649 ], [ -51.262807139138147, -21.32788226915136 ], [ -51.270146044104592, -21.322331432249769 ], [ -51.286303244199303, -21.319272321760195 ], [ -51.302822829709783, -21.309374056867171 ], [ -51.308860573056961, -21.29988930654622 ], [ -51.322182803393609, -21.298259271847883 ], [ -51.328833037214849, -21.292511032857817 ], [ -51.329565991876962, -21.279096049143334 ], [ -51.324580496692533, -21.26689446310894 ], [ -51.321105252805125, -21.264831366174572 ], [ -51.315701055759064, -21.250375879443254 ], [ -51.311202334819882, -21.244793069844263 ], [ -51.314538351064016, -21.230370092705584 ], [ -51.306598582058882, -21.214885054901345 ], [ -51.309817949039086, -21.200860936982622 ], [ -51.306061146304842, -21.189505268553262 ], [ -51.309892586473659, -21.180996628891251 ], [ -51.306720569698484, -21.171932570631611 ], [ -51.297459047297139, -21.16837014016977 ], [ -51.291313155078001, -21.161483804633804 ], [ -51.281246105423406, -21.160161964902723 ], [ -51.271266167699416, -21.153836095859106 ], [ -51.267048454322662, -21.147962815131791 ], [ -51.26622760801763, -21.132460371848651 ], [ -51.256928381539517, -21.114277115196671 ], [ -51.248894493086368, -21.104752084241223 ], [ -51.239310233680271, -21.100175439744703 ], [ -51.231672792465361, -21.092131371865264 ], [ -51.224540230647108, -21.092038566326721 ], [ -51.216348648771081, -21.096105603690603 ], [ -51.207140621642338, -21.093250365911615 ], [ -51.192036768681874, -21.079854414549573 ], [ -51.174643089806693, -21.058051567425878 ], [ -51.168110074520257, -21.040901534678028 ], [ -51.151688808291851, -21.039580697691008 ], [ -51.145533924650856, -21.042585300271355 ], [ -51.134804499128279, -21.035016462939382 ], [ -51.122323044073198, -21.009511192387549 ], [ -51.12265909194349, -20.999424410707945 ], [ -51.116516558692183, -20.988623796650867 ], [ -51.118764614695181, -20.97864389310115 ], [ -51.117612399692462, -20.96896655656127 ], [ -51.121196226824395, -20.952079029623462 ], [ -51.129813426348505, -20.944532376767707 ], [ -51.130499535325264, -20.931344152610507 ], [ -51.134121567456305, -20.92103946789706 ], [ -51.135519331551841, -20.908507361225702 ], [ -51.139236729591346, -20.904772408419888 ], [ -51.136892384076248, -20.892952758163233 ], [ -51.143907493535949, -20.883879299290182 ], [ -51.142969919725999, -20.854529250724283 ], [ -51.117720396578989, -20.864062247874415 ], [ -51.112576732230359, -20.859455826824899 ], [ -51.104283501782163, -20.858501737864852 ], [ -51.095745006426853, -20.850949104517497 ], [ -51.093659782572836, -20.843174238800028 ], [ -51.087386977127267, -20.836740237072263 ], [ -51.071158437411889, -20.830889689407567 ], [ -50.932175455632716, -20.899895407447048 ], [ -50.918999616039393, -20.895579295647906 ], [ -50.910293593174742, -20.89785816152488 ], [ -50.899600769160145, -20.909771386240433 ] ] } }
]
}
