{
"type": "FeatureCollection",
"features": [
{ "type": "Feature", "properties": { "Name": "MONTE CASTELO", "Description": "MONTE CASTELO \/ SP" }, "geometry": { "type": "LineString", "coordinates": [ [ -51.5018367289818, -21.221074408656989 ], [ -51.502725396759615, -21.233020244588545 ], [ -51.494143100823401, -21.23740850629747 ], [ -51.48956450749597, -21.24339198814971 ], [ -51.498254628548239, -21.259403876687486 ], [ -51.497200222911943, -21.269217765387506 ], [ -51.500808495415697, -21.287792248713288 ], [ -51.497724945849541, -21.312396498399661 ], [ -51.500794611681954, -21.322380912948745 ], [ -51.507311331252879, -21.332265572897825 ], [ -51.52536470151972, -21.336803727310095 ], [ -51.542086994219346, -21.32663435549108 ], [ -51.549950686874638, -21.327911533990058 ], [ -51.554948384060651, -21.33360718332483 ], [ -51.553535166914401, -21.338654504201941 ], [ -51.579145286725577, -21.334236943480107 ], [ -51.609724091593534, -21.341500508641502 ], [ -51.610113696789654, -21.331025209046118 ], [ -51.616068289719749, -21.327034962993082 ], [ -51.625035511679471, -21.316829305328156 ], [ -51.617615540025099, -21.310634657263559 ], [ -51.616394227411604, -21.301736763141037 ], [ -51.623091136946357, -21.29700884008588 ], [ -51.635401084092734, -21.293228694548588 ], [ -51.641760360252356, -21.286340686273604 ], [ -51.652396197826249, -21.284540455777343 ], [ -51.642093371112139, -21.262039256306593 ], [ -51.637441773519008, -21.255069232558981 ], [ -51.632647274552028, -21.232327420374133 ], [ -51.635983349252108, -21.227206722911887 ], [ -51.633509034614235, -21.215030184795125 ], [ -51.624539496000914, -21.201438360192128 ], [ -51.620702739939475, -21.190029644352531 ], [ -51.622346974932888, -21.180629559806277 ], [ -51.627618922175486, -21.177308850023334 ], [ -51.628900534332161, -21.164698389918723 ], [ -51.639612413182299, -21.162788550051516 ], [ -51.636482161822244, -21.151343293857906 ], [ -51.626833796942151, -21.145983507133106 ], [ -51.6192094876277, -21.147218607252853 ], [ -51.61367829641619, -21.141653731034808 ], [ -51.607768681279595, -21.145511487165379 ], [ -51.600836623311466, -21.144257415846994 ], [ -51.591451154547087, -21.148635828180886 ], [ -51.595957801211512, -21.159020173941826 ], [ -51.59358375018985, -21.170668326182238 ], [ -51.58498447955003, -21.17732723666262 ], [ -51.576897794597521, -21.180030088817485 ], [ -51.573753632524067, -21.187283048274026 ], [ -51.560685392316941, -21.190892328917812 ], [ -51.543020561549611, -21.191677749128758 ], [ -51.523387703879393, -21.199556151095464 ], [ -51.518505604649874, -21.208105365470203 ], [ -51.511503065014374, -21.211284619089838 ], [ -51.509738920714589, -21.216801261968612 ], [ -51.5018367289818, -21.221074408656989 ] ] } }
]
}
