{
"type": "FeatureCollection",
"features": [
{ "type": "Feature", "properties": { "Name": "MONTE ALEGRE DO SUL", "Description": "MONTE ALEGRE DO SUL \/ SP" }, "geometry": { "type": "LineString", "coordinates": [ [ -46.629030812921656, -22.65357496121544 ], [ -46.626669605118131, -22.664926969404064 ], [ -46.6320483018876, -22.674522257196369 ], [ -46.620364203744934, -22.683476955197303 ], [ -46.62393578031196, -22.689785673270137 ], [ -46.618373253123082, -22.701664901813725 ], [ -46.625978921290141, -22.711060171389761 ], [ -46.627118388402835, -22.717986570823541 ], [ -46.621832667143849, -22.723142184464223 ], [ -46.612824667224572, -22.752909737894068 ], [ -46.616029951720861, -22.758212819665857 ], [ -46.626936255903445, -22.757954059532153 ], [ -46.639275796141021, -22.753329624162802 ], [ -46.652592752853188, -22.766421157710226 ], [ -46.660926795435216, -22.768790775074137 ], [ -46.674949933092876, -22.767617230850473 ], [ -46.679060520126882, -22.769521298868824 ], [ -46.69853235148679, -22.76851221726497 ], [ -46.708057592883563, -22.779496866786928 ], [ -46.71036921926401, -22.772962846058476 ], [ -46.702550722937474, -22.761219107575695 ], [ -46.695231646223476, -22.759226357410398 ], [ -46.688530419043552, -22.751228736816699 ], [ -46.682869303675375, -22.749069469080666 ], [ -46.683031436151794, -22.737006184387837 ], [ -46.701938236960011, -22.713990055596522 ], [ -46.70838038834421, -22.714420356014553 ], [ -46.711897913857563, -22.705274909109733 ], [ -46.720899035761875, -22.692252335576764 ], [ -46.718944363791309, -22.685961318859711 ], [ -46.728331378490282, -22.681637230074045 ], [ -46.724291490759633, -22.675088710475563 ], [ -46.727934831427262, -22.670206046471833 ], [ -46.727679561562468, -22.654944512679094 ], [ -46.714744491165277, -22.653951198888649 ], [ -46.712353183952246, -22.657858480684297 ], [ -46.695715081285925, -22.648296728611111 ], [ -46.687886874979256, -22.649350763726716 ], [ -46.678840345405547, -22.645682148512321 ], [ -46.671309966681569, -22.635070902000507 ], [ -46.663316821114329, -22.647304920285819 ], [ -46.657821089271806, -22.664192194514101 ], [ -46.65343652377652, -22.665897586104677 ], [ -46.6430171835961, -22.651631545159656 ], [ -46.629030812921656, -22.65357496121544 ] ] } }
]
}
