{
"type": "FeatureCollection",
"features": [
{ "type": "Feature", "properties": { "Name": "MORRO AGUDO", "Description": "MORRO AGUDO \/ SP" }, "geometry": { "type": "LineString", "coordinates": [ [ -48.211350050164633, -20.455011972524456 ], [ -48.194898909357164, -20.460045347614653 ], [ -48.176445731085607, -20.4527136363252 ], [ -48.15855202465616, -20.46111327815521 ], [ -48.155357853082414, -20.469564360306947 ], [ -48.148080691071016, -20.475254051633154 ], [ -48.143074676055392, -20.484179266260071 ], [ -48.13588535712347, -20.486500971342707 ], [ -48.133738683493391, -20.493512840545119 ], [ -48.132206343048267, -20.502565981934481 ], [ -48.120993915936424, -20.513972013297742 ], [ -48.106331498799591, -20.536408644143592 ], [ -48.10224292806862, -20.539279492354638 ], [ -48.100307952150217, -20.548391999790908 ], [ -48.093319912284073, -20.560046230549062 ], [ -48.086832096024352, -20.566668317388917 ], [ -48.087963755223079, -20.57352050386811 ], [ -48.083472790936526, -20.585488235593573 ], [ -48.060376188110524, -20.596612726096392 ], [ -48.041974415986488, -20.597536132886201 ], [ -48.0368807836212, -20.595085482109255 ], [ -48.018495639062444, -20.598844111366589 ], [ -48.002404736089659, -20.610624268794936 ], [ -47.989050159836943, -20.616837729777387 ], [ -47.989074700536946, -20.630114500283923 ], [ -47.983485108251102, -20.642583667002611 ], [ -47.978718964908239, -20.662788777679907 ], [ -47.965444779952577, -20.673869899276383 ], [ -47.971644406663984, -20.682784621513008 ], [ -47.972784793783148, -20.691815505581076 ], [ -47.981114408103394, -20.727499344419186 ], [ -47.978547183605599, -20.743475638689745 ], [ -47.981255048581602, -20.751432450746957 ], [ -47.975997888891413, -20.758226414217575 ], [ -47.960583759033227, -20.76284447339367 ], [ -47.964608119069389, -20.780013087034316 ], [ -47.965114753942714, -20.799111262674614 ], [ -47.961991939076704, -20.814359372287129 ], [ -47.96668578322226, -20.828449547208777 ], [ -47.97426541511674, -20.835300945881894 ], [ -47.982497311801467, -20.850674347243285 ], [ -47.985368656438311, -20.876369916138685 ], [ -48.014183733392535, -20.891535708106403 ], [ -48.024772092158287, -20.902429149285751 ], [ -48.034896094978762, -20.905399004760227 ], [ -48.046442367521195, -20.91766258645913 ], [ -48.046746331178213, -20.925503002861259 ], [ -48.051806696721655, -20.931543853366122 ], [ -48.057939381497192, -20.930433232907319 ], [ -48.065504207852882, -20.923095484469002 ], [ -48.072439497085099, -20.923183308662715 ], [ -48.079361172380175, -20.914047575335303 ], [ -48.103666972153007, -20.900090156535441 ], [ -48.110955687754767, -20.902766749385933 ], [ -48.12657128283837, -20.901678897063391 ], [ -48.139923320304945, -20.89261938127936 ], [ -48.154878183481344, -20.893674428132329 ], [ -48.163389009395246, -20.884942595624235 ], [ -48.173864477163875, -20.888929610413129 ], [ -48.179026391454777, -20.887306131772505 ], [ -48.190082636904144, -20.886651292223291 ], [ -48.207677834064718, -20.875386865411482 ], [ -48.22809966246939, -20.857501752004225 ], [ -48.240409830848989, -20.851390199498038 ], [ -48.242787439588596, -20.840485899904309 ], [ -48.233723813003508, -20.82924798150907 ], [ -48.23247562055343, -20.82002015760412 ], [ -48.239632982076444, -20.812768056100875 ], [ -48.255245917864784, -20.806253060530253 ], [ -48.257338874989046, -20.796244838228631 ], [ -48.251221582110304, -20.79072473296003 ], [ -48.243492688836454, -20.776570131506329 ], [ -48.248792330701455, -20.758101944449152 ], [ -48.255939826661631, -20.742899076131437 ], [ -48.260574879427111, -20.738271530007069 ], [ -48.274281025848602, -20.743437191772955 ], [ -48.282922308317836, -20.738032874217708 ], [ -48.290746085463411, -20.722621507076838 ], [ -48.296680512895307, -20.720178167788163 ], [ -48.319986147842428, -20.725473170050691 ], [ -48.327548010931935, -20.715866748651479 ], [ -48.332240468322937, -20.703842197759169 ], [ -48.338292471320472, -20.695543439178319 ], [ -48.340561866436929, -20.684009626742807 ], [ -48.336133524642435, -20.677041581503715 ], [ -48.333592833742216, -20.665367551271402 ], [ -48.350404387752235, -20.646252403625454 ], [ -48.347126787870927, -20.626086112184279 ], [ -48.340420625211664, -20.619675061155078 ], [ -48.325453880192349, -20.612198429513853 ], [ -48.320958511925767, -20.60463172267583 ], [ -48.320347306582903, -20.58904799866616 ], [ -48.326319362548475, -20.582470483126258 ], [ -48.338745123488593, -20.582889297403085 ], [ -48.344597603796331, -20.575283836979452 ], [ -48.351461583984872, -20.560973125809081 ], [ -48.359517419493272, -20.559568820944264 ], [ -48.370301325046057, -20.551084297502257 ], [ -48.382558531451025, -20.544854061465738 ], [ -48.38365494442013, -20.537161398279864 ], [ -48.372907029735586, -20.544509807281713 ], [ -48.366620412502016, -20.526877023855548 ], [ -48.355764980269555, -20.527760212963415 ], [ -48.352163957200844, -20.523756629964453 ], [ -48.325986833725381, -20.532199072329263 ], [ -48.319464023945493, -20.520397502043068 ], [ -48.298220908568055, -20.515022309931624 ], [ -48.284305785783317, -20.4993750200411 ], [ -48.284873070036099, -20.48556373297987 ], [ -48.281674107773824, -20.481209793896824 ], [ -48.280737582573344, -20.470669736818877 ], [ -48.263774989224316, -20.467625076635954 ], [ -48.25536334324363, -20.462713497629746 ], [ -48.239851886055646, -20.461312574215867 ], [ -48.227456345034227, -20.453596074499217 ], [ -48.211350050164633, -20.455011972524456 ] ] } }
]
}
