{
"type": "FeatureCollection",
"features": [
{ "type": "Feature", "properties": { "Name": "MOTUCA", "Description": "MOTUCA \/ SP" }, "geometry": { "type": "LineString", "coordinates": [ [ -48.10894685591262, -21.42933820119697 ], [ -48.1093943639587, -21.443321840630404 ], [ -48.102216784776765, -21.454017908499623 ], [ -48.086537916091913, -21.459433177099413 ], [ -48.081595446272786, -21.463750025443289 ], [ -48.074270013150567, -21.479238514845516 ], [ -48.091332391676474, -21.508747693051532 ], [ -48.089810782841312, -21.515401692334194 ], [ -48.095947128756961, -21.524830164880143 ], [ -48.104827479804328, -21.526292529076894 ], [ -48.115366244556526, -21.532348778673164 ], [ -48.112763787318897, -21.536722334667957 ], [ -48.116277896307849, -21.54367781098216 ], [ -48.123140152495978, -21.545124322829167 ], [ -48.133753448562743, -21.552971901432045 ], [ -48.143349603301488, -21.553861212225115 ], [ -48.152966202328336, -21.578494745635965 ], [ -48.158729066992805, -21.583945029339588 ], [ -48.166603435500122, -21.599282115177402 ], [ -48.166465912971489, -21.606017102007623 ], [ -48.173871966717854, -21.616521627770847 ], [ -48.179040181658991, -21.618704657394005 ], [ -48.191807978155623, -21.618439351994478 ], [ -48.196907364383321, -21.612958998558895 ], [ -48.196698610152673, -21.605859890621389 ], [ -48.209511836801767, -21.594257514772437 ], [ -48.259516550048716, -21.539326017681503 ], [ -48.263439129312303, -21.534259418037664 ], [ -48.258119495518258, -21.524442720754902 ], [ -48.259354985044467, -21.512871006391777 ], [ -48.255540748007093, -21.50636060635685 ], [ -48.239218215648066, -21.500354096464321 ], [ -48.234652882824264, -21.4737503840729 ], [ -48.219541410807437, -21.470815740653848 ], [ -48.214693287964849, -21.467189130074246 ], [ -48.197953966602256, -21.464960557883387 ], [ -48.181580838384946, -21.447750813748996 ], [ -48.178983119675195, -21.438653637954985 ], [ -48.167839880106328, -21.43878656854525 ], [ -48.158197340135075, -21.43269185224716 ], [ -48.140934812091864, -21.426863187785841 ], [ -48.131383336571673, -21.431442427725813 ], [ -48.129565735670099, -21.436156257505218 ], [ -48.117643333373103, -21.435117018035896 ], [ -48.11221248941478, -21.425257470755639 ], [ -48.113502693694329, -21.420585735543227 ], [ -48.10894685591262, -21.42933820119697 ] ] } }
]
}
