{
"type": "FeatureCollection",
"features": [
{ "type": "Feature", "properties": { "Name": "NARANDIBA", "Description": "NARANDIBA \/ SP" }, "geometry": { "type": "LineString", "coordinates": [ [ -51.492666644250164, -22.362011418292298 ], [ -51.49714034425142, -22.36585729347928 ], [ -51.500815625240875, -22.375978950867818 ], [ -51.499356190136041, -22.384660447421652 ], [ -51.500795608130773, -22.404478563634768 ], [ -51.508442510213627, -22.418106947477611 ], [ -51.507847534935763, -22.431080269638699 ], [ -51.517175883260336, -22.444672025893226 ], [ -51.52000931967433, -22.458527430096751 ], [ -51.496264275076214, -22.472778578268731 ], [ -51.493361711373836, -22.477894509324074 ], [ -51.482255819750264, -22.483843648765344 ], [ -51.474233772670452, -22.48128264128081 ], [ -51.467343668075785, -22.48473195861294 ], [ -51.454233217289129, -22.509190190774632 ], [ -51.452759468574584, -22.515665121548068 ], [ -51.446014473189337, -22.53445823366053 ], [ -51.451454221335212, -22.543294081756414 ], [ -51.450969663918841, -22.560029535134898 ], [ -51.457842827084733, -22.568504432233738 ], [ -51.455520263149594, -22.585143156331583 ], [ -51.457404006489639, -22.602833810232081 ], [ -51.451948169472416, -22.61068607969878 ], [ -51.454612329195584, -22.635795624268606 ], [ -51.446410234244865, -22.652952259838852 ], [ -51.453096084816423, -22.655750534559502 ], [ -51.466035746252658, -22.67235339998939 ], [ -51.474951068337077, -22.679217422446072 ], [ -51.498901807672262, -22.690529337059218 ], [ -51.508321826590979, -22.692027956524953 ], [ -51.525741196399053, -22.686797704550372 ], [ -51.543495328046895, -22.689516510678402 ], [ -51.559569158290003, -22.69717934515063 ], [ -51.577343751313038, -22.689217091295689 ], [ -51.589179724264795, -22.686462681907187 ], [ -51.611344217561566, -22.666146285522586 ], [ -51.627878629295253, -22.658240645789135 ], [ -51.621813769589778, -22.646924960318643 ], [ -51.610017770603569, -22.64189589208172 ], [ -51.592294868813099, -22.623692103008125 ], [ -51.58945616237196, -22.613256771083055 ], [ -51.582267760748486, -22.598932295788757 ], [ -51.58262652909098, -22.584907150844288 ], [ -51.578281924970831, -22.57523599354624 ], [ -51.566305775591047, -22.563640548772241 ], [ -51.565312134447417, -22.555355561509884 ], [ -51.560360515825096, -22.543277464982964 ], [ -51.55225824742012, -22.540920124264289 ], [ -51.551679128089226, -22.525211145378019 ], [ -51.561869931651984, -22.513212311498933 ], [ -51.557429364473528, -22.511892467363452 ], [ -51.546369674620735, -22.495289052447788 ], [ -51.553094648399281, -22.485506637321407 ], [ -51.550839217056193, -22.455600221373061 ], [ -51.556875922585732, -22.451016914698808 ], [ -51.560423930619834, -22.433715276039095 ], [ -51.555006232951257, -22.419716542384492 ], [ -51.562369277520077, -22.400758584540995 ], [ -51.553038873345315, -22.398939169706864 ], [ -51.536845441363994, -22.380764383769247 ], [ -51.531449467718744, -22.364045443742214 ], [ -51.524029627365394, -22.355817364679581 ], [ -51.512870404145815, -22.356622040274885 ], [ -51.502785228655341, -22.351639782649784 ], [ -51.492666644250164, -22.362011418292298 ] ] } }
]
}
