{
"type": "FeatureCollection",
"features": [
{ "type": "Feature", "properties": { "Name": "NOVAIS", "Description": "NOVAIS \/ SP" }, "geometry": { "type": "LineString", "coordinates": [ [ -48.90873465388114, -20.915324867148854 ], [ -48.904368620715211, -20.924709308887429 ], [ -48.894584799049198, -20.938928237947778 ], [ -48.891656833096306, -20.948003766160809 ], [ -48.882828490742206, -20.947195209091603 ], [ -48.885602580894329, -20.959737741603419 ], [ -48.877709829345122, -20.961544848316066 ], [ -48.87893463132815, -20.967714021285019 ], [ -48.870952122942072, -20.971961111915729 ], [ -48.857345317432419, -20.991826062123039 ], [ -48.855966922935124, -20.998142921758415 ], [ -48.859570644869329, -21.006077593406189 ], [ -48.879050618691053, -21.02050018923228 ], [ -48.888825060428132, -21.035341158667507 ], [ -48.90317493527499, -21.042101364286509 ], [ -48.918210322848097, -21.053532378816158 ], [ -48.937951865386253, -21.056637879034838 ], [ -48.940000259304497, -21.059624684931237 ], [ -48.950395825906583, -21.05516808284068 ], [ -48.961344212065683, -21.030586113858021 ], [ -48.95928440305272, -21.013367099511981 ], [ -48.962223526894206, -21.007133463138757 ], [ -48.957815777775863, -21.000339844108453 ], [ -48.954970558444472, -20.98184320340107 ], [ -48.96045100001362, -20.976608515070893 ], [ -48.96403292507938, -20.966698483448223 ], [ -48.959862063683261, -20.944015611930922 ], [ -48.952208071345346, -20.930986343844665 ], [ -48.945971585919885, -20.930924871585489 ], [ -48.927576111748117, -20.920037973873377 ], [ -48.922781850202171, -20.914190904786381 ], [ -48.90873465388114, -20.915324867148854 ] ] } }
]
}
