{
"type": "FeatureCollection",
"features": [
{ "type": "Feature", "properties": { "Name": "OSCAR BRESSANE", "Description": "OSCAR BRESSANE \/ SP" }, "geometry": { "type": "LineString", "coordinates": [ [ -50.172626837858218, -22.246138950052455 ], [ -50.177072114786192, -22.249158555123188 ], [ -50.182877111789253, -22.263389029679956 ], [ -50.173544935050643, -22.290205047724726 ], [ -50.17758749196912, -22.307040588452367 ], [ -50.169379719598339, -22.32002625830512 ], [ -50.174810678669871, -22.324912099613641 ], [ -50.192956134118276, -22.329864693101058 ], [ -50.1944086516379, -22.342160071230239 ], [ -50.199544420838322, -22.339877548709865 ], [ -50.209051643418547, -22.348567227295632 ], [ -50.215340544030823, -22.346555487046029 ], [ -50.219600906856328, -22.353235956973773 ], [ -50.228871295673741, -22.353635654361934 ], [ -50.234520064249523, -22.366420802378059 ], [ -50.236787654426671, -22.379346496443588 ], [ -50.240192167534474, -22.379850192332466 ], [ -50.260207900773935, -22.370637343038879 ], [ -50.272124220956016, -22.368341063589185 ], [ -50.27536363652257, -22.372265737373823 ], [ -50.298451131014815, -22.368535770409437 ], [ -50.314205898883074, -22.356356264529946 ], [ -50.324227402372685, -22.359266323182226 ], [ -50.328772740569491, -22.354221289281043 ], [ -50.332543034933053, -22.339120453546059 ], [ -50.33249205956087, -22.328012619386811 ], [ -50.328827145056664, -22.312215144513289 ], [ -50.331408606721766, -22.30453727697369 ], [ -50.327077908818403, -22.293688185861072 ], [ -50.325299895173998, -22.271419096913746 ], [ -50.315178628990509, -22.260033931620626 ], [ -50.311665394142608, -22.246716617877553 ], [ -50.309543871852156, -22.22902926179097 ], [ -50.299274864143626, -22.208733405022599 ], [ -50.292919733858575, -22.211380847248279 ], [ -50.276223962166057, -22.213105355727521 ], [ -50.271491539802696, -22.211476370538037 ], [ -50.254794097169793, -22.213476389024095 ], [ -50.251976540984515, -22.220830411594193 ], [ -50.227903394026384, -22.238391481281781 ], [ -50.219133466236428, -22.240751844621911 ], [ -50.213712678497245, -22.233217445029023 ], [ -50.202735645333746, -22.239737232187451 ], [ -50.201231906027601, -22.244237568309075 ], [ -50.192266136472995, -22.243273267547238 ], [ -50.186034783478419, -22.250842419641913 ], [ -50.172626837858218, -22.246138950052455 ] ] } }
]
}
