{
"type": "FeatureCollection",
"features": [
{ "type": "Feature", "properties": { "Name": "PALMITAL", "Description": "PALMITAL \/ SP" }, "geometry": { "type": "LineString", "coordinates": [ [ -50.122891093848864, -22.715278566452636 ], [ -50.107130650359181, -22.712464033788081 ], [ -50.118293233445904, -22.73244370781083 ], [ -50.11923766008988, -22.749054278632002 ], [ -50.112801424446161, -22.768383213114756 ], [ -50.114146765260955, -22.773807162870241 ], [ -50.102100797014145, -22.777301328493476 ], [ -50.099015634064244, -22.782400896384218 ], [ -50.105492769975285, -22.794911734089226 ], [ -50.110358233545583, -22.813492043223164 ], [ -50.109178898587231, -22.824530627786203 ], [ -50.119828141455514, -22.827958799359067 ], [ -50.117268056675407, -22.833929686206034 ], [ -50.124592459174607, -22.841085750007323 ], [ -50.127116850762036, -22.848193591261179 ], [ -50.135406652994618, -22.852688803045794 ], [ -50.128912942578211, -22.865281062670871 ], [ -50.129698697336948, -22.872947055562118 ], [ -50.127296305080392, -22.885585292127473 ], [ -50.131872239112511, -22.892981034247271 ], [ -50.128558327304916, -22.937342387441163 ], [ -50.133095445698245, -22.939944672008949 ], [ -50.148053566219055, -22.935128305127137 ], [ -50.152993070973423, -22.935618425749681 ], [ -50.164892171836243, -22.946409205720215 ], [ -50.185082124440434, -22.954004090116594 ], [ -50.194837257733241, -22.951558438670986 ], [ -50.20389170763616, -22.95278654836045 ], [ -50.212994220906523, -22.948465056816872 ], [ -50.220704651998055, -22.949050710621748 ], [ -50.227532209643698, -22.95347397664267 ], [ -50.237537602678174, -22.954146227966021 ], [ -50.243248311160585, -22.950977767110199 ], [ -50.247611146337306, -22.937798408469746 ], [ -50.275569046174489, -22.931603237899083 ], [ -50.284096429506569, -22.937310986712646 ], [ -50.301694583638096, -22.938722190276792 ], [ -50.306190871911156, -22.946212362110771 ], [ -50.323313369216578, -22.951265709344966 ], [ -50.340186596933847, -22.948072768943064 ], [ -50.34541391262195, -22.934573716603666 ], [ -50.359637457002975, -22.921459053392535 ], [ -50.359249489472347, -22.91605881516216 ], [ -50.347835232909624, -22.928441841217932 ], [ -50.344004394387241, -22.919283951293266 ], [ -50.346191090546363, -22.909127596261499 ], [ -50.344197681178002, -22.900422899896853 ], [ -50.33270038751283, -22.880329283569548 ], [ -50.32564292897797, -22.879578231849848 ], [ -50.33328749821942, -22.864894355989691 ], [ -50.334013937293321, -22.857408907395097 ], [ -50.339562471031172, -22.841893602907419 ], [ -50.328968334121264, -22.805366566014186 ], [ -50.315488170242809, -22.793625356425025 ], [ -50.30564264878916, -22.79129715104261 ], [ -50.298757111851209, -22.779888433404437 ], [ -50.290473132728835, -22.774083339274625 ], [ -50.288863260830794, -22.760697612304909 ], [ -50.29115272162079, -22.755292532124596 ], [ -50.282503002611456, -22.740484037208489 ], [ -50.283119361968943, -22.731636699374121 ], [ -50.277420860883979, -22.726342301455986 ], [ -50.273448822505081, -22.713199029011946 ], [ -50.262160628410243, -22.701300430870159 ], [ -50.244905542256902, -22.689198063439843 ], [ -50.230418510006182, -22.689775012706605 ], [ -50.223472458587025, -22.695951849698076 ], [ -50.204996052625681, -22.695297333904815 ], [ -50.194126659317817, -22.697717451798894 ], [ -50.18506594293887, -22.702834170660424 ], [ -50.178536522242666, -22.702254870565753 ], [ -50.16824649467992, -22.7066253544765 ], [ -50.149815834533115, -22.704741098522845 ], [ -50.143868097134941, -22.70046619186121 ], [ -50.122891093848864, -22.715278566452636 ] ] } }
]
}
