{
"type": "FeatureCollection",
"features": [
{ "type": "Feature", "properties": { "Name": "PARAGUAÃU PAULISTA", "Description": "PARAGUAÃU PAULISTA \/ SP" }, "geometry": { "type": "LineString", "coordinates": [ [ -50.558467746189471, -22.2952903712536 ], [ -50.543479967826215, -22.301534421776125 ], [ -50.535172082925271, -22.302532627878406 ], [ -50.532308001213266, -22.308126302187077 ], [ -50.509068202035849, -22.315706536627317 ], [ -50.499426665708029, -22.312097211916747 ], [ -50.489711749197852, -22.319078890878075 ], [ -50.479025537898224, -22.309101351646007 ], [ -50.465315200635985, -22.315912752071824 ], [ -50.456724114726057, -22.313342930331942 ], [ -50.45168339397344, -22.315691258045092 ], [ -50.451027809785558, -22.330618299794651 ], [ -50.442349283692465, -22.355928006472254 ], [ -50.449224876826577, -22.363923587403576 ], [ -50.455237961662533, -22.365933653115572 ], [ -50.457913876424243, -22.376428023734263 ], [ -50.451564890307395, -22.394017054243591 ], [ -50.460073819551091, -22.408708147163225 ], [ -50.464782160768038, -22.40903288605881 ], [ -50.469733175945294, -22.418966343222106 ], [ -50.471970888845419, -22.435701668896854 ], [ -50.468339445309077, -22.46032157038411 ], [ -50.460507974463383, -22.456282322071441 ], [ -50.449767083484055, -22.45919224672474 ], [ -50.44834615465129, -22.459843693131912 ], [ -50.439412924366934, -22.491248961470376 ], [ -50.430736738309804, -22.49179772328625 ], [ -50.418467278641963, -22.498246068301341 ], [ -50.420431517600434, -22.504978204280633 ], [ -50.413971651370559, -22.517545374619317 ], [ -50.43006544296577, -22.521398680005003 ], [ -50.433047768439735, -22.525811327730537 ], [ -50.441506013691537, -22.52717147858084 ], [ -50.454642612266696, -22.525131532893909 ], [ -50.459606721572925, -22.529570219589914 ], [ -50.458737194965515, -22.550599391648575 ], [ -50.465990056395924, -22.556620475054842 ], [ -50.475216617652734, -22.568993651735578 ], [ -50.489568740804714, -22.581599209635783 ], [ -50.494608212399044, -22.589932886193708 ], [ -50.498338735144443, -22.604108003881205 ], [ -50.506581572081863, -22.607000049112912 ], [ -50.514276190393844, -22.603673998256397 ], [ -50.525053846557739, -22.592738989512725 ], [ -50.560593495293517, -22.583399191919113 ], [ -50.568411010459727, -22.583675251411705 ], [ -50.579022146354923, -22.579897745384585 ], [ -50.599967740818556, -22.549857326854124 ], [ -50.612683459374118, -22.544516260417026 ], [ -50.63289901387833, -22.554025278044094 ], [ -50.637337039572678, -22.562750450173098 ], [ -50.653639814725636, -22.54233809342821 ], [ -50.660440470950959, -22.530555473656133 ], [ -50.657835127788871, -22.509981290204333 ], [ -50.669023748047493, -22.509617464074662 ], [ -50.674057956809229, -22.51285024624184 ], [ -50.680420182745188, -22.530687726157566 ], [ -50.691167673849002, -22.540243191070374 ], [ -50.691638021077772, -22.546694694504481 ], [ -50.708469537339226, -22.550792650560311 ], [ -50.714717499013318, -22.562401531205637 ], [ -50.73100541017152, -22.567179014100191 ], [ -50.735811755008456, -22.580258935601364 ], [ -50.739429483883555, -22.583625476634381 ], [ -50.750472832155424, -22.584137579385754 ], [ -50.754659898435534, -22.580209093374886 ], [ -50.770772697202176, -22.582002703961564 ], [ -50.769748694046939, -22.591327901061728 ], [ -50.773028418126955, -22.595552032899946 ], [ -50.787949306715063, -22.596771758210021 ], [ -50.802690569214342, -22.612331569246461 ], [ -50.800194562029382, -22.617539956903443 ], [ -50.813315084323612, -22.63082152259517 ], [ -50.813055769308271, -22.638630692052743 ], [ -50.818031515841767, -22.64411851165994 ], [ -50.827581214301574, -22.645285905420167 ], [ -50.835313378409637, -22.628592009713426 ], [ -50.843975013436079, -22.625839997018204 ], [ -50.846141320165763, -22.617965740026818 ], [ -50.844066185805787, -22.600876105747659 ], [ -50.839524754263941, -22.588849079021713 ], [ -50.842397968591335, -22.582076035580542 ], [ -50.852702734243735, -22.576575129038929 ], [ -50.846486027608016, -22.556060478008586 ], [ -50.841988039616297, -22.550356087263594 ], [ -50.857360259268482, -22.529920005503811 ], [ -50.849598679235612, -22.519462338016467 ], [ -50.848319817205777, -22.51057001879127 ], [ -50.838117739741847, -22.504864121681805 ], [ -50.837373225194142, -22.494478520467283 ], [ -50.831347107383067, -22.484092154829057 ], [ -50.844861517445054, -22.475550905749628 ], [ -50.843564163555243, -22.463116700175533 ], [ -50.840118179110618, -22.460416192553225 ], [ -50.843650812335056, -22.446942488504988 ], [ -50.839802058418229, -22.436950847003914 ], [ -50.829558075244961, -22.428279924678748 ], [ -50.803171505060845, -22.442884200645324 ], [ -50.796932890040807, -22.443834130240873 ], [ -50.783544408447646, -22.435186584892961 ], [ -50.770475000021172, -22.437372999564218 ], [ -50.761283999756756, -22.432857999996656 ], [ -50.752588999882391, -22.432537999628945 ], [ -50.743878000169502, -22.422624000197402 ], [ -50.733858000346402, -22.416369000428972 ], [ -50.723263000087343, -22.413989000392007 ], [ -50.719322000010266, -22.404289000037295 ], [ -50.705566999717234, -22.404633999759255 ], [ -50.695044000080486, -22.399902000077191 ], [ -50.697548000439831, -22.388954999773375 ], [ -50.693337999648918, -22.380040999692312 ], [ -50.696324999798833, -22.37077999979709 ], [ -50.69416800015307, -22.3646739997053 ], [ -50.687983000015379, -22.361785999624146 ], [ -50.689525000078675, -22.347507000347719 ], [ -50.682910999942635, -22.330958999857899 ], [ -50.689196000195238, -22.323429999794595 ], [ -50.687666999832118, -22.310316000283134 ], [ -50.680614000135954, -22.294518000205528 ], [ -50.666210999637883, -22.284593000266682 ], [ -50.664152000014724, -22.288329999929488 ], [ -50.667790999654869, -22.30295900005774 ], [ -50.6455510001785, -22.312278999975831 ], [ -50.639310000156343, -22.310564000028535 ], [ -50.626394999929289, -22.301910000246266 ], [ -50.621374999556565, -22.294249000391005 ], [ -50.61257900042051, -22.297162999872512 ], [ -50.599294000217867, -22.295985999554205 ], [ -50.586965000034695, -22.303134000034049 ], [ -50.581504000009545, -22.301074000364792 ], [ -50.570110999822759, -22.303769999685699 ], [ -50.564718000235473, -22.297179999757134 ], [ -50.558467746189471, -22.2952903712536 ] ] } }
]
}
