{
"type": "FeatureCollection",
"features": [
{ "type": "Feature", "properties": { "Name": "PAULISTÃNIA", "Description": "PAULISTÃNIA \/ SP" }, "geometry": { "type": "LineString", "coordinates": [ [ -49.150985906674237, -22.519653660687823 ], [ -49.1534138513681, -22.528288145181705 ], [ -49.152574809979455, -22.538177443833945 ], [ -49.156148531429551, -22.54097890125524 ], [ -49.162624294075897, -22.554542173282638 ], [ -49.174107220172004, -22.567772545066873 ], [ -49.179179072755971, -22.57881100012753 ], [ -49.18791375881289, -22.57406198797031 ], [ -49.196230334762106, -22.573153509926499 ], [ -49.209060977681929, -22.582518205250949 ], [ -49.230029368160785, -22.585823064482781 ], [ -49.238860764612575, -22.584752032180514 ], [ -49.248721350609799, -22.590841844475506 ], [ -49.25819789191911, -22.593430908109895 ], [ -49.264698521719367, -22.591840326669683 ], [ -49.267762217852002, -22.597500339469036 ], [ -49.275662947287174, -22.595743272833715 ], [ -49.284984198162192, -22.605642653785424 ], [ -49.290733302299998, -22.617866793018038 ], [ -49.300437659870056, -22.625453464805499 ], [ -49.314199805276758, -22.633012287287158 ], [ -49.336648072450544, -22.633659144453929 ], [ -49.345198537782267, -22.641254120581152 ], [ -49.351007028651395, -22.642557498129975 ], [ -49.363947124460189, -22.632782205634211 ], [ -49.382579046585704, -22.629847876078596 ], [ -49.418948338794735, -22.621208845511774 ], [ -49.424722144611223, -22.607085276064595 ], [ -49.438745786788608, -22.604437088300926 ], [ -49.444351000298404, -22.60049806763169 ], [ -49.453609128658343, -22.583967584136644 ], [ -49.451864887254708, -22.576449812109104 ], [ -49.446298189909498, -22.562798098953067 ], [ -49.437454823481289, -22.560913573202811 ], [ -49.420811113542015, -22.563213029057977 ], [ -49.410731479673984, -22.561392863289939 ], [ -49.406939113249443, -22.552205694137456 ], [ -49.395188427503911, -22.553689580909406 ], [ -49.381575188244312, -22.551106379955399 ], [ -49.371694143569805, -22.546496721346553 ], [ -49.368760242091469, -22.549911759220265 ], [ -49.358194414040952, -22.548742165718348 ], [ -49.3497290200782, -22.543420655039142 ], [ -49.346664901264148, -22.533092385605073 ], [ -49.334209580507718, -22.533085859224968 ], [ -49.32862305580931, -22.528098058178784 ], [ -49.314528541658831, -22.525039036722148 ], [ -49.308865324575038, -22.514469257050507 ], [ -49.299894290389147, -22.512986770523014 ], [ -49.287144721351744, -22.503800142762316 ], [ -49.279018133480001, -22.501415173071734 ], [ -49.266737931410375, -22.494098547010307 ], [ -49.249015871385318, -22.504665042357772 ], [ -49.233327046306101, -22.505358591425818 ], [ -49.214308051475371, -22.520018002129063 ], [ -49.191843955334207, -22.528555656618209 ], [ -49.186913893461394, -22.523603073023367 ], [ -49.169588673678334, -22.521780403542721 ], [ -49.160069765307355, -22.524285852709909 ], [ -49.150985906674237, -22.519653660687823 ] ] } }
]
}
