{
"type": "FeatureCollection",
"features": [
{ "type": "Feature", "properties": { "Name": "PEDRO DE TOLEDO", "Description": "PEDRO DE TOLEDO \/ SP" }, "geometry": { "type": "LineString", "coordinates": [ [ -46.978605559698785, -24.064250680924147 ], [ -46.98319799988775, -24.074137000122388 ], [ -46.978673999905141, -24.086384000121484 ], [ -46.969602999778601, -24.091976999938538 ], [ -46.968429999644741, -24.107717000039486 ], [ -46.977936000046327, -24.121963999638808 ], [ -46.983249000440992, -24.123283000210222 ], [ -46.99159599955567, -24.122011000007603 ], [ -47.010183999691769, -24.131719999878044 ], [ -47.013997000161396, -24.141658999563163 ], [ -47.031120000187798, -24.148310999652889 ], [ -47.031041000142011, -24.157625000193548 ], [ -47.040505000405403, -24.169935000399903 ], [ -47.042460999775301, -24.177552000024718 ], [ -47.064634999805378, -24.186968999919372 ], [ -47.067417000394187, -24.201515999863432 ], [ -47.076487999621463, -24.204018000130528 ], [ -47.081695999670615, -24.21093099966583 ], [ -47.082515999713564, -24.218300000444628 ], [ -47.096737232836972, -24.219225980194778 ], [ -47.103708769244228, -24.224965299708739 ], [ -47.121805168473713, -24.223341877725431 ], [ -47.13215912614271, -24.213529372182734 ], [ -47.126949748332152, -24.205911545181607 ], [ -47.126172803332167, -24.195765589010701 ], [ -47.132770022118784, -24.196397503042306 ], [ -47.147971867008039, -24.207059306741542 ], [ -47.144486967999114, -24.213384564246212 ], [ -47.159841293840593, -24.221767506565129 ], [ -47.172783065985634, -24.220864425352886 ], [ -47.174825194327241, -24.230989999288965 ], [ -47.184940585239758, -24.23473330499797 ], [ -47.188149665774397, -24.241249669336753 ], [ -47.197372635138947, -24.244058828552053 ], [ -47.193063089290085, -24.25419122744313 ], [ -47.197732868477033, -24.26862142793652 ], [ -47.197076153841408, -24.284966350716445 ], [ -47.205172670182549, -24.291639967810227 ], [ -47.21043055022966, -24.309747612162536 ], [ -47.206973289185896, -24.322908790108556 ], [ -47.214437722422922, -24.327370178390993 ], [ -47.225977864286961, -24.325920375025245 ], [ -47.232506870395696, -24.328977113103235 ], [ -47.239775223547667, -24.3416525186488 ], [ -47.241644325924881, -24.357348927710802 ], [ -47.247425132064166, -24.361813679457669 ], [ -47.27615232816737, -24.355961627227256 ], [ -47.282096096857337, -24.359141885389647 ], [ -47.300335059315501, -24.359943927770018 ], [ -47.310967322983515, -24.354268893594508 ], [ -47.309389606345228, -24.338439057516435 ], [ -47.319509589196116, -24.339519987757171 ], [ -47.325982151155301, -24.339932855716651 ], [ -47.335992264731203, -24.331431344980558 ], [ -47.344125708134868, -24.332632287949707 ], [ -47.350629015216839, -24.322458382648222 ], [ -47.340773478912865, -24.314235060099914 ], [ -47.334174921935066, -24.315889229004654 ], [ -47.330686141452247, -24.310089743946488 ], [ -47.33041417927091, -24.300394406576572 ], [ -47.33412063975566, -24.2959536226615 ], [ -47.332401934601535, -24.288074455371767 ], [ -47.322569152044707, -24.287364433421825 ], [ -47.315487892951857, -24.279017945122003 ], [ -47.294040189902773, -24.279970714776592 ], [ -47.286911516753037, -24.277773893150595 ], [ -47.283793438616264, -24.266143998946347 ], [ -47.289037259561837, -24.257554236838526 ], [ -47.283784638750035, -24.249981911036343 ], [ -47.287394412222284, -24.234482838412191 ], [ -47.295483667437281, -24.222257094789029 ], [ -47.28933036840175, -24.208286321956166 ], [ -47.290198618871102, -24.197772427055838 ], [ -47.276685175580319, -24.193473532777261 ], [ -47.272788947352005, -24.182718427113684 ], [ -47.282239866076907, -24.179294645131733 ], [ -47.288369505748051, -24.171639186898915 ], [ -47.288323340849445, -24.1621241869816 ], [ -47.281594259867177, -24.154220969122377 ], [ -47.279855275900218, -24.147232788962015 ], [ -47.268531930004542, -24.14705086510531 ], [ -47.273485357163452, -24.140180973672951 ], [ -47.267391928694508, -24.11499200008069 ], [ -47.253068222320564, -24.10058481323847 ], [ -47.247671160495599, -24.101481816832347 ], [ -47.236649726903352, -24.096641214120666 ], [ -47.236776808303034, -24.093186082671536 ], [ -47.227303975797781, -24.082194532651499 ], [ -47.205081073332849, -24.076661471749503 ], [ -47.195780545535683, -24.072440989360132 ], [ -47.196521528445714, -24.06782169631418 ], [ -47.183921352988023, -24.060572012188572 ], [ -47.178234648310301, -24.060586825821304 ], [ -47.160524900004077, -24.05258597306414 ], [ -47.159991385294177, -24.039713773371886 ], [ -47.16428145812273, -24.034998177323985 ], [ -47.162754079237345, -24.0237208092679 ], [ -47.143478909823784, -24.015132956420757 ], [ -47.136000959776425, -24.017273624378216 ], [ -47.127134569804525, -24.008718015823717 ], [ -47.122725796358395, -24.000139129217416 ], [ -47.107109957558464, -23.993802716522108 ], [ -47.100440694082749, -23.997151343060008 ], [ -47.099313926296645, -24.005784716891128 ], [ -47.09239390395544, -24.010176425701445 ], [ -47.09231987086531, -24.01641478801201 ], [ -47.068385510882585, -24.025367393290537 ], [ -47.064398653475052, -24.022701957429319 ], [ -47.056012100378098, -24.009618615806403 ], [ -47.045888441997931, -24.019592710635038 ], [ -47.046167581668492, -24.025625577858079 ], [ -47.034334411004238, -24.030846978705082 ], [ -47.027199117045598, -24.051632685400079 ], [ -47.006360217250169, -24.063948906216979 ], [ -46.99777615954207, -24.052055972005459 ], [ -46.99136302298507, -24.058527734467305 ], [ -46.982066835316175, -24.059536029164345 ], [ -46.978605559698785, -24.064250680924147 ] ] } }
]
}
