{
"type": "FeatureCollection",
"features": [
{ "type": "Feature", "properties": { "Name": "PONGAÃ", "Description": "PONGAÃ \/ SP" }, "geometry": { "type": "LineString", "coordinates": [ [ -49.273322287193764, -21.659007990726138 ], [ -49.282518969374905, -21.672270542951139 ], [ -49.288752124610824, -21.67636153105974 ], [ -49.30281989562166, -21.680180919413829 ], [ -49.304699024540291, -21.689653045051955 ], [ -49.31033827289292, -21.689440975920263 ], [ -49.319066286879604, -21.703199001532653 ], [ -49.31382816853511, -21.722106922896103 ], [ -49.314744687417374, -21.736297392011011 ], [ -49.320180447069959, -21.745741639564983 ], [ -49.322076992259326, -21.754353945877881 ], [ -49.319925428115994, -21.76687382896398 ], [ -49.320861423615781, -21.778044727182362 ], [ -49.331661870398925, -21.790539833946127 ], [ -49.34714016598582, -21.800637926399133 ], [ -49.354279571644895, -21.810838974139301 ], [ -49.366030161162939, -21.819885153876726 ], [ -49.376130784308202, -21.816382640746212 ], [ -49.391166858963345, -21.830628604326591 ], [ -49.402904086354454, -21.826124896646604 ], [ -49.412001235168809, -21.820790227087286 ], [ -49.410824797826137, -21.812757540128302 ], [ -49.415410190927503, -21.808206525410753 ], [ -49.415274080334484, -21.798337546940218 ], [ -49.419114198961097, -21.789492179520433 ], [ -49.431348708276232, -21.779358225701515 ], [ -49.431820435064992, -21.774247966670259 ], [ -49.423569515920406, -21.763587441806976 ], [ -49.414285946639097, -21.756780618031026 ], [ -49.412687330655729, -21.750698720669391 ], [ -49.418792846012991, -21.74336822256538 ], [ -49.418839212359728, -21.73097776631084 ], [ -49.410863093656815, -21.725173928533934 ], [ -49.408448878013246, -21.706888740023317 ], [ -49.404619770685819, -21.694677848703691 ], [ -49.39532224302706, -21.695284677046175 ], [ -49.388166643275952, -21.69096430156122 ], [ -49.382764642374298, -21.676997724065643 ], [ -49.382546075640846, -21.669336851014805 ], [ -49.373278002577706, -21.667588327938915 ], [ -49.359527781282054, -21.659122938472763 ], [ -49.34144591419755, -21.657007984830614 ], [ -49.331612545282724, -21.651544048518986 ], [ -49.317673366532574, -21.633065664049127 ], [ -49.308880832484363, -21.626774118530705 ], [ -49.311492662456367, -21.617182472093361 ], [ -49.29001411176182, -21.634562888666323 ], [ -49.283025858756332, -21.649385910331432 ], [ -49.273322287193764, -21.659007990726138 ] ] } }
]
}
