{
"type": "FeatureCollection",
"features": [
{ "type": "Feature", "properties": { "Name": "PORTO FERREIRA", "Description": "PORTO FERREIRA \/ SP" }, "geometry": { "type": "LineString", "coordinates": [ [ -47.34689806619275, -21.806531106425382 ], [ -47.336238373202313, -21.813612169466008 ], [ -47.335664995143361, -21.828874933531324 ], [ -47.343073518428071, -21.839866885548304 ], [ -47.368930930218191, -21.846640404730863 ], [ -47.387464377478977, -21.850332212561511 ], [ -47.397696923074477, -21.858249339335483 ], [ -47.40399475935061, -21.878424292147315 ], [ -47.39352174583189, -21.886693348818937 ], [ -47.401452739252477, -21.89129146013272 ], [ -47.399655557457947, -21.903284052716799 ], [ -47.405619131917376, -21.914839352653981 ], [ -47.413927238950862, -21.9176852878457 ], [ -47.417868216544889, -21.913673591163274 ], [ -47.433158628467872, -21.914804620836549 ], [ -47.471318142618138, -21.915441150188883 ], [ -47.486471172306722, -21.922917991372174 ], [ -47.497473310045166, -21.91756584528747 ], [ -47.503348178975216, -21.929586918501457 ], [ -47.511912841904063, -21.935896746337733 ], [ -47.527242396819133, -21.925538185039159 ], [ -47.514594487145807, -21.91228122120134 ], [ -47.515839612008442, -21.904023981621435 ], [ -47.510626492118881, -21.879321310130305 ], [ -47.54221941479409, -21.862555121521609 ], [ -47.551651221126917, -21.854580125172617 ], [ -47.548623475393015, -21.844247315960839 ], [ -47.554728953878055, -21.836311375369633 ], [ -47.542616714589656, -21.8213551892905 ], [ -47.533281538612066, -21.819128945444447 ], [ -47.523726380368139, -21.810442010690224 ], [ -47.524208580661423, -21.802313794146244 ], [ -47.510745919388626, -21.808191091245817 ], [ -47.5015643107443, -21.801512580041503 ], [ -47.487154370178018, -21.795933959484614 ], [ -47.479091270845458, -21.790023841626919 ], [ -47.472404330295539, -21.792024531906577 ], [ -47.464627542726873, -21.785496834311402 ], [ -47.449841412151386, -21.78122390256101 ], [ -47.443770026065806, -21.784855710322745 ], [ -47.438542922617728, -21.780828467959395 ], [ -47.4421840293694, -21.765009055923141 ], [ -47.424806282883594, -21.75569693136822 ], [ -47.412168742393533, -21.762161563105622 ], [ -47.40991808105457, -21.770344788481168 ], [ -47.401153943099928, -21.773025993055114 ], [ -47.394305022958406, -21.767323634777881 ], [ -47.375142642918604, -21.777656136421513 ], [ -47.370327190647281, -21.777083060534778 ], [ -47.359954293256003, -21.784973148292124 ], [ -47.356928079966842, -21.795421975443787 ], [ -47.34689806619275, -21.806531106425382 ] ] } }
]
}
