{
"type": "FeatureCollection",
"features": [
{ "type": "Feature", "properties": { "Name": "PRADÃPOLIS", "Description": "PRADÃPOLIS \/ SP" }, "geometry": { "type": "LineString", "coordinates": [ [ -47.994660000358692, -21.304699999605248 ], [ -48.002534000143953, -21.308496000190186 ], [ -48.009117999795819, -21.32128099981821 ], [ -48.017545999947913, -21.326417000144374 ], [ -48.022945999857939, -21.333338000048627 ], [ -48.032822000235051, -21.358408999675532 ], [ -48.029909214838369, -21.379695494751218 ], [ -48.015356608520619, -21.380946022740716 ], [ -48.019130975014427, -21.386545637970755 ], [ -48.0365685057319, -21.400334261217154 ], [ -48.045158122149587, -21.418275275583483 ], [ -48.05022378919648, -21.388897889426005 ], [ -48.058279651684522, -21.396758562157856 ], [ -48.063272685885686, -21.396741241215238 ], [ -48.075229021402151, -21.405881327261397 ], [ -48.091602079472352, -21.421726181118345 ], [ -48.105877220657192, -21.430177980929045 ], [ -48.10894685591262, -21.42933820119697 ], [ -48.113502693694329, -21.420585735543227 ], [ -48.125688737645078, -21.407878298844366 ], [ -48.125824212417392, -21.399660949593112 ], [ -48.134300568216588, -21.382992111696581 ], [ -48.140094592591311, -21.380229273861858 ], [ -48.145659904081242, -21.370060077410585 ], [ -48.141316546421422, -21.358731450695871 ], [ -48.14397012562074, -21.346936012886658 ], [ -48.143738847869486, -21.323121284319768 ], [ -48.141484274479637, -21.31755858176308 ], [ -48.136030542775302, -21.268298025133731 ], [ -48.128626499913025, -21.272292228203693 ], [ -48.116846651851461, -21.274074586472921 ], [ -48.095338892975455, -21.262270625788688 ], [ -48.084442803292681, -21.266596972772049 ], [ -48.080784117493003, -21.270742214281711 ], [ -48.075148482616328, -21.29089051478536 ], [ -48.065481446011859, -21.304730934485008 ], [ -48.05850924230765, -21.300716673835382 ], [ -48.039446583592905, -21.304182615135513 ], [ -48.009570243671753, -21.30676400305623 ], [ -47.994660000358692, -21.304699999605248 ] ] } }
]
}
