{
"type": "FeatureCollection",
"features": [
{ "type": "Feature", "properties": { "Name": "QUINTANA", "Description": "QUINTANA \/ SP" }, "geometry": { "type": "LineString", "coordinates": [ [ -50.345885234715752, -22.188498168855347 ], [ -50.354140640578066, -22.194547766166405 ], [ -50.361232840822872, -22.195101957189532 ], [ -50.366548924992856, -22.185709205715227 ], [ -50.377092007390161, -22.184872820923886 ], [ -50.386738941448925, -22.187979053190702 ], [ -50.394385173536868, -22.187401040025918 ], [ -50.41060272263752, -22.180787698193679 ], [ -50.413074750299472, -22.175095845796591 ], [ -50.422686247472306, -22.173471100910547 ], [ -50.426649761177487, -22.165540527473297 ], [ -50.435409287408618, -22.172719020366454 ], [ -50.444109598679006, -22.175226581141771 ], [ -50.451729421275729, -22.173140171081968 ], [ -50.459563142225186, -22.166358246835557 ], [ -50.467420341775316, -22.166687416690877 ], [ -50.485245968626479, -22.152160030061282 ], [ -50.495612146283456, -22.145066349532385 ], [ -50.499362086291228, -22.138609159684904 ], [ -50.510741152382252, -22.136155023135757 ], [ -50.514235927745801, -22.13106208324848 ], [ -50.513362835326575, -22.120315518446375 ], [ -50.521124666270282, -22.111016046453354 ], [ -50.509212095361875, -22.1047020754404 ], [ -50.505321701934974, -22.098226553812367 ], [ -50.498280423102983, -22.094303539276893 ], [ -50.491116621534786, -22.082233149040576 ], [ -50.483843674645811, -22.080535622920593 ], [ -50.472308314477118, -22.075457242157938 ], [ -50.454388530406334, -22.081208434521614 ], [ -50.445087311030534, -22.08209155797897 ], [ -50.436635165880148, -22.07705531045417 ], [ -50.408516033787855, -22.081215212711868 ], [ -50.401117182711744, -22.075905882450456 ], [ -50.393715239766436, -22.074947150290711 ], [ -50.385526352259319, -22.067761564444595 ], [ -50.376294810556999, -22.064250672330616 ], [ -50.361732360260191, -22.065021153003784 ], [ -50.357984102884011, -22.06818157212183 ], [ -50.342689799594552, -22.067960873995105 ], [ -50.345018264880991, -22.061990854094574 ], [ -50.343761051331398, -22.044757184396474 ], [ -50.345045155509467, -22.029899476779406 ], [ -50.340684949950457, -22.023504395911118 ], [ -50.343164723473194, -22.015115542348383 ], [ -50.334024309174474, -22.01191335871448 ], [ -50.318317005725191, -22.010439257465691 ], [ -50.312809239154994, -22.006263248350194 ], [ -50.305284270752452, -21.994904473662473 ], [ -50.3053082026114, -21.984005696805411 ], [ -50.309047095347125, -21.976928061081082 ], [ -50.302754236818544, -21.970213905247473 ], [ -50.284691898512278, -21.959501029049189 ], [ -50.268606571336136, -21.968050434080226 ], [ -50.257878510984426, -21.970346800764219 ], [ -50.250462383931847, -21.983030704903054 ], [ -50.248357360603677, -21.991026713012332 ], [ -50.253169036621721, -21.995835245899855 ], [ -50.261719153915806, -21.996217552198232 ], [ -50.266891756649215, -22.001396454682606 ], [ -50.26337339476629, -22.016235196497064 ], [ -50.279865289251632, -22.027763952044722 ], [ -50.286177020952721, -22.026560632167389 ], [ -50.290251934579089, -22.039529420846065 ], [ -50.286746441095318, -22.046122848990251 ], [ -50.27610436042783, -22.048282823593411 ], [ -50.264733688608828, -22.047107201036454 ], [ -50.259130528251255, -22.055876571246699 ], [ -50.272136944564295, -22.064389200301317 ], [ -50.273904703239396, -22.071328385396612 ], [ -50.281299078389736, -22.08055589903546 ], [ -50.287605871913399, -22.084114669256508 ], [ -50.280830038775207, -22.114281967738574 ], [ -50.277409084261762, -22.118362852863299 ], [ -50.288296408252613, -22.141293551456215 ], [ -50.294306357152607, -22.150405173959541 ], [ -50.322387116072491, -22.168378236566298 ], [ -50.345885234715752, -22.188498168855347 ] ] } }
]
}
