{
"type": "FeatureCollection",
"features": [
{ "type": "Feature", "properties": { "Name": "RAFARD", "Description": "RAFARD \/ SP" }, "geometry": { "type": "LineString", "coordinates": [ [ -47.62330635630326, -22.994218595611642 ], [ -47.617308454721353, -22.999278287562902 ], [ -47.609815257568016, -22.998988372215535 ], [ -47.601892494742799, -23.006165554796496 ], [ -47.603766466049528, -23.011893336907914 ], [ -47.588261856299596, -23.007595665707356 ], [ -47.581426595960579, -23.00892305335617 ], [ -47.576265707796146, -23.017540576636236 ], [ -47.566357398375203, -23.01196713167775 ], [ -47.561321460217187, -23.014190733315672 ], [ -47.545249495168036, -23.008727983209834 ], [ -47.54795720725928, -23.002917002117897 ], [ -47.52843297420236, -22.999977488869941 ], [ -47.530473296705225, -23.00427212485863 ], [ -47.524368275975121, -23.010097823355807 ], [ -47.520114296537486, -23.020599125049557 ], [ -47.528617296550976, -23.037836124937144 ], [ -47.534181816637499, -23.039954892604154 ], [ -47.534449413509606, -23.048018227559112 ], [ -47.530399778926601, -23.051545503522107 ], [ -47.518176168495359, -23.075507209190334 ], [ -47.509229606660995, -23.083514536166884 ], [ -47.508614490166558, -23.091630296201174 ], [ -47.52862606134363, -23.094813852177477 ], [ -47.529222217431368, -23.100518813992039 ], [ -47.553750539155999, -23.098381820664429 ], [ -47.562303254591484, -23.090957140159841 ], [ -47.581389454859391, -23.10372545016935 ], [ -47.608687176771753, -23.099263575353689 ], [ -47.604199437454042, -23.087322838578075 ], [ -47.592748448082375, -23.077879298790549 ], [ -47.602848897658475, -23.07054932768926 ], [ -47.613120798486023, -23.068829376974122 ], [ -47.620858340539939, -23.073385953099205 ], [ -47.626280612160485, -23.068228960797853 ], [ -47.631464999609989, -23.055070999726809 ], [ -47.629073999965101, -23.043669000024291 ], [ -47.645537000132435, -23.040438000313429 ], [ -47.660030852841544, -23.031235745932861 ], [ -47.662826107638686, -23.017847532337722 ], [ -47.658784985138936, -23.006792541442564 ], [ -47.660268787374605, -22.997283976174515 ], [ -47.656386773830491, -22.989859810981443 ], [ -47.64645823326083, -22.988741851155453 ], [ -47.636609521012531, -22.993524631956177 ], [ -47.62330635630326, -22.994218595611642 ] ] } }
]
}
