{
"type": "FeatureCollection",
"features": [
{ "type": "Feature", "properties": { "Name": "REGINÃPOLIS", "Description": "REGINÃPOLIS \/ SP" }, "geometry": { "type": "LineString", "coordinates": [ [ -49.134380524041887, -22.049886477578809 ], [ -49.130823012871701, -22.061563569103381 ], [ -49.143644490800568, -22.063877410514067 ], [ -49.153270693687546, -22.061331836295153 ], [ -49.160769815574497, -22.065607503783212 ], [ -49.171004133733732, -22.058916303144827 ], [ -49.192519782362012, -22.060225396784574 ], [ -49.197966453489009, -22.054549469582298 ], [ -49.209971245376607, -22.059071024308253 ], [ -49.213328738330567, -22.054419880872786 ], [ -49.232854280800382, -22.041752175322586 ], [ -49.249682164700118, -22.044057548716864 ], [ -49.251697222548728, -22.039481119158268 ], [ -49.242922243266889, -22.036127040930126 ], [ -49.24377899770252, -22.030188241893825 ], [ -49.250514533119144, -22.027403719605957 ], [ -49.238877025254453, -22.020444042558495 ], [ -49.248374983019005, -22.011402098627912 ], [ -49.249880147750552, -21.999893885394442 ], [ -49.243940618464698, -21.993804100978423 ], [ -49.248560728095065, -21.980333476208898 ], [ -49.244950014831261, -21.969729311858202 ], [ -49.245322273903753, -21.962193892434129 ], [ -49.239005143572456, -21.953973806545889 ], [ -49.245840427293842, -21.949031551664746 ], [ -49.245646123369852, -21.939226928679769 ], [ -49.249660932605934, -21.921334221397156 ], [ -49.244337532451141, -21.915975078586939 ], [ -49.249597480938966, -21.907082933830281 ], [ -49.250426704428833, -21.899658693094178 ], [ -49.261785388284977, -21.882968661774271 ], [ -49.245633411452729, -21.875142683987633 ], [ -49.245822677374626, -21.863291313743105 ], [ -49.239070439748957, -21.858966927281813 ], [ -49.225024643672327, -21.860303259587738 ], [ -49.223923404041841, -21.852178031490894 ], [ -49.213772622108763, -21.832476321724812 ], [ -49.205295010856048, -21.826671061220452 ], [ -49.20687090007192, -21.819044440648383 ], [ -49.203612997142038, -21.810334788119917 ], [ -49.190845528898024, -21.807857250311823 ], [ -49.187574581301817, -21.798614029114106 ], [ -49.196736010958084, -21.790054766614162 ], [ -49.184983659668084, -21.771193315918765 ], [ -49.191920457063411, -21.764790766180852 ], [ -49.198065735045589, -21.755068849347879 ], [ -49.191645614353604, -21.750189731370938 ], [ -49.193566175038882, -21.74245426765026 ], [ -49.1994859821923, -21.736588295713204 ], [ -49.193647679696596, -21.722014559824004 ], [ -49.194025457009211, -21.716244989814353 ], [ -49.188591630898998, -21.71149994546607 ], [ -49.192646272007778, -21.696006248989132 ], [ -49.197204412953226, -21.692965289516451 ], [ -49.201116684187582, -21.682259398352528 ], [ -49.213293162949071, -21.671144400193896 ], [ -49.21065787596018, -21.660604576040328 ], [ -49.206264310949166, -21.654515592020914 ], [ -49.198681058384068, -21.653078348586856 ], [ -49.188341372955954, -21.647335496535899 ], [ -49.17626731348571, -21.645434267677274 ], [ -49.164202711286066, -21.647369826356339 ], [ -49.151635397055884, -21.658449775236871 ], [ -49.14989044428853, -21.664602563457493 ], [ -49.152145662492273, -21.677150230198947 ], [ -49.150540137917005, -21.684582541451107 ], [ -49.144999948089094, -21.691913517994408 ], [ -49.13806194650158, -21.708437912179875 ], [ -49.123031422462127, -21.721880752394782 ], [ -49.11577642514186, -21.738030376600534 ], [ -49.104503169685472, -21.750999380217195 ], [ -49.106423669216895, -21.762200674621397 ], [ -49.128702612035845, -21.775512706646055 ], [ -49.132702535693397, -21.783668447840565 ], [ -49.133926520192688, -21.797844352434879 ], [ -49.137925674030605, -21.807671878454357 ], [ -49.149206495483327, -21.82292381288363 ], [ -49.151123135124521, -21.828607049775485 ], [ -49.149399005259845, -21.851922325454893 ], [ -49.152116840120016, -21.859706277023008 ], [ -49.146814299740072, -21.874197045057542 ], [ -49.138757916544591, -21.886807626570658 ], [ -49.136282414801542, -21.89728791470543 ], [ -49.125783993636333, -21.912744805528291 ], [ -49.123307943306877, -21.922535596040859 ], [ -49.14225760760246, -21.94671166770928 ], [ -49.133978938976831, -21.956297244622078 ], [ -49.135090056760646, -21.962368662183962 ], [ -49.127140629936093, -21.967660582469875 ], [ -49.123317766601588, -21.991102499780482 ], [ -49.11829193052813, -21.999420301505666 ], [ -49.126418203637172, -22.010786283360233 ], [ -49.12478205175023, -22.013656153108911 ], [ -49.131343119589246, -22.027462588327751 ], [ -49.138290519991472, -22.031795524643712 ], [ -49.136594146802388, -22.039138627645514 ], [ -49.139344125231162, -22.045750455918778 ], [ -49.134380524041887, -22.049886477578809 ] ] } }
]
}
