{
"type": "FeatureCollection",
"features": [
{ "type": "Feature", "properties": { "Name": "RIBEIRA", "Description": "RIBEIRA \/ SP" }, "geometry": { "type": "LineString", "coordinates": [ [ -48.98189174320936, -24.523782711303056 ], [ -48.978633226042511, -24.534923943585056 ], [ -48.964584731100445, -24.539057613518025 ], [ -48.958631215558114, -24.538102850066423 ], [ -48.917681990931101, -24.548264674774884 ], [ -48.913275180705, -24.554194611891774 ], [ -48.901341412775935, -24.556484950420099 ], [ -48.900509783599603, -24.564667213521034 ], [ -48.9096012145244, -24.566824156509597 ], [ -48.920230757743241, -24.578249508907675 ], [ -48.927398198867763, -24.598230576879587 ], [ -48.938329109400854, -24.604334450074759 ], [ -48.940647853015946, -24.610298672046042 ], [ -48.949105126100619, -24.618260479837204 ], [ -48.946402791955222, -24.624011479745942 ], [ -48.93050179612095, -24.62243880740499 ], [ -48.921215801368078, -24.629714729251305 ], [ -48.911862379944864, -24.633339902714283 ], [ -48.912425429290067, -24.646782958766494 ], [ -48.915928955956524, -24.658165947700297 ], [ -48.913379446304361, -24.660526467522399 ], [ -48.916067169164471, -24.671675753233387 ], [ -48.912347205359197, -24.673974122707534 ], [ -48.915260363974596, -24.682912399987231 ], [ -48.92242704697059, -24.675186873775147 ], [ -48.931023580074111, -24.675652015727902 ], [ -48.942474575741016, -24.672276075880177 ], [ -48.948090343694382, -24.67371530501725 ], [ -48.955101763235746, -24.684087659218047 ], [ -48.961032905444199, -24.684513185135359 ], [ -48.962202069969521, -24.67416858940885 ], [ -48.973291804373218, -24.672522848950276 ], [ -48.974429887429324, -24.666833545231896 ], [ -48.98894216544852, -24.664188553658789 ], [ -48.990823428458441, -24.655259511517212 ], [ -49.010305694652054, -24.654371074865196 ], [ -49.004486000028862, -24.63780299970864 ], [ -49.008362855960968, -24.634563144373544 ], [ -49.015036733858153, -24.641876676767197 ], [ -49.021091185709622, -24.641987596450349 ], [ -49.030479353339445, -24.634326442811016 ], [ -49.04003362844918, -24.63684652844449 ], [ -49.039508053853574, -24.653364691227466 ], [ -49.037399730013469, -24.660419709002326 ], [ -49.045508243310735, -24.666099943957192 ], [ -49.047700981115327, -24.675889315339589 ], [ -49.054207746989903, -24.682379333139689 ], [ -49.069067731690438, -24.684867849871349 ], [ -49.074674876044639, -24.673416474690498 ], [ -49.083207363928636, -24.67224348804649 ], [ -49.085244309477275, -24.679933671801447 ], [ -49.097086844782041, -24.681874152470126 ], [ -49.10009372084852, -24.676325178064474 ], [ -49.108940767302499, -24.676548843054604 ], [ -49.111594637882206, -24.688352309111735 ], [ -49.12617321572128, -24.684175878214148 ], [ -49.134823337626869, -24.675559871191069 ], [ -49.14815116984056, -24.675276552370974 ], [ -49.157876169549525, -24.671934579916865 ], [ -49.159439172379848, -24.655980695852406 ], [ -49.150835560712494, -24.639663967717865 ], [ -49.153992010223078, -24.630853281753502 ], [ -49.166184288274216, -24.622573719201739 ], [ -49.164025900974536, -24.618297427584196 ], [ -49.171421580141775, -24.612104314662357 ], [ -49.16565599143081, -24.605381590088257 ], [ -49.163858998493929, -24.595781244508771 ], [ -49.152645278157024, -24.595601687667681 ], [ -49.150988140590187, -24.585731106605238 ], [ -49.135784631955175, -24.58658408298902 ], [ -49.135875435602827, -24.562030454341937 ], [ -49.13338326312703, -24.553328185247494 ], [ -49.132440698979053, -24.53752997562782 ], [ -49.089799791127398, -24.539798947163661 ], [ -49.069376936596313, -24.549752528456395 ], [ -49.05476144788247, -24.554204057471225 ], [ -49.048683725173753, -24.549798454135328 ], [ -49.024407797281974, -24.547329973399485 ], [ -49.009618367093928, -24.535707221610949 ], [ -49.012587432963642, -24.528240505894587 ], [ -49.003784166406092, -24.524548655795797 ], [ -48.995163308439885, -24.526119736336739 ], [ -48.98189174320936, -24.523782711303056 ] ] } }
]
}
