{
"type": "FeatureCollection",
"features": [
{ "type": "Feature", "properties": { "Name": "SALESÃPOLIS", "Description": "SALESÃPOLIS \/ SP" }, "geometry": { "type": "LineString", "coordinates": [ [ -45.7887940526034, -23.492882152589232 ], [ -45.79114833292919, -23.506327110707559 ], [ -45.783440345295674, -23.509966568102584 ], [ -45.772298912464805, -23.507214032001912 ], [ -45.759547907210099, -23.511470841606013 ], [ -45.761943167842901, -23.518480453510048 ], [ -45.754622002003771, -23.525745332580982 ], [ -45.753980610017095, -23.531966011522169 ], [ -45.746474029153092, -23.538879816849999 ], [ -45.747020582234029, -23.554922767971334 ], [ -45.741309972677072, -23.561046567445089 ], [ -45.745764002706494, -23.566711674004519 ], [ -45.741536063138767, -23.572152325069681 ], [ -45.730937044708803, -23.574487137771143 ], [ -45.739598517857246, -23.583267700044303 ], [ -45.733857146989685, -23.592366669086456 ], [ -45.743752747191479, -23.602089345846593 ], [ -45.733434448540947, -23.603154776271879 ], [ -45.725612615729567, -23.598474805967498 ], [ -45.721010847772391, -23.606701739293783 ], [ -45.714871584456034, -23.608720246042477 ], [ -45.705796345824638, -23.601676169419648 ], [ -45.703543721265696, -23.611174320538396 ], [ -45.696841957190543, -23.6222041007386 ], [ -45.695295493791946, -23.631549382398017 ], [ -45.702539508591428, -23.636851272568151 ], [ -45.719623875541402, -23.648911738785667 ], [ -45.728257258365716, -23.655990836807629 ], [ -45.733656680911047, -23.656421002327363 ], [ -45.741692466034465, -23.668168659156265 ], [ -45.753497757715309, -23.67131555337005 ], [ -45.762635342746819, -23.670730994939444 ], [ -45.777289999633751, -23.68288299955077 ], [ -45.796057999976654, -23.682972000057703 ], [ -45.798178999760978, -23.675399999810111 ], [ -45.823292000425454, -23.676201999922341 ], [ -45.832929999719681, -23.669831000200475 ], [ -45.830979999727163, -23.66257099995164 ], [ -45.833357999671925, -23.648664999889775 ], [ -45.841143999895621, -23.648587999936183 ], [ -45.844804999650989, -23.64379099995466 ], [ -45.854684000166451, -23.646661000105041 ], [ -45.862018000230478, -23.652299000198639 ], [ -45.872085999569208, -23.654761999566571 ], [ -45.883650000447119, -23.653545000101644 ], [ -45.894610999597887, -23.65532999967968 ], [ -45.916139000414482, -23.666904000119473 ], [ -45.921008000119059, -23.659308999710504 ], [ -45.933313531594131, -23.652256699686916 ], [ -45.935509988095419, -23.642878804113479 ], [ -45.928409719133185, -23.637453955035937 ], [ -45.939387208253038, -23.632324761678372 ], [ -45.947354653894138, -23.635689801742899 ], [ -45.959646586720567, -23.633991818767356 ], [ -45.93400774346253, -23.613459243349379 ], [ -45.930268152852932, -23.609100498289308 ], [ -45.929251365857795, -23.598477060567856 ], [ -45.935738724362579, -23.586247752032079 ], [ -45.945007784881341, -23.581594189420287 ], [ -45.965248298270289, -23.580801282353264 ], [ -45.965068000387866, -23.553597000001503 ], [ -45.969816999954553, -23.538857000150415 ], [ -45.980450000167302, -23.541682000024252 ], [ -45.985342000033256, -23.525156999695753 ], [ -45.992664000443199, -23.519915999923398 ], [ -45.985478000009664, -23.51728099981824 ], [ -45.975199999979964, -23.503455999894413 ], [ -45.961913132784787, -23.497051212643328 ], [ -45.949708605068054, -23.500508186803355 ], [ -45.939377681734577, -23.494365524948989 ], [ -45.921518130657148, -23.500533136694855 ], [ -45.918051218089204, -23.505316668429487 ], [ -45.904063854563219, -23.505310415443262 ], [ -45.897054675233051, -23.497561938532613 ], [ -45.88272295859764, -23.495391163971021 ], [ -45.873157621826749, -23.490527383931578 ], [ -45.864585160876459, -23.482885462294178 ], [ -45.852878678608079, -23.48102235839508 ], [ -45.84711793274635, -23.47450127801153 ], [ -45.840648023787253, -23.472348707526802 ], [ -45.835563532131289, -23.4826034969538 ], [ -45.81691466318113, -23.491470166614874 ], [ -45.813621544598561, -23.499313633517318 ], [ -45.795204082902046, -23.491215076614424 ], [ -45.7887940526034, -23.492882152589232 ] ] } }
]
}
