{
"type": "FeatureCollection",
"features": [
{ "type": "Feature", "properties": { "Name": "SALTO DE PIRAPORA", "Description": "SALTO DE PIRAPORA \/ SP" }, "geometry": { "type": "LineString", "coordinates": [ [ -47.557326999941033, -23.574351000198472 ], [ -47.549607000062963, -23.573581999809392 ], [ -47.535925999585174, -23.581351000148516 ], [ -47.533682000423937, -23.585356999625787 ], [ -47.518381999929311, -23.588396000375099 ], [ -47.514000000199815, -23.583542999609676 ], [ -47.501825999969867, -23.586045999922931 ], [ -47.492791850463497, -23.583047465068432 ], [ -47.494820252452655, -23.5937468523353 ], [ -47.492906514923675, -23.607331118136528 ], [ -47.483276345127194, -23.608500483210662 ], [ -47.466883811338789, -23.624465534157025 ], [ -47.477124776387257, -23.630688814836898 ], [ -47.494167510122445, -23.65001294783923 ], [ -47.497122259684488, -23.657810711195335 ], [ -47.488905810654614, -23.671476637236989 ], [ -47.488309751693635, -23.684872989696657 ], [ -47.50074992876614, -23.69629568279947 ], [ -47.521221192903681, -23.705585778460883 ], [ -47.526262465840084, -23.716542309779754 ], [ -47.535638389200244, -23.716163851680392 ], [ -47.552592854476586, -23.722738646771063 ], [ -47.558599072988784, -23.713659342304766 ], [ -47.579176693649458, -23.717418211681093 ], [ -47.580618960696427, -23.724043615220637 ], [ -47.586594124719056, -23.72661082442994 ], [ -47.586664458897644, -23.737147195186878 ], [ -47.580480473195223, -23.745340213280201 ], [ -47.577906836531213, -23.757026733297039 ], [ -47.618745635202849, -23.756732943670386 ], [ -47.617192689490984, -23.751909240119289 ], [ -47.621291762504768, -23.735793062599726 ], [ -47.629791332503942, -23.730556552243055 ], [ -47.633369546967003, -23.715319256978091 ], [ -47.637387184570855, -23.709376008995545 ], [ -47.644596614142415, -23.699671635237731 ], [ -47.641749577281132, -23.68549553998713 ], [ -47.6478590055886, -23.677000091580904 ], [ -47.658336665904358, -23.67904410400217 ], [ -47.666848895659939, -23.690454959328861 ], [ -47.681738086743273, -23.692037888437763 ], [ -47.684874016422661, -23.659960163730545 ], [ -47.679063708922968, -23.651108500157136 ], [ -47.685351699421346, -23.640356703099314 ], [ -47.695978684968281, -23.634655481565176 ], [ -47.704248712008393, -23.636631792123463 ], [ -47.705969414556819, -23.628924985299761 ], [ -47.702773762698939, -23.626630616909377 ], [ -47.684583229632324, -23.626836952863016 ], [ -47.668703795943365, -23.630840497191173 ], [ -47.66082206108922, -23.620966612019455 ], [ -47.652346844731085, -23.62082946181016 ], [ -47.641391924997322, -23.615570001654191 ], [ -47.63989702153026, -23.604253764899283 ], [ -47.644564321286332, -23.597874041753581 ], [ -47.640896733097691, -23.592436828796565 ], [ -47.640302394539844, -23.580845343737565 ], [ -47.634013620731992, -23.578276478876376 ], [ -47.630081816222791, -23.565365125400149 ], [ -47.622559984655538, -23.571768896417382 ], [ -47.607683350805928, -23.574690351278662 ], [ -47.598361386768545, -23.582421740171128 ], [ -47.592127164037322, -23.581322634631817 ], [ -47.581823860682562, -23.585115960633004 ], [ -47.567918625044456, -23.580697514978283 ], [ -47.557326999941033, -23.574351000198472 ] ] } }
]
}
