{
"type": "FeatureCollection",
"features": [
{ "type": "Feature", "properties": { "Name": "SANDOVALINA", "Description": "SANDOVALINA \/ SP" }, "geometry": { "type": "LineString", "coordinates": [ [ -51.71214694952203, -22.351519179966143 ], [ -51.707443392698394, -22.381243699936761 ], [ -51.711148312644468, -22.392396435447097 ], [ -51.719349360784349, -22.401199168706626 ], [ -51.72848698988264, -22.404911723896873 ], [ -51.723544631579443, -22.410715988851734 ], [ -51.730468798895913, -22.421147429410269 ], [ -51.728823540473968, -22.425605449731673 ], [ -51.729217707930843, -22.449728697921046 ], [ -51.740529839280612, -22.451489362743871 ], [ -51.747385043884606, -22.460782085324922 ], [ -51.747953995480486, -22.467842526011736 ], [ -51.75515954717531, -22.471030522840294 ], [ -51.758472011074389, -22.481126465014313 ], [ -51.75810373060267, -22.489448271420542 ], [ -51.774001612984023, -22.49790609758827 ], [ -51.774435197726177, -22.508343814515399 ], [ -51.771307938410587, -22.511816047472564 ], [ -51.78307345307735, -22.528024890236452 ], [ -51.784409366299201, -22.534776344552597 ], [ -51.782230285599155, -22.537842113622613 ], [ -51.786660751592365, -22.548384466669745 ], [ -51.800948874490928, -22.551621949593255 ], [ -51.810736608207833, -22.561945359990318 ], [ -51.827746204623622, -22.563213894205827 ], [ -51.822303015671594, -22.573777081846799 ], [ -51.827059330323777, -22.590640057292774 ], [ -51.855232381269332, -22.610529582374284 ], [ -51.890176154505866, -22.613168548489682 ], [ -51.892123646289178, -22.609660518018472 ], [ -51.909498080571893, -22.594677859495562 ], [ -51.91682148122635, -22.586105690824922 ], [ -51.940512626756288, -22.567342750967157 ], [ -51.960874821116072, -22.563456435965691 ], [ -51.991183191750842, -22.550766674542331 ], [ -51.996852644733735, -22.546053341188721 ], [ -52.012651108861512, -22.541696228398166 ], [ -52.03292396277061, -22.539164151204542 ], [ -52.027395239298805, -22.53509761746102 ], [ -52.026950654948735, -22.522142075796125 ], [ -52.017065136147096, -22.502143056456873 ], [ -52.009088433784136, -22.505999877292481 ], [ -51.998095255091926, -22.503095437604316 ], [ -51.982103236175362, -22.503628879469144 ], [ -51.978237911350504, -22.511368152718035 ], [ -51.955232888287128, -22.515287345134823 ], [ -51.947680415918398, -22.514776139906871 ], [ -51.936403304169119, -22.502372467215533 ], [ -51.93006213945614, -22.500449158202056 ], [ -51.925662989655223, -22.490930498044008 ], [ -51.917572203794123, -22.488583221638347 ], [ -51.898746804221616, -22.45524482908553 ], [ -51.895564310344582, -22.447161114593712 ], [ -51.888558882986047, -22.438391999790895 ], [ -51.886166652169209, -22.429566597320559 ], [ -51.879687032330651, -22.424450585326213 ], [ -51.861706546719688, -22.421305555407002 ], [ -51.855612875433792, -22.413972465456879 ], [ -51.84927611200294, -22.397419533084928 ], [ -51.845603535274904, -22.394226931727474 ], [ -51.844882332953262, -22.371464717522656 ], [ -51.838128931604842, -22.357720188036183 ], [ -51.81929387511218, -22.353249085277014 ], [ -51.797593675707503, -22.36150936276681 ], [ -51.785893141555221, -22.358565438344272 ], [ -51.781596789660057, -22.34696547627567 ], [ -51.781319662672274, -22.339265441346981 ], [ -51.772977315750495, -22.322328052397665 ], [ -51.75804282851368, -22.323121034108393 ], [ -51.746605548407274, -22.331093291122443 ], [ -51.742205072106337, -22.344708531373556 ], [ -51.736643710438841, -22.348984895836224 ], [ -51.726343114043459, -22.350671098592272 ], [ -51.719066881931035, -22.347994803417407 ], [ -51.71214694952203, -22.351519179966143 ] ] } }
]
}
