{
"type": "FeatureCollection",
"features": [
{ "type": "Feature", "properties": { "Name": "SANTA SALETE", "Description": "SANTA SALETE \/ SP" }, "geometry": { "type": "LineString", "coordinates": [ [ -50.734089489438354, -20.312490520920733 ], [ -50.73802669797368, -20.31412641380291 ], [ -50.742395313093198, -20.324348498484365 ], [ -50.751957492344332, -20.325906868906827 ], [ -50.764890033847962, -20.334970457720374 ], [ -50.785079440563663, -20.335872055051254 ], [ -50.780161511444533, -20.333444987196344 ], [ -50.767804955134515, -20.314045963150647 ], [ -50.761719500054824, -20.308815535808264 ], [ -50.75413176436939, -20.29463736402306 ], [ -50.753468437018739, -20.28479502886745 ], [ -50.758381832655402, -20.275018824459153 ], [ -50.758801520173961, -20.259390063300714 ], [ -50.749493514514029, -20.247102728707944 ], [ -50.74854358222052, -20.234338375715424 ], [ -50.742110848536811, -20.234583724259437 ], [ -50.728394859934781, -20.228742772360988 ], [ -50.727480757530884, -20.215303454790558 ], [ -50.720937902761989, -20.205635907371171 ], [ -50.712450781178575, -20.199450286701332 ], [ -50.69782354372154, -20.201426395811495 ], [ -50.683366791644062, -20.193307833489655 ], [ -50.6799542637782, -20.21274567407357 ], [ -50.668996430241009, -20.221291771398114 ], [ -50.668607199162864, -20.232051158733952 ], [ -50.673398857171492, -20.249621364634208 ], [ -50.671303088766479, -20.253670956049746 ], [ -50.685469597244094, -20.264711186372093 ], [ -50.687758436602508, -20.269230290445478 ], [ -50.700981780184975, -20.27235666662682 ], [ -50.716043967555038, -20.293378667491481 ], [ -50.728370890304291, -20.302347376030525 ], [ -50.733160777547816, -20.302399734560083 ], [ -50.734089489438354, -20.312490520920733 ] ] } }
]
}
