{
"type": "FeatureCollection",
"features": [
{ "type": "Feature", "properties": { "Name": "SANTA BRANCA", "Description": "SANTA BRANCA \/ SP" }, "geometry": { "type": "LineString", "coordinates": [ [ -45.782332178187403, -23.355569430384833 ], [ -45.787772548664122, -23.362035654821568 ], [ -45.78612308771028, -23.368336150392963 ], [ -45.767868464458047, -23.377014098221991 ], [ -45.756354412825829, -23.375004796933808 ], [ -45.754487727826358, -23.389132599489812 ], [ -45.762314735336702, -23.4020462525325 ], [ -45.773935743339848, -23.404940805973354 ], [ -45.777781181456298, -23.414626556570283 ], [ -45.786073600716065, -23.419125493346769 ], [ -45.776997661512837, -23.424413056417393 ], [ -45.772747036546434, -23.433003349125215 ], [ -45.763594878001186, -23.434756062142526 ], [ -45.764092073590291, -23.440784581143475 ], [ -45.772334138909343, -23.452126355946518 ], [ -45.786134641300627, -23.460216146258119 ], [ -45.788556366283217, -23.468176300196035 ], [ -45.783622227783553, -23.47216738081994 ], [ -45.780671322823252, -23.487030997882187 ], [ -45.7887940526034, -23.492882152589232 ], [ -45.795204082902046, -23.491215076614424 ], [ -45.813621544598561, -23.499313633517318 ], [ -45.81691466318113, -23.491470166614874 ], [ -45.835563532131289, -23.4826034969538 ], [ -45.840648023787253, -23.472348707526802 ], [ -45.84711793274635, -23.47450127801153 ], [ -45.852878678608079, -23.48102235839508 ], [ -45.864585160876459, -23.482885462294178 ], [ -45.873157621826749, -23.490527383931578 ], [ -45.88272295859764, -23.495391163971021 ], [ -45.897054675233051, -23.497561938532613 ], [ -45.904063854563219, -23.505310415443262 ], [ -45.918051218089204, -23.505316668429487 ], [ -45.921518130657148, -23.500533136694855 ], [ -45.939377681734577, -23.494365524948989 ], [ -45.949708605068054, -23.500508186803355 ], [ -45.961913132784787, -23.497051212643328 ], [ -45.957232208299722, -23.488056249296445 ], [ -45.964685082550488, -23.478036839428565 ], [ -45.956904441386818, -23.468607186072745 ], [ -45.951864649633819, -23.451350177168877 ], [ -45.959591529325564, -23.442534845306792 ], [ -45.965324739744915, -23.429593731465502 ], [ -45.978349738749387, -23.426151662669042 ], [ -45.979706317492514, -23.418413418244594 ], [ -45.987384941361938, -23.419775957694242 ], [ -45.980690999589903, -23.414429999844572 ], [ -45.980973000003928, -23.406824999873777 ], [ -45.974302999983422, -23.401175000126102 ], [ -45.968202000122169, -23.401710999662839 ], [ -45.961292999872001, -23.396885000142618 ], [ -45.9491680001031, -23.395358999917846 ], [ -45.946529999859536, -23.389816999754714 ], [ -45.932783999981552, -23.396641999728445 ], [ -45.934504000159443, -23.388569999805611 ], [ -45.929283000410123, -23.38221199978392 ], [ -45.924075000360908, -23.391298999748983 ], [ -45.917090000203302, -23.386698999858936 ], [ -45.929918000015618, -23.375628000132053 ], [ -45.930755999989344, -23.366757000235339 ], [ -45.902061999661491, -23.383988999892381 ], [ -45.897052999796074, -23.393426999856104 ], [ -45.892736000366085, -23.383588000285954 ], [ -45.900796999781676, -23.372285999799029 ], [ -45.899586999740222, -23.368386999860093 ], [ -45.882985000357451, -23.375624999993704 ], [ -45.876183999691811, -23.373072000072682 ], [ -45.861510000186335, -23.375562999832539 ], [ -45.854617999820782, -23.354715999843449 ], [ -45.84517300043359, -23.355849999977465 ], [ -45.844191000114506, -23.342404000444219 ], [ -45.838603999674831, -23.335352999940937 ], [ -45.831211999634036, -23.343333000117809 ], [ -45.822898000242503, -23.346961000149975 ], [ -45.814596999651762, -23.337228000072116 ], [ -45.805743999685774, -23.341443000194261 ], [ -45.803039999995974, -23.329389000102253 ], [ -45.790526506592983, -23.3521640863035 ], [ -45.782332178187403, -23.355569430384833 ] ] } }
]
}
