{
"type": "FeatureCollection",
"features": [
{ "type": "Feature", "properties": { "Name": "SANTA CRUZ DA ESPERANÃA", "Description": "SANTA CRUZ DA ESPERANÃA \/ SP" }, "geometry": { "type": "LineString", "coordinates": [ [ -47.415078298324772, -21.343209288877514 ], [ -47.423821857093003, -21.348598424977297 ], [ -47.432134856438438, -21.341948167773694 ], [ -47.441512075721676, -21.346296958237986 ], [ -47.446909705918131, -21.353386044130559 ], [ -47.448018557410478, -21.369242921023954 ], [ -47.458761024002001, -21.367000965122372 ], [ -47.458288189248492, -21.352845779109373 ], [ -47.465926981245161, -21.344164832940635 ], [ -47.473497302458497, -21.328899304359368 ], [ -47.474524028760868, -21.319636715362094 ], [ -47.480044130432248, -21.313434543569258 ], [ -47.475335098535929, -21.298806507514257 ], [ -47.480972014946467, -21.291248661696329 ], [ -47.476486251439326, -21.285887606028155 ], [ -47.482505981365932, -21.279120959464649 ], [ -47.496310314869106, -21.252265618563399 ], [ -47.492855625886364, -21.246290314246551 ], [ -47.495032890855207, -21.238149142968552 ], [ -47.503524959609138, -21.240237436208641 ], [ -47.504545702721941, -21.225271362982994 ], [ -47.511033155655582, -21.220744685718614 ], [ -47.507237370907887, -21.209009143656999 ], [ -47.501857303571683, -21.207893605705291 ], [ -47.481511365357164, -21.20836300954522 ], [ -47.478283647272463, -21.205332144063163 ], [ -47.469931513028882, -21.203988232271058 ], [ -47.460121093913301, -21.212256512827764 ], [ -47.452273616034518, -21.221864386632092 ], [ -47.437572217783554, -21.219048555346486 ], [ -47.420663913808539, -21.224173936477939 ], [ -47.404093991444483, -21.209723020101251 ], [ -47.400087223946173, -21.213251288016465 ], [ -47.395136009119476, -21.225071342968079 ], [ -47.38857335757433, -21.23103771341971 ], [ -47.384424696842245, -21.239730277929933 ], [ -47.382664836912625, -21.250164168241724 ], [ -47.378698391417572, -21.255371975835995 ], [ -47.382274953826027, -21.266460887360036 ], [ -47.387611196299645, -21.274063163284321 ], [ -47.397889147765909, -21.273459338677469 ], [ -47.403984308329143, -21.29075438530657 ], [ -47.39187936703911, -21.290926602780473 ], [ -47.375951848399041, -21.287068606530909 ], [ -47.368461137871179, -21.294248118355938 ], [ -47.393952315147203, -21.319109534577304 ], [ -47.397650284233173, -21.325420324688196 ], [ -47.409866507633183, -21.331801076658337 ], [ -47.415078298324772, -21.343209288877514 ] ] } }
]
}
