{
"type": "FeatureCollection",
"features": [
{ "type": "Feature", "properties": { "Name": "SANTA MARIA DA SERRA", "Description": "SANTA MARIA DA SERRA \/ SP" }, "geometry": { "type": "LineString", "coordinates": [ [ -48.059511219267335, -22.513351868294023 ], [ -48.058093352626088, -22.522685278003109 ], [ -48.06047534376205, -22.53770167549186 ], [ -48.064648302377236, -22.544816161836366 ], [ -48.063549852443714, -22.550596235927514 ], [ -48.054997484146554, -22.558128814393225 ], [ -48.064685941702805, -22.563612098719318 ], [ -48.06580777221086, -22.570706256788299 ], [ -48.072188941466436, -22.583437298892193 ], [ -48.069044642696035, -22.593331695801051 ], [ -48.076327448852624, -22.613619500039874 ], [ -48.080628975446814, -22.619354331936847 ], [ -48.071086806111168, -22.644261020030001 ], [ -48.08846431607526, -22.651898357822915 ], [ -48.09517223780847, -22.644859327296047 ], [ -48.091332435743254, -22.636959964830449 ], [ -48.091006730076515, -22.628304309396299 ], [ -48.096353133090588, -22.623423685055002 ], [ -48.11768218768276, -22.629577666675914 ], [ -48.136428187910496, -22.628687723659482 ], [ -48.145335122917572, -22.63067350407891 ], [ -48.156305969644734, -22.637757731833801 ], [ -48.17996338430271, -22.625667491761305 ], [ -48.190482834315333, -22.625273496974273 ], [ -48.205791485388716, -22.620438072558951 ], [ -48.213808306508099, -22.6152061226644 ], [ -48.215312145638954, -22.604301746628266 ], [ -48.218995793021406, -22.59699363085133 ], [ -48.227237627214663, -22.593963349029305 ], [ -48.23698893748945, -22.600851056930708 ], [ -48.240810524685905, -22.615594182825248 ], [ -48.246377642014515, -22.619038722059312 ], [ -48.257147835604087, -22.614123102399219 ], [ -48.261479890584432, -22.605432155769336 ], [ -48.256470751324052, -22.598944156047935 ], [ -48.247677969962297, -22.578467620084549 ], [ -48.248554951949416, -22.569791394457241 ], [ -48.256159567909663, -22.554942565846712 ], [ -48.253009955944663, -22.550661616640237 ], [ -48.260052554981371, -22.540424655373499 ], [ -48.25273499452436, -22.535991091215863 ], [ -48.247048992217167, -22.526295689094752 ], [ -48.234850777741144, -22.52037941717634 ], [ -48.230644000120492, -22.528244000160441 ], [ -48.2160790002456, -22.53128400005653 ], [ -48.217047999965189, -22.518308999760507 ], [ -48.207267000371701, -22.511738999854913 ], [ -48.207717999585952, -22.502803999704781 ], [ -48.198177000268281, -22.503514000070993 ], [ -48.198731999781891, -22.508628000281927 ], [ -48.188663000397128, -22.50978399963185 ], [ -48.192915000426858, -22.499431999786907 ], [ -48.19258000026673, -22.490224999683956 ], [ -48.183257000210347, -22.483009999711669 ], [ -48.176157000145388, -22.483361999756426 ], [ -48.17282200013517, -22.476131999991761 ], [ -48.158147999730375, -22.486488000021154 ], [ -48.151459999779149, -22.483521999940308 ], [ -48.147577999724888, -22.489002999988429 ], [ -48.139421000378832, -22.491387000209841 ], [ -48.140323999752752, -22.496861999981263 ], [ -48.131236999787689, -22.504060000068872 ], [ -48.131953000430599, -22.514429999844594 ], [ -48.141626999586322, -22.519474999571514 ], [ -48.138297999852796, -22.527789999908521 ], [ -48.128013000399619, -22.522611000297388 ], [ -48.12093799968892, -22.515565000024708 ], [ -48.127320999964127, -22.506161999876326 ], [ -48.128838999819948, -22.496026000099789 ], [ -48.123730999885709, -22.494127999807286 ], [ -48.118270999906656, -22.501414000355794 ], [ -48.109982999915474, -22.503263000187246 ], [ -48.103946000307637, -22.508874999981231 ], [ -48.092163000122298, -22.506533999944107 ], [ -48.083728999693562, -22.507388999802458 ], [ -48.078448999921363, -22.519506000101781 ], [ -48.073558000101563, -22.523114000110979 ], [ -48.059511219267335, -22.513351868294023 ] ] } }
]
}
