{
"type": "FeatureCollection",
"features": [
{ "type": "Feature", "properties": { "Name": "SANTA CLARA D'OESTE", "Description": "SANTA CLARA D'OESTE \/ SP" }, "geometry": { "type": "LineString", "coordinates": [ [ -50.885998822687498, -19.990389434924452 ], [ -50.884743639807084, -19.996281856822179 ], [ -50.869637280436109, -20.000483168363473 ], [ -50.859271254764565, -20.010821262890943 ], [ -50.853326864643066, -20.013755604137767 ], [ -50.838516954194056, -20.027870010392633 ], [ -50.828039029477566, -20.043538912790552 ], [ -50.825269354996692, -20.05320417593191 ], [ -50.835777211848779, -20.063057203127357 ], [ -50.837475791974157, -20.077057626608109 ], [ -50.847337038073817, -20.087626798338018 ], [ -50.854749520174153, -20.100893691590557 ], [ -50.863046766095351, -20.09702918335006 ], [ -50.865608743048995, -20.111822688366313 ], [ -50.871187417565238, -20.132383855030866 ], [ -50.88345079781601, -20.130392344131337 ], [ -50.891400830783653, -20.138633518222264 ], [ -50.90907982857118, -20.141515987472815 ], [ -50.916556372978157, -20.13583518774368 ], [ -50.918349192161429, -20.130511408974314 ], [ -50.931888892958, -20.122727166025868 ], [ -50.942730309256319, -20.123341903006349 ], [ -50.950007081861315, -20.120084405670752 ], [ -50.954166793462718, -20.113857437770491 ], [ -50.965900646597504, -20.111373516574474 ], [ -50.980948984408087, -20.105727209443099 ], [ -50.984974693427318, -20.097728172417192 ], [ -51.001191135462477, -20.09633478172475 ], [ -51.000475002619226, -20.085384369393068 ], [ -50.996534151829621, -20.077314558420085 ], [ -50.980839544109642, -20.057856425533544 ], [ -50.96912936382904, -20.036445198986712 ], [ -50.961895340497506, -20.031933271503249 ], [ -50.953177862967948, -20.033876973543443 ], [ -50.945515842382179, -20.029726128358107 ], [ -50.933659774079274, -20.014929219407918 ], [ -50.924715693474411, -20.011354591441204 ], [ -50.911902939868753, -20.003078950832844 ], [ -50.908134674375667, -19.994257448722237 ], [ -50.89719944170082, -19.990155185813137 ], [ -50.885998822687498, -19.990389434924452 ] ] } }
]
}
