{
"type": "FeatureCollection",
"features": [
{ "type": "Feature", "properties": { "Name": "SANTA GERTRUDES", "Description": "SANTA GERTRUDES \/ SP" }, "geometry": { "type": "LineString", "coordinates": [ [ -47.467031113994665, -22.418643209616388 ], [ -47.463056714895458, -22.435205934706062 ], [ -47.46398914008671, -22.453247080488325 ], [ -47.492013052860045, -22.480617732921985 ], [ -47.493298115715447, -22.487679976749462 ], [ -47.488328324492556, -22.506665693067248 ], [ -47.493250100911382, -22.517299100672915 ], [ -47.489383963998705, -22.523830602400324 ], [ -47.502046754753906, -22.523706835901688 ], [ -47.509367640004541, -22.5269312372867 ], [ -47.511923047410676, -22.535592552154526 ], [ -47.522075075804082, -22.534895621635599 ], [ -47.527768522699141, -22.53089577621904 ], [ -47.531114975575633, -22.520171073935842 ], [ -47.540449540913528, -22.517783258790303 ], [ -47.552750446276036, -22.519521652801984 ], [ -47.56265218884738, -22.526598200346598 ], [ -47.569756121647622, -22.517940087964632 ], [ -47.578652835859657, -22.514065308567066 ], [ -47.577761230896044, -22.470477762638609 ], [ -47.568095303155701, -22.465963514004898 ], [ -47.552310823485698, -22.448932614448552 ], [ -47.529421238299449, -22.429395605622631 ], [ -47.519902122185158, -22.434352007738934 ], [ -47.505994629248676, -22.425395619012587 ], [ -47.499741069294885, -22.42577189805462 ], [ -47.491431261643349, -22.419872912005243 ], [ -47.49059231558283, -22.414989668838075 ], [ -47.474263051798346, -22.415292591080171 ], [ -47.467270185270763, -22.413263145877409 ], [ -47.467031113994665, -22.418643209616388 ] ] } }
]
}
