{
"type": "FeatureCollection",
"features": [
{ "type": "Feature", "properties": { "Name": "SANTA ADÃLIA", "Description": "SANTA ADÃLIA \/ SP" }, "geometry": { "type": "LineString", "coordinates": [ [ -48.741383191281216, -21.245616673470632 ], [ -48.742962009589007, -21.254047223200754 ], [ -48.734187056387498, -21.260980216463793 ], [ -48.736301787897162, -21.266088043728185 ], [ -48.733622730904244, -21.278982585278015 ], [ -48.735270459763854, -21.287998147596397 ], [ -48.732529416099617, -21.294713974370381 ], [ -48.733753021085022, -21.309342364758265 ], [ -48.730918226694769, -21.316044352764607 ], [ -48.735486579442068, -21.323598132747573 ], [ -48.734356314192496, -21.333547937787046 ], [ -48.737536477026765, -21.342341316298644 ], [ -48.746266483911086, -21.355838374841085 ], [ -48.749002605585751, -21.3751516683148 ], [ -48.745125051779667, -21.392425002611731 ], [ -48.75238498637799, -21.406284086841083 ], [ -48.754297106026563, -21.420693893408384 ], [ -48.773455306916837, -21.427552006419887 ], [ -48.790613781600712, -21.416437055026051 ], [ -48.795794892820027, -21.4096219853663 ], [ -48.804609226434593, -21.413078451409373 ], [ -48.824652935784343, -21.407276425766383 ], [ -48.831661521561955, -21.395614061539675 ], [ -48.848423779233997, -21.391271016843916 ], [ -48.866756176756091, -21.391824085513061 ], [ -48.872960759631319, -21.394295125719452 ], [ -48.891942530623226, -21.384076211148169 ], [ -48.900165309981048, -21.370584437022099 ], [ -48.907051981863439, -21.358852686502246 ], [ -48.914676781308344, -21.357673683393728 ], [ -48.923250540879735, -21.345210188699184 ], [ -48.91913751218641, -21.322810306850158 ], [ -48.923842167981604, -21.303237044553892 ], [ -48.92009042303453, -21.2995922352934 ], [ -48.918056597234106, -21.293331662426226 ], [ -48.904647089491561, -21.274604449935396 ], [ -48.9046293710486, -21.267603164854108 ], [ -48.899045469672672, -21.26266736530664 ], [ -48.880747527876053, -21.266172045803216 ], [ -48.874681517038312, -21.261929685606447 ], [ -48.869013757478911, -21.267128357887373 ], [ -48.8638334961189, -21.251530319368726 ], [ -48.847705972752408, -21.236392740032898 ], [ -48.859614136083451, -21.228603600275903 ], [ -48.852329584342776, -21.221293691250818 ], [ -48.844916882807865, -21.21884494703664 ], [ -48.825417720151613, -21.222232151792298 ], [ -48.8150106008585, -21.214622070652013 ], [ -48.804337024134327, -21.216117522705474 ], [ -48.799705145076352, -21.2197175619159 ], [ -48.785066054554697, -21.224222430620614 ], [ -48.774308644828068, -21.222165665812781 ], [ -48.769718709250981, -21.218278346268619 ], [ -48.759470207883737, -21.218850274620422 ], [ -48.760742495869465, -21.240809477875075 ], [ -48.755255699690736, -21.244784878819075 ], [ -48.741383191281216, -21.245616673470632 ] ] } }
]
}
