{
"type": "FeatureCollection",
"features": [
{ "type": "Feature", "properties": { "Name": "SANTANA DA PONTE PENSA", "Description": "SANTANA DA PONTE PENSA \/ SP" }, "geometry": { "type": "LineString", "coordinates": [ [ -50.759504084945547, -20.165314642456735 ], [ -50.757460316240554, -20.172673140952668 ], [ -50.763575933682375, -20.183438591517756 ], [ -50.768157175513181, -20.200235748281102 ], [ -50.767052558928413, -20.216592837989026 ], [ -50.775473397779017, -20.228916176939947 ], [ -50.782031792832917, -20.233939787191389 ], [ -50.772844485184805, -20.238486158709236 ], [ -50.764840913777107, -20.232812216310663 ], [ -50.74854358222052, -20.234338375715424 ], [ -50.749493514514029, -20.247102728707944 ], [ -50.758801520173961, -20.259390063300714 ], [ -50.758381832655402, -20.275018824459153 ], [ -50.753468437018739, -20.28479502886745 ], [ -50.75413176436939, -20.29463736402306 ], [ -50.761719500054824, -20.308815535808264 ], [ -50.767804955134515, -20.314045963150647 ], [ -50.780161511444533, -20.333444987196344 ], [ -50.785079440563663, -20.335872055051254 ], [ -50.811327228268908, -20.339109388687291 ], [ -50.826696276012285, -20.331003298163637 ], [ -50.834575839903039, -20.323873113253512 ], [ -50.8582456930842, -20.313297830630347 ], [ -50.859027435068008, -20.301139725917551 ], [ -50.849328990540414, -20.295833729443014 ], [ -50.848943418803685, -20.291275025521941 ], [ -50.837469724248308, -20.282854560789303 ], [ -50.840397436592411, -20.268099238289153 ], [ -50.834268683652795, -20.26187765642868 ], [ -50.833646496688395, -20.254243507631713 ], [ -50.828001909060788, -20.250098973888498 ], [ -50.822502576332795, -20.237484798684477 ], [ -50.824639630814261, -20.22681335515216 ], [ -50.822887182197633, -20.216686511373382 ], [ -50.812633007906925, -20.215416501370385 ], [ -50.806779370171739, -20.210033280111755 ], [ -50.811569184570139, -20.184216892695417 ], [ -50.808295192768867, -20.182547838212145 ], [ -50.799632807707894, -20.167723325471059 ], [ -50.792022997263466, -20.161901063283381 ], [ -50.779744647797202, -20.167180578320995 ], [ -50.769215753104504, -20.163578491354258 ], [ -50.759504084945547, -20.165314642456735 ] ] } }
]
}
