{
"type": "FeatureCollection",
"features": [
{ "type": "Feature", "properties": { "Name": "SANTA BÃRBARA D'OESTE", "Description": "SANTA BÃRBARA D'OESTE \/ SP" }, "geometry": { "type": "LineString", "coordinates": [ [ -47.351201291606287, -22.785031764104588 ], [ -47.356069938776614, -22.811862655137361 ], [ -47.358400325014941, -22.817465882044754 ], [ -47.358739808295468, -22.82533065388651 ], [ -47.364824005223625, -22.827667086266956 ], [ -47.369419000386529, -22.845070000280259 ], [ -47.357268000317902, -22.847647999555477 ], [ -47.341818036073448, -22.8602549541028 ], [ -47.370829249769997, -22.873807123999541 ], [ -47.381652287523025, -22.880397841587069 ], [ -47.388042499461726, -22.89031267738812 ], [ -47.393524188390529, -22.892583297381236 ], [ -47.396209782555388, -22.904528007361588 ], [ -47.40190736813048, -22.902911047906514 ], [ -47.411849242948165, -22.908265909044417 ], [ -47.417440057412705, -22.903154714718255 ], [ -47.428216895193543, -22.899696646982648 ], [ -47.441672086697395, -22.88868133147821 ], [ -47.441773461875691, -22.880474378389806 ], [ -47.449827853072918, -22.871267641788165 ], [ -47.448743520696894, -22.863766176267973 ], [ -47.45619453784758, -22.848163771540783 ], [ -47.465057584140141, -22.858204386523198 ], [ -47.481925458193302, -22.85835875695102 ], [ -47.485212831007281, -22.849686913720063 ], [ -47.500619925469152, -22.85453319654971 ], [ -47.507111617806856, -22.852547689524215 ], [ -47.519397131272569, -22.854415014841038 ], [ -47.530238080822755, -22.846028684775945 ], [ -47.52516297269301, -22.826245706873806 ], [ -47.52026220713509, -22.815615916341415 ], [ -47.513770575051979, -22.80763835512596 ], [ -47.504948752782688, -22.785618312734925 ], [ -47.496479000705278, -22.782130524204259 ], [ -47.49505664734636, -22.767430222226949 ], [ -47.497893608203412, -22.761226653786991 ], [ -47.492962789101398, -22.753465917318181 ], [ -47.510334964287154, -22.736255127272269 ], [ -47.503097549612164, -22.729829976672022 ], [ -47.490459964156003, -22.72428520569764 ], [ -47.485352619827495, -22.733824321834959 ], [ -47.474296001159473, -22.738314943479793 ], [ -47.465002160721092, -22.735605317631268 ], [ -47.460558944139905, -22.727252814665633 ], [ -47.453306596222376, -22.729472429608904 ], [ -47.447423066821045, -22.725622721511343 ], [ -47.440023478300816, -22.715020801868491 ], [ -47.424874786941814, -22.71059257428783 ], [ -47.414482743883468, -22.714714355183276 ], [ -47.400571123058853, -22.709923020930603 ], [ -47.388062076803351, -22.699270343551461 ], [ -47.378993000326652, -22.709661999901353 ], [ -47.367954000276825, -22.707982998916233 ], [ -47.362910673288923, -22.725732603376912 ], [ -47.354859005238836, -22.734818837119576 ], [ -47.354474761800759, -22.744703860394793 ], [ -47.361283000210221, -22.746154000106969 ], [ -47.360474999821349, -22.76676699919761 ], [ -47.351201291606287, -22.785031764104588 ] ] } }
]
}
