{
"type": "FeatureCollection",
"features": [
{ "type": "Feature", "properties": { "Name": "SANTA ERNESTINA", "Description": "SANTA ERNESTINA \/ SP" }, "geometry": { "type": "LineString", "coordinates": [ [ -48.282555170884393, -21.481297166431034 ], [ -48.294980700698709, -21.482448031551371 ], [ -48.306419078877354, -21.485789022845097 ], [ -48.32395128662256, -21.484432069084676 ], [ -48.327235468641902, -21.491158326195773 ], [ -48.338911687824059, -21.495445823366026 ], [ -48.351475849031146, -21.492281421150604 ], [ -48.369296999956532, -21.504506190808002 ], [ -48.380187461681942, -21.504279424955428 ], [ -48.394050761933102, -21.492207754983834 ], [ -48.397662023783305, -21.479082462685483 ], [ -48.407327742880959, -21.472688226280582 ], [ -48.418129642069289, -21.473650810236677 ], [ -48.41827112341354, -21.482249677980235 ], [ -48.422173271878933, -21.489012528505324 ], [ -48.43205801996163, -21.49091417554871 ], [ -48.445499148766658, -21.488408625657485 ], [ -48.458974508466724, -21.492871248709093 ], [ -48.463937855147833, -21.48979045736365 ], [ -48.462423537116479, -21.476663555278833 ], [ -48.453831756930015, -21.46635689835216 ], [ -48.440523379750118, -21.460664119653359 ], [ -48.429268855373323, -21.446875437951064 ], [ -48.427812118234613, -21.435448207768502 ], [ -48.411029567360629, -21.425457207484101 ], [ -48.402010255768623, -21.416283285345287 ], [ -48.399847518448155, -21.398603963801861 ], [ -48.387146074831435, -21.399308557443927 ], [ -48.381765979616205, -21.402332938814027 ], [ -48.371537832604872, -21.401545708267804 ], [ -48.360526891402856, -21.392159706205405 ], [ -48.351686470254378, -21.391991154368213 ], [ -48.335839583929612, -21.385244896334825 ], [ -48.335911909207198, -21.411520305817419 ], [ -48.33714110797569, -21.426354484471858 ], [ -48.327250426166188, -21.426259588009543 ], [ -48.319357072970483, -21.43205031457029 ], [ -48.304551055686602, -21.436266553058942 ], [ -48.291234194302604, -21.434703507061158 ], [ -48.28623541613149, -21.436547563319323 ], [ -48.282555170884393, -21.481297166431034 ] ] } }
]
}
