{
"type": "FeatureCollection",
"features": [
{ "type": "Feature", "properties": { "Name": "SÃO BERNARDO DO CAMPO", "Description": "SÃO BERNARDO DO CAMPO \/ SP" }, "geometry": { "type": "LineString", "coordinates": [ [ -46.56721364669238, -23.650162561752776 ], [ -46.563652999586225, -23.65220300026823 ], [ -46.553644000270367, -23.666363000352135 ], [ -46.554550999828734, -23.680933999604349 ], [ -46.53949699988658, -23.687486999625264 ], [ -46.536859999689163, -23.696316000283161 ], [ -46.529064999949753, -23.703446999979008 ], [ -46.523749000316059, -23.701351000448255 ], [ -46.516763000112341, -23.705362000156128 ], [ -46.521868999954336, -23.714685000212569 ], [ -46.517366000040852, -23.720334999960244 ], [ -46.516879000065785, -23.727813000369622 ], [ -46.520315000237012, -23.73534000034067 ], [ -46.511710000016421, -23.747685000362424 ], [ -46.506465000059677, -23.743323999802726 ], [ -46.496527000420706, -23.747820000292734 ], [ -46.473594999609475, -23.773120999734317 ], [ -46.4644129997601, -23.779206999803137 ], [ -46.455410000071424, -23.790512999575242 ], [ -46.44183199984689, -23.799983000115333 ], [ -46.43056099989019, -23.801274000294825 ], [ -46.432668999974339, -23.80810799978434 ], [ -46.426268999814454, -23.812900999581416 ], [ -46.410295999760535, -23.815378999641098 ], [ -46.426322999606725, -23.825149999672703 ], [ -46.436874999681436, -23.825367999833304 ], [ -46.441179000310569, -23.834915000326987 ], [ -46.437964999584999, -23.842247000298755 ], [ -46.443547999840291, -23.850172999784089 ], [ -46.455017999980669, -23.854556999605791 ], [ -46.459898000192531, -23.866087999861236 ], [ -46.477809999731669, -23.879142000203103 ], [ -46.482872000242594, -23.885844999946755 ], [ -46.488446000082774, -23.885422000225105 ], [ -46.496213000329639, -23.899565000424388 ], [ -46.503061999611532, -23.904484999782881 ], [ -46.520111999868845, -23.905478999755985 ], [ -46.520909999796629, -23.911812000423424 ], [ -46.54050100032088, -23.923543000009374 ], [ -46.556586000143731, -23.941728000446801 ], [ -46.56445699979065, -23.952947999850263 ], [ -46.580193999753249, -23.955788000415851 ], [ -46.585299000448458, -23.960838000373368 ], [ -46.61194645226692, -23.967762823295629 ], [ -46.606607385922075, -23.957340250951798 ], [ -46.607115262759123, -23.944788628992001 ], [ -46.609844970468941, -23.9369742515604 ], [ -46.616882617838485, -23.9335584699474 ], [ -46.609365208237698, -23.927708119234296 ], [ -46.611607336809129, -23.910707918035939 ], [ -46.61802516872649, -23.885232745994415 ], [ -46.615596000055291, -23.876340999637364 ], [ -46.616937999888762, -23.862004000384275 ], [ -46.632556999805672, -23.85112899980345 ], [ -46.635115710421644, -23.838503172083676 ], [ -46.633807999939222, -23.829521999840381 ], [ -46.62435600022917, -23.818766000250662 ], [ -46.622843999750728, -23.786235000145098 ], [ -46.625059000272586, -23.781598000347401 ], [ -46.645498000332388, -23.757222000394961 ], [ -46.651291000379331, -23.731012000403439 ], [ -46.640351714459996, -23.731572568519198 ], [ -46.633869624183774, -23.736179633483232 ], [ -46.619551758906482, -23.738987070496876 ], [ -46.61137921028228, -23.737374124716041 ], [ -46.605489229144553, -23.731276357917523 ], [ -46.604880999658349, -23.718465000059663 ], [ -46.591129000402987, -23.707212000033735 ], [ -46.588786000273664, -23.698519000251622 ], [ -46.578777000058437, -23.690034000168907 ], [ -46.57864100008203, -23.680428999698506 ], [ -46.582440999952155, -23.672380999983091 ], [ -46.591335065660694, -23.677301569511769 ], [ -46.600059000322574, -23.670771000381308 ], [ -46.609089741398407, -23.66951210420018 ], [ -46.616345000421397, -23.657974000199886 ], [ -46.614410000221312, -23.660264999729918 ], [ -46.590006999923048, -23.648939999980996 ], [ -46.583385000317485, -23.641035999711562 ], [ -46.574568000212992, -23.64999400002301 ], [ -46.56721364669238, -23.650162561752776 ] ] } }
]
}
