{
"type": "FeatureCollection",
"features": [
{ "type": "Feature", "properties": { "Name": "SARAPUÃ", "Description": "SARAPUÃ \/ SP" }, "geometry": { "type": "LineString", "coordinates": [ [ -47.760511554664447, -23.560791990957568 ], [ -47.747790179373226, -23.572355715743637 ], [ -47.753071384236925, -23.580856492632961 ], [ -47.76384059846481, -23.588740321108901 ], [ -47.755111388379817, -23.594119505310857 ], [ -47.753949047010849, -23.604231919467452 ], [ -47.740728500320017, -23.604048108833126 ], [ -47.731331397925658, -23.610962589551832 ], [ -47.732914319839949, -23.626206226835848 ], [ -47.725369882014377, -23.630045418261375 ], [ -47.721556044275985, -23.6222133439706 ], [ -47.705969414556819, -23.628924985299761 ], [ -47.704248712008393, -23.636631792123463 ], [ -47.695978684968281, -23.634655481565176 ], [ -47.685351699421346, -23.640356703099314 ], [ -47.679063708922968, -23.651108500157136 ], [ -47.684874016422661, -23.659960163730545 ], [ -47.681738086743273, -23.692037888437763 ], [ -47.666848895659939, -23.690454959328861 ], [ -47.658336665904358, -23.67904410400217 ], [ -47.6478590055886, -23.677000091580904 ], [ -47.641749577281132, -23.68549553998713 ], [ -47.644596614142415, -23.699671635237731 ], [ -47.637387184570855, -23.709376008995545 ], [ -47.656265651338686, -23.728173680670807 ], [ -47.665375117267786, -23.742874395436957 ], [ -47.677682086758864, -23.733636102524088 ], [ -47.686904991372217, -23.722969239238978 ], [ -47.70095876443537, -23.726482708809897 ], [ -47.707158597990883, -23.724231462911632 ], [ -47.709819902366576, -23.71389668508391 ], [ -47.71670861660931, -23.712285177319018 ], [ -47.723905847776621, -23.724045624306086 ], [ -47.744788761292284, -23.731398411207689 ], [ -47.7464107767359, -23.735819714008528 ], [ -47.756861291015753, -23.7403777074652 ], [ -47.767338218384054, -23.738661912517216 ], [ -47.771982857922524, -23.74125475240487 ], [ -47.782605649930758, -23.734927667477848 ], [ -47.789862026811022, -23.755296793811965 ], [ -47.801150952054741, -23.761527133270533 ], [ -47.823822977748186, -23.762509509506231 ], [ -47.834402853209042, -23.75375237547172 ], [ -47.848533475139732, -23.749487095153256 ], [ -47.840358432695496, -23.730359904685827 ], [ -47.84074264105999, -23.720590071974186 ], [ -47.856610769371457, -23.720889202674524 ], [ -47.872046193377052, -23.704930772537068 ], [ -47.884657260524136, -23.695558959078653 ], [ -47.88531082033802, -23.676697502088018 ], [ -47.888441708418043, -23.665732047695826 ], [ -47.881791698528048, -23.660854776926385 ], [ -47.901250186646735, -23.646447422810294 ], [ -47.906908212843689, -23.627633238682957 ], [ -47.91746327600935, -23.619466710120545 ], [ -47.910376767573723, -23.605828785370079 ], [ -47.900812859825578, -23.60865873331386 ], [ -47.895614184846693, -23.603441883036453 ], [ -47.886091037970971, -23.608194545541778 ], [ -47.869705714946747, -23.595713341397527 ], [ -47.855195655555008, -23.591295762689242 ], [ -47.846227552259677, -23.578837686410054 ], [ -47.835783852143031, -23.586557515416981 ], [ -47.827598361375237, -23.584437933863512 ], [ -47.816880387819594, -23.588425746351046 ], [ -47.809683565843841, -23.586762616601447 ], [ -47.801771714492986, -23.578408656734098 ], [ -47.800437065717972, -23.5688418073035 ], [ -47.78997971119469, -23.568066502666909 ], [ -47.785840757744722, -23.561659809752371 ], [ -47.7851370067674, -23.552414921211607 ], [ -47.778718351071007, -23.539035220598919 ], [ -47.779851620056206, -23.532138714629923 ], [ -47.768289007731482, -23.547084599874324 ], [ -47.767897209988234, -23.552691244205505 ], [ -47.760511554664447, -23.560791990957568 ] ] } }
]
}
