{
"type": "FeatureCollection",
"features": [
{ "type": "Feature", "properties": { "Name": "SEVERÃNIA", "Description": "SEVERÃNIA \/ SP" }, "geometry": { "type": "LineString", "coordinates": [ [ -48.792419062689532, -20.725305018411802 ], [ -48.783095699307012, -20.728943985676381 ], [ -48.774096908445529, -20.739688302173363 ], [ -48.768235353978355, -20.738812885905929 ], [ -48.753669278514337, -20.74286001317904 ], [ -48.748062748397103, -20.752644151406397 ], [ -48.737492654862081, -20.751841703431808 ], [ -48.726256480252339, -20.765588871529133 ], [ -48.725504158689937, -20.778851480411447 ], [ -48.718426666857169, -20.790087794416138 ], [ -48.719401935750675, -20.812958001010884 ], [ -48.728646509528737, -20.821086943307762 ], [ -48.737346720974358, -20.821043364859349 ], [ -48.746751954139313, -20.830028199142021 ], [ -48.744793826074158, -20.839840273010168 ], [ -48.796912024370386, -20.835587457295276 ], [ -48.82660118569612, -20.840341974202715 ], [ -48.837715020132009, -20.844492349941959 ], [ -48.84256816209097, -20.843410722726617 ], [ -48.848047189925808, -20.832997983570067 ], [ -48.859512438048512, -20.832755867189462 ], [ -48.868889573694844, -20.829521323250443 ], [ -48.874367660838857, -20.822716556224066 ], [ -48.891703320851548, -20.823796084421698 ], [ -48.888846194496232, -20.817103121112098 ], [ -48.878367176204158, -20.803304403875075 ], [ -48.842092846107903, -20.772205539953688 ], [ -48.836879380878649, -20.769973830028164 ], [ -48.82070895715259, -20.771841545650773 ], [ -48.820305448437637, -20.763321010656057 ], [ -48.813876624106847, -20.75632934472344 ], [ -48.812281377883266, -20.739931932112938 ], [ -48.804344230401853, -20.726294590123189 ], [ -48.792419062689532, -20.725305018411802 ] ] } }
]
}
