{
"type": "FeatureCollection",
"features": [
{ "type": "Feature", "properties": { "Name": "SUMARÃ", "Description": "SUMARÃ \/ SP" }, "geometry": { "type": "LineString", "coordinates": [ [ -47.211154574623883, -22.794706880218314 ], [ -47.195201999972255, -22.790192000260561 ], [ -47.192244000260359, -22.796967999773301 ], [ -47.182544999951745, -22.797218999657048 ], [ -47.18114300004936, -22.801944999961734 ], [ -47.17282100028887, -22.808475999867479 ], [ -47.163681999724474, -22.805526999671255 ], [ -47.15815600029913, -22.823438000063618 ], [ -47.154004646996839, -22.830312274791595 ], [ -47.162825250684705, -22.853531291535827 ], [ -47.157707927478839, -22.86089281984772 ], [ -47.166651999989767, -22.858057000230303 ], [ -47.189154999903273, -22.858339999791099 ], [ -47.192272999799059, -22.852184000091484 ], [ -47.203663999893649, -22.845194999749367 ], [ -47.213311999649022, -22.847876000177223 ], [ -47.213549999832594, -22.841458000086618 ], [ -47.22811199956908, -22.827254999818365 ], [ -47.2350599998191, -22.828913999881138 ], [ -47.235252344120333, -22.840007002421203 ], [ -47.238739999551278, -22.841593000016868 ], [ -47.240990999934631, -22.852256999860629 ], [ -47.235573000093837, -22.857493000301698 ], [ -47.242353999837178, -22.876834000088991 ], [ -47.260794737786846, -22.878098016110528 ], [ -47.256522000290026, -22.891911000192465 ], [ -47.257662999847525, -22.898799000373515 ], [ -47.269102000357009, -22.900260000298712 ], [ -47.274724999758917, -22.907495000293977 ], [ -47.2907260002047, -22.90616800025299 ], [ -47.301740000000962, -22.895616000178219 ], [ -47.308800000019971, -22.900188999722502 ], [ -47.31742100007903, -22.901286999995019 ], [ -47.328702999643667, -22.892420000282755 ], [ -47.341818036073448, -22.8602549541028 ], [ -47.357268000317902, -22.847647999555477 ], [ -47.369419000386529, -22.845070000280259 ], [ -47.364824005223625, -22.827667086266956 ], [ -47.358739808295468, -22.82533065388651 ], [ -47.358400325014941, -22.817465882044754 ], [ -47.33010300035312, -22.81949199975594 ], [ -47.330339000444496, -22.830423000221227 ], [ -47.323228999918342, -22.830588999782492 ], [ -47.317723999662803, -22.826050000007456 ], [ -47.303771000131519, -22.821701000001099 ], [ -47.293254999918247, -22.812928000127044 ], [ -47.283262000440914, -22.800960000403677 ], [ -47.283901000230912, -22.790766999797142 ], [ -47.275072999619169, -22.790170000145338 ], [ -47.268126000314624, -22.796376000352097 ], [ -47.253191999611033, -22.794384000221385 ], [ -47.244148999876408, -22.797255999564698 ], [ -47.235463000417099, -22.794447999575482 ], [ -47.229299000348526, -22.786724000412221 ], [ -47.22438200022907, -22.795758999777942 ], [ -47.211154574623883, -22.794706880218314 ] ] } }
]
}
