{
"type": "FeatureCollection",
"features": [
{ "type": "Feature", "properties": { "Name": "SUZANO", "Description": "SUZANO \/ SP" }, "geometry": { "type": "LineString", "coordinates": [ [ -46.321927000330724, -23.744429000397986 ], [ -46.316778000304453, -23.739230999910657 ], [ -46.3280900003532, -23.728386999860106 ], [ -46.327312000448444, -23.714246999799172 ], [ -46.330716660145697, -23.708872131443684 ], [ -46.331738999555171, -23.696553000420579 ], [ -46.337341768707631, -23.687720060732147 ], [ -46.338486000428531, -23.677881000008085 ], [ -46.358297000306266, -23.660496999636791 ], [ -46.353613000139831, -23.648930000419114 ], [ -46.356863999873667, -23.638502999813568 ], [ -46.372038999999795, -23.644197999837786 ], [ -46.378289999583785, -23.636079999592255 ], [ -46.38341600034812, -23.617663000147274 ], [ -46.372980000226789, -23.608754000296809 ], [ -46.363318999871922, -23.585225999879924 ], [ -46.356058243293255, -23.581878750204112 ], [ -46.349991104705673, -23.573511150319291 ], [ -46.342293999768224, -23.560720000227775 ], [ -46.341309989464378, -23.547094115600885 ], [ -46.331544602101637, -23.539022782974996 ], [ -46.329936000046295, -23.520244999806835 ], [ -46.32586138499488, -23.512770966307013 ], [ -46.329860866185975, -23.505704790643506 ], [ -46.335520000347678, -23.495626000339598 ], [ -46.331114000410757, -23.488947999950199 ], [ -46.3010145602737, -23.496227438145695 ], [ -46.288128000206996, -23.489648999901362 ], [ -46.274139645628104, -23.485325692626589 ], [ -46.265244999856804, -23.488451000413306 ], [ -46.264592000320533, -23.498579999867047 ], [ -46.269199999680211, -23.504875999727574 ], [ -46.266102999853501, -23.51968500006268 ], [ -46.262171000191472, -23.524248000045134 ], [ -46.271629874319217, -23.545026244165793 ], [ -46.278274999991197, -23.545020000172826 ], [ -46.279085845835084, -23.553511865680036 ], [ -46.28498306921324, -23.56595655195326 ], [ -46.277697000316266, -23.580820999989101 ], [ -46.268100000214815, -23.592243999760736 ], [ -46.263578000324394, -23.609143000249219 ], [ -46.259050325711939, -23.611744409776634 ], [ -46.264634246872959, -23.628931297641202 ], [ -46.259062789416134, -23.635360071609963 ], [ -46.254395075072637, -23.650309821241194 ], [ -46.258688318910743, -23.659876642792767 ], [ -46.258240228104, -23.670095887415243 ], [ -46.26556600027066, -23.678656999820646 ], [ -46.266787999966198, -23.685736999862627 ], [ -46.277842999854492, -23.690906999958031 ], [ -46.297866999662283, -23.704862999627665 ], [ -46.295193999603384, -23.710909999696696 ], [ -46.297312000148615, -23.723351999695012 ], [ -46.306815999558694, -23.731970999661883 ], [ -46.312724000412231, -23.740584000251374 ], [ -46.321927000330724, -23.744429000397986 ] ] } }
]
}
