{
"type": "FeatureCollection",
"features": [
{ "type": "Feature", "properties": { "Name": "TABAPUÃ", "Description": "TABAPUÃ \/ SP" }, "geometry": { "type": "LineString", "coordinates": [ [ -48.94908624663293, -20.869327355772782 ], [ -48.947881117319639, -20.877975359775007 ], [ -48.94110924029917, -20.883960136650956 ], [ -48.920053030123199, -20.880485880219169 ], [ -48.909460756608603, -20.881568709828059 ], [ -48.90711560799889, -20.892289447899657 ], [ -48.90873465388114, -20.915324867148854 ], [ -48.922781850202171, -20.914190904786381 ], [ -48.927576111748117, -20.920037973873377 ], [ -48.945971585919885, -20.930924871585489 ], [ -48.952208071345346, -20.930986343844665 ], [ -48.959862063683261, -20.944015611930922 ], [ -48.96403292507938, -20.966698483448223 ], [ -48.96045100001362, -20.976608515070893 ], [ -48.954970558444472, -20.98184320340107 ], [ -48.957815777775863, -21.000339844108453 ], [ -48.962223526894206, -21.007133463138757 ], [ -48.95928440305272, -21.013367099511981 ], [ -48.961344212065683, -21.030586113858021 ], [ -48.950395825906583, -21.05516808284068 ], [ -48.940000259304497, -21.059624684931237 ], [ -48.943433162210617, -21.065450674808744 ], [ -48.963734770143503, -21.053355440800882 ], [ -48.970309120069771, -21.048109028908524 ], [ -48.972785991480293, -21.036347185274337 ], [ -48.980939961010336, -21.024578518483789 ], [ -49.007565419008813, -21.023268431992506 ], [ -49.009307832990032, -21.012118954725906 ], [ -49.036273682584351, -21.012188354508908 ], [ -49.045576349868604, -21.002314227419618 ], [ -49.053958727413317, -21.005668244493847 ], [ -49.062496952971962, -21.012943572787602 ], [ -49.068683882155369, -21.011981250534234 ], [ -49.082678189346893, -21.02088873053043 ], [ -49.098248338090286, -21.028805689131218 ], [ -49.111078714810787, -21.027099516929127 ], [ -49.112801471410762, -21.017318980486493 ], [ -49.119350431677049, -21.008022338659938 ], [ -49.1289095757163, -20.999013880086466 ], [ -49.119393115299992, -20.993217780975783 ], [ -49.127648553537881, -20.986931578329628 ], [ -49.131891382281424, -20.978319745060162 ], [ -49.132677952725309, -20.969229665816385 ], [ -49.109135507397696, -20.939485560410219 ], [ -49.105706624461106, -20.928935268148052 ], [ -49.112913087169204, -20.917197100965382 ], [ -49.106564936522545, -20.906307771486411 ], [ -49.108450737511475, -20.9030531501827 ], [ -49.105656610464166, -20.890348494187606 ], [ -49.092015229619108, -20.879093039911822 ], [ -49.100962698869402, -20.858706419965245 ], [ -49.091781761119364, -20.852793896421129 ], [ -49.090836235503836, -20.837613806132197 ], [ -49.085082537628971, -20.834653470880937 ], [ -49.079779070947325, -20.824483862540205 ], [ -49.078988493124427, -20.811771839298899 ], [ -49.065564373197212, -20.811948423880608 ], [ -49.046540822400971, -20.825859561769335 ], [ -49.040229159947728, -20.835690501615314 ], [ -49.034670409911421, -20.837298922007619 ], [ -49.022291634950932, -20.851178535061308 ], [ -49.01131271950635, -20.85547135981534 ], [ -49.00043066824071, -20.848346946754134 ], [ -48.984072338367696, -20.848482510559389 ], [ -48.965501910984358, -20.862881250069563 ], [ -48.94908624663293, -20.869327355772782 ] ] } }
]
}
