{
"type": "FeatureCollection",
"features": [
{ "type": "Feature", "properties": { "Name": "TAIAÃU", "Description": "TAIAÃU \/ SP" }, "geometry": { "type": "LineString", "coordinates": [ [ -48.49247032734371, -21.08094002396291 ], [ -48.48527021025194, -21.095312755978853 ], [ -48.481267537366932, -21.108574446653332 ], [ -48.493168802897905, -21.131328222519414 ], [ -48.491148420163427, -21.139111561649202 ], [ -48.478927176747789, -21.145669913535642 ], [ -48.476621703528735, -21.164554154850293 ], [ -48.47709709505483, -21.179320041686537 ], [ -48.482788585025162, -21.18209650335092 ], [ -48.497746053537526, -21.184147449545094 ], [ -48.511784679319476, -21.184192582921298 ], [ -48.516328948222338, -21.189817636374755 ], [ -48.535817485388577, -21.185831525404524 ], [ -48.538213024811228, -21.170131861696003 ], [ -48.57148826517124, -21.162160566956572 ], [ -48.581168220536881, -21.165683447932736 ], [ -48.586367722892078, -21.158741378711625 ], [ -48.588884754427852, -21.14740797749613 ], [ -48.597695038395265, -21.143117085385143 ], [ -48.58824594709273, -21.123812328276298 ], [ -48.578012737797565, -21.120999128406993 ], [ -48.571906203508433, -21.110522467238013 ], [ -48.57717692317641, -21.103733629003727 ], [ -48.576374887990653, -21.097040668392079 ], [ -48.570461823953963, -21.0913943765492 ], [ -48.566108243700455, -21.080265965002241 ], [ -48.567714488632703, -21.075529099987929 ], [ -48.559228562248272, -21.078400140653912 ], [ -48.554251922688017, -21.086187746167525 ], [ -48.545461573992384, -21.085470753572395 ], [ -48.538763923416298, -21.090790156240701 ], [ -48.532484169808527, -21.090479767826992 ], [ -48.518341139931636, -21.074811758455837 ], [ -48.49247032734371, -21.08094002396291 ] ] } }
]
}
