{
"type": "FeatureCollection",
"features": [
{ "type": "Feature", "properties": { "Name": "TAMBAÃ", "Description": "TAMBAÃ \/ SP" }, "geometry": { "type": "LineString", "coordinates": [ [ -47.097463099942047, -21.567877844187137 ], [ -47.097543034383477, -21.577389334050508 ], [ -47.105662554483274, -21.578349871149612 ], [ -47.1240180627833, -21.59230446607819 ], [ -47.124679781246869, -21.601520419831445 ], [ -47.121918004612155, -21.615867440230144 ], [ -47.123567655322972, -21.62363270478545 ], [ -47.133400199559503, -21.624897434868672 ], [ -47.13780456003235, -21.621361511924192 ], [ -47.147445111602565, -21.622963425721476 ], [ -47.148501529022326, -21.629176221205626 ], [ -47.157198260091604, -21.633695794725099 ], [ -47.1637888256937, -21.644405463940984 ], [ -47.161730657044131, -21.658186978945874 ], [ -47.164972739100563, -21.666062571430473 ], [ -47.177125747355319, -21.673379088673983 ], [ -47.18614513179233, -21.688272432826466 ], [ -47.189340923944428, -21.697180268954185 ], [ -47.197444322797196, -21.698834544878306 ], [ -47.203068925690332, -21.705589779044995 ], [ -47.207832612984646, -21.716927309947323 ], [ -47.229930232694016, -21.732140470106572 ], [ -47.241077735948693, -21.750043332533721 ], [ -47.240948549236123, -21.757853752048959 ], [ -47.251015015230735, -21.746486655035085 ], [ -47.25878327093119, -21.74350999169269 ], [ -47.274209382457002, -21.743599410384434 ], [ -47.280139744953203, -21.741798208620366 ], [ -47.293387605853297, -21.752323497931059 ], [ -47.303680821512671, -21.737311100626755 ], [ -47.310438520721107, -21.737303319692387 ], [ -47.328978692212843, -21.728116091184631 ], [ -47.323390862598217, -21.715005242897575 ], [ -47.32724763127311, -21.703144509811239 ], [ -47.334799342815359, -21.692621151345008 ], [ -47.338329301456042, -21.681152993016156 ], [ -47.337338366372471, -21.667838943812171 ], [ -47.326813145410313, -21.66868913949213 ], [ -47.322222051506451, -21.649953475172708 ], [ -47.328814119875688, -21.644540026800769 ], [ -47.342784047345845, -21.642314156173313 ], [ -47.351081865235869, -21.647508421776195 ], [ -47.357864520631097, -21.642843494431702 ], [ -47.372410496247369, -21.649844511514971 ], [ -47.380109763155019, -21.649854225991703 ], [ -47.381984188619356, -21.641056135931876 ], [ -47.390722767841389, -21.633609029932757 ], [ -47.399885767713954, -21.621114395313043 ], [ -47.39922523006026, -21.613740914111869 ], [ -47.381881867354252, -21.599479887786572 ], [ -47.364186245598717, -21.593170064446895 ], [ -47.358241176489059, -21.57919565025901 ], [ -47.356973601850193, -21.569856327507463 ], [ -47.345989127696043, -21.562316147971785 ], [ -47.331625542684606, -21.564264964456523 ], [ -47.327480869546427, -21.559384635092783 ], [ -47.31594711916415, -21.55849181424577 ], [ -47.305454635323144, -21.55079760512535 ], [ -47.299085578136896, -21.553797954811728 ], [ -47.289085835542835, -21.552926998282317 ], [ -47.281908725807, -21.54376126896733 ], [ -47.277548798138469, -21.527719958209445 ], [ -47.282100777828582, -21.51634982148704 ], [ -47.274599752976201, -21.487643978886467 ], [ -47.277577856133121, -21.481920472152009 ], [ -47.278718254044122, -21.468432290817532 ], [ -47.271334179728569, -21.457291017166654 ], [ -47.264195427876643, -21.451316429609506 ], [ -47.251063411347332, -21.445369216516095 ], [ -47.241321101487586, -21.443311468749243 ], [ -47.2409630346163, -21.451610442268077 ], [ -47.246746712290872, -21.458008549355043 ], [ -47.247984618295447, -21.466629570098519 ], [ -47.23355108221665, -21.469533981008396 ], [ -47.22227350371918, -21.459334440531961 ], [ -47.205308734010828, -21.465291787186175 ], [ -47.213155115616075, -21.47658748342559 ], [ -47.2092294516778, -21.486177735014394 ], [ -47.19879536441448, -21.490908643818784 ], [ -47.17836464081546, -21.482977218723644 ], [ -47.16596686677741, -21.484333395469775 ], [ -47.153313419978304, -21.491761452928642 ], [ -47.143618081709064, -21.500199360911722 ], [ -47.130702998744368, -21.493988476486948 ], [ -47.12430397704685, -21.50089410158148 ], [ -47.122548456346124, -21.511695418009083 ], [ -47.129564193532644, -21.519671999862851 ], [ -47.128947648015519, -21.525851092354003 ], [ -47.116286154082729, -21.527949229573267 ], [ -47.105772965150145, -21.526382135726919 ], [ -47.102574053249896, -21.539146669483159 ], [ -47.089269210405682, -21.54055479197001 ], [ -47.083443344634588, -21.550420951065973 ], [ -47.089124099397623, -21.565044836749792 ], [ -47.097463099942047, -21.567877844187137 ] ] } }
]
}
