{
"type": "FeatureCollection",
"features": [
{ "type": "Feature", "properties": { "Name": "TANABI", "Description": "TANABI \/ SP" }, "geometry": { "type": "LineString", "coordinates": [ [ -49.49701411850674, -20.497390703717937 ], [ -49.499775198166837, -20.503872289474543 ], [ -49.513013282536917, -20.510859211483364 ], [ -49.514708173643271, -20.520187542720862 ], [ -49.526824841193445, -20.528001821227008 ], [ -49.531437094346359, -20.534216854224383 ], [ -49.532812950057568, -20.546007129025725 ], [ -49.536668980389095, -20.550604003771692 ], [ -49.533988064497521, -20.563307442984065 ], [ -49.536121869728447, -20.580763115725176 ], [ -49.535681865625577, -20.594506421234314 ], [ -49.539870292579906, -20.605512144569786 ], [ -49.537752887385807, -20.614570333853806 ], [ -49.544308392917969, -20.617548919946671 ], [ -49.552583581167312, -20.620774224251019 ], [ -49.558652377205419, -20.627208551533386 ], [ -49.559321644578176, -20.638128365331738 ], [ -49.571717518348748, -20.649677643408491 ], [ -49.58039133019571, -20.661552105545184 ], [ -49.580069083321519, -20.671477931061645 ], [ -49.595952307652851, -20.686608440826831 ], [ -49.597430026874179, -20.691591136421778 ], [ -49.593872621824005, -20.70107502609153 ], [ -49.601080281529732, -20.701777010800356 ], [ -49.605227406219797, -20.707407180496944 ], [ -49.617399022346937, -20.709350590257486 ], [ -49.625093898764355, -20.714865885951838 ], [ -49.633851405118207, -20.709978450145286 ], [ -49.642908118614741, -20.709142021287221 ], [ -49.648819467644273, -20.70263794978149 ], [ -49.649039944537776, -20.690251898406359 ], [ -49.695015233666084, -20.654125510383949 ], [ -49.694515857221006, -20.649062105131975 ], [ -49.708752797903287, -20.636720611566943 ], [ -49.734350827228859, -20.636848188493044 ], [ -49.746225630208642, -20.624625522349959 ], [ -49.760985796457298, -20.624598019283095 ], [ -49.775212839201117, -20.61622223916498 ], [ -49.780240418160702, -20.603043097261093 ], [ -49.791536629711629, -20.592592653128406 ], [ -49.808930805911928, -20.599783193339647 ], [ -49.814153001759564, -20.597217334912045 ], [ -49.823307824096787, -20.601715052207851 ], [ -49.827688410092037, -20.609920226437282 ], [ -49.83855575564354, -20.614364071644559 ], [ -49.862530987115349, -20.602622199255048 ], [ -49.864747618108026, -20.594025568125403 ], [ -49.870679041804294, -20.590665342131786 ], [ -49.864605923624424, -20.582621825536762 ], [ -49.85318617759998, -20.576401294084405 ], [ -49.839112397319241, -20.574061217651035 ], [ -49.833277189390742, -20.561722101893452 ], [ -49.823333908932682, -20.550290437153933 ], [ -49.80316139688091, -20.536570076947442 ], [ -49.801725261411661, -20.53205083887508 ], [ -49.790307758296365, -20.528251961358876 ], [ -49.778255677357606, -20.529625444658507 ], [ -49.763007217009431, -20.52693605895189 ], [ -49.751393290268084, -20.527962296023077 ], [ -49.741766641317376, -20.534971908826488 ], [ -49.742455611936919, -20.520853026645796 ], [ -49.740863234550602, -20.511164873060405 ], [ -49.73700513937564, -20.506930520427144 ], [ -49.72156524933672, -20.502947555285402 ], [ -49.705243306933028, -20.486819029174796 ], [ -49.699493002200256, -20.468606370987175 ], [ -49.699116385013092, -20.461105946881901 ], [ -49.689046530373048, -20.438161229656998 ], [ -49.681060139613692, -20.42878022692588 ], [ -49.68537064324056, -20.41453875006323 ], [ -49.681511604676757, -20.409278921185205 ], [ -49.680638582404633, -20.393509467387954 ], [ -49.673119846303848, -20.38528635168376 ], [ -49.663123141619621, -20.362305363002065 ], [ -49.654940528682395, -20.354207972519873 ], [ -49.638418543780737, -20.345102502278618 ], [ -49.634647877097791, -20.335493788507506 ], [ -49.617321645577412, -20.322713007599191 ], [ -49.609590120887333, -20.334111677112162 ], [ -49.603941788482693, -20.33288947686782 ], [ -49.596908965975956, -20.337562235508699 ], [ -49.596377177964371, -20.343085414660091 ], [ -49.582925796887992, -20.346728229224368 ], [ -49.575373445927767, -20.351027476037132 ], [ -49.573989407285296, -20.358699729109162 ], [ -49.564466313469552, -20.378087052075728 ], [ -49.563402473944961, -20.387088380824082 ], [ -49.554096276821667, -20.388225436854384 ], [ -49.55518726058358, -20.397885206936678 ], [ -49.54620052873139, -20.403444793342487 ], [ -49.552064025734182, -20.416837233751266 ], [ -49.54812002282074, -20.42032349073645 ], [ -49.549621072254638, -20.432232281794313 ], [ -49.541916055981176, -20.440227436447003 ], [ -49.538063385516807, -20.448810049843871 ], [ -49.539607378477683, -20.45472706100503 ], [ -49.526244814446606, -20.462582715519886 ], [ -49.521803735553924, -20.472283294138663 ], [ -49.525387925112625, -20.480138038539621 ], [ -49.520812993824563, -20.489369153963253 ], [ -49.515012080642975, -20.483550657237 ], [ -49.50519610281787, -20.484258263607956 ], [ -49.49701411850674, -20.497390703717937 ] ] } }
]
}
