{
"type": "FeatureCollection",
"features": [
{ "type": "Feature", "properties": { "Name": "TAPIRATIBA", "Description": "TAPIRATIBA \/ SP" }, "geometry": { "type": "LineString", "coordinates": [ [ -46.616078177865568, -21.430251127287647 ], [ -46.626180880243396, -21.427405164216903 ], [ -46.650594761439038, -21.43973391978454 ], [ -46.663013903368892, -21.440004916093983 ], [ -46.676752026984381, -21.434119914502386 ], [ -46.686556879296518, -21.440398201315872 ], [ -46.69133985704871, -21.439554451077015 ], [ -46.699826048733144, -21.445858481883359 ], [ -46.706508706711418, -21.446696507038098 ], [ -46.714346894593461, -21.456962743935435 ], [ -46.720877219108331, -21.473609668051722 ], [ -46.710342756712805, -21.489127326964535 ], [ -46.6983108502655, -21.495768804086993 ], [ -46.701553796570408, -21.506212640001305 ], [ -46.713199447796228, -21.511312033423565 ], [ -46.718693808172645, -21.519635036827424 ], [ -46.733232031632895, -21.528193394609442 ], [ -46.742911580504988, -21.528789771031086 ], [ -46.748391578708322, -21.536801985822933 ], [ -46.762569378174248, -21.547871240865046 ], [ -46.768284927707214, -21.541748294847878 ], [ -46.778462161399602, -21.550280405915942 ], [ -46.783209308362871, -21.543819624176251 ], [ -46.783596238975171, -21.528554412156325 ], [ -46.791948483835426, -21.522710947552127 ], [ -46.800213644643918, -21.521413559488106 ], [ -46.811858574613495, -21.525186303604983 ], [ -46.812220024734302, -21.509997667957972 ], [ -46.821121451393822, -21.513495973160616 ], [ -46.832636915860917, -21.504933353491424 ], [ -46.829190083355627, -21.496850005922965 ], [ -46.835346232342715, -21.487801660618118 ], [ -46.83582521306311, -21.469229905835444 ], [ -46.82999052314409, -21.461468941838177 ], [ -46.818173862233891, -21.462151368990419 ], [ -46.814339364370142, -21.451215002270487 ], [ -46.818577212668174, -21.440909464999777 ], [ -46.804669548860545, -21.437221705916954 ], [ -46.805925059993456, -21.426652728440612 ], [ -46.787910218481727, -21.425530873650871 ], [ -46.781275256947481, -21.417427038626897 ], [ -46.77433003020667, -21.414518489036993 ], [ -46.778184602737213, -21.400537276873763 ], [ -46.777832882381574, -21.390745048345252 ], [ -46.781493972968462, -21.370705239355289 ], [ -46.777669801120396, -21.363869530254586 ], [ -46.764705058491586, -21.360063638026414 ], [ -46.7582756990642, -21.364661836574442 ], [ -46.762136927477172, -21.374968730022829 ], [ -46.750535119999768, -21.384917654626008 ], [ -46.740784746818576, -21.387749774432507 ], [ -46.738974841415768, -21.392572330448672 ], [ -46.714721651083266, -21.392662072896314 ], [ -46.707476426695678, -21.404608546447204 ], [ -46.700634531158641, -21.40078888110196 ], [ -46.693891989123983, -21.390558749286811 ], [ -46.693169943238274, -21.384292484610455 ], [ -46.684016515749533, -21.376372036640134 ], [ -46.675498608573889, -21.375100639882589 ], [ -46.666724239032362, -21.361291691957945 ], [ -46.655762365740543, -21.364374227988208 ], [ -46.647199282021234, -21.364193070353849 ], [ -46.648730337335166, -21.391721343365244 ], [ -46.638607116025526, -21.402520195650482 ], [ -46.637342223165028, -21.410689639814962 ], [ -46.624703920949173, -21.413451785171731 ], [ -46.618058732324577, -21.422323538700311 ], [ -46.616078177865568, -21.430251127287647 ] ] } }
]
}
