{
"type": "FeatureCollection",
"features": [
{ "type": "Feature", "properties": { "Name": "TAQUARITINGA", "Description": "TAQUARITINGA \/ SP" }, "geometry": { "type": "LineString", "coordinates": [ [ -48.31181643567993, -21.360746657831953 ], [ -48.324713957583015, -21.372119660693727 ], [ -48.335839583929612, -21.385244896334825 ], [ -48.351686470254378, -21.391991154368213 ], [ -48.360526891402856, -21.392159706205405 ], [ -48.371537832604872, -21.401545708267804 ], [ -48.381765979616205, -21.402332938814027 ], [ -48.387146074831435, -21.399308557443927 ], [ -48.399847518448155, -21.398603963801861 ], [ -48.402010255768623, -21.416283285345287 ], [ -48.411029567360629, -21.425457207484101 ], [ -48.427812118234613, -21.435448207768502 ], [ -48.429268855373323, -21.446875437951064 ], [ -48.440523379750118, -21.460664119653359 ], [ -48.453831756930015, -21.46635689835216 ], [ -48.462423537116479, -21.476663555278833 ], [ -48.463937855147833, -21.48979045736365 ], [ -48.474161949814118, -21.505917520277308 ], [ -48.471075427089261, -21.512694041396855 ], [ -48.476803378273246, -21.517024154740909 ], [ -48.489536737030726, -21.515758461483756 ], [ -48.499557394258318, -21.518551281816144 ], [ -48.507550686415016, -21.517385954697996 ], [ -48.529034333567608, -21.520086268066791 ], [ -48.546021528770495, -21.530766855905654 ], [ -48.561896975764796, -21.53188719893501 ], [ -48.565865356600909, -21.52480297837468 ], [ -48.575525007972715, -21.516589611321475 ], [ -48.584892065816121, -21.519287151181061 ], [ -48.595608286593112, -21.514155499076992 ], [ -48.603594545152077, -21.514060938061789 ], [ -48.608374824038833, -21.518397242338835 ], [ -48.608172780549346, -21.527667461184365 ], [ -48.620274672238281, -21.537232721512851 ], [ -48.630301589646592, -21.556741629222756 ], [ -48.629191154448165, -21.55868615234402 ], [ -48.634611814483605, -21.565660654715373 ], [ -48.654836533079504, -21.544099673960716 ], [ -48.666629189285629, -21.544809723789683 ], [ -48.66133169320301, -21.528716196595155 ], [ -48.664063511621748, -21.504538301101661 ], [ -48.662545277942165, -21.49097313690072 ], [ -48.684639567462, -21.485822168258437 ], [ -48.69423279760548, -21.490344803070172 ], [ -48.705568006458293, -21.490435716435115 ], [ -48.708981016360781, -21.484520754828907 ], [ -48.705291678967797, -21.479023153295827 ], [ -48.707574831912893, -21.473277494460774 ], [ -48.716376552535841, -21.466822602381171 ], [ -48.714914830455029, -21.459117003346989 ], [ -48.719083469626355, -21.448618732368573 ], [ -48.716176831095822, -21.433311292681989 ], [ -48.725739400652799, -21.420047338413895 ], [ -48.720550407775079, -21.412938692266778 ], [ -48.71366601567405, -21.397540844634246 ], [ -48.70239311005394, -21.392955041441947 ], [ -48.690816993509429, -21.394330128232809 ], [ -48.684723511081131, -21.388336767327928 ], [ -48.684605877059539, -21.382988299470412 ], [ -48.67530984137602, -21.383933061561493 ], [ -48.669048496890582, -21.380251710148286 ], [ -48.662685002011187, -21.369541185677122 ], [ -48.652743429365728, -21.365107169160467 ], [ -48.647266094954254, -21.376661820686422 ], [ -48.636013031975779, -21.388236545979794 ], [ -48.628421948114351, -21.38639925622067 ], [ -48.610190803462785, -21.394295721070645 ], [ -48.602626215427449, -21.375919434834032 ], [ -48.602268405762288, -21.367018383191805 ], [ -48.584524969751499, -21.34323662377113 ], [ -48.577325748384503, -21.339741200895674 ], [ -48.565026690229502, -21.33787802684941 ], [ -48.553070370001535, -21.339009102388104 ], [ -48.545469972760998, -21.351735527372625 ], [ -48.539671113630959, -21.353818864449011 ], [ -48.527403810537407, -21.352015058248295 ], [ -48.512843858557176, -21.344186967054839 ], [ -48.491985678196443, -21.346066862195865 ], [ -48.484811212467427, -21.33442653135927 ], [ -48.478482089676667, -21.33176950325992 ], [ -48.474530936253643, -21.338044157711636 ], [ -48.451023423292327, -21.346588883570064 ], [ -48.438113406208686, -21.342815479350861 ], [ -48.432451426592024, -21.336256508730855 ], [ -48.433705148973388, -21.326269803608508 ], [ -48.426824263329024, -21.318652681675871 ], [ -48.414650214535754, -21.320137658426173 ], [ -48.41071599894417, -21.317700748390791 ], [ -48.40007031289457, -21.319571847262921 ], [ -48.38821339832964, -21.317483480278323 ], [ -48.379490098589145, -21.324671108484836 ], [ -48.367148068128813, -21.322048516325932 ], [ -48.351705716645483, -21.321156371769121 ], [ -48.344572624227162, -21.329125772536315 ], [ -48.337104723204391, -21.331412225094084 ], [ -48.334236893118081, -21.348138019753776 ], [ -48.323345535667897, -21.357301718399526 ], [ -48.31181643567993, -21.360746657831953 ] ] } }
]
}
