{
"type": "FeatureCollection",
"features": [
{ "type": "Feature", "properties": { "Name": "TAUBATÃ", "Description": "TAUBATÃ \/ SP" }, "geometry": { "type": "LineString", "coordinates": [ [ -45.503634343649992, -22.978992932178016 ], [ -45.501047286403093, -22.994125688449742 ], [ -45.496301685374419, -23.00126942524372 ], [ -45.494353243907028, -23.014766435222782 ], [ -45.487702053207158, -23.016246166227518 ], [ -45.466296910573924, -23.038165623045014 ], [ -45.46653988760567, -23.045826360298236 ], [ -45.459695526127575, -23.054744677125086 ], [ -45.446142594505091, -23.060095754815162 ], [ -45.439019799324221, -23.071456390200183 ], [ -45.422704136886352, -23.060415023134738 ], [ -45.4087781224124, -23.048402978214824 ], [ -45.40675342383139, -23.04042746745364 ], [ -45.392987492278905, -23.036069369006157 ], [ -45.386491230485831, -23.026007984181092 ], [ -45.380923241714186, -23.026244039131026 ], [ -45.378833987098794, -23.01720983206803 ], [ -45.35435095163507, -23.006798353760985 ], [ -45.347059047037362, -23.019790104829436 ], [ -45.339388069204006, -23.024643460827004 ], [ -45.340417557324372, -23.030513300748165 ], [ -45.328285715513346, -23.034307685251402 ], [ -45.324224321395263, -23.029072175840213 ], [ -45.308199353117629, -23.0253024525461 ], [ -45.2982371491251, -23.022742445107724 ], [ -45.294223248204275, -23.027080352875942 ], [ -45.297815194415648, -23.032242352602452 ], [ -45.289077698876667, -23.045261144486176 ], [ -45.29341832349678, -23.049595325463827 ], [ -45.312195527501558, -23.059106878279749 ], [ -45.296506838219955, -23.085042949272633 ], [ -45.300115066656979, -23.091987051860883 ], [ -45.311871829121571, -23.088231327413776 ], [ -45.31804761660419, -23.089949394049256 ], [ -45.328541436837781, -23.085057404975203 ], [ -45.333419953168281, -23.091570442721718 ], [ -45.349049037183242, -23.104098623852337 ], [ -45.343839461521895, -23.10866380648946 ], [ -45.346844220584273, -23.122870699922828 ], [ -45.354867661613241, -23.137941929976023 ], [ -45.363011767379135, -23.138936375113587 ], [ -45.37267915651779, -23.147617553307384 ], [ -45.370904375036844, -23.151808120648184 ], [ -45.387770321842822, -23.158889681913251 ], [ -45.388862189638303, -23.16950208944985 ], [ -45.396988433069673, -23.180665190546051 ], [ -45.403478238629759, -23.179541140511162 ], [ -45.410234122106999, -23.192727271946012 ], [ -45.426097805968936, -23.205727735646462 ], [ -45.442116814439373, -23.207685942851924 ], [ -45.445554933413398, -23.21764355580541 ], [ -45.452163641039128, -23.221157636016017 ], [ -45.467390248760921, -23.224594421295478 ], [ -45.478541547154634, -23.224442479936439 ], [ -45.489545514114127, -23.219291693856519 ], [ -45.498523635857055, -23.221709521177388 ], [ -45.503828918269896, -23.219301223972248 ], [ -45.512996109882522, -23.204580257372925 ], [ -45.519743250150839, -23.199743478578625 ], [ -45.518212665182318, -23.193048076307605 ], [ -45.522249813578014, -23.176307732415864 ], [ -45.545575891913813, -23.176216404463442 ], [ -45.553138693895562, -23.162045000975976 ], [ -45.568170995894718, -23.159870137197004 ], [ -45.573455108266607, -23.169370107644284 ], [ -45.58798813544405, -23.178989493670144 ], [ -45.59770038636367, -23.177472994782818 ], [ -45.600217530314751, -23.170173414471432 ], [ -45.609479421438095, -23.16350270668454 ], [ -45.605484272281267, -23.156339125450241 ], [ -45.594946126262698, -23.14509031086908 ], [ -45.593763282149716, -23.134081505556992 ], [ -45.611556162886586, -23.123362576921348 ], [ -45.62402552655675, -23.120888217317315 ], [ -45.628968683457913, -23.116223268389092 ], [ -45.62927032596474, -23.100945362438495 ], [ -45.636172405032426, -23.089946523413289 ], [ -45.630959569328638, -23.081307261720724 ], [ -45.637812694700074, -23.073469553177286 ], [ -45.638296533558162, -23.066309142952548 ], [ -45.644769007383729, -23.060765220938151 ], [ -45.663302717246552, -23.033666574752601 ], [ -45.673068085723507, -23.037456602040489 ], [ -45.683577491208212, -23.035825965695722 ], [ -45.696906836081553, -23.0269397825449 ], [ -45.701589748068379, -23.01770568856665 ], [ -45.702964238608672, -23.007048858118253 ], [ -45.713192205755654, -23.008118985702595 ], [ -45.712180505326046, -22.989470025920923 ], [ -45.717693933128487, -22.988230323970242 ], [ -45.719798247790827, -22.978184574758245 ], [ -45.725088035784154, -22.969445782396917 ], [ -45.720668882362986, -22.96795560396788 ], [ -45.71429133827462, -22.95844476251574 ], [ -45.709327775756208, -22.956777364583669 ], [ -45.704673161836922, -22.947963540884643 ], [ -45.699637874788039, -22.956978274927394 ], [ -45.687252156162053, -22.96260948693822 ], [ -45.686291497654452, -22.968123385985447 ], [ -45.679355929632379, -22.974600905007719 ], [ -45.662628812969274, -22.979212001632504 ], [ -45.65918287079279, -22.98322075843123 ], [ -45.647344611764368, -22.986671554248797 ], [ -45.640461622605756, -22.997910846808111 ], [ -45.63389024943541, -23.001196042363404 ], [ -45.62321988868689, -22.997003234811416 ], [ -45.570045017563473, -22.987245777670466 ], [ -45.545835803179727, -22.998665040758965 ], [ -45.503634343649992, -22.978992932178016 ] ] } }
]
}
