{
"type": "FeatureCollection",
"features": [
{ "type": "Feature", "properties": { "Name": "TERRA ROXA", "Description": "TERRA ROXA \/ SP" }, "geometry": { "type": "LineString", "coordinates": [ [ -48.255245917864784, -20.806253060530253 ], [ -48.26088039981056, -20.817845316308251 ], [ -48.280947536499582, -20.823586506412084 ], [ -48.294638794644641, -20.832833518252244 ], [ -48.343494084384417, -20.832558793353599 ], [ -48.358569744498084, -20.819486313742345 ], [ -48.376802161690364, -20.834914335428209 ], [ -48.380963375159574, -20.841537283818521 ], [ -48.392223681277812, -20.845299581410526 ], [ -48.395668177344476, -20.849472619166018 ], [ -48.409349058212392, -20.854254288404661 ], [ -48.408155248665764, -20.841769372758275 ], [ -48.414422826352329, -20.839137156054846 ], [ -48.420080607034322, -20.826621650868447 ], [ -48.429221793850665, -20.821060517628723 ], [ -48.434343435601022, -20.810252184690512 ], [ -48.445096066330336, -20.798715317258026 ], [ -48.447609549141362, -20.78773662034871 ], [ -48.450870984608223, -20.777284121265154 ], [ -48.432920196409889, -20.771061283051722 ], [ -48.426316985440501, -20.764158119401657 ], [ -48.437081929687281, -20.752738638677215 ], [ -48.419624862997011, -20.749634240128046 ], [ -48.389341904505272, -20.731335052770415 ], [ -48.38358466060356, -20.724060659771567 ], [ -48.37333823127431, -20.722200922934178 ], [ -48.366541696641946, -20.71575449347506 ], [ -48.35805861571248, -20.713662585859595 ], [ -48.357356983537898, -20.706198074381575 ], [ -48.3402438967384, -20.701922946486718 ], [ -48.338292471320472, -20.695543439178319 ], [ -48.332240468322937, -20.703842197759169 ], [ -48.327548010931935, -20.715866748651479 ], [ -48.319986147842428, -20.725473170050691 ], [ -48.296680512895307, -20.720178167788163 ], [ -48.290746085463411, -20.722621507076838 ], [ -48.282922308317836, -20.738032874217708 ], [ -48.274281025848602, -20.743437191772955 ], [ -48.260574879427111, -20.738271530007069 ], [ -48.255939826661631, -20.742899076131437 ], [ -48.248792330701455, -20.758101944449152 ], [ -48.243492688836454, -20.776570131506329 ], [ -48.251221582110304, -20.79072473296003 ], [ -48.257338874989046, -20.796244838228631 ], [ -48.255245917864784, -20.806253060530253 ] ] } }
]
}
