{
"type": "FeatureCollection",
"features": [
{ "type": "Feature", "properties": { "Name": "TIMBURI", "Description": "TIMBURI \/ SP" }, "geometry": { "type": "LineString", "coordinates": [ [ -49.573352880630921, -23.138555553595893 ], [ -49.558754023978963, -23.153317469025922 ], [ -49.55166951833354, -23.153217218899499 ], [ -49.548355137079852, -23.165773121632185 ], [ -49.543821646551692, -23.172431186749801 ], [ -49.53616012508968, -23.175345001870312 ], [ -49.539909709865185, -23.181248466543479 ], [ -49.542366081229602, -23.193410208114585 ], [ -49.537734721080483, -23.196324852409987 ], [ -49.529992225560697, -23.197455395550033 ], [ -49.522199805976243, -23.205787120579089 ], [ -49.524586963717354, -23.216520647010213 ], [ -49.533241657776216, -23.225595629334805 ], [ -49.534403557578059, -23.230474460427956 ], [ -49.549155709068657, -23.243936742186861 ], [ -49.549810211372119, -23.250627675726605 ], [ -49.544030152569462, -23.26093547838957 ], [ -49.540356794330535, -23.280607051873915 ], [ -49.560501216058242, -23.258961746187595 ], [ -49.570473027508172, -23.264750159692085 ], [ -49.588244672553571, -23.266180264307703 ], [ -49.597522901660568, -23.269592223802018 ], [ -49.608292494502962, -23.279352270091124 ], [ -49.627145766763704, -23.281772685660883 ], [ -49.635171683626254, -23.271306312736101 ], [ -49.640066961521029, -23.256324431227483 ], [ -49.647103848963411, -23.251711559340944 ], [ -49.64493273265947, -23.239170561971832 ], [ -49.651575132486357, -23.236947125809138 ], [ -49.654767249109227, -23.228284067155926 ], [ -49.65240180010295, -23.219000854006136 ], [ -49.653751561984961, -23.21203697622542 ], [ -49.661456403789934, -23.201633500085904 ], [ -49.663196770914226, -23.194199876722902 ], [ -49.677707990431365, -23.174942584932296 ], [ -49.678319870265732, -23.165061656270378 ], [ -49.694598245012969, -23.165570448617242 ], [ -49.705818623930327, -23.155496894166276 ], [ -49.71459814838579, -23.153910446909549 ], [ -49.716493242069411, -23.148393258142278 ], [ -49.694907715218847, -23.135054444307116 ], [ -49.682979771299358, -23.115653573053919 ], [ -49.672887813122031, -23.120067468139098 ], [ -49.665464966335094, -23.113115241974807 ], [ -49.6539880441129, -23.120938669284101 ], [ -49.650988293375008, -23.127602280520762 ], [ -49.637154752589709, -23.129435187883583 ], [ -49.630981168446112, -23.136581055171519 ], [ -49.62210103233673, -23.134925004885019 ], [ -49.619919453320044, -23.139558569272481 ], [ -49.606076605450937, -23.135758069379335 ], [ -49.596884460349543, -23.140424117279164 ], [ -49.593385186577052, -23.145977445302833 ], [ -49.585580530816799, -23.147919501583658 ], [ -49.57819908791754, -23.145568437233518 ], [ -49.573352880630921, -23.138555553595893 ] ] } }
]
}
