{
"type": "FeatureCollection",
"features": [
{ "type": "Feature", "properties": { "Name": "TORRINHA", "Description": "TORRINHA \/ SP" }, "geometry": { "type": "LineString", "coordinates": [ [ -48.04077876912487, -22.505886168811571 ], [ -48.05002576747512, -22.513771404726526 ], [ -48.059511219267335, -22.513351868294023 ], [ -48.073558000101563, -22.523114000110979 ], [ -48.078448999921363, -22.519506000101781 ], [ -48.083728999693562, -22.507388999802458 ], [ -48.092163000122298, -22.506533999944107 ], [ -48.103946000307637, -22.508874999981231 ], [ -48.109982999915474, -22.503263000187246 ], [ -48.118270999906656, -22.501414000355794 ], [ -48.123730999885709, -22.494127999807286 ], [ -48.128838999819948, -22.496026000099789 ], [ -48.127320999964127, -22.506161999876326 ], [ -48.12093799968892, -22.515565000024708 ], [ -48.128013000399619, -22.522611000297388 ], [ -48.138297999852796, -22.527789999908521 ], [ -48.141626999586322, -22.519474999571514 ], [ -48.131953000430599, -22.514429999844594 ], [ -48.131236999787689, -22.504060000068872 ], [ -48.140323999752752, -22.496861999981263 ], [ -48.139421000378832, -22.491387000209841 ], [ -48.147577999724888, -22.489002999988429 ], [ -48.151459999779149, -22.483521999940308 ], [ -48.158147999730375, -22.486488000021154 ], [ -48.17282200013517, -22.476131999991761 ], [ -48.176157000145388, -22.483361999756426 ], [ -48.183257000210347, -22.483009999711669 ], [ -48.19258000026673, -22.490224999683956 ], [ -48.192915000426858, -22.499431999786907 ], [ -48.188663000397128, -22.50978399963185 ], [ -48.198731999781891, -22.508628000281927 ], [ -48.198177000268281, -22.503514000070993 ], [ -48.207717999585952, -22.502803999704781 ], [ -48.207267000371701, -22.511738999854913 ], [ -48.217047999965189, -22.518308999760507 ], [ -48.2160790002456, -22.53128400005653 ], [ -48.230644000120492, -22.528244000160441 ], [ -48.234850777741144, -22.52037941717634 ], [ -48.245402590756896, -22.514390170669795 ], [ -48.260752968574586, -22.521159948672675 ], [ -48.272332844285302, -22.528552586332751 ], [ -48.282450923271426, -22.525363713564502 ], [ -48.2842299666396, -22.514640105756257 ], [ -48.278478094388504, -22.498487752108019 ], [ -48.270635539398597, -22.492787732967486 ], [ -48.261889413965264, -22.493123850984883 ], [ -48.243034343060458, -22.479432021770318 ], [ -48.244247027578233, -22.46772634439526 ], [ -48.25454959169025, -22.462964136485649 ], [ -48.256917742259922, -22.457681585336843 ], [ -48.268886095416917, -22.447904026549566 ], [ -48.271186363359959, -22.439573672986569 ], [ -48.278653115049167, -22.42707577382788 ], [ -48.275625073438327, -22.420862569152177 ], [ -48.267116780914648, -22.413268906035114 ], [ -48.268221270695051, -22.408419123943361 ], [ -48.261391536690041, -22.397494977211409 ], [ -48.253904725622533, -22.390014485679899 ], [ -48.24012622964176, -22.39331539329072 ], [ -48.242770633957548, -22.372764013048709 ], [ -48.239348214448512, -22.367542622094277 ], [ -48.155084997874319, -22.36163702332993 ], [ -48.14374988794691, -22.371249873083116 ], [ -48.12526999441468, -22.378799597123646 ], [ -48.111430430869632, -22.375113796764253 ], [ -48.106143066549237, -22.387005324436132 ], [ -48.094596412694273, -22.389816531407746 ], [ -48.082810824260093, -22.396320085803268 ], [ -48.078402794553256, -22.40193495353526 ], [ -48.0701717837008, -22.404943286503396 ], [ -48.063283788016342, -22.412006195829235 ], [ -48.06258034550649, -22.424418356322064 ], [ -48.054052420782568, -22.44033194806093 ], [ -48.057532163978124, -22.447126432239031 ], [ -48.054278879066999, -22.452765423385529 ], [ -48.05496227838637, -22.46199243430334 ], [ -48.050137028001416, -22.471351827225021 ], [ -48.042366572559217, -22.476445659239744 ], [ -48.043664061347329, -22.492386278304082 ], [ -48.04077876912487, -22.505886168811571 ] ] } }
]
}
