{
"type": "FeatureCollection",
"features": [
{ "type": "Feature", "properties": { "Name": "URÃNIA", "Description": "URÃNIA \/ SP" }, "geometry": { "type": "LineString", "coordinates": [ [ -50.611067940632893, -20.130465993210976 ], [ -50.610464559391858, -20.140692132036236 ], [ -50.603169154632724, -20.162034759196729 ], [ -50.607454458356528, -20.180735245635049 ], [ -50.612232971874107, -20.192318715935926 ], [ -50.612244533558339, -20.201965852342141 ], [ -50.606770574302516, -20.211221226078692 ], [ -50.600787249831683, -20.235540062423922 ], [ -50.597517352643649, -20.241602718790375 ], [ -50.591779265200898, -20.262387747396588 ], [ -50.59647504828478, -20.27551003955665 ], [ -50.607082492463007, -20.272009760342144 ], [ -50.618863058183535, -20.275226609220567 ], [ -50.619446657037543, -20.284382221162559 ], [ -50.633190690098218, -20.293164077560107 ], [ -50.636623211691806, -20.30036187080367 ], [ -50.638148083267367, -20.313109685263726 ], [ -50.648060401866019, -20.310259545741417 ], [ -50.649059760899206, -20.318947811492251 ], [ -50.65683104012038, -20.326775003363647 ], [ -50.670510787842545, -20.333401853013072 ], [ -50.684331594227672, -20.330061114428815 ], [ -50.691250441154921, -20.320986723858198 ], [ -50.692184057947877, -20.314917711083467 ], [ -50.700829437728316, -20.311252091510767 ], [ -50.719620637882088, -20.308364425078082 ], [ -50.734089489438354, -20.312490520920733 ], [ -50.733160777547816, -20.302399734560083 ], [ -50.728370890304291, -20.302347376030525 ], [ -50.716043967555038, -20.293378667491481 ], [ -50.700981780184975, -20.27235666662682 ], [ -50.687758436602508, -20.269230290445478 ], [ -50.685469597244094, -20.264711186372093 ], [ -50.671303088766479, -20.253670956049746 ], [ -50.673398857171492, -20.249621364634208 ], [ -50.668607199162864, -20.232051158733952 ], [ -50.668996430241009, -20.221291771398114 ], [ -50.6799542637782, -20.21274567407357 ], [ -50.683366791644062, -20.193307833489655 ], [ -50.682039520907097, -20.182332786928555 ], [ -50.681596202802496, -20.157191133863705 ], [ -50.686286221232081, -20.154316708149508 ], [ -50.689441517811758, -20.144883695825854 ], [ -50.698566408013278, -20.131997084497812 ], [ -50.704110552160216, -20.129995208911737 ], [ -50.701082278524261, -20.119055046153392 ], [ -50.691533923651605, -20.10893902931269 ], [ -50.68577726970517, -20.099675110218129 ], [ -50.673234434121809, -20.087667150918207 ], [ -50.674464392817413, -20.07171670586126 ], [ -50.663426131111009, -20.061511157913571 ], [ -50.657903625551853, -20.071238321391377 ], [ -50.660780970465396, -20.08742703912651 ], [ -50.650438841579216, -20.094957129168108 ], [ -50.628158802486723, -20.105506839568932 ], [ -50.620236625120128, -20.112328465286396 ], [ -50.62056280113233, -20.117621855963819 ], [ -50.611067940632893, -20.130465993210976 ] ] } }
]
}
