{
"type": "FeatureCollection",
"features": [
{ "type": "Feature", "properties": { "Name": "URUPÃS", "Description": "URUPÃS \/ SP" }, "geometry": { "type": "LineString", "coordinates": [ [ -49.153310251267044, -21.184693610521659 ], [ -49.144879310331874, -21.187394315095503 ], [ -49.141829995258036, -21.198214445340341 ], [ -49.147438089296308, -21.209888926132976 ], [ -49.145525015467058, -21.215896345240079 ], [ -49.164216937661479, -21.22209721391522 ], [ -49.172491837228449, -21.246951484123656 ], [ -49.175468688529115, -21.251752156037128 ], [ -49.188763885245066, -21.263497522292766 ], [ -49.193178666162446, -21.271797214369883 ], [ -49.200433683267818, -21.278564211668993 ], [ -49.209133631212069, -21.279505737999386 ], [ -49.221536425265754, -21.293019410617262 ], [ -49.22909713632373, -21.314747533072136 ], [ -49.248004136781447, -21.304571642966891 ], [ -49.250922071696209, -21.297978281372533 ], [ -49.258576081121184, -21.296766470995806 ], [ -49.270578016762045, -21.285667198382441 ], [ -49.284836055539472, -21.288983103087673 ], [ -49.291544667951996, -21.278182730948231 ], [ -49.291324141595794, -21.268136747912536 ], [ -49.298956019604589, -21.265073494246337 ], [ -49.30107580890143, -21.260039505818497 ], [ -49.311268181781145, -21.256912518098204 ], [ -49.315821472682785, -21.247729320351823 ], [ -49.326783134633899, -21.246265860780795 ], [ -49.334069324939378, -21.236099716628587 ], [ -49.349511787938638, -21.236215025902652 ], [ -49.363215481908924, -21.240333018853676 ], [ -49.364076670901625, -21.226685921018372 ], [ -49.368401506124535, -21.219081936382224 ], [ -49.38804498388884, -21.211502924120623 ], [ -49.388053493274072, -21.201200047044491 ], [ -49.395870867246686, -21.189156640966189 ], [ -49.396940013670644, -21.180526584734025 ], [ -49.398117809888952, -21.175038152688558 ], [ -49.386668915937655, -21.169284536652015 ], [ -49.387278113993716, -21.161760047588075 ], [ -49.382687073149832, -21.153174614816578 ], [ -49.377158594293633, -21.156959409848866 ], [ -49.365008600566398, -21.158364050160738 ], [ -49.359496215977572, -21.162549818719128 ], [ -49.341792664899515, -21.154025245768423 ], [ -49.336248066594969, -21.142337887583381 ], [ -49.326914660483169, -21.131686891936454 ], [ -49.316290809972884, -21.127071508243485 ], [ -49.301136610266319, -21.125626848100524 ], [ -49.281177778931294, -21.133241329623615 ], [ -49.261602533629969, -21.131708955004228 ], [ -49.254822965607332, -21.13492144486872 ], [ -49.241573305163854, -21.126554566240198 ], [ -49.226915322584034, -21.124489408059674 ], [ -49.21475942121026, -21.134500051336261 ], [ -49.202803435530086, -21.140736195019315 ], [ -49.195636881137084, -21.141919059816701 ], [ -49.189695485758023, -21.13809620367681 ], [ -49.184640748171944, -21.145357690504966 ], [ -49.188306327275143, -21.16000359788768 ], [ -49.185559027926722, -21.166868288540627 ], [ -49.171291280967807, -21.181196343136662 ], [ -49.153310251267044, -21.184693610521659 ] ] } }
]
}
