{
"type": "FeatureCollection",
"features": [
{ "type": "Feature", "properties": { "Name": "VIRADOURO", "Description": "VIRADOURO \/ SP" }, "geometry": { "type": "LineString", "coordinates": [ [ -48.207677834064718, -20.875386865411482 ], [ -48.218523523941428, -20.892106595043288 ], [ -48.229510611525484, -20.900278366653254 ], [ -48.257910991299184, -20.931031421462876 ], [ -48.286005384840621, -20.953305987281453 ], [ -48.315098818155889, -20.95186445498058 ], [ -48.322828287895106, -20.954435430550632 ], [ -48.339732426210446, -20.954955498597311 ], [ -48.367219442822993, -20.949083600128006 ], [ -48.375140476251943, -20.945227546414117 ], [ -48.378735533218219, -20.933078163326513 ], [ -48.378001867192374, -20.904809637654633 ], [ -48.382001227874298, -20.895506297677457 ], [ -48.390081343279348, -20.898817965676525 ], [ -48.402943741260628, -20.881543290490413 ], [ -48.396858653104289, -20.873835334333194 ], [ -48.402903505592292, -20.861193150643317 ], [ -48.409349058212392, -20.854254288404661 ], [ -48.395668177344476, -20.849472619166018 ], [ -48.392223681277812, -20.845299581410526 ], [ -48.380963375159574, -20.841537283818521 ], [ -48.376802161690364, -20.834914335428209 ], [ -48.358569744498084, -20.819486313742345 ], [ -48.343494084384417, -20.832558793353599 ], [ -48.294638794644641, -20.832833518252244 ], [ -48.280947536499582, -20.823586506412084 ], [ -48.26088039981056, -20.817845316308251 ], [ -48.255245917864784, -20.806253060530253 ], [ -48.239632982076444, -20.812768056100875 ], [ -48.23247562055343, -20.82002015760412 ], [ -48.233723813003508, -20.82924798150907 ], [ -48.242787439588596, -20.840485899904309 ], [ -48.240409830848989, -20.851390199498038 ], [ -48.22809966246939, -20.857501752004225 ], [ -48.207677834064718, -20.875386865411482 ] ] } }
]
}
