{
"type": "FeatureCollection",
"features": [
{ "type": "Feature", "properties": { "Name": "VOTORANTIM", "Description": "VOTORANTIM \/ SP" }, "geometry": { "type": "LineString", "coordinates": [ [ -47.308119806783616, -23.562159723992011 ], [ -47.312897136793367, -23.574191482051216 ], [ -47.310011140401741, -23.585883444765102 ], [ -47.309988117757371, -23.597291773896188 ], [ -47.300294911780725, -23.59843800570934 ], [ -47.29684671500388, -23.603654361359641 ], [ -47.299323817540085, -23.613464133862635 ], [ -47.311270617544942, -23.622318775091344 ], [ -47.325838018609602, -23.624009642630881 ], [ -47.328314854047221, -23.618306105342469 ], [ -47.337107173157449, -23.611569136406501 ], [ -47.360031723984832, -23.623560255901051 ], [ -47.36843195577012, -23.633766731949095 ], [ -47.381399147252807, -23.631547651203103 ], [ -47.391100420148227, -23.633328111902813 ], [ -47.404515293246163, -23.621183005990869 ], [ -47.436990118099395, -23.623406136384062 ], [ -47.443955615559162, -23.621374616445337 ], [ -47.454233568824122, -23.625535036712503 ], [ -47.470556335906103, -23.639010247125157 ], [ -47.486400982919008, -23.648109874471061 ], [ -47.494167510122445, -23.65001294783923 ], [ -47.477124776387257, -23.630688814836898 ], [ -47.466883811338789, -23.624465534157025 ], [ -47.483276345127194, -23.608500483210662 ], [ -47.492906514923675, -23.607331118136528 ], [ -47.494820252452655, -23.5937468523353 ], [ -47.492791850463497, -23.583047465068432 ], [ -47.493282629389796, -23.559525355210948 ], [ -47.501777897931618, -23.556381955762618 ], [ -47.502126286299017, -23.548888330532009 ], [ -47.510807495069791, -23.543225007328203 ], [ -47.501934999600508, -23.535527000370735 ], [ -47.498164567640629, -23.539892244831208 ], [ -47.490270771978487, -23.539517025190491 ], [ -47.478735177986039, -23.548719592535122 ], [ -47.466571623381689, -23.545174201528141 ], [ -47.46468538712088, -23.536007336369437 ], [ -47.459913478224394, -23.530136619609266 ], [ -47.453192889540162, -23.531572347685653 ], [ -47.445657106790009, -23.523556824287994 ], [ -47.435927487263712, -23.52548470635406 ], [ -47.427366013330811, -23.522885605386307 ], [ -47.399690515005204, -23.526592172890446 ], [ -47.395062170282863, -23.522944426444095 ], [ -47.365941469523136, -23.522913172305039 ], [ -47.363947514266329, -23.529902986533553 ], [ -47.366812688654591, -23.538317677618693 ], [ -47.358155275045874, -23.562015145382585 ], [ -47.345487544314665, -23.560405776205585 ], [ -47.342445944524677, -23.556684767388049 ], [ -47.327922204645972, -23.560557378520173 ], [ -47.315915726529511, -23.559295680950868 ], [ -47.308119806783616, -23.562159723992011 ] ] } }
]
}
