{
"type": "FeatureCollection",
"features": [
{ "type": "Feature", "properties": { "Name": "ANGICO", "Description": "ANGICO \/ TO" }, "geometry": { "type": "LineString", "coordinates": [ [ -47.825238564608014, -6.429565320782898 ], [ -47.858924379656344, -6.540174956409089 ], [ -48.013806437217283, -6.569538684562588 ], [ -48.017237572955594, -6.490293341464508 ], [ -47.977737344103105, -6.415796325240193 ], [ -47.945096827256748, -6.276695142866515 ], [ -47.801378664893434, -6.373085047237111 ], [ -47.825238564608014, -6.429565320782898 ] ] } }
]
}
