{
"type": "FeatureCollection",
"features": [
{ "type": "Feature", "properties": { "Name": "COLINAS DO TOCANTINS", "Description": "COLINAS DO TOCANTINS \/ TO" }, "geometry": { "type": "LineString", "coordinates": [ [ -48.460325056356226, -7.855784481168825 ], [ -48.439004079474671, -7.993952123191889 ], [ -48.451570993506486, -8.071357896749475 ], [ -48.42682900725282, -8.125369050141501 ], [ -48.37854591026553, -8.137986488085915 ], [ -48.472101341303812, -8.21913593067859 ], [ -48.540517083396651, -8.233311302874256 ], [ -48.60226793361818, -8.287173481770708 ], [ -48.63509629096103, -8.276753937444196 ], [ -48.617079872038403, -8.131038724357609 ], [ -48.615485049395488, -7.942907090389838 ], [ -48.49964132348822, -7.852983928465505 ], [ -48.460325056356226, -7.855784481168825 ] ] } }
]
}
