{
"type": "FeatureCollection",
"features": [
{ "type": "Feature", "properties": { "Name": "GOIANORTE", "Description": "GOIANORTE \/ TO" }, "geometry": { "type": "LineString", "coordinates": [ [ -49.119434781789714, -8.64825266013213 ], [ -49.082998345297369, -8.642749005262317 ], [ -48.935299722404238, -8.712824759155239 ], [ -48.812525996177726, -8.856601161614265 ], [ -48.752995307687286, -9.087608868054758 ], [ -48.734831737194895, -9.196695213113571 ], [ -48.751960658357632, -9.20006680024261 ], [ -48.819910721602469, -9.074701235973237 ], [ -48.928660507976019, -9.079532755532171 ], [ -49.021301255648382, -9.049982962143929 ], [ -49.185278252389367, -8.933198504907011 ], [ -49.222103205898172, -8.942401419389967 ], [ -49.244745992833259, -8.83700399353944 ], [ -49.223134001632836, -8.769312232673371 ], [ -49.288155988308169, -8.642638179108644 ], [ -49.14747336340497, -8.672639039160288 ], [ -49.119434781789714, -8.64825266013213 ] ] } }
]
}
