{
"type": "FeatureCollection",
"features": [
{ "type": "Feature", "properties": { "Name": "GUARAÃ", "Description": "GUARAÃ \/ TO" }, "geometry": { "type": "LineString", "coordinates": [ [ -48.293234499672394, -8.523272375319834 ], [ -48.180489459820649, -8.584835289716807 ], [ -48.132931037437402, -8.544908767825348 ], [ -48.129712091339911, -8.636374867805841 ], [ -48.12701125456573, -8.741376473245623 ], [ -48.14323401433824, -8.783015513854821 ], [ -48.275013041618536, -8.77863265167548 ], [ -48.395685219497238, -8.97512042996385 ], [ -48.455653946172617, -8.932736572634667 ], [ -48.617545423182712, -9.0103256091395 ], [ -48.659584155784103, -8.997250249899082 ], [ -48.671584804495069, -8.866716224274285 ], [ -48.69685543652912, -8.804862428658112 ], [ -48.678098786529738, -8.686572812085558 ], [ -48.628576900403573, -8.603698861013584 ], [ -48.64266518584958, -8.52111225502648 ], [ -48.569271020840915, -8.52021186728382 ], [ -48.462380375953558, -8.593891834140777 ], [ -48.293234499672394, -8.523272375319834 ] ] } }
]
}
