{
"type": "FeatureCollection",
"features": [
{ "type": "Feature", "properties": { "Name": "ITAGUATINS", "Description": "ITAGUATINS \/ TO" }, "geometry": { "type": "LineString", "coordinates": [ [ -47.47722995839581, -5.63504054158767 ], [ -47.493094241206222, -5.710038437024195 ], [ -47.437856673346744, -5.857869409545572 ], [ -47.573041756072143, -5.923252615215971 ], [ -47.702362839973034, -5.940285236974034 ], [ -47.748995466967187, -5.763930622700059 ], [ -47.593407329184856, -5.679903541115493 ], [ -47.47722995839581, -5.63504054158767 ] ] } }
]
}
