{
"type": "FeatureCollection",
"features": [
{ "type": "Feature", "properties": { "Name": "JAÃ DO TOCANTINS", "Description": "JAÃ DO TOCANTINS \/ TO" }, "geometry": { "type": "LineString", "coordinates": [ [ -48.711297364181974, -12.398537695458231 ], [ -48.697742988248251, -12.441800184131125 ], [ -48.624171675682248, -12.49662246935145 ], [ -48.580414194759214, -12.491382454336756 ], [ -48.504297343047881, -12.41893649582255 ], [ -48.448136692154605, -12.438994178838243 ], [ -48.470239664628764, -12.537475087904909 ], [ -48.546830968974007, -12.731339138190606 ], [ -48.502837810816288, -12.791859848053489 ], [ -48.555077592956536, -12.86694754079633 ], [ -48.563647209351181, -12.931654208075201 ], [ -48.507952076327228, -12.994588943824622 ], [ -48.508771109598968, -13.12890713585557 ], [ -48.531111074116723, -13.193106879578806 ], [ -48.602341457692091, -13.059170729445555 ], [ -48.675384968941103, -12.994210760018516 ], [ -48.730747699946335, -12.989788919423063 ], [ -48.733582849568791, -12.93016928888153 ], [ -48.869854318721757, -12.804392653498098 ], [ -48.836218574327688, -12.742073716828543 ], [ -48.771083753312496, -12.726579541912258 ], [ -48.787606462168469, -12.656368809672756 ], [ -48.851892294393849, -12.59594327686068 ], [ -48.781414280044942, -12.482665922894 ], [ -48.771825567196117, -12.429909192455227 ], [ -48.711297364181974, -12.398537695458231 ] ] } }
]
}
