{
"type": "FeatureCollection",
"features": [
{ "type": "Feature", "properties": { "Name": "LUZINÃPOLIS", "Description": "LUZINÃPOLIS \/ TO" }, "geometry": { "type": "LineString", "coordinates": [ [ -47.765710216153536, -6.152950214480767 ], [ -47.724959337003781, -6.184243446178073 ], [ -47.723630165999339, -6.282239964202915 ], [ -47.851736136313605, -6.256809223167068 ], [ -47.876263957115896, -6.224337421834491 ], [ -47.957697268913762, -6.226697566639359 ], [ -47.972546027377234, -6.184578786281918 ], [ -47.885870311065958, -6.143422836294803 ], [ -47.765710216153536, -6.152950214480767 ] ] } }
]
}
