{
"type": "FeatureCollection",
"features": [
{ "type": "Feature", "properties": { "Name": "MARIANÃPOLIS DO TOCANTINS", "Description": "MARIANÃPOLIS DO TOCANTINS \/ TO" }, "geometry": { "type": "LineString", "coordinates": [ [ -49.403590908493584, -9.964856245119563 ], [ -49.444443046809113, -10.006908499027986 ], [ -49.550500943763495, -9.949597303172936 ], [ -49.639191383375589, -10.001498464482495 ], [ -49.723943615305586, -9.979248696570039 ], [ -49.807751115721373, -9.898050777821082 ], [ -49.898062492489998, -9.926644359849263 ], [ -49.965449206915309, -9.861201276417717 ], [ -50.013372599365937, -9.774679798333976 ], [ -50.025951429414874, -9.710862109099025 ], [ -49.994807765765756, -9.674045785484566 ], [ -49.850254653929078, -9.681515916826072 ], [ -49.800943949303758, -9.667192392115169 ], [ -49.787418143932143, -9.610170670939681 ], [ -49.720928289209155, -9.589553712134034 ], [ -49.68042170999388, -9.539927043298349 ], [ -49.570942277564029, -9.586698302584523 ], [ -49.45549834617168, -9.700688890879576 ], [ -49.517467746039586, -9.81813589305699 ], [ -49.463749513529187, -9.884039459053724 ], [ -49.398106071937605, -9.897674655261085 ], [ -49.403590908493584, -9.964856245119563 ] ] } }
]
}
