{
"type": "FeatureCollection",
"features": [
{ "type": "Feature", "properties": { "Name": "MAURILÃNDIA DO TOCANTINS", "Description": "MAURILÃNDIA DO TOCANTINS \/ TO" }, "geometry": { "type": "LineString", "coordinates": [ [ -47.437856673346744, -5.857869409545572 ], [ -47.438748474362569, -6.012798286711529 ], [ -47.561334781874621, -6.129213994030579 ], [ -47.724959337003781, -6.184243446178073 ], [ -47.765710216153536, -6.152950214480767 ], [ -47.692768707809591, -6.018553325475522 ], [ -47.702362839973034, -5.940285236974034 ], [ -47.573041756072143, -5.923252615215971 ], [ -47.437856673346744, -5.857869409545572 ] ] } }
]
}
