{
"type": "FeatureCollection",
"features": [
{ "type": "Feature", "properties": { "Name": "MIRACEMA DO TOCANTINS", "Description": "MIRACEMA DO TOCANTINS \/ TO" }, "geometry": { "type": "LineString", "coordinates": [ [ -48.367102729707142, -9.343012775918851 ], [ -48.375321443230007, -9.543011724211681 ], [ -48.401709813856769, -9.637332959448486 ], [ -48.365597457056936, -9.695469623224483 ], [ -48.376355454940267, -9.787725914319424 ], [ -48.332215379036484, -9.860407063535092 ], [ -48.371028711106078, -9.918071751410139 ], [ -48.334579943109873, -10.021805980061856 ], [ -48.368193571376196, -10.063569926610796 ], [ -48.44974799847131, -10.017396692203533 ], [ -48.583719483867071, -10.041004006529647 ], [ -48.670208758127671, -10.092106071637829 ], [ -48.741686877047698, -10.03235672558236 ], [ -48.805387570779715, -10.050376402748723 ], [ -48.743273872890882, -9.969222546283447 ], [ -48.729887002882833, -9.907011506675644 ], [ -48.644326722899905, -9.898884812683889 ], [ -48.623354167660693, -9.864521852201676 ], [ -48.652658529767272, -9.790367853593523 ], [ -48.748870729900204, -9.739899834809478 ], [ -48.860664216880075, -9.731985187466364 ], [ -48.853358330522497, -9.653252230406054 ], [ -48.873800934165729, -9.583398430992757 ], [ -48.722637871840277, -9.584254850880598 ], [ -48.665769575005868, -9.613705026365835 ], [ -48.528186247697136, -9.524158586849239 ], [ -48.578358144013066, -9.460183617879634 ], [ -48.570353488022988, -9.420583330456282 ], [ -48.367102729707142, -9.343012775918851 ] ] } }
]
}
