{
"type": "FeatureCollection",
"features": [
{ "type": "Feature", "properties": { "Name": "MIRANORTE", "Description": "MIRANORTE \/ TO" }, "geometry": { "type": "LineString", "coordinates": [ [ -48.564981237593997, -9.215816513021593 ], [ -48.592299101622189, -9.284890778286751 ], [ -48.570353488022988, -9.420583330456282 ], [ -48.578358144013066, -9.460183617879634 ], [ -48.528186247697136, -9.524158586849239 ], [ -48.665769575005868, -9.613705026365835 ], [ -48.722637871840277, -9.584254850880598 ], [ -48.873800934165729, -9.583398430992757 ], [ -48.818606879104152, -9.512757294013852 ], [ -48.798870373668763, -9.419251075676527 ], [ -48.74879926527381, -9.403188554408189 ], [ -48.77197341663981, -9.266156436870006 ], [ -48.751960658357632, -9.20006680024261 ], [ -48.734831737194895, -9.196695213113571 ], [ -48.732802671506022, -9.183776796361997 ], [ -48.564981237593997, -9.215816513021593 ] ] } }
]
}
