{
"type": "FeatureCollection",
"features": [
{ "type": "Feature", "properties": { "Name": "MURICILÃNDIA", "Description": "MURICILÃNDIA \/ TO" }, "geometry": { "type": "LineString", "coordinates": [ [ -48.560905750200163, -7.282773430149631 ], [ -48.683177626845975, -7.280729817027407 ], [ -48.664996377480804, -7.133349070303325 ], [ -48.758287846706708, -7.046858027076269 ], [ -48.789927620463288, -7.106377834669274 ], [ -48.898690924546479, -7.048741105817328 ], [ -48.926936922201151, -6.9972277636503 ], [ -49.004253645789106, -6.952189833394073 ], [ -49.031155031979097, -6.80146346206908 ], [ -48.913853042783671, -6.757369459333062 ], [ -48.839878556050508, -6.750642042096501 ], [ -48.870360873555455, -6.855493648712866 ], [ -48.621381486766154, -7.023850467025397 ], [ -48.564386328865957, -7.080386503034617 ], [ -48.550714515862182, -7.237394508449768 ], [ -48.560905750200163, -7.282773430149631 ] ] } }
]
}
