{
"type": "FeatureCollection",
"features": [
{ "type": "Feature", "properties": { "Name": "PALMEIRANTE", "Description": "PALMEIRANTE \/ TO" }, "geometry": { "type": "LineString", "coordinates": [ [ -48.083960693830932, -7.550619741807566 ], [ -47.981570199804814, -7.605119066091959 ], [ -47.886015930190972, -7.689521379907717 ], [ -47.829379422822058, -7.767931367938217 ], [ -47.896454247865222, -7.794371354254565 ], [ -47.953628228759726, -7.926472864031381 ], [ -47.944541299841092, -8.044988223927362 ], [ -47.999574004836404, -8.07925364214185 ], [ -48.104740769870602, -8.085849453489459 ], [ -48.154048140709101, -8.155327971208862 ], [ -48.238347058569843, -8.124278617664004 ], [ -48.29699795289315, -8.145378003392068 ], [ -48.37854591026553, -8.137986488085915 ], [ -48.42682900725282, -8.125369050141501 ], [ -48.451570993506486, -8.071357896749475 ], [ -48.439004079474671, -7.993952123191889 ], [ -48.460325056356226, -7.855784481168825 ], [ -48.412529243529711, -7.802666410326538 ], [ -48.287321577728555, -7.790259328305297 ], [ -48.216768938535658, -7.828789661713472 ], [ -48.140276279027034, -7.81237346766136 ], [ -48.142225672876457, -7.77240211726388 ], [ -48.203800006864803, -7.669349527958276 ], [ -48.156908044170848, -7.630324417238 ], [ -48.152087731963199, -7.527647046673792 ], [ -48.083960693830932, -7.550619741807566 ] ] } }
]
}
