{
"type": "FeatureCollection",
"features": [
{ "type": "Feature", "properties": { "Name": "PARANÃ", "Description": "PARANÃ \/ TO" }, "geometry": { "type": "LineString", "coordinates": [ [ -47.799624375364601, -12.153455941638356 ], [ -47.722798002625666, -12.155531201903386 ], [ -47.659009135762972, -12.12964543898579 ], [ -47.629723512829791, -12.189122969449443 ], [ -47.573313065345644, -12.189582873750567 ], [ -47.522300108663046, -12.245374343950743 ], [ -47.541541029195116, -12.38016205043823 ], [ -47.475386941753925, -12.453173565607528 ], [ -47.290254563896951, -12.440624049859991 ], [ -47.234292467123623, -12.498262553973632 ], [ -47.224244020844814, -12.619016823767367 ], [ -47.291789796561829, -12.687260693725987 ], [ -47.371124638391279, -12.701128888987 ], [ -47.293819499869976, -12.78709178375874 ], [ -47.276715669792281, -12.841405823419962 ], [ -47.359497514998282, -12.925984810850307 ], [ -47.441173460286905, -12.931275110557863 ], [ -47.395604787930552, -13.075567061970274 ], [ -47.400045058332751, -13.118095398084108 ], [ -47.571682880460514, -13.116750512326234 ], [ -47.646675639868818, -13.120605114534383 ], [ -47.662207767974046, -13.303847867485045 ], [ -47.623124127576375, -13.370196820926479 ], [ -47.67898604616903, -13.467712663908287 ], [ -47.823990719296205, -13.311866300189536 ], [ -47.883579369991878, -13.320508772461835 ], [ -47.988372727519334, -13.276308952795885 ], [ -48.15207020147858, -13.306651730592819 ], [ -48.167044349716946, -13.232656951557031 ], [ -48.146654348319487, -13.152011190464009 ], [ -48.139770279075094, -12.988503938405982 ], [ -48.23308778277493, -12.828384461273799 ], [ -48.227723024597879, -12.746245169079259 ], [ -48.268187977792877, -12.72546360376225 ], [ -48.283572294225962, -12.557372223948903 ], [ -48.231352332244285, -12.533712847869594 ], [ -48.250202881357836, -12.460903530873225 ], [ -48.231937936586455, -12.382665722545028 ], [ -48.259773324479276, -12.311451557343446 ], [ -48.312020428000324, -12.270412869058589 ], [ -48.264436824599727, -12.189108829408893 ], [ -48.173301571710113, -12.184375811694281 ], [ -48.116660397759112, -12.136722776135173 ], [ -48.116166302133081, -12.087659832934888 ], [ -48.02774292339717, -12.040364509014807 ], [ -47.942350337298194, -12.050057813916908 ], [ -47.799624375364601, -12.153455941638356 ] ] } }
]
}
