{
"type": "FeatureCollection",
"features": [
{ "type": "Feature", "properties": { "Name": "PEDRO AFONSO", "Description": "PEDRO AFONSO \/ TO" }, "geometry": { "type": "LineString", "coordinates": [ [ -47.685369961954166, -9.182811788733032 ], [ -47.686426532258622, -9.278146915147943 ], [ -47.724399643029074, -9.31894209130445 ], [ -47.905123448887984, -9.34014113540502 ], [ -47.936388181069674, -9.305555061217035 ], [ -47.998911536338312, -9.38672596882833 ], [ -48.08118099100988, -9.420602244098234 ], [ -48.188189678211018, -9.436996958742611 ], [ -48.22713117806137, -9.32782959016339 ], [ -48.279074420448126, -9.340758350017779 ], [ -48.348382905146927, -9.287095091265426 ], [ -48.282905780577259, -9.136115920513248 ], [ -48.195796771803543, -9.036563228210353 ], [ -48.178899218324204, -8.956692942625182 ], [ -48.10375258761178, -9.061306584131501 ], [ -48.005185081925958, -9.125912351973396 ], [ -47.929758254839555, -9.137439471654259 ], [ -47.870959047022374, -9.116277551567691 ], [ -47.764882888434499, -9.117600840106661 ], [ -47.685369961954166, -9.182811788733032 ] ] } }
]
}
