{
"type": "FeatureCollection",
"features": [
{ "type": "Feature", "properties": { "Name": "PEIXE", "Description": "PEIXE \/ TO" }, "geometry": { "type": "LineString", "coordinates": [ [ -48.478967773044246, -11.363344087159874 ], [ -48.460074250726052, -11.528601714897206 ], [ -48.376274673337434, -11.66781196075334 ], [ -48.379436437841264, -11.768795583249528 ], [ -48.338822835705287, -11.918636503671678 ], [ -48.22243431579102, -11.99794462034788 ], [ -48.212658793068783, -12.056748887750928 ], [ -48.116166302133081, -12.087659832934888 ], [ -48.116660397759112, -12.136722776135173 ], [ -48.173301571710113, -12.184375811694281 ], [ -48.264436824599727, -12.189108829408893 ], [ -48.312020428000324, -12.270412869058589 ], [ -48.392885120052199, -12.238020202670157 ], [ -48.384464786620583, -12.35502846699012 ], [ -48.448136692154605, -12.438994178838243 ], [ -48.504297343047881, -12.41893649582255 ], [ -48.580414194759214, -12.491382454336756 ], [ -48.624171675682248, -12.49662246935145 ], [ -48.697742988248251, -12.441800184131125 ], [ -48.711297364181974, -12.398537695458231 ], [ -48.798054318951642, -12.386408210770242 ], [ -48.915527421253437, -12.478250574504385 ], [ -48.996801055724113, -12.494688899972687 ], [ -49.004887100359319, -12.424402103074554 ], [ -48.931084543316949, -12.395540755101706 ], [ -48.911184629267211, -12.295458994337082 ], [ -48.856329719341026, -12.283457457995269 ], [ -48.766435092905169, -12.32023207015385 ], [ -48.678193240525609, -12.234235085680609 ], [ -48.627854026242289, -12.216304807420897 ], [ -48.658578961949495, -12.133043495860591 ], [ -48.775744041953935, -12.134844808241269 ], [ -48.754845250907579, -11.999432002784658 ], [ -48.855050482293905, -11.929982688750044 ], [ -48.892018090762235, -11.866936974861458 ], [ -48.84496792922652, -11.855236865189113 ], [ -48.843081397088774, -11.786141745545081 ], [ -48.76599220287784, -11.744616697602453 ], [ -48.717779310566691, -11.65146241545807 ], [ -48.712569224989693, -11.564650496822933 ], [ -48.6272995222551, -11.520201186335612 ], [ -48.583776417247805, -11.46968929772288 ], [ -48.568938610728253, -11.39525942847979 ], [ -48.542524955662145, -11.383351993599604 ], [ -48.478967773044246, -11.363344087159874 ] ] } }
]
}
