{
"type": "FeatureCollection",
"features": [
{ "type": "Feature", "properties": { "Name": "PONTE ALTA DO TOCANTINS", "Description": "PONTE ALTA DO TOCANTINS \/ TO" }, "geometry": { "type": "LineString", "coordinates": [ [ -47.089092692373811, -10.365297790760394 ], [ -47.128120957915826, -10.440077501675319 ], [ -46.999279399724458, -10.534974434322635 ], [ -46.994017149871524, -10.582536439604951 ], [ -46.904025534250991, -10.691513215762255 ], [ -46.893890124429667, -10.866027344086604 ], [ -46.80896568042175, -10.945002444507168 ], [ -46.856476380280697, -11.000497820118255 ], [ -46.841987568271634, -11.05834644183477 ], [ -46.779134418118872, -11.035625676483733 ], [ -46.728300079385122, -11.071389635922912 ], [ -46.70340347179274, -11.129649208244302 ], [ -46.834427748441776, -11.092829880894215 ], [ -47.019312425128248, -11.162976933038976 ], [ -47.129315962661501, -11.105441307770093 ], [ -47.162124328974578, -11.042974740192051 ], [ -47.26857800766885, -10.983718736130697 ], [ -47.333031604824669, -11.005260701620045 ], [ -47.446595463010169, -11.025219438526221 ], [ -47.565833726745041, -11.013324398102439 ], [ -47.634791293283513, -10.970798107946278 ], [ -47.726664426422076, -10.951227042693802 ], [ -47.743178580926724, -10.907860149925909 ], [ -47.795657422651907, -10.773977233362587 ], [ -47.790266593128706, -10.719545699074727 ], [ -47.856009326169442, -10.568414132805913 ], [ -47.826899603433901, -10.478574034963685 ], [ -47.837878289551384, -10.395417040264133 ], [ -47.739319820253456, -10.415576808922538 ], [ -47.668049643476252, -10.393973113068681 ], [ -47.540099645282339, -10.424583290786186 ], [ -47.46420214001671, -10.528914048744298 ], [ -47.393948978662358, -10.509804471499137 ], [ -47.304235951427977, -10.439568676053511 ], [ -47.27675251501654, -10.407150221605377 ], [ -47.149704604284011, -10.396284543396915 ], [ -47.089092692373811, -10.365297790760394 ] ] } }
]
}
