{
"type": "FeatureCollection",
"features": [
{ "type": "Feature", "properties": { "Name": "SANDOLÃNDIA", "Description": "SANDOLÃNDIA \/ TO" }, "geometry": { "type": "LineString", "coordinates": [ [ -49.647343543469731, -12.225903621454904 ], [ -49.582005359659604, -12.304218199510274 ], [ -49.610090021637113, -12.343557059410726 ], [ -49.558380806229188, -12.41899133108501 ], [ -49.523153703380672, -12.532235041413969 ], [ -49.566503722168989, -12.570500131475853 ], [ -49.716781523348565, -12.643749085651732 ], [ -49.789525669174218, -12.706277023865539 ], [ -49.895144945182999, -12.660250247650765 ], [ -50.170950595093863, -12.608208016886408 ], [ -50.1931753087934, -12.56430807166015 ], [ -50.22939545653503, -12.533902665075914 ], [ -50.205258287739753, -12.465851668219841 ], [ -50.14267818614934, -12.395929736168339 ], [ -50.104926400333056, -12.31580337762375 ], [ -50.131367437057513, -12.224462232146264 ], [ -50.083591601770983, -12.196628400979876 ], [ -50.088226629355404, -12.141153704379917 ], [ -50.009472478871764, -12.079333898640471 ], [ -49.748536288019238, -12.121526319084296 ], [ -49.647343543469731, -12.225903621454904 ] ] } }
]
}
