{
"type": "FeatureCollection",
"features": [
{ "type": "Feature", "properties": { "Name": "SANTA TEREZINHA DO TOCANTINS", "Description": "SANTA TEREZINHA DO TOCANTINS \/ TO" }, "geometry": { "type": "LineString", "coordinates": [ [ -47.584355387491087, -6.415723724770032 ], [ -47.635062781522095, -6.450059384532949 ], [ -47.748129241771039, -6.508321093643531 ], [ -47.774512638247643, -6.558993452785558 ], [ -47.858924379656344, -6.540174956409089 ], [ -47.825238564608014, -6.429565320782898 ], [ -47.686119585550387, -6.403599623423816 ], [ -47.584355387491087, -6.415723724770032 ] ] } }
]
}
