{
"type": "FeatureCollection",
"features": [
{ "type": "Feature", "properties": { "Name": "SÃO BENTO DO TOCANTINS", "Description": "SÃO BENTO DO TOCANTINS \/ TO" }, "geometry": { "type": "LineString", "coordinates": [ [ -47.752321324469499, -5.765781094721717 ], [ -47.748995466967187, -5.763930622700059 ], [ -47.702362839973034, -5.940285236974034 ], [ -47.692768707809591, -6.018553325475522 ], [ -47.897416849807705, -6.024395214467518 ], [ -47.95815086896738, -6.085995044235858 ], [ -47.991488693148646, -6.157437685800517 ], [ -48.03415053541886, -6.12956593921666 ], [ -48.19501281478955, -6.102193373025671 ], [ -48.223730020324126, -6.005471239306188 ], [ -48.16384577865972, -6.008977401885545 ], [ -48.069693785040101, -5.95275208434117 ], [ -48.079068797387031, -5.882235434217876 ], [ -48.017213904597952, -5.892020347660889 ], [ -47.932462621452771, -5.972924662942773 ], [ -47.880020881258638, -5.94443145784544 ], [ -47.851732567803708, -5.868653315997676 ], [ -47.861426680297022, -5.755339829969103 ], [ -47.765555773779909, -5.740960123710693 ], [ -47.752321324469499, -5.765781094721717 ] ] } }
]
}
