{
"type": "FeatureCollection",
"features": [
{ "type": "Feature", "properties": { "Name": "SUCUPIRA", "Description": "SUCUPIRA \/ TO" }, "geometry": { "type": "LineString", "coordinates": [ [ -48.892018090762235, -11.866936974861458 ], [ -48.855050482293905, -11.929982688750044 ], [ -48.754845250907579, -11.999432002784658 ], [ -48.775744041953935, -12.134844808241269 ], [ -48.658578961949495, -12.133043495860591 ], [ -48.627854026242289, -12.216304807420897 ], [ -48.678193240525609, -12.234235085680609 ], [ -48.766435092905169, -12.32023207015385 ], [ -48.856329719341026, -12.283457457995269 ], [ -48.911184629267211, -12.295458994337082 ], [ -48.921530413897408, -12.294103072998382 ], [ -48.911832790450887, -12.19333332007659 ], [ -48.978276072882409, -12.017592019156325 ], [ -48.987327147629742, -11.9417787983528 ], [ -48.892018090762235, -11.866936974861458 ] ] } }
]
}
