{
"type": "FeatureCollection",
"features": [
{ "type": "Feature", "properties": { "Name": "TALISMÃ", "Description": "TALISMÃ \/ TO" }, "geometry": { "type": "LineString", "coordinates": [ [ -48.711297364181974, -12.398537695458231 ], [ -48.771825567196117, -12.429909192455227 ], [ -48.781414280044942, -12.482665922894 ], [ -48.851892294393849, -12.59594327686068 ], [ -48.787606462168469, -12.656368809672756 ], [ -48.771083753312496, -12.726579541912258 ], [ -48.836218574327688, -12.742073716828543 ], [ -48.869854318721757, -12.804392653498098 ], [ -48.975629552461839, -12.957194012593561 ], [ -49.11908272778561, -12.790361754691162 ], [ -49.237413606152984, -12.884074543705196 ], [ -49.35247236600685, -12.767811364103123 ], [ -49.329947332703227, -12.628126110731387 ], [ -49.362634755489523, -12.533342998080855 ], [ -49.336251192638365, -12.533096035253777 ], [ -49.239581341905364, -12.566505577670226 ], [ -49.162363255060143, -12.553966110047895 ], [ -49.089076274850179, -12.64234807680225 ], [ -49.030254796221811, -12.573180814442992 ], [ -48.996801055724113, -12.494688899972687 ], [ -48.915527421253437, -12.478250574504385 ], [ -48.798054318951642, -12.386408210770242 ], [ -48.711297364181974, -12.398537695458231 ] ] } }
]
}
