{
"type": "FeatureCollection",
"features": [
{ "type": "Feature", "properties": { "Name": "ÃGUA DOCE DO NORTE", "Description": "ÃGUA DOCE DO NORTE \/ ES" }, "geometry": { "type": "LineString", "coordinates": [ [ -40.925960050515869, -18.438870342792029 ], [ -40.925094616723122, -18.486694079568053 ], [ -40.904687191860376, -18.52211992269622 ], [ -40.90681969217502, -18.549324508119522 ], [ -40.929029383599129, -18.58706026262098 ], [ -40.905971092791674, -18.609783573952711 ], [ -40.909952884318102, -18.665111547959498 ], [ -40.902486408720733, -18.685613845902196 ], [ -40.941459425312189, -18.69071995995813 ], [ -41.005226884712897, -18.667277024614975 ], [ -41.050892271960713, -18.634153995410486 ], [ -41.02030066434412, -18.500965902254563 ], [ -41.023028708308175, -18.457260879685805 ], [ -41.173083081918662, -18.442796896159791 ], [ -41.166669039744356, -18.415217293443277 ], [ -41.144254677011702, -18.405241290253286 ], [ -41.099812028702104, -18.402099010460915 ], [ -41.057736530916145, -18.35107398577577 ], [ -41.040468037669761, -18.382946183919216 ], [ -40.986260504718473, -18.410303674774752 ], [ -40.957763490992249, -18.382884251207201 ], [ -40.931535919147336, -18.400501528522682 ], [ -40.925960050515869, -18.438870342792029 ] ] } }
]
}
