{
"type": "FeatureCollection",
"features": [
{ "type": "Feature", "properties": { "Name": "FUNDÃO", "Description": "FUNDÃO \/ ES" }, "geometry": { "type": "LineString", "coordinates": [ [ -40.346069201132707, -19.90687297220984 ], [ -40.324154419890533, -19.948090219088272 ], [ -40.274773563648978, -19.989081146177909 ], [ -40.264274307912956, -20.010073226598081 ], [ -40.238681562104375, -20.009217074708204 ], [ -40.208251411573315, -19.988189604166848 ], [ -40.16788546294373, -20.000083086964821 ], [ -40.153883935095507, -20.01384981261873 ], [ -40.161870186459907, -20.04061155118211 ], [ -40.1911072433046, -20.054794742982949 ], [ -40.220506070198951, -20.028321587870945 ], [ -40.274436432095627, -20.035761390475727 ], [ -40.295546950531268, -20.023005571150122 ], [ -40.352242889597619, -20.04659276674272 ], [ -40.386757671829059, -20.014418735436262 ], [ -40.416234103920715, -20.016642501650097 ], [ -40.447264886465291, -19.994878323575733 ], [ -40.454503632136891, -19.946548938482692 ], [ -40.474453822785676, -19.937044795181123 ], [ -40.477505606498482, -19.904635495831428 ], [ -40.503211790991308, -19.876231376676628 ], [ -40.505120017474781, -19.853668766999931 ], [ -40.460759928727668, -19.877941242394396 ], [ -40.442233181416157, -19.859070156362574 ], [ -40.424694008421682, -19.907044881216223 ], [ -40.346069201132707, -19.90687297220984 ] ] } }
]
}
