{
"type": "FeatureCollection",
"features": [
{ "type": "Feature", "properties": { "Name": "IBIRAÃU", "Description": "IBIRAÃU \/ ES" }, "geometry": { "type": "LineString", "coordinates": [ [ -40.346124302594433, -19.77988574862837 ], [ -40.346069201132707, -19.90687297220984 ], [ -40.424694008421682, -19.907044881216223 ], [ -40.442233181416157, -19.859070156362574 ], [ -40.460759928727668, -19.877941242394396 ], [ -40.505120017474781, -19.853668766999931 ], [ -40.514238953265021, -19.831277746170997 ], [ -40.505489210758405, -19.805276995037218 ], [ -40.465862027310664, -19.763332189428979 ], [ -40.43752732232803, -19.787100611004348 ], [ -40.346124302594433, -19.77988574862837 ] ] } }
]
}
