{
"type": "FeatureCollection",
"features": [
{ "type": "Feature", "properties": { "Name": "LINHARES", "Description": "LINHARES \/ ES" }, "geometry": { "type": "LineString", "coordinates": [ [ -39.741111943161627, -19.148920159138015 ], [ -39.738320484402777, -19.104985730307135 ], [ -39.718965481271873, -19.097023755242049 ], [ -39.688963042010755, -19.306323276298144 ], [ -39.701856546642261, -19.389312235371335 ], [ -39.729449586129476, -19.465900665483275 ], [ -39.785142496928643, -19.590209136942065 ], [ -39.807630122931812, -19.648597211592005 ], [ -39.873780604091564, -19.668632518575802 ], [ -39.911644930169352, -19.687036368133814 ], [ -40.06423756111451, -19.586187758158474 ], [ -40.085522396041711, -19.565300659198044 ], [ -40.120080874532675, -19.551456313058338 ], [ -40.167517359638389, -19.553682614461025 ], [ -40.203327053200894, -19.582930053079451 ], [ -40.257714835471234, -19.59964913340076 ], [ -40.288602963056235, -19.623180127660703 ], [ -40.309495275386602, -19.65240587553069 ], [ -40.334113112030472, -19.641724266961319 ], [ -40.349484692264696, -19.668215277213221 ], [ -40.370348669655357, -19.653321677653253 ], [ -40.3764938271284, -19.622540733967639 ], [ -40.389228899094348, -19.57420178098738 ], [ -40.373596607197612, -19.536188001974665 ], [ -40.393085000472354, -19.509826470714984 ], [ -40.41657880236977, -19.50879542317017 ], [ -40.444220686735257, -19.457773100947804 ], [ -40.44144587083025, -19.425882693331573 ], [ -40.455443125999402, -19.401793968316952 ], [ -40.494717651098654, -19.369316601979563 ], [ -40.525094397188639, -19.331641885364661 ], [ -40.508987484484805, -19.312995123526093 ], [ -40.47133705945771, -19.293359879055117 ], [ -40.430685621044518, -19.258026985357048 ], [ -40.415860645152634, -19.270552615111058 ], [ -40.423951725991344, -19.311832862196809 ], [ -40.398487344914997, -19.358497029314378 ], [ -40.336608897982217, -19.356536819318706 ], [ -40.325247767970097, -19.375562681372628 ], [ -40.297390888978327, -19.35582660491383 ], [ -40.272753230377241, -19.368749539859323 ], [ -40.20350727374165, -19.341911497417641 ], [ -40.18146111503836, -19.243306282259084 ], [ -40.19179327943624, -19.19238522819569 ], [ -40.156647201007502, -19.19398230993562 ], [ -40.148121487716416, -19.217252172549703 ], [ -40.119772823456969, -19.228911167016687 ], [ -40.104486559207317, -19.208871251007395 ], [ -40.084415541044336, -19.235360051625037 ], [ -40.040995621550678, -19.186115796107057 ], [ -40.088279856829899, -19.169558895926286 ], [ -40.002535901110882, -18.995000931048082 ], [ -39.930037665006182, -19.059983316077137 ], [ -39.905202915482107, -19.052547421925905 ], [ -39.870942943561943, -19.080515803361607 ], [ -39.874106823271234, -19.111909580162944 ], [ -39.825906664460945, -19.139124993423646 ], [ -39.761418071986384, -19.160866523870933 ], [ -39.741111943161627, -19.148920159138015 ] ] } }
]
}
