{
"type": "FeatureCollection",
"features": [
{ "type": "Feature", "properties": { "Name": "RIO NOVO DO SUL", "Description": "RIO NOVO DO SUL \/ ES" }, "geometry": { "type": "LineString", "coordinates": [ [ -40.909915592130801, -20.685891362796099 ], [ -40.947330342621171, -20.772083827506606 ], [ -40.897225293812198, -20.81505340519044 ], [ -40.828010816146218, -20.808505614942135 ], [ -40.828044987685985, -20.855963679280308 ], [ -40.828043463335121, -20.890831246664675 ], [ -40.926079255653065, -20.891242227846476 ], [ -40.979597185761463, -20.869386459217651 ], [ -40.99160834035257, -20.837622168927904 ], [ -40.977836045197307, -20.823104414037459 ], [ -40.994330480267422, -20.779439632532956 ], [ -40.969716522399551, -20.75558473394824 ], [ -40.955150306641308, -20.69250098952898 ], [ -40.929718774202001, -20.678245557886157 ], [ -40.909915592130801, -20.685891362796099 ] ] } }
]
}
