{
"type": "FeatureCollection",
"features": [
{ "type": "Feature", "properties": { "Name": "SANTA LEOPOLDINA", "Description": "SANTA LEOPOLDINA \/ ES" }, "geometry": { "type": "LineString", "coordinates": [ [ -40.454503632136891, -19.946548938482692 ], [ -40.447264886465291, -19.994878323575733 ], [ -40.416234103920715, -20.016642501650097 ], [ -40.433389459755745, -20.094932178377292 ], [ -40.435759483613253, -20.135267211012945 ], [ -40.411520977411158, -20.169857883434531 ], [ -40.390137306091781, -20.177976829766862 ], [ -40.373349959133236, -20.214876807418701 ], [ -40.407936737490388, -20.231289438356839 ], [ -40.468434687310946, -20.220996857618843 ], [ -40.50252888450035, -20.229024272751928 ], [ -40.557781977356342, -20.27026016797231 ], [ -40.595527516481638, -20.2685135406673 ], [ -40.594588653043843, -20.245288693618249 ], [ -40.681385944205942, -20.188654396782965 ], [ -40.752062680847985, -20.176184856845623 ], [ -40.714545159431509, -20.149678528441314 ], [ -40.6836107365462, -20.138822419918711 ], [ -40.675052876089296, -20.093594024944252 ], [ -40.643775739558691, -20.091948943688749 ], [ -40.624534010536138, -20.10696623960024 ], [ -40.602679860686976, -20.082222154328917 ], [ -40.622387362986387, -20.046081850197197 ], [ -40.601389462153918, -20.012568524217954 ], [ -40.598199334831406, -19.95980940428052 ], [ -40.586291622060685, -19.987964158519048 ], [ -40.513281738261576, -19.982866028644253 ], [ -40.454503632136891, -19.946548938482692 ] ] } }
]
}
