{
"type": "FeatureCollection",
"features": [
{ "type": "Feature", "properties": { "Name": "SERRA", "Description": "SERRA \/ ES" }, "geometry": { "type": "LineString", "coordinates": [ [ -40.1911072433046, -20.054794742982949 ], [ -40.173304861230292, -20.077140953292311 ], [ -40.171988385955217, -20.108169791502633 ], [ -40.198534134342765, -20.216075255668443 ], [ -40.21493134010921, -20.242651916452754 ], [ -40.310996387773059, -20.237388633278783 ], [ -40.328943685702484, -20.260424439236431 ], [ -40.373349959133236, -20.214876807418701 ], [ -40.390137306091781, -20.177976829766862 ], [ -40.411520977411158, -20.169857883434531 ], [ -40.435759483613253, -20.135267211012945 ], [ -40.433389459755745, -20.094932178377292 ], [ -40.416234103920715, -20.016642501650097 ], [ -40.386757671829059, -20.014418735436262 ], [ -40.352242889597619, -20.04659276674272 ], [ -40.295546950531268, -20.023005571150122 ], [ -40.274436432095627, -20.035761390475727 ], [ -40.220506070198951, -20.028321587870945 ], [ -40.1911072433046, -20.054794742982949 ] ] } }
]
}
