{
"type": "FeatureCollection",
"features": [
{ "type": "Feature", "properties": { "Name": "SOORETAMA", "Description": "SOORETAMA \/ ES" }, "geometry": { "type": "LineString", "coordinates": [ [ -40.002535901110882, -18.995000931048082 ], [ -40.088279856829899, -19.169558895926286 ], [ -40.040995621550678, -19.186115796107057 ], [ -40.084415541044336, -19.235360051625037 ], [ -40.104486559207317, -19.208871251007395 ], [ -40.119772823456969, -19.228911167016687 ], [ -40.148121487716416, -19.217252172549703 ], [ -40.156647201007502, -19.19398230993562 ], [ -40.19179327943624, -19.19238522819569 ], [ -40.197572823826704, -19.166558020136449 ], [ -40.239557001754171, -19.148964723243353 ], [ -40.238147654390673, -19.123248517604964 ], [ -40.267436223502834, -19.086764894584178 ], [ -40.288320977031447, -19.075383559503621 ], [ -40.263886002237143, -19.032893156793705 ], [ -40.206325400996434, -18.906639748525549 ], [ -40.185810949615586, -18.939154504176997 ], [ -40.164952294412842, -18.953486616514112 ], [ -40.098633421495151, -18.97291334687344 ], [ -40.002535901110882, -18.995000931048082 ] ] } }
]
}
