{
"type": "FeatureCollection",
"features": [
{ "type": "Feature", "properties": { "Name": "ÃGUA DOCE", "Description": "ÃGUA DOCE \/ SC" }, "geometry": { "type": "LineString", "coordinates": [ [ -51.411475156553195, -26.717122007674448 ], [ -51.413192126915078, -26.720406619569815 ], [ -51.472286330349846, -26.808052241217919 ], [ -51.4334923346035, -26.823965482221183 ], [ -51.438342901803424, -26.854228880458436 ], [ -51.510384332670753, -26.838616724382291 ], [ -51.529744493413602, -26.879535573507894 ], [ -51.540893847473058, -26.939457392444638 ], [ -51.507012713166148, -26.961431912952378 ], [ -51.462233049315728, -27.027689631970873 ], [ -51.457280577236816, -27.069826535466177 ], [ -51.465541285501899, -27.058438745951317 ], [ -51.526024262509679, -27.048249669986262 ], [ -51.599339971562415, -27.049015871685071 ], [ -51.61792635561676, -27.040194453211427 ], [ -51.617015221874965, -26.992519729601781 ], [ -51.63245849066675, -26.94318758873618 ], [ -51.68971264702099, -26.928678282976307 ], [ -51.671108899755886, -26.907510235808672 ], [ -51.695568297438903, -26.877189289953716 ], [ -51.695029115201464, -26.851485938325368 ], [ -51.728442025579, -26.845447215616446 ], [ -51.702001480783679, -26.792230741855231 ], [ -51.736089414195071, -26.788601875775896 ], [ -51.783383286609364, -26.759805064052443 ], [ -51.769997000261291, -26.728284999053415 ], [ -51.780961285534879, -26.704483446453821 ], [ -51.842647436729806, -26.697309851268585 ], [ -51.861226612717985, -26.673094304758305 ], [ -51.831821756768583, -26.620925717447847 ], [ -51.823952970353275, -26.58192380923634 ], [ -51.783936931743938, -26.588051860704752 ], [ -51.737635833526838, -26.572993260730357 ], [ -51.692686937052486, -26.580507245712791 ], [ -51.65845093925941, -26.565412441730757 ], [ -51.632479220039954, -26.587244415197574 ], [ -51.535607363588895, -26.591797880567693 ], [ -51.495429707814701, -26.587416216285305 ], [ -51.45488299185655, -26.640658226296068 ], [ -51.435346005513679, -26.688178098340526 ], [ -51.411475156553195, -26.717122007674448 ] ] } }
]
}
