{
"type": "FeatureCollection",
"features": [
{ "type": "Feature", "properties": { "Name": "ÃGUAS MORNAS", "Description": "ÃGUAS MORNAS \/ SC" }, "geometry": { "type": "LineString", "coordinates": [ [ -48.885054261544887, -27.815074118775499 ], [ -48.950025428430763, -27.81625746650883 ], [ -49.017302924690163, -27.866363624181872 ], [ -49.036361985217404, -27.824783215772754 ], [ -49.031645390022675, -27.774414090937512 ], [ -49.006492610545472, -27.701092529996227 ], [ -48.963996426094127, -27.657607018449085 ], [ -48.970213298205124, -27.635110119536364 ], [ -48.951567395219051, -27.626966356412197 ], [ -48.846094086372943, -27.624722513732987 ], [ -48.860979872622977, -27.656255895892855 ], [ -48.834831312515, -27.691860029616635 ], [ -48.865367571356273, -27.716535940880927 ], [ -48.859451884896544, -27.755419308554224 ], [ -48.88279178671155, -27.782746438297465 ], [ -48.885054261544887, -27.815074118775499 ] ] } }
]
}
