{
"type": "FeatureCollection",
"features": [
{ "type": "Feature", "properties": { "Name": "ARMAZÃM", "Description": "ARMAZÃM \/ SC" }, "geometry": { "type": "LineString", "coordinates": [ [ -48.921759902897179, -28.235565585383426 ], [ -48.956389995302004, -28.268878204265661 ], [ -48.954377328750695, -28.31725203835083 ], [ -48.99401268523718, -28.301054404736931 ], [ -49.037726999601318, -28.304761999266816 ], [ -49.078990441055964, -28.273579193524938 ], [ -49.08220182205639, -28.245680756861415 ], [ -49.066882811692381, -28.20058222219177 ], [ -49.077628002330407, -28.189575193940016 ], [ -49.030166784069763, -28.150879729715712 ], [ -48.975751217244863, -28.183723518525536 ], [ -48.965459288515319, -28.236921736049226 ], [ -48.921759902897179, -28.235565585383426 ] ] } }
]
}
