{
"type": "FeatureCollection",
"features": [
{ "type": "Feature", "properties": { "Name": "BELMONTE", "Description": "BELMONTE \/ SC" }, "geometry": { "type": "LineString", "coordinates": [ [ -53.605975677335607, -26.818129768873689 ], [ -53.5457738158089, -26.833473912590932 ], [ -53.559635258959979, -26.893357322382485 ], [ -53.575264000333327, -26.89646999919108 ], [ -53.625621999655493, -26.883781999539622 ], [ -53.67313389651207, -26.892968281960577 ], [ -53.689910118856858, -26.874593071313143 ], [ -53.677027460948523, -26.843390471493024 ], [ -53.645229759046117, -26.810784497606448 ], [ -53.605975677335607, -26.818129768873689 ] ] } }
]
}
