{
"type": "FeatureCollection",
"features": [
{ "type": "Feature", "properties": { "Name": "BLUMENAU", "Description": "BLUMENAU \/ SC" }, "geometry": { "type": "LineString", "coordinates": [ [ -49.035695000323983, -26.772301999137881 ], [ -49.030532999698153, -26.777709999416913 ], [ -49.052964999934773, -26.799889998824369 ], [ -49.037609393458695, -26.829339655400759 ], [ -49.043994023305515, -26.877792333049683 ], [ -49.012807905360482, -26.901915806968873 ], [ -49.028011999454179, -26.933769998886305 ], [ -49.056860999735299, -26.954201999522635 ], [ -49.041281999864339, -26.984910999243198 ], [ -49.059422000025222, -27.002379999037654 ], [ -49.058386166288528, -27.060749113280906 ], [ -49.060111663122711, -27.099355583293516 ], [ -49.139921970222701, -27.132542340256748 ], [ -49.155194375020351, -27.119062412000687 ], [ -49.130644000120469, -27.057738999655044 ], [ -49.135612999939951, -27.016309999306994 ], [ -49.162392000090669, -26.991459999079666 ], [ -49.163456999740731, -26.933677999140286 ], [ -49.198489000067241, -26.836598999144428 ], [ -49.128135113744463, -26.832521254452274 ], [ -49.119744732233585, -26.792299941988688 ], [ -49.127279224456622, -26.752745857235482 ], [ -49.112468892225536, -26.721053938988064 ], [ -49.131882999700622, -26.70469799951303 ], [ -49.130325150884971, -26.635346332966833 ], [ -49.114407385392497, -26.613333313381641 ], [ -49.113571863050993, -26.65428272416835 ], [ -49.049097062579335, -26.650471354169607 ], [ -49.017619999563294, -26.683208999595593 ], [ -49.046201000076053, -26.704483999536929 ], [ -49.050203823147854, -26.742817103526477 ], [ -49.035695000323983, -26.772301999137881 ] ] } }
]
}
