{
"type": "FeatureCollection",
"features": [
{ "type": "Feature", "properties": { "Name": "BOCAINA DO SUL", "Description": "BOCAINA DO SUL \/ SC" }, "geometry": { "type": "LineString", "coordinates": [ [ -49.839307463868295, -27.677802181725269 ], [ -49.841095822414218, -27.701045977489798 ], [ -49.805818196552472, -27.705181723058047 ], [ -49.773842692386324, -27.733754838315065 ], [ -49.778550779095148, -27.803457244955833 ], [ -49.808928968597002, -27.867584230827561 ], [ -49.869686685791862, -27.901032010618735 ], [ -49.922157382357284, -27.841904907285596 ], [ -49.955510055244815, -27.848790722114074 ], [ -49.998063766629457, -27.807001225825839 ], [ -50.069116397403775, -27.810621103181347 ], [ -50.075515082754805, -27.782435271970201 ], [ -50.043255335265478, -27.77155349769572 ], [ -50.028410541912926, -27.749431224871103 ], [ -50.023829822588191, -27.684092804539258 ], [ -50.003521631617957, -27.674272519860835 ], [ -50.001088327864011, -27.640249818774066 ], [ -49.96390337753882, -27.660552541866252 ], [ -49.936846827718909, -27.647678516550229 ], [ -49.903092086830327, -27.652597046416531 ], [ -49.87062348888287, -27.678507776312756 ], [ -49.839307463868295, -27.677802181725269 ] ] } }
]
}
