{
"type": "FeatureCollection",
"features": [
{ "type": "Feature", "properties": { "Name": "BRAÃO DO TROMBUDO", "Description": "BRAÃO DO TROMBUDO \/ SC" }, "geometry": { "type": "LineString", "coordinates": [ [ -49.864909999696692, -27.380833999289564 ], [ -49.875377000348237, -27.410429998945229 ], [ -49.907595477948917, -27.432376448014622 ], [ -49.955421790383298, -27.403367772204884 ], [ -49.933554424097338, -27.375235190751425 ], [ -49.930755133142839, -27.322259532951023 ], [ -49.885670505589303, -27.306242993119607 ], [ -49.848155999599669, -27.327238999080521 ], [ -49.869653999932098, -27.348223999138213 ], [ -49.864909999696692, -27.380833999289564 ] ] } }
]
}
