{
"type": "FeatureCollection",
"features": [
{ "type": "Feature", "properties": { "Name": "CAÃADOR", "Description": "CAÃADOR \/ SC" }, "geometry": { "type": "LineString", "coordinates": [ [ -51.238864718531886, -26.627858887877323 ], [ -51.230884999842822, -26.671075999457742 ], [ -51.153251999979773, -26.686340999237697 ], [ -51.122518125910744, -26.708836033855846 ], [ -51.09864745951262, -26.696248941735234 ], [ -51.050906127615633, -26.70001692214322 ], [ -50.985510999632872, -26.648316999429937 ], [ -50.931918000415351, -26.671075999457742 ], [ -50.906251000283419, -26.699539999071646 ], [ -50.803773000423575, -26.76516299907308 ], [ -50.846104000099501, -26.871426999056723 ], [ -50.973023000211235, -26.892218999207387 ], [ -50.985664254901387, -26.8689227864574 ], [ -51.05062627748066, -26.858483826667225 ], [ -51.059936999992487, -26.838940999227702 ], [ -51.104390000398155, -26.831674999601489 ], [ -51.171768384403379, -26.831901100855074 ], [ -51.189677999839773, -26.852186999430444 ], [ -51.219820000392644, -26.859556999356016 ], [ -51.248238999730006, -26.884381999329772 ], [ -51.28513514177331, -26.873059925075438 ], [ -51.247596176922002, -26.833528089549642 ], [ -51.239384999717913, -26.801734999370694 ], [ -51.255429383459216, -26.77399410234591 ], [ -51.295509999686715, -26.762818998897615 ], [ -51.338901645394564, -26.734343551813424 ], [ -51.378747996322943, -26.737157484630188 ], [ -51.413192126915078, -26.720406619569815 ], [ -51.411475156553195, -26.717122007674448 ], [ -51.391129716563114, -26.663247441516148 ], [ -51.347032508643338, -26.648593131767598 ], [ -51.283401091487121, -26.653630287607655 ], [ -51.238864718531886, -26.627858887877323 ] ] } }
]
}
