{
"type": "FeatureCollection",
"features": [
{ "type": "Feature", "properties": { "Name": "CAMPO BELO DO SUL", "Description": "CAMPO BELO DO SUL \/ SC" }, "geometry": { "type": "LineString", "coordinates": [ [ -50.641345434843906, -27.714330572098159 ], [ -50.629988681832167, -27.785548999186915 ], [ -50.608956591473486, -27.79733229974579 ], [ -50.605624654554099, -27.83312525512639 ], [ -50.650019436447792, -27.907520028326587 ], [ -50.625992752063837, -27.930034192423989 ], [ -50.655806344487189, -27.986482415930709 ], [ -50.704427466054653, -27.997571606244605 ], [ -50.761775464865764, -28.03521930812451 ], [ -50.800011033782141, -28.018553647532769 ], [ -50.817554667413901, -28.047386434836028 ], [ -50.875266286409953, -28.041303625561852 ], [ -50.923238424813405, -28.01198778091134 ], [ -50.923968158103946, -27.97165455141635 ], [ -50.978369376245666, -27.948204464664286 ], [ -50.935679424765624, -27.930591338619365 ], [ -50.915295396665158, -27.896703598791984 ], [ -50.892155029231162, -27.896480858304926 ], [ -50.85754701518254, -27.773872581254579 ], [ -50.847490466911495, -27.697588714647395 ], [ -50.875277999180298, -27.601577860130075 ], [ -50.79987191046024, -27.614529894439041 ], [ -50.78140783420411, -27.634603624957265 ], [ -50.726528453725109, -27.66455559156725 ], [ -50.675657831843409, -27.715666995235608 ], [ -50.641345434843906, -27.714330572098159 ] ] } }
]
}
