{
"type": "FeatureCollection",
"features": [
{ "type": "Feature", "properties": { "Name": "CANELINHA", "Description": "CANELINHA \/ SC" }, "geometry": { "type": "LineString", "coordinates": [ [ -48.799485000032689, -27.155004999281228 ], [ -48.80437399976023, -27.19078399898234 ], [ -48.714878999666041, -27.263541998864124 ], [ -48.742163999768707, -27.303697998963457 ], [ -48.794696734266836, -27.353206911469723 ], [ -48.80218779822826, -27.358988072841267 ], [ -48.794176150009264, -27.285859757321873 ], [ -48.837427803650201, -27.23017270470649 ], [ -48.866269145304777, -27.219999961329108 ], [ -48.882948844313653, -27.183071212566347 ], [ -48.812389534849103, -27.135687873796314 ], [ -48.799485000032689, -27.155004999281228 ] ] } }
]
}
