{
"type": "FeatureCollection",
"features": [
{ "type": "Feature", "properties": { "Name": "CELSO RAMOS", "Description": "CELSO RAMOS \/ SC" }, "geometry": { "type": "LineString", "coordinates": [ [ -51.212387501182207, -27.619436313135282 ], [ -51.19341686469653, -27.657436996220383 ], [ -51.208487798872795, -27.670003685421705 ], [ -51.222567568638333, -27.723189371792042 ], [ -51.273035886896594, -27.73563604017107 ], [ -51.310035868260684, -27.71808943967585 ], [ -51.315106044508298, -27.675070068328921 ], [ -51.360112778182099, -27.678794282330216 ], [ -51.377934465103458, -27.660023872703505 ], [ -51.419153504330723, -27.654638586601436 ], [ -51.457293527474292, -27.607467456357995 ], [ -51.409037157438831, -27.593792194454181 ], [ -51.342964803982454, -27.593363776317176 ], [ -51.27275477411348, -27.633353931538693 ], [ -51.229250595338669, -27.59848851443337 ], [ -51.212387501182207, -27.619436313135282 ] ] } }
]
}
