{
"type": "FeatureCollection",
"features": [
{ "type": "Feature", "properties": { "Name": "CERRO NEGRO", "Description": "CERRO NEGRO \/ SC" }, "geometry": { "type": "LineString", "coordinates": [ [ -50.875277999180298, -27.601577860130075 ], [ -50.847490466911495, -27.697588714647395 ], [ -50.85754701518254, -27.773872581254579 ], [ -50.892155029231162, -27.896480858304926 ], [ -50.915295396665158, -27.896703598791984 ], [ -50.935679424765624, -27.930591338619365 ], [ -50.978369376245666, -27.948204464664286 ], [ -51.018955720829801, -27.957048035238582 ], [ -51.019908450014896, -27.922487525179118 ], [ -51.055966230557033, -27.903670434442972 ], [ -51.053404952376574, -27.868881669253597 ], [ -50.996983834436378, -27.822497342378426 ], [ -50.93460585097921, -27.818334418398649 ], [ -50.959213730329338, -27.782048576080854 ], [ -50.927228751805387, -27.742095437854115 ], [ -50.910840071611972, -27.680774622750619 ], [ -50.939195195701693, -27.673186530933606 ], [ -50.961225844696912, -27.645923593898715 ], [ -50.989044679668204, -27.605656052684651 ], [ -50.933908606596894, -27.579954906193905 ], [ -50.901486534176172, -27.573416689228793 ], [ -50.875277999180298, -27.601577860130075 ] ] } }
]
}
