{
"type": "FeatureCollection",
"features": [
{ "type": "Feature", "properties": { "Name": "CONCÃRDIA", "Description": "CONCÃRDIA \/ SC" }, "geometry": { "type": "LineString", "coordinates": [ [ -51.875047273412918, -27.122057960206629 ], [ -51.820395999675611, -27.149032999073597 ], [ -51.814854616447342, -27.187756717298608 ], [ -51.812004141477921, -27.219751520915906 ], [ -51.83915300041059, -27.247076999503861 ], [ -51.788986000003831, -27.257891999116396 ], [ -51.796046000022841, -27.293201999672476 ], [ -51.821197999787834, -27.295962999292954 ], [ -51.853909912012796, -27.31704741220824 ], [ -51.904079955725308, -27.301196541886839 ], [ -51.93947857187856, -27.335470729390575 ], [ -51.983412338808364, -27.375081780799519 ], [ -52.072014884978898, -27.338409635596179 ], [ -52.110732280969955, -27.337246935397729 ], [ -52.12632850105944, -27.302523456492281 ], [ -52.161289203134174, -27.314287758872922 ], [ -52.180101573328898, -27.276639083027192 ], [ -52.203137337018461, -27.323029854444201 ], [ -52.228377669993442, -27.327411444982147 ], [ -52.267991127088798, -27.283248644109619 ], [ -52.261347258668991, -27.256941118937448 ], [ -52.210006732924334, -27.23748322437126 ], [ -52.192650255404942, -27.199559570018096 ], [ -52.115447794280215, -27.184915312891345 ], [ -52.092499964501712, -27.156129594305298 ], [ -52.045225000333453, -27.140100999061815 ], [ -51.993700136052382, -27.118673558637795 ], [ -51.972542860964211, -27.108279427353636 ], [ -51.902126251425329, -27.129157844259051 ], [ -51.875047273412918, -27.122057960206629 ] ] } }
]
}
