{
"type": "FeatureCollection",
"features": [
{ "type": "Feature", "properties": { "Name": "CORDILHEIRA ALTA", "Description": "CORDILHEIRA ALTA \/ SC" }, "geometry": { "type": "LineString", "coordinates": [ [ -52.615258537251627, -26.934099336015493 ], [ -52.584533883032236, -26.973799698197467 ], [ -52.588212798182042, -27.028094970806194 ], [ -52.611731263087272, -27.035787452329028 ], [ -52.64223188539313, -26.993315705155624 ], [ -52.690617915184589, -26.991774253678837 ], [ -52.716750964685218, -26.973848876724219 ], [ -52.665380990640188, -26.9222610985708 ], [ -52.631956527571674, -26.950811487959754 ], [ -52.615258537251627, -26.934099336015493 ] ] } }
]
}
