{
"type": "FeatureCollection",
"features": [
{ "type": "Feature", "properties": { "Name": "CUNHA PORÃ", "Description": "CUNHA PORÃ \/ SC" }, "geometry": { "type": "LineString", "coordinates": [ [ -53.120916730622582, -26.808799551757886 ], [ -53.11616478667554, -26.81589589697802 ], [ -53.128646837981137, -26.841956683254292 ], [ -53.111414944444107, -26.923703682179166 ], [ -53.14290700005796, -26.942527998967932 ], [ -53.19009699987663, -26.951253999372511 ], [ -53.209181000402786, -26.937841999608562 ], [ -53.284917000019504, -26.921799999070625 ], [ -53.295904775584859, -26.897213328432315 ], [ -53.285976244907715, -26.870017720041687 ], [ -53.244173010575928, -26.845927441897857 ], [ -53.241320483353604, -26.813342563408526 ], [ -53.208138090800219, -26.802489979329039 ], [ -53.120916730622582, -26.808799551757886 ] ] } }
]
}
