{
"type": "FeatureCollection",
"features": [
{ "type": "Feature", "properties": { "Name": "DIONÃSIO CERQUEIRA", "Description": "DIONÃSIO CERQUEIRA \/ SC" }, "geometry": { "type": "LineString", "coordinates": [ [ -53.342299341241578, -26.249082401531549 ], [ -53.343143988104543, -26.297591499947714 ], [ -53.394355873025063, -26.366053810734741 ], [ -53.560316168056659, -26.37482150550801 ], [ -53.583156445213717, -26.412914923984488 ], [ -53.618697920472584, -26.376783168808174 ], [ -53.667601922890412, -26.425790183170363 ], [ -53.688548810579107, -26.428492800602211 ], [ -53.705721031400458, -26.41497975031518 ], [ -53.70128003884269, -26.366467769571837 ], [ -53.670793451356644, -26.330430248956759 ], [ -53.641655567250602, -26.260382923533029 ], [ -53.584329571252674, -26.259073397319412 ], [ -53.557265037251625, -26.287083038751177 ], [ -53.495834711702514, -26.302798865974864 ], [ -53.424026762824774, -26.279715740389065 ], [ -53.376071913887699, -26.241614021170108 ], [ -53.342299341241578, -26.249082401531549 ] ] } }
]
}
