{
"type": "FeatureCollection",
"features": [
{ "type": "Feature", "properties": { "Name": "GASPAR", "Description": "GASPAR \/ SC" }, "geometry": { "type": "LineString", "coordinates": [ [ -49.030532999698153, -26.777709999416913 ], [ -48.986120000237804, -26.807130999096273 ], [ -48.871740824779181, -26.895872562468753 ], [ -48.85341358936563, -26.920651278833418 ], [ -48.843502716876856, -26.964959621489299 ], [ -48.866125000168601, -27.003132999588217 ], [ -48.934543999605857, -27.027267999218736 ], [ -48.963267837640558, -27.020624453655554 ], [ -49.058386166288528, -27.060749113280906 ], [ -49.059422000025222, -27.002379999037654 ], [ -49.041281999864339, -26.984910999243198 ], [ -49.056860999735299, -26.954201999522635 ], [ -49.028011999454179, -26.933769998886305 ], [ -49.012807905360482, -26.901915806968873 ], [ -49.043994023305515, -26.877792333049683 ], [ -49.037609393458695, -26.829339655400759 ], [ -49.052964999934773, -26.799889998824369 ], [ -49.030532999698153, -26.777709999416913 ] ] } }
]
}
