{
"type": "FeatureCollection",
"features": [
{ "type": "Feature", "properties": { "Name": "GUARAMIRIM", "Description": "GUARAMIRIM \/ SC" }, "geometry": { "type": "LineString", "coordinates": [ [ -48.839140626338803, -26.440277336829581 ], [ -48.875540110587558, -26.452684146356205 ], [ -48.904627781047225, -26.50194698456562 ], [ -48.8706722683105, -26.536718422517136 ], [ -48.832132129594072, -26.53063675628124 ], [ -48.860030659787071, -26.562404404639491 ], [ -48.899264007627835, -26.542669462225827 ], [ -48.940291445393825, -26.544243065365148 ], [ -48.981734957202491, -26.57363987148284 ], [ -49.011957603560518, -26.572614766658091 ], [ -49.020874955414797, -26.535641658835459 ], [ -49.051365567366986, -26.515229678007188 ], [ -49.017111093002484, -26.507042696163467 ], [ -49.028108449944966, -26.45694561534782 ], [ -49.00161449890993, -26.452065286883453 ], [ -49.01978939186688, -26.416674247518468 ], [ -49.003678126444349, -26.387381376948948 ], [ -48.926278154413239, -26.419814476856573 ], [ -48.906426850518699, -26.373362061409978 ], [ -48.875572264048678, -26.382107059992791 ], [ -48.839140626338803, -26.440277336829581 ] ] } }
]
}
