{
"type": "FeatureCollection",
"features": [
{ "type": "Feature", "properties": { "Name": "IMBUIA", "Description": "IMBUIA \/ SC" }, "geometry": { "type": "LineString", "coordinates": [ [ -49.318956000319126, -27.572381999429695 ], [ -49.301521226023738, -27.584483577255241 ], [ -49.322242348805325, -27.589186139428758 ], [ -49.355007638491657, -27.562506732899351 ], [ -49.403818356931595, -27.5613118846357 ], [ -49.422683000220218, -27.530684999313223 ], [ -49.454774999866288, -27.536891999566077 ], [ -49.475795999785532, -27.519495999540709 ], [ -49.465853999962064, -27.443293999118737 ], [ -49.404712999805042, -27.448353999537403 ], [ -49.342563999928586, -27.47992599948526 ], [ -49.36078700031976, -27.513662999447828 ], [ -49.36134499997172, -27.551636999647769 ], [ -49.318956000319126, -27.572381999429695 ] ] } }
]
}
