{
"type": "FeatureCollection",
"features": [
{ "type": "Feature", "properties": { "Name": "IPUAÃU", "Description": "IPUAÃU \/ SC" }, "geometry": { "type": "LineString", "coordinates": [ [ -52.46058039736738, -26.575108787240708 ], [ -52.419709438040115, -26.586283372679475 ], [ -52.39272123489701, -26.637576853089229 ], [ -52.412967262928817, -26.658112109386309 ], [ -52.393299693226197, -26.683853487948056 ], [ -52.42617948189752, -26.714496040359904 ], [ -52.405318216862156, -26.74630291624652 ], [ -52.429583365479914, -26.76732358881253 ], [ -52.442023420244595, -26.748888966252764 ], [ -52.522657286004907, -26.777479255862939 ], [ -52.534671930864867, -26.80866136732817 ], [ -52.534808419173146, -26.71179234104363 ], [ -52.563531982914633, -26.671455650957455 ], [ -52.494769783298807, -26.590513434647221 ], [ -52.46058039736738, -26.575108787240708 ] ] } }
]
}
