{
"type": "FeatureCollection",
"features": [
{ "type": "Feature", "properties": { "Name": "ITAPEMA", "Description": "ITAPEMA \/ SC" }, "geometry": { "type": "LineString", "coordinates": [ [ -48.588953775596224, -27.061036722766517 ], [ -48.611626909254426, -27.107189574039577 ], [ -48.584817761130751, -27.144538563403955 ], [ -48.636691788994824, -27.15142534860092 ], [ -48.688822231560721, -27.141331727577096 ], [ -48.661810774647506, -27.12648168398249 ], [ -48.676629581190184, -27.097995021453013 ], [ -48.614366459144719, -27.06767162494549 ], [ -48.611475297946583, -27.048256593866654 ], [ -48.588953775596224, -27.061036722766517 ] ] } }
]
}
