{
"type": "FeatureCollection",
"features": [
{ "type": "Feature", "properties": { "Name": "JABORÃ", "Description": "JABORÃ \/ SC" }, "geometry": { "type": "LineString", "coordinates": [ [ -51.676749517775988, -27.117670416156724 ], [ -51.685759651786441, -27.183137580734694 ], [ -51.724682999720642, -27.207199998780879 ], [ -51.773289341829638, -27.206250162714806 ], [ -51.814854616447342, -27.187756717298608 ], [ -51.820395999675611, -27.149032999073597 ], [ -51.875047273412918, -27.122057960206629 ], [ -51.831600993890731, -27.085914540823353 ], [ -51.758420250594035, -27.087552626252656 ], [ -51.724460529030125, -27.111665706706955 ], [ -51.676749517775988, -27.117670416156724 ] ] } }
]
}
