{
"type": "FeatureCollection",
"features": [
{ "type": "Feature", "properties": { "Name": "JAGUARUNA", "Description": "JAGUARUNA \/ SC" }, "geometry": { "type": "LineString", "coordinates": [ [ -48.94515865005161, -28.594256652722319 ], [ -48.909035616500432, -28.603122575946088 ], [ -48.875707999624467, -28.59447699921412 ], [ -48.857868733655096, -28.616173961958737 ], [ -48.977499982238328, -28.673564871921254 ], [ -49.081876367300481, -28.734662233375328 ], [ -49.185413202856978, -28.801486158359467 ], [ -49.204737318772167, -28.776506648562926 ], [ -49.198788722521499, -28.736897062149634 ], [ -49.174032416362877, -28.698562857389902 ], [ -49.113818736845182, -28.69303818176661 ], [ -49.076175000076148, -28.668907998904952 ], [ -49.071544999701928, -28.627085999319373 ], [ -49.103265709744676, -28.592949650905606 ], [ -49.030052886731312, -28.549887635505907 ], [ -49.018301622721651, -28.533461472468957 ], [ -48.94515865005161, -28.594256652722319 ] ] } }
]
}
