{
"type": "FeatureCollection",
"features": [
{ "type": "Feature", "properties": { "Name": "LAGUNA", "Description": "LAGUNA \/ SC" }, "geometry": { "type": "LineString", "coordinates": [ [ -48.857868733655096, -28.616173961958737 ], [ -48.875707999624467, -28.59447699921412 ], [ -48.909035616500432, -28.603122575946088 ], [ -48.94515865005161, -28.594256652722319 ], [ -48.903629297054351, -28.532802938504744 ], [ -48.92339599992539, -28.512662998998167 ], [ -48.914125999615123, -28.467209999242016 ], [ -48.837554451576636, -28.427529082201318 ], [ -48.814313057901245, -28.356567562642851 ], [ -48.765873598487751, -28.357487344265508 ], [ -48.756007975387718, -28.325473326632672 ], [ -48.706131095373735, -28.341127669006653 ], [ -48.736210000391168, -28.378419999283494 ], [ -48.743526610264837, -28.425591768045592 ], [ -48.766525610568408, -28.464802767733488 ], [ -48.747112999565218, -28.495972999154557 ], [ -48.758589603427424, -28.527746779989855 ], [ -48.827207999649424, -28.606925999535179 ], [ -48.857868733655096, -28.616173961958737 ] ] } }
]
}
