{
"type": "FeatureCollection",
"features": [
{ "type": "Feature", "properties": { "Name": "LEBON RÃGIS", "Description": "LEBON RÃGIS \/ SC" }, "geometry": { "type": "LineString", "coordinates": [ [ -50.527346595269137, -26.780185981397892 ], [ -50.500406566110087, -26.82262460564101 ], [ -50.552871390102553, -26.828671786473706 ], [ -50.587459784541402, -26.861866146305545 ], [ -50.591704872381911, -26.92899554041179 ], [ -50.618960252413672, -26.953634764732552 ], [ -50.636672525116921, -27.028983939856914 ], [ -50.663431782450743, -27.058976160121631 ], [ -50.657470595691393, -27.086919222943717 ], [ -50.691123434398946, -27.084069658987513 ], [ -50.707372238537914, -27.100973035577109 ], [ -50.734176116634444, -27.068214360404337 ], [ -50.735484862236547, -27.025448598773774 ], [ -50.764100006410104, -26.996564160707408 ], [ -50.814477765636354, -26.99619229823594 ], [ -50.847682000024236, -26.920923999143213 ], [ -50.846104000099501, -26.871426999056723 ], [ -50.803773000423575, -26.76516299907308 ], [ -50.828235999891433, -26.721966999077722 ], [ -50.829847999585468, -26.694483998837427 ], [ -50.808949999942513, -26.652219999553267 ], [ -50.783291000179474, -26.68271499929773 ], [ -50.733832000046725, -26.688776999159131 ], [ -50.685721765347125, -26.658991561811089 ], [ -50.658484770155951, -26.676543352293834 ], [ -50.635646296139612, -26.713338672241889 ], [ -50.590794069590572, -26.739137690152234 ], [ -50.559486327332081, -26.771259581464449 ], [ -50.527346595269137, -26.780185981397892 ] ] } }
]
}
