{
"type": "FeatureCollection",
"features": [
{ "type": "Feature", "properties": { "Name": "LUZERNA", "Description": "LUZERNA \/ SC" }, "geometry": { "type": "LineString", "coordinates": [ [ -51.457280577236816, -27.069826535466177 ], [ -51.43669539147907, -27.071405272835023 ], [ -51.431423048534839, -27.117198596737808 ], [ -51.480386178679169, -27.145238166707998 ], [ -51.558353579753877, -27.110807561020067 ], [ -51.592896932547376, -27.079404511309122 ], [ -51.599339971562415, -27.049015871685071 ], [ -51.526024262509679, -27.048249669986262 ], [ -51.465541285501899, -27.058438745951317 ], [ -51.457280577236816, -27.069826535466177 ] ] } }
]
}
