{
"type": "FeatureCollection",
"features": [
{ "type": "Feature", "properties": { "Name": "MAJOR VIEIRA", "Description": "MAJOR VIEIRA \/ SC" }, "geometry": { "type": "LineString", "coordinates": [ [ -50.297019550611708, -26.286131699917973 ], [ -50.283529111079588, -26.308532200500618 ], [ -50.275889016864589, -26.32481590463027 ], [ -50.290594051074549, -26.372637700669316 ], [ -50.266814105586434, -26.44813735665366 ], [ -50.260996701536499, -26.492882556684602 ], [ -50.232443693321727, -26.512855497483201 ], [ -50.302697706334015, -26.556586388151231 ], [ -50.364444999736918, -26.57511299966518 ], [ -50.360893999658281, -26.592307999414572 ], [ -50.388282000014271, -26.641609999501839 ], [ -50.426250999983601, -26.668456999191104 ], [ -50.433939000184694, -26.700053999392537 ], [ -50.40915690416773, -26.725654799529309 ], [ -50.473351009141709, -26.69622337850609 ], [ -50.469074227393662, -26.662179770879675 ], [ -50.492942173342556, -26.648472322239854 ], [ -50.491812999869971, -26.642510999682827 ], [ -50.439410999817767, -26.616628999528643 ], [ -50.40105657829838, -26.561411162794855 ], [ -50.454439000359514, -26.502388999552636 ], [ -50.448221999645511, -26.458702999443801 ], [ -50.419211572855772, -26.412676734043998 ], [ -50.424641000381826, -26.37601799953103 ], [ -50.40112399957286, -26.344278999076494 ], [ -50.367836999677756, -26.330559999544278 ], [ -50.325366276832142, -26.296699749293964 ], [ -50.297019550611708, -26.286131699917973 ] ] } }
]
}
