{
"type": "FeatureCollection",
"features": [
{ "type": "Feature", "properties": { "Name": "MELEIRO", "Description": "MELEIRO \/ SC" }, "geometry": { "type": "LineString", "coordinates": [ [ -49.595570173124941, -28.775769483274981 ], [ -49.595430000294243, -28.80203699940796 ], [ -49.552240740717593, -28.816759921133382 ], [ -49.516847182351569, -28.857839039340149 ], [ -49.513470731688869, -28.891917279858546 ], [ -49.533502852374681, -28.916931019650804 ], [ -49.550354145627288, -28.900808688969786 ], [ -49.60561738463457, -28.90796359714227 ], [ -49.673987432174215, -28.875120516998209 ], [ -49.677563055690428, -28.862928039297515 ], [ -49.670703435415192, -28.753440184716681 ], [ -49.605448000025149, -28.752427999552477 ], [ -49.595570173124941, -28.775769483274981 ] ] } }
]
}
