{
"type": "FeatureCollection",
"features": [
{ "type": "Feature", "properties": { "Name": "MIRIM DOCE", "Description": "MIRIM DOCE \/ SC" }, "geometry": { "type": "LineString", "coordinates": [ [ -50.315545895027007, -27.075700132754889 ], [ -50.306630525278479, -27.106608215396761 ], [ -50.248080250702969, -27.100134153368458 ], [ -50.23192347958485, -27.144494919305032 ], [ -50.201643904342689, -27.155251898256438 ], [ -50.138620935207939, -27.134734843338322 ], [ -50.061589161810332, -27.150773415660581 ], [ -50.04264486287007, -27.171983910828772 ], [ -50.005959832180451, -27.173059081811115 ], [ -50.002985094286657, -27.212779654457449 ], [ -50.046396383885963, -27.205897722002248 ], [ -50.067908511668456, -27.237364052508951 ], [ -50.089955314286271, -27.242076505426326 ], [ -50.129940535827011, -27.27469180528254 ], [ -50.175616898401074, -27.270563477322582 ], [ -50.201097458281019, -27.242275986747359 ], [ -50.244679746772874, -27.235798788783029 ], [ -50.291176432246516, -27.196927455837393 ], [ -50.283588866532909, -27.166026596550125 ], [ -50.318843428381456, -27.145016156470376 ], [ -50.320456165519602, -27.113331543415939 ], [ -50.346946113672175, -27.092406414824154 ], [ -50.315545895027007, -27.075700132754889 ] ] } }
]
}
