{
"type": "FeatureCollection",
"features": [
{ "type": "Feature", "properties": { "Name": "OURO", "Description": "OURO \/ SC" }, "geometry": { "type": "LineString", "coordinates": [ [ -51.656534076586297, -27.201580501339038 ], [ -51.648807013432872, -27.236315744276112 ], [ -51.596656577139299, -27.270839728370731 ], [ -51.595150229799231, -27.297527065121926 ], [ -51.592498474424985, -27.331859094321715 ], [ -51.623271061610183, -27.352383316836551 ], [ -51.671743388546474, -27.34452070426704 ], [ -51.692448372094645, -27.3691718931683 ], [ -51.730409144166629, -27.357337697276876 ], [ -51.730641397682284, -27.335860018924677 ], [ -51.757558477941359, -27.310795297464949 ], [ -51.756940810070262, -27.28089983346052 ], [ -51.763643999570888, -27.260592999567223 ], [ -51.735262975006265, -27.240940490810942 ], [ -51.724682999720642, -27.207199998780879 ], [ -51.685759651786441, -27.183137580734694 ], [ -51.656534076586297, -27.201580501339038 ] ] } }
]
}
