{
"type": "FeatureCollection",
"features": [
{ "type": "Feature", "properties": { "Name": "PAIAL", "Description": "PAIAL \/ SC" }, "geometry": { "type": "LineString", "coordinates": [ [ -52.401630337270205, -27.190620417698081 ], [ -52.432543230385704, -27.217841155844607 ], [ -52.479814907531932, -27.235542767085008 ], [ -52.479303082671095, -27.265937754124025 ], [ -52.536005053490385, -27.26036690191097 ], [ -52.544551417014247, -27.240605809010844 ], [ -52.519858318806314, -27.203111035046163 ], [ -52.506111551806605, -27.159271035030201 ], [ -52.459499099303969, -27.173565623154953 ], [ -52.43834738832129, -27.196809615871018 ], [ -52.401630337270205, -27.190620417698081 ] ] } }
]
}
