{
"type": "FeatureCollection",
"features": [
{ "type": "Feature", "properties": { "Name": "PALMEIRA", "Description": "PALMEIRA \/ SC" }, "geometry": { "type": "LineString", "coordinates": [ [ -50.181560713855845, -27.445351841314391 ], [ -50.136477895738267, -27.498230175382218 ], [ -50.139144729145869, -27.527862433004824 ], [ -50.09366849360606, -27.540588882271038 ], [ -50.088737359741344, -27.566039897623114 ], [ -50.046368146972384, -27.578390583158864 ], [ -50.105774425049617, -27.676008238389443 ], [ -50.133766212240857, -27.694166729510926 ], [ -50.147925947024817, -27.666624148285791 ], [ -50.188240011966911, -27.652378845707119 ], [ -50.197823008724811, -27.632769513402252 ], [ -50.188831428627509, -27.612468115910758 ], [ -50.205295053823647, -27.565304204525376 ], [ -50.244929707040285, -27.525245367179934 ], [ -50.26999630628444, -27.525059786679776 ], [ -50.299437840184112, -27.496495473087574 ], [ -50.268254348259518, -27.461703765316486 ], [ -50.231150462823564, -27.48431945387966 ], [ -50.210866205510904, -27.454508919151237 ], [ -50.181560713855845, -27.445351841314391 ] ] } }
]
}
