{
"type": "FeatureCollection",
"features": [
{ "type": "Feature", "properties": { "Name": "POMERODE", "Description": "POMERODE \/ SC" }, "geometry": { "type": "LineString", "coordinates": [ [ -49.130325150884971, -26.635346332966833 ], [ -49.131882999700622, -26.70469799951303 ], [ -49.112468892225536, -26.721053938988064 ], [ -49.127279224456622, -26.752745857235482 ], [ -49.119744732233585, -26.792299941988688 ], [ -49.128135113744463, -26.832521254452274 ], [ -49.198489000067241, -26.836598999144428 ], [ -49.206930880355799, -26.831061926366772 ], [ -49.199208999995335, -26.786527999567454 ], [ -49.213954308544487, -26.754982168991884 ], [ -49.235370000225316, -26.729046999119646 ], [ -49.232190000168316, -26.68873099883649 ], [ -49.216818999996804, -26.667484999333226 ], [ -49.222129140547338, -26.620342270579268 ], [ -49.171692384895607, -26.618260313962249 ], [ -49.163610385410891, -26.647728313111145 ], [ -49.130325150884971, -26.635346332966833 ] ] } }
]
}
