{
"type": "FeatureCollection",
"features": [
{ "type": "Feature", "properties": { "Name": "PRINCESA", "Description": "PRINCESA \/ SC" }, "geometry": { "type": "LineString", "coordinates": [ [ -53.583156445213717, -26.412914923984488 ], [ -53.54053591420103, -26.427095687615861 ], [ -53.582088269158248, -26.476534409835097 ], [ -53.625024874997962, -26.472773780485511 ], [ -53.638247961374304, -26.448842254266594 ], [ -53.687891999715987, -26.443219999503356 ], [ -53.688548810579107, -26.428492800602211 ], [ -53.667601922890412, -26.425790183170363 ], [ -53.618697920472584, -26.376783168808174 ], [ -53.583156445213717, -26.412914923984488 ] ] } }
]
}
