{
"type": "FeatureCollection",
"features": [
{ "type": "Feature", "properties": { "Name": "RIO NEGRINHO", "Description": "RIO NEGRINHO \/ SC" }, "geometry": { "type": "LineString", "coordinates": [ [ -49.48434016986289, -26.418844579613619 ], [ -49.49539104725897, -26.42737221205789 ], [ -49.456805406444289, -26.481632098142768 ], [ -49.439942000223084, -26.488557999352167 ], [ -49.492976878380205, -26.509095952715992 ], [ -49.562995796918472, -26.548250084673612 ], [ -49.564888198931214, -26.565265969149095 ], [ -49.585269045230234, -26.623222556275891 ], [ -49.619445274080078, -26.64252821270679 ], [ -49.621238873874915, -26.70439110046885 ], [ -49.653751946894772, -26.692781618177094 ], [ -49.690894558037371, -26.689877741464556 ], [ -49.708570879442505, -26.650892909580076 ], [ -49.682156045365154, -26.628733799625081 ], [ -49.685979177596948, -26.593693353765214 ], [ -49.734998992909141, -26.548172423718313 ], [ -49.760437494194946, -26.471780276938205 ], [ -49.738197886823002, -26.426317908944267 ], [ -49.665182069297032, -26.378869041073354 ], [ -49.628951353622028, -26.341170834166633 ], [ -49.618385419451499, -26.314495113958287 ], [ -49.622445477176996, -26.242832649307271 ], [ -49.603122060934311, -26.226712521065963 ], [ -49.5498460646441, -26.233373239183607 ], [ -49.541911592645818, -26.214347018300202 ], [ -49.501687540847286, -26.219859029670431 ], [ -49.487218271106258, -26.194249355023658 ], [ -49.471829682893478, -26.237493860852965 ], [ -49.465679471230544, -26.362846423623523 ], [ -49.455642520086201, -26.387778209097007 ], [ -49.48434016986289, -26.418844579613619 ] ] } }
]
}
