{
"type": "FeatureCollection",
"features": [
{ "type": "Feature", "properties": { "Name": "RIO DO SUL", "Description": "RIO DO SUL \/ SC" }, "geometry": { "type": "LineString", "coordinates": [ [ -49.585083999826672, -27.086382999475802 ], [ -49.59184200030802, -27.127857999247226 ], [ -49.576165999561169, -27.170136999223075 ], [ -49.543364000448207, -27.217442998995182 ], [ -49.551010999657876, -27.234959999204531 ], [ -49.52685299986603, -27.272023998808436 ], [ -49.587834999885274, -27.267867999608427 ], [ -49.639944999961756, -27.275333999464465 ], [ -49.680302000337008, -27.290780999543468 ], [ -49.696865999766032, -27.280675999397829 ], [ -49.689628999678575, -27.244379999237538 ], [ -49.717333000217764, -27.143137998819554 ], [ -49.614252999576252, -27.079970999661839 ], [ -49.585083999826672, -27.086382999475802 ] ] } }
]
}
