{
"type": "FeatureCollection",
"features": [
{ "type": "Feature", "properties": { "Name": "RIO DO OESTE", "Description": "RIO DO OESTE \/ SC" }, "geometry": { "type": "LineString", "coordinates": [ [ -49.844603000328163, -27.023684999463114 ], [ -49.845074999611484, -27.060521999390687 ], [ -49.831134999780375, -27.114165999161514 ], [ -49.742215000122144, -27.14498299936588 ], [ -49.757701000200939, -27.201780998893923 ], [ -49.801413999756214, -27.248720998874941 ], [ -49.821960133353457, -27.266006025257809 ], [ -49.847707460930508, -27.234845912109108 ], [ -49.912945266910469, -27.219270959187384 ], [ -49.932786069421525, -27.189316929532652 ], [ -49.898492285690395, -27.102650512211309 ], [ -49.876027081584482, -27.020650248010497 ], [ -49.844603000328163, -27.023684999463114 ] ] } }
]
}
