{
"type": "FeatureCollection",
"features": [
{ "type": "Feature", "properties": { "Name": "RIO FORTUNA", "Description": "RIO FORTUNA \/ SC" }, "geometry": { "type": "LineString", "coordinates": [ [ -49.062727380863919, -28.060423795022075 ], [ -49.065645234839678, -28.111106914552408 ], [ -49.053036219945568, -28.142172268835111 ], [ -49.030166784069763, -28.150879729715712 ], [ -49.077628002330407, -28.189575193940016 ], [ -49.079688283487428, -28.174852927820325 ], [ -49.200051392257876, -28.154141443972431 ], [ -49.250526755805083, -28.149095588990175 ], [ -49.261550240750978, -28.117033377588257 ], [ -49.294399779825937, -28.107210481278624 ], [ -49.307795107058496, -28.05640420768799 ], [ -49.341604943113566, -28.01657850609314 ], [ -49.324020331872752, -27.98373674075793 ], [ -49.310851999819874, -27.97095899955815 ], [ -49.269407999679402, -28.028767998943977 ], [ -49.221178999611077, -28.034230999061322 ], [ -49.155048881800433, -28.089346003715036 ], [ -49.083433377048664, -28.046303624112909 ], [ -49.062727380863919, -28.060423795022075 ] ] } }
]
}
