{
"type": "FeatureCollection",
"features": [
{ "type": "Feature", "properties": { "Name": "ROMELÃNDIA", "Description": "ROMELÃNDIA \/ SC" }, "geometry": { "type": "LineString", "coordinates": [ [ -53.222782088922202, -26.57885873624161 ], [ -53.227254792474632, -26.638611211038494 ], [ -53.247617115437485, -26.645361619443122 ], [ -53.285737093591933, -26.706649054410263 ], [ -53.304903793075539, -26.720268881203879 ], [ -53.338937097169264, -26.7235914444895 ], [ -53.364271656611599, -26.765347351099305 ], [ -53.394362282493319, -26.743720840344448 ], [ -53.39029999984507, -26.619852998916713 ], [ -53.345265999626115, -26.584133999284575 ], [ -53.333563000432093, -26.589788999262851 ], [ -53.250511999828916, -26.571041999888337 ], [ -53.23908207078091, -26.542645919773349 ], [ -53.222782088922202, -26.57885873624161 ] ] } }
]
}
