{
"type": "FeatureCollection",
"features": [
{ "type": "Feature", "properties": { "Name": "SALTO VELOSO", "Description": "SALTO VELOSO \/ SC" }, "geometry": { "type": "LineString", "coordinates": [ [ -51.510384332670753, -26.838616724382291 ], [ -51.438342901803424, -26.854228880458436 ], [ -51.368305450036473, -26.86963189379679 ], [ -51.363935024581679, -26.939736751549788 ], [ -51.406060038140197, -26.943103942792671 ], [ -51.478675406444829, -26.924773775589244 ], [ -51.488068999684572, -26.860953999027799 ], [ -51.510384332670753, -26.838616724382291 ] ] } }
]
}
