{
"type": "FeatureCollection",
"features": [
{ "type": "Feature", "properties": { "Name": "SANTIAGO DO SUL", "Description": "SANTIAGO DO SUL \/ SC" }, "geometry": { "type": "LineString", "coordinates": [ [ -52.706927316542362, -26.583657667966971 ], [ -52.671269220797853, -26.601747489554949 ], [ -52.653273993499965, -26.63381670217899 ], [ -52.626851177939436, -26.64686382090855 ], [ -52.658984571580675, -26.652853492794407 ], [ -52.678786251784061, -26.673869709219673 ], [ -52.721476713179754, -26.67325956237886 ], [ -52.744518227134449, -26.658255035041805 ], [ -52.72866710949944, -26.62242630552953 ], [ -52.750352076187312, -26.595872309459477 ], [ -52.706927316542362, -26.583657667966971 ] ] } }
]
}
