{
"type": "FeatureCollection",
"features": [
{ "type": "Feature", "properties": { "Name": "TAIÃ", "Description": "TAIÃ \/ SC" }, "geometry": { "type": "LineString", "coordinates": [ [ -50.07025035526965, -27.031994764846502 ], [ -50.048200063282245, -27.047296679098395 ], [ -49.976496318849968, -27.046625098669324 ], [ -49.975681392782008, -27.010347141607269 ], [ -49.946304780940864, -26.994709791023979 ], [ -49.896187450990055, -26.996961189806996 ], [ -49.876027081584482, -27.020650248010497 ], [ -49.898492285690395, -27.102650512211309 ], [ -49.932786069421525, -27.189316929532652 ], [ -50.002985094286657, -27.212779654457449 ], [ -50.005959832180451, -27.173059081811115 ], [ -50.04264486287007, -27.171983910828772 ], [ -50.061589161810332, -27.150773415660581 ], [ -50.138620935207939, -27.134734843338322 ], [ -50.201643904342689, -27.155251898256438 ], [ -50.23192347958485, -27.144494919305032 ], [ -50.248080250702969, -27.100134153368458 ], [ -50.306630525278479, -27.106608215396761 ], [ -50.315545895027007, -27.075700132754889 ], [ -50.319195910462838, -27.019772574444683 ], [ -50.290989638560909, -26.968683570190592 ], [ -50.234688429027756, -26.986705586493599 ], [ -50.17519941691949, -26.98248313728692 ], [ -50.115549159066404, -26.986543017845971 ], [ -50.118398335414774, -27.013544069603086 ], [ -50.07025035526965, -27.031994764846502 ] ] } }
]
}
