{
"type": "FeatureCollection",
"features": [
{ "type": "Feature", "properties": { "Name": "TIGRINHOS", "Description": "TIGRINHOS \/ SC" }, "geometry": { "type": "LineString", "coordinates": [ [ -53.136327029368886, -26.639203713180788 ], [ -53.111214999972219, -26.679066999242593 ], [ -53.128429169670426, -26.720548626118156 ], [ -53.195698605306347, -26.701481780160005 ], [ -53.186122225760073, -26.670003267436812 ], [ -53.203882511468692, -26.641485391237779 ], [ -53.136327029368886, -26.639203713180788 ] ] } }
]
}
