{
"type": "FeatureCollection",
"features": [
{ "type": "Feature", "properties": { "Name": "TIJUCAS", "Description": "TIJUCAS \/ SC" }, "geometry": { "type": "LineString", "coordinates": [ [ -48.688822231560721, -27.141331727577096 ], [ -48.68328799974136, -27.195103999449998 ], [ -48.659454096729121, -27.21534219978264 ], [ -48.602587793691669, -27.218058298951288 ], [ -48.616636999997517, -27.262093999538422 ], [ -48.59524150259324, -27.316237856891515 ], [ -48.62710591260776, -27.325373610004078 ], [ -48.663096000280113, -27.347685999509221 ], [ -48.706502000067189, -27.354369999276003 ], [ -48.729288000440818, -27.340574998937026 ], [ -48.794696734266836, -27.353206911469723 ], [ -48.742163999768707, -27.303697998963457 ], [ -48.714878999666041, -27.263541998864124 ], [ -48.80437399976023, -27.19078399898234 ], [ -48.799485000032689, -27.155004999281228 ], [ -48.688822231560721, -27.141331727577096 ] ] } }
]
}
