{
"type": "FeatureCollection",
"features": [
{ "type": "Feature", "properties": { "Name": "TIMBÃ", "Description": "TIMBÃ \/ SC" }, "geometry": { "type": "LineString", "coordinates": [ [ -49.213954308544487, -26.754982168991884 ], [ -49.199208999995335, -26.786527999567454 ], [ -49.206930880355799, -26.831061926366772 ], [ -49.255666919992336, -26.869427999502534 ], [ -49.284481135396049, -26.879047339662975 ], [ -49.30548061723664, -26.846973210445242 ], [ -49.330300998292387, -26.807640581047902 ], [ -49.334156006094759, -26.746011998155154 ], [ -49.223804021738147, -26.772817830478456 ], [ -49.213954308544487, -26.754982168991884 ] ] } }
]
}
