{
"type": "FeatureCollection",
"features": [
{ "type": "Feature", "properties": { "Name": "TREZE TÃLIAS", "Description": "TREZE TÃLIAS \/ SC" }, "geometry": { "type": "LineString", "coordinates": [ [ -51.406060038140197, -26.943103942792671 ], [ -51.368069788989544, -26.984220677841957 ], [ -51.353109350016439, -26.981670150157242 ], [ -51.334235021029372, -27.020347361741297 ], [ -51.345561640457277, -27.039944655721225 ], [ -51.420930468466281, -27.039658788222482 ], [ -51.462233049315728, -27.027689631970873 ], [ -51.507012713166148, -26.961431912952378 ], [ -51.540893847473058, -26.939457392444638 ], [ -51.529744493413602, -26.879535573507894 ], [ -51.510384332670753, -26.838616724382291 ], [ -51.488068999684572, -26.860953999027799 ], [ -51.478675406444829, -26.924773775589244 ], [ -51.406060038140197, -26.943103942792671 ] ] } }
]
}
