{
"type": "FeatureCollection",
"features": [
{ "type": "Feature", "properties": { "Name": "VIDEIRA", "Description": "VIDEIRA \/ SC" }, "geometry": { "type": "LineString", "coordinates": [ [ -51.045121452592916, -26.986471975001621 ], [ -51.014357999821804, -27.004770999581918 ], [ -51.006540999967115, -27.035913999531431 ], [ -50.980735999766523, -27.034748998867144 ], [ -50.972396000075321, -27.077740999347611 ], [ -51.008464999659964, -27.120245998953635 ], [ -51.056945784720142, -27.10440074939504 ], [ -51.131761222102682, -27.102635722860267 ], [ -51.160201208918629, -27.086993478166448 ], [ -51.177026821130823, -27.039424084953509 ], [ -51.196285861203471, -27.028910031772512 ], [ -51.220736988721001, -26.957665488371561 ], [ -51.255247845411702, -26.971700663454783 ], [ -51.259788497241281, -26.939322393413704 ], [ -51.283232701527936, -26.921121787940137 ], [ -51.283840712478877, -26.876708464723833 ], [ -51.28513514177331, -26.873059925075438 ], [ -51.248238999730006, -26.884381999329772 ], [ -51.219820000392644, -26.859556999356016 ], [ -51.189677999839773, -26.852186999430444 ], [ -51.178867999558463, -26.869188999272865 ], [ -51.179738000108557, -26.916381999229827 ], [ -51.116854999658464, -26.983191999111394 ], [ -51.045121452592916, -26.986471975001621 ] ] } }
]
}
