{
"type": "FeatureCollection",
"features": [
{ "type": "Feature", "properties": { "Name": "XAVANTINA", "Description": "XAVANTINA \/ SC" }, "geometry": { "type": "LineString", "coordinates": [ [ -52.23380802831781, -26.946954587084463 ], [ -52.248446578346886, -27.038180133706135 ], [ -52.254292999921972, -27.070107998984895 ], [ -52.310728999843434, -27.092209999291981 ], [ -52.390864544063383, -27.089751844571936 ], [ -52.402996000065286, -27.035638999440209 ], [ -52.418993888856846, -27.006328822317244 ], [ -52.377353307708916, -26.972889694004152 ], [ -52.352625705212063, -26.97074109132825 ], [ -52.338376822432394, -26.944618138516262 ], [ -52.315714921306551, -26.974713313168817 ], [ -52.281259499726104, -26.946485516893059 ], [ -52.23380802831781, -26.946954587084463 ] ] } }
]
}
