{
"type": "FeatureCollection",
"features": [
{ "type": "Feature", "properties": { "Name": "ABADIA DOS DOURADOS", "Description": "ABADIA DOS DOURADOS \/ MG" }, "geometry": { "type": "LineString", "coordinates": [ [ -47.42967244612646, -18.165430818177697 ], [ -47.410767999743364, -18.220750996860943 ], [ -47.347004000034531, -18.317481996996491 ], [ -47.359751999754963, -18.346485997230957 ], [ -47.312926999681224, -18.42271099691493 ], [ -47.332624999743928, -18.504818997198921 ], [ -47.296719999628237, -18.553195996897671 ], [ -47.331890000023463, -18.588395996877694 ], [ -47.372136999822651, -18.5362019974242 ], [ -47.4502749995915, -18.512077997401605 ], [ -47.453415999648598, -18.467320997366073 ], [ -47.511602000232074, -18.397569996757909 ], [ -47.578189999768654, -18.408021997617023 ], [ -47.647123000426063, -18.352423996769971 ], [ -47.679748350206182, -18.35609444300411 ], [ -47.568321670608555, -18.211607353996158 ], [ -47.42967244612646, -18.165430818177697 ] ] } }
]
}
