{
"type": "FeatureCollection",
"features": [
{ "type": "Feature", "properties": { "Name": "ABAETÃ", "Description": "ABAETÃ \/ MG" }, "geometry": { "type": "LineString", "coordinates": [ [ -45.139298999848904, -19.210477996862039 ], [ -45.235704000239366, -19.268993997375048 ], [ -45.295046000172704, -19.281427997004414 ], [ -45.334742999789569, -19.316772997375892 ], [ -45.403403000448058, -19.269390996797028 ], [ -45.517389000401977, -19.254537997130797 ], [ -45.532671000066557, -19.198235997093544 ], [ -45.628036000161217, -19.227721997072479 ], [ -45.65022499998372, -19.200701997499152 ], [ -45.625154000356815, -19.153558997149958 ], [ -45.656174000030035, -19.105284996805096 ], [ -45.640601000435765, -19.041974997348177 ], [ -45.659721999970252, -19.010508996892668 ], [ -45.645032999773086, -18.957644997118848 ], [ -45.568166000160709, -18.961199997381925 ], [ -45.549926999931074, -18.990115997155499 ], [ -45.414736999712716, -19.013759997525824 ], [ -45.34320899989541, -18.984657997268698 ], [ -45.184408999975346, -18.875964996787104 ], [ -45.123300000394636, -18.892629997276515 ], [ -45.109391000194478, -18.964925997436804 ], [ -45.118563999628854, -19.057343997427495 ], [ -45.095453999602341, -19.15104499722878 ], [ -45.139298999848904, -19.210477996862039 ] ] } }
]
}
