{
"type": "FeatureCollection",
"features": [
{ "type": "Feature", "properties": { "Name": "AGUANIL", "Description": "AGUANIL \/ MG" }, "geometry": { "type": "LineString", "coordinates": [ [ -45.342466999852093, -21.068768996891663 ], [ -45.394416999744692, -21.077774996718688 ], [ -45.418803000158277, -21.022726996953281 ], [ -45.468705000035698, -21.021184996890042 ], [ -45.537173999980098, -20.937812996772323 ], [ -45.463567999663439, -20.924745996730337 ], [ -45.431204000064497, -20.891218996559417 ], [ -45.363886000138727, -20.912474996523827 ], [ -45.342466999852093, -21.068768996891663 ] ] } }
]
}
