{
"type": "FeatureCollection",
"features": [
{ "type": "Feature", "properties": { "Name": "ALFREDO VASCONCELOS", "Description": "ALFREDO VASCONCELOS \/ MG" }, "geometry": { "type": "LineString", "coordinates": [ [ -43.631275000640699, -21.095260996397826 ], [ -43.60084800043483, -21.111854997210287 ], [ -43.606796000435054, -21.129522997188531 ], [ -43.714840999812225, -21.188995996867732 ], [ -43.830474000174945, -21.145831996549358 ], [ -43.811446000432511, -21.112954996675683 ], [ -43.715791999601038, -21.128278996478457 ], [ -43.631275000640699, -21.095260996397826 ] ] } }
]
}
