{
"type": "FeatureCollection",
"features": [
{ "type": "Feature", "properties": { "Name": "ALVINÃPOLIS", "Description": "ALVINÃPOLIS \/ MG" }, "geometry": { "type": "LineString", "coordinates": [ [ -42.927534000393734, -20.034947996852509 ], [ -43.026892000265548, -20.163429997096671 ], [ -43.059715000346955, -20.189319996720428 ], [ -43.162770999881666, -20.177226996628519 ], [ -43.292028999938339, -20.214236997339526 ], [ -43.355648000155043, -20.196683997268622 ], [ -43.345091999895828, -20.139709996818851 ], [ -43.315772000377478, -20.077937997240724 ], [ -43.287953999977042, -20.05357199685011 ], [ -43.183181000402783, -20.041100997313151 ], [ -43.131495000094162, -20.059340996689627 ], [ -43.022499000028802, -20.013742996542021 ], [ -42.95126500027947, -20.006506997399981 ], [ -42.927534000393734, -20.034947996852509 ] ] } }
]
}
