{
"type": "FeatureCollection",
"features": [
{ "type": "Feature", "properties": { "Name": "AMPARO DO SERRA", "Description": "AMPARO DO SERRA \/ MG" }, "geometry": { "type": "LineString", "coordinates": [ [ -42.757399000263604, -20.455736996964784 ], [ -42.724372001566564, -20.520216995517899 ], [ -42.779323999602859, -20.561654996280993 ], [ -42.801217000164399, -20.605986996502622 ], [ -42.869698999808975, -20.560548996538898 ], [ -42.840563999828703, -20.487678996888178 ], [ -42.757399000263604, -20.455736996964784 ] ] } }
]
}
