{
"type": "FeatureCollection",
"features": [
{ "type": "Feature", "properties": { "Name": "ANDRELÃNDIA", "Description": "ANDRELÃNDIA \/ MG" }, "geometry": { "type": "LineString", "coordinates": [ [ -44.163559000047769, -21.589391996343519 ], [ -44.136724000012521, -21.656303996432257 ], [ -44.077262999987397, -21.662894996406919 ], [ -44.07126300028721, -21.730486996377749 ], [ -44.090869999750623, -21.796876996676019 ], [ -44.174443000144322, -21.827614996834594 ], [ -44.228098999569113, -21.844346996816395 ], [ -44.231580000016947, -21.892923996745026 ], [ -44.285724000362279, -21.928624996446388 ], [ -44.326606999813123, -21.869920997156271 ], [ -44.398559999444387, -21.866399996662494 ], [ -44.440749000665789, -21.873016996037506 ], [ -44.456345000421379, -21.796130996448255 ], [ -44.492443999590876, -21.789760996772543 ], [ -44.458799000273586, -21.732119997040172 ], [ -44.384641999728444, -21.714248996693811 ], [ -44.355658000416327, -21.656398996316568 ], [ -44.399211999833881, -21.62133199707398 ], [ -44.386449000321079, -21.586113997163181 ], [ -44.328510000336223, -21.597081996636803 ], [ -44.220847999735383, -21.566770996384321 ], [ -44.163559000047769, -21.589391996343519 ] ] } }
]
}
