{
"type": "FeatureCollection",
"features": [
{ "type": "Feature", "properties": { "Name": "ANDRADAS", "Description": "ANDRADAS \/ MG" }, "geometry": { "type": "LineString", "coordinates": [ [ -46.565312999695152, -21.933344996474375 ], [ -46.514766999797189, -21.965444996489339 ], [ -46.50033399971425, -22.008844995999709 ], [ -46.436286000398574, -22.037352996743376 ], [ -46.431937000392217, -22.120809996284265 ], [ -46.430220000352669, -22.148446996431687 ], [ -46.488351000198463, -22.183125996667339 ], [ -46.53304299993448, -22.185492997004189 ], [ -46.645585945934613, -22.18064652981343 ], [ -46.624170017732062, -22.108516924916103 ], [ -46.685389019687477, -22.037422129427679 ], [ -46.617908636374409, -21.995027643910586 ], [ -46.565312999695152, -21.933344996474375 ] ] } }
]
}
