{
"type": "FeatureCollection",
"features": [
{ "type": "Feature", "properties": { "Name": "ANTÃNIO CARLOS", "Description": "ANTÃNIO CARLOS \/ MG" }, "geometry": { "type": "LineString", "coordinates": [ [ -43.631068000088078, -21.375696996519135 ], [ -43.687324999848833, -21.384902996575988 ], [ -43.648909999996476, -21.4974509958667 ], [ -43.706097000376246, -21.585288995990311 ], [ -43.739704999785886, -21.531706996380706 ], [ -43.81462100025891, -21.526155996701846 ], [ -43.82342999999446, -21.509183996444222 ], [ -43.88015699984561, -21.35306399690586 ], [ -43.861144999941757, -21.289774996618746 ], [ -43.791180000256759, -21.276344996924024 ], [ -43.710158999737985, -21.304674996653716 ], [ -43.631068000088078, -21.375696996519135 ] ] } }
]
}
