{
"type": "FeatureCollection",
"features": [
{ "type": "Feature", "properties": { "Name": "ARAPUÃ", "Description": "ARAPUÃ \/ MG" }, "geometry": { "type": "LineString", "coordinates": [ [ -46.038587000289795, -18.993493997350072 ], [ -46.055790000408138, -19.078953996629593 ], [ -46.088633999659294, -19.107635996404042 ], [ -46.132379999837099, -19.106402996201268 ], [ -46.217436000271164, -19.062920997406081 ], [ -46.163315000087152, -19.034126996963266 ], [ -46.121315000386915, -18.949020996921433 ], [ -46.083987000299771, -18.998338996847167 ], [ -46.038587000289795, -18.993493997350072 ] ] } }
]
}
