{
"type": "FeatureCollection",
"features": [
{ "type": "Feature", "properties": { "Name": "ARCOS", "Description": "ARCOS \/ MG" }, "geometry": { "type": "LineString", "coordinates": [ [ -45.456428000451808, -20.20676499630747 ], [ -45.385733000377627, -20.318994996222045 ], [ -45.419076000157247, -20.344452996608481 ], [ -45.469726000354569, -20.325655996726823 ], [ -45.51217900026063, -20.396325996547432 ], [ -45.556028999838418, -20.385219997904528 ], [ -45.596948000050133, -20.325093996890416 ], [ -45.660608000358877, -20.29662799628494 ], [ -45.652672999559229, -20.119973996802457 ], [ -45.632277000583088, -20.073103996452229 ], [ -45.624035000015169, -20.073726996403707 ], [ -45.612328999783465, -20.134766996399716 ], [ -45.456428000451808, -20.20676499630747 ] ] } }
]
}
