{
"type": "FeatureCollection",
"features": [
{ "type": "Feature", "properties": { "Name": "BARBACENA", "Description": "BARBACENA \/ MG" }, "geometry": { "type": "LineString", "coordinates": [ [ -43.909556000309124, -21.124509996239283 ], [ -43.830474000174945, -21.145831996549358 ], [ -43.714840999812225, -21.188995996867732 ], [ -43.606796000435054, -21.129522997188531 ], [ -43.598775000166086, -21.166611997046004 ], [ -43.610095999730561, -21.225439996658448 ], [ -43.580846999889104, -21.31876699719913 ], [ -43.631068000088078, -21.375696996519135 ], [ -43.710158999737985, -21.304674996653716 ], [ -43.791180000256759, -21.276344996924024 ], [ -43.861144999941757, -21.289774996618746 ], [ -43.88015699984561, -21.35306399690586 ], [ -43.92061200024358, -21.374387996408871 ], [ -44.005430999640851, -21.363236996590103 ], [ -44.022937000242337, -21.241572996896252 ], [ -44.001881999654529, -21.220944997113861 ], [ -43.916196999891604, -21.223934996502859 ], [ -43.896271000106537, -21.187871997194861 ], [ -43.941226000279642, -21.121636996849873 ], [ -43.909556000309124, -21.124509996239283 ] ] } }
]
}
