{
"type": "FeatureCollection",
"features": [
{ "type": "Feature", "properties": { "Name": "BARRA LONGA", "Description": "BARRA LONGA \/ MG" }, "geometry": { "type": "LineString", "coordinates": [ [ -43.059715000346955, -20.189319996720428 ], [ -42.957168000003151, -20.204114997309262 ], [ -42.952987999696404, -20.272950997090788 ], [ -42.968521000143994, -20.338932996560512 ], [ -43.011314999587512, -20.324904997167835 ], [ -43.023869000254138, -20.410217996863025 ], [ -43.132889999673694, -20.340656996922803 ], [ -43.18117699971873, -20.287393996735489 ], [ -43.145761999716456, -20.233311996551379 ], [ -43.162770999881666, -20.177226996628519 ], [ -43.059715000346955, -20.189319996720428 ] ] } }
]
}
