{
"type": "FeatureCollection",
"features": [
{ "type": "Feature", "properties": { "Name": "BELO ORIENTE", "Description": "BELO ORIENTE \/ MG" }, "geometry": { "type": "LineString", "coordinates": [ [ -42.35319100036434, -19.224008996717771 ], [ -42.316288000091106, -19.238069996732918 ], [ -42.335733000177754, -19.268295996662857 ], [ -42.3866859999589, -19.328032996825296 ], [ -42.419150999718795, -19.336217996563221 ], [ -42.452339999591281, -19.359979996979234 ], [ -42.554998999704019, -19.296391996393481 ], [ -42.5189120001886, -19.157381997181403 ], [ -42.482756000189227, -19.155293997120225 ], [ -42.35319100036434, -19.224008996717771 ] ] } }
]
}
