{
"type": "FeatureCollection",
"features": [
{ "type": "Feature", "properties": { "Name": "BICAS", "Description": "BICAS \/ MG" }, "geometry": { "type": "LineString", "coordinates": [ [ -43.029108999980338, -21.675736996864885 ], [ -43.020122000130186, -21.698613996039057 ], [ -43.076216999614815, -21.798526996323801 ], [ -43.17124400031031, -21.759519996150857 ], [ -43.187587000339761, -21.74286399607649 ], [ -43.132993000826275, -21.694689996745922 ], [ -43.091512999924987, -21.660183996394267 ], [ -43.029108999980338, -21.675736996864885 ] ] } }
]
}
