{
"type": "FeatureCollection",
"features": [
{ "type": "Feature", "properties": { "Name": "BOA ESPERANÃA", "Description": "BOA ESPERANÃA \/ MG" }, "geometry": { "type": "LineString", "coordinates": [ [ -45.537173999980098, -20.937812996772323 ], [ -45.468705000035698, -21.021184996890042 ], [ -45.418803000158277, -21.022726996953281 ], [ -45.394416999744692, -21.077774996718688 ], [ -45.433253000125831, -21.090954996575761 ], [ -45.450244000360271, -21.142644997068942 ], [ -45.517884999892765, -21.122628996730782 ], [ -45.517215999618656, -21.21872699645365 ], [ -45.56689399995809, -21.253770996434298 ], [ -45.603917000369215, -21.231382996428124 ], [ -45.594529000013324, -21.144445996485501 ], [ -45.678181999599587, -21.13676199646892 ], [ -45.726334999760411, -21.083366996489644 ], [ -45.765111000072579, -21.088850996676115 ], [ -45.92177000018529, -21.039054997190306 ], [ -45.908124999569054, -20.97071899708402 ], [ -45.762951000288403, -21.02850799644682 ], [ -45.682961999696481, -20.962058997025053 ], [ -45.691792000400476, -20.897200997228197 ], [ -45.679439000009779, -20.861457996489321 ], [ -45.612533000197743, -20.869634996757668 ], [ -45.589366000240659, -20.93646499666221 ], [ -45.537173999980098, -20.937812996772323 ] ] } }
]
}
