{
"type": "FeatureCollection",
"features": [
{ "type": "Feature", "properties": { "Name": "BOM SUCESSO", "Description": "BOM SUCESSO \/ MG" }, "geometry": { "type": "LineString", "coordinates": [ [ -44.621312999695135, -21.095833996741533 ], [ -44.710760000273744, -21.1369159963761 ], [ -44.765435999971373, -21.113199997182107 ], [ -44.871716999839634, -21.134925997236962 ], [ -44.877885000092647, -21.155477997111859 ], [ -44.909440064007697, -21.171524978095192 ], [ -44.949684999862825, -21.108993996575634 ], [ -44.937067999888257, -21.075000996498769 ], [ -44.975992999877008, -21.027906996610565 ], [ -44.935149999572779, -20.989417996942962 ], [ -44.886061000314896, -21.00534199653589 ], [ -44.86517300023371, -20.954764997006976 ], [ -44.816578000374363, -20.958515996416054 ], [ -44.805021999865346, -20.897591997272798 ], [ -44.733878999815943, -20.891392996489568 ], [ -44.709140000210823, -20.848882996652947 ], [ -44.659442999894509, -20.898550996531242 ], [ -44.648837000027463, -20.992491996608294 ], [ -44.621312999695135, -21.095833996741533 ] ] } }
]
}
