{
"type": "FeatureCollection",
"features": [
{ "type": "Feature", "properties": { "Name": "BOTELHOS", "Description": "BOTELHOS \/ MG" }, "geometry": { "type": "LineString", "coordinates": [ [ -46.322500999821216, -21.573190996567178 ], [ -46.295550999878678, -21.571801996364968 ], [ -46.278180000106879, -21.60915899689013 ], [ -46.313231000410319, -21.660690996392301 ], [ -46.373933999254632, -21.693231996959067 ], [ -46.421776310628218, -21.732654215019977 ], [ -46.526234999845315, -21.686274997193319 ], [ -46.55472342234804, -21.653433542124219 ], [ -46.511841051023623, -21.565379096767856 ], [ -46.45452899991335, -21.552934996852571 ], [ -46.361615000431868, -21.586469996493122 ], [ -46.322500999821216, -21.573190996567178 ] ] } }
]
}
