{
"type": "FeatureCollection",
"features": [
{ "type": "Feature", "properties": { "Name": "BRASILÃNDIA DE MINAS", "Description": "BRASILÃNDIA DE MINAS \/ MG" }, "geometry": { "type": "LineString", "coordinates": [ [ -45.504893999758224, -16.960873997137185 ], [ -45.510935999596654, -17.035538997726519 ], [ -45.561143000049356, -17.044319997070147 ], [ -45.614625000443368, -17.096950997790259 ], [ -45.715527999617443, -17.117805997248922 ], [ -45.768740000150842, -17.175826997417971 ], [ -45.805518000055599, -17.145009997213545 ], [ -45.893965000384412, -17.142603997776234 ], [ -45.926087999661434, -17.110407996931485 ], [ -45.975913999631359, -17.177180996905463 ], [ -46.060081999584554, -17.187460997027358 ], [ -46.157363999948586, -17.109907997256244 ], [ -46.122494999944252, -17.048236996939806 ], [ -46.205108000134032, -16.962517997407588 ], [ -46.20504499992677, -16.939390997496503 ], [ -46.205687999901215, -16.855263997635348 ], [ -46.168981999719449, -16.778518997353785 ], [ -46.137425999610173, -16.779336997304537 ], [ -45.991533999594367, -16.694062997609194 ], [ -45.944746000327598, -16.718693997629824 ], [ -45.888739000404485, -16.702836997529346 ], [ -45.855871000046591, -16.810708997022573 ], [ -45.721264999779855, -16.898256997262592 ], [ -45.6197330003776, -16.875406997534867 ], [ -45.564252000429406, -16.941446996981252 ], [ -45.504893999758224, -16.960873997137185 ] ] } }
]
}
