{
"type": "FeatureCollection",
"features": [
{ "type": "Feature", "properties": { "Name": "BRUMADINHO", "Description": "BRUMADINHO \/ MG" }, "geometry": { "type": "LineString", "coordinates": [ [ -44.001135000279987, -20.05665799616952 ], [ -43.982894532356738, -20.09378370995023 ], [ -43.976083999776733, -20.222689995946496 ], [ -43.964574999636454, -20.259437996266456 ], [ -43.997102999603726, -20.254113996263868 ], [ -44.054557999751864, -20.313821996887611 ], [ -44.081664999739928, -20.308667996630675 ], [ -44.121685999908948, -20.307799997072152 ], [ -44.117832000246551, -20.250331996324519 ], [ -44.163964999884797, -20.217038997052043 ], [ -44.266753999697301, -20.250649996600028 ], [ -44.286452999806045, -20.178928996875641 ], [ -44.350795000089136, -20.159732996580487 ], [ -44.337800999816238, -20.119554996365935 ], [ -44.276033999569393, -20.111689996096402 ], [ -44.210154000306829, -20.100607995862276 ], [ -44.124287000244806, -20.098923996445247 ], [ -44.064263000337178, -20.080008996517904 ], [ -44.018623923655127, -20.05433025034074 ], [ -44.001135000279987, -20.05665799616952 ] ] } }
]
}
