{
"type": "FeatureCollection",
"features": [
{ "type": "Feature", "properties": { "Name": "BURITIZEIRO", "Description": "BURITIZEIRO \/ MG" }, "geometry": { "type": "LineString", "coordinates": [ [ -45.020296999706716, -16.754073997816704 ], [ -44.933946999854129, -16.806336997754215 ], [ -44.913016999634806, -16.913883997548396 ], [ -44.874435000175083, -16.929845997095072 ], [ -44.84093500034993, -16.99181099747949 ], [ -44.806143000299187, -17.05131299759671 ], [ -44.789512999625174, -17.101872997241003 ], [ -44.830465999606133, -17.122747997621957 ], [ -44.855182999995407, -17.174541997515121 ], [ -44.82968400041625, -17.203573997242131 ], [ -44.895310999702815, -17.269543997057781 ], [ -44.923500000124875, -17.265699996957267 ], [ -44.955954000276847, -17.349064997651453 ], [ -44.937333999564373, -17.391955997071534 ], [ -44.953520000447611, -17.468200997677855 ], [ -44.987524000132453, -17.518857997298706 ], [ -44.981781999739439, -17.551030997082819 ], [ -45.045349000256124, -17.610602996830778 ], [ -45.006667999828259, -17.721432996935221 ], [ -45.013678000239452, -17.77004199744016 ], [ -45.076675999697613, -17.781854997210303 ], [ -45.119824000177402, -17.814450997615381 ], [ -45.116429000098208, -17.930780996845495 ], [ -45.198442999644662, -17.98780399685694 ], [ -45.337755000193056, -17.938744997183846 ], [ -45.345223000141289, -17.910251997131923 ], [ -45.467583999601857, -17.905372996966207 ], [ -45.456408000428837, -17.847131997443679 ], [ -45.434223999937615, -17.787164997466618 ], [ -45.445040999642401, -17.736857996899005 ], [ -45.403595000308997, -17.668352997093109 ], [ -45.455383999971559, -17.604462996969687 ], [ -45.390630999620896, -17.579082997482317 ], [ -45.384490999759805, -17.521399997611752 ], [ -45.504016999784653, -17.450837997375629 ], [ -45.561814000415723, -17.381722997318434 ], [ -45.505318000425348, -17.322644996968961 ], [ -45.486383999621864, -17.181626996888326 ], [ -45.435783999931623, -17.117583996903875 ], [ -45.529324000402255, -17.098511996931052 ], [ -45.561143000049356, -17.044319997070147 ], [ -45.510935999596654, -17.035538997726519 ], [ -45.504893999758224, -16.960873997137185 ], [ -45.461885000292511, -16.963348997058517 ], [ -45.429125999565194, -16.916592997468797 ], [ -45.347995000269009, -16.907811997225849 ], [ -45.308040999592436, -16.883353997089273 ], [ -45.306975999942381, -16.790705997283908 ], [ -45.196732999927967, -16.683970997163726 ], [ -45.165803999954619, -16.62053299720003 ], [ -45.104707000027986, -16.565412997711633 ], [ -45.072923000196283, -16.624605997069068 ], [ -45.078189000222153, -16.669121997681998 ], [ -45.009790999954646, -16.700245997654633 ], [ -45.020296999706716, -16.754073997816704 ] ] } }
]
}
