{
"type": "FeatureCollection",
"features": [
{ "type": "Feature", "properties": { "Name": "CAETÃ", "Description": "CAETÃ \/ MG" }, "geometry": { "type": "LineString", "coordinates": [ [ -43.538150999568927, -19.754349997354439 ], [ -43.536939000334542, -19.760760997122247 ], [ -43.521690000393164, -19.919854997110406 ], [ -43.578906000311633, -19.922538996777234 ], [ -43.639164000218386, -19.967533996996337 ], [ -43.690027000345765, -20.075648996903624 ], [ -43.727215000271997, -20.056816997206624 ], [ -43.734263999783707, -20.001271996105686 ], [ -43.722998000057601, -19.966709996768884 ], [ -43.748605000120612, -19.897083996529147 ], [ -43.700935999796513, -19.82172299711857 ], [ -43.708426999906067, -19.74660199708444 ], [ -43.628858999842912, -19.69457999656953 ], [ -43.538150999568927, -19.754349997354439 ] ] } }
]
}
