{
"type": "FeatureCollection",
"features": [
{ "type": "Feature", "properties": { "Name": "CAMPANÃRIO", "Description": "CAMPANÃRIO \/ MG" }, "geometry": { "type": "LineString", "coordinates": [ [ -41.583363000302199, -18.259799997172077 ], [ -41.6469780003344, -18.300770997083816 ], [ -41.690809999981468, -18.356700997053338 ], [ -41.804069999730643, -18.370181997301302 ], [ -41.875122000080182, -18.352461997623038 ], [ -41.879169999695705, -18.316875996929696 ], [ -41.73526799971836, -18.202273997347046 ], [ -41.681643999970561, -18.189631997118909 ], [ -41.657009999811571, -18.140645997214961 ], [ -41.642939000234605, -18.201413997258101 ], [ -41.583363000302199, -18.259799997172077 ] ] } }
]
}
