{
"type": "FeatureCollection",
"features": [
{ "type": "Feature", "properties": { "Name": "CARMÃPOLIS DE MINAS", "Description": "CARMÃPOLIS DE MINAS \/ MG" }, "geometry": { "type": "LineString", "coordinates": [ [ -44.543238000133556, -20.482501996469921 ], [ -44.543958000061593, -20.515597996550241 ], [ -44.599530999755814, -20.591803997156717 ], [ -44.589366000440521, -20.645440996604691 ], [ -44.662192999906949, -20.702728997145467 ], [ -44.684539999821084, -20.649463996865904 ], [ -44.752426999906106, -20.609419996535564 ], [ -44.776363000252218, -20.539420997081322 ], [ -44.699843999600887, -20.536882996952727 ], [ -44.711195999695576, -20.481222996843769 ], [ -44.655581999909309, -20.467707996826562 ], [ -44.628135000429893, -20.405177996467327 ], [ -44.594427000006014, -20.456643996523155 ], [ -44.543238000133556, -20.482501996469921 ] ] } }
]
}
