{
"type": "FeatureCollection",
"features": [
{ "type": "Feature", "properties": { "Name": "CATAS ALTAS", "Description": "CATAS ALTAS \/ MG" }, "geometry": { "type": "LineString", "coordinates": [ [ -43.315772000377478, -20.077937997240724 ], [ -43.345091999895828, -20.139709996818851 ], [ -43.458268000267935, -20.143569996757886 ], [ -43.510937000042475, -20.128576996930803 ], [ -43.513672000262545, -20.083065997197991 ], [ -43.468096000230162, -20.034026996648549 ], [ -43.354177999814794, -19.994718996984091 ], [ -43.315772000377478, -20.077937997240724 ] ] } }
]
}
