{
"type": "FeatureCollection",
"features": [
{ "type": "Feature", "properties": { "Name": "CATAS ALTAS DA NORUEGA", "Description": "CATAS ALTAS DA NORUEGA \/ MG" }, "geometry": { "type": "LineString", "coordinates": [ [ -43.458520000197836, -20.632282996862784 ], [ -43.436353999637326, -20.715842996656928 ], [ -43.497269000164181, -20.734313996793443 ], [ -43.534775000365926, -20.720145997239911 ], [ -43.564681999974255, -20.60578599712602 ], [ -43.533488000370873, -20.595221996497912 ], [ -43.458520000197836, -20.632282996862784 ] ] } }
]
}
