{
"type": "FeatureCollection",
"features": [
{ "type": "Feature", "properties": { "Name": "CEDRO DO ABAETÃ", "Description": "CEDRO DO ABAETÃ \/ MG" }, "geometry": { "type": "LineString", "coordinates": [ [ -45.659721999970252, -19.010508996892668 ], [ -45.640601000435765, -19.041974997348177 ], [ -45.656174000030035, -19.105284996805096 ], [ -45.625154000356815, -19.153558997149958 ], [ -45.65022499998372, -19.200701997499152 ], [ -45.730035999561665, -19.22710899668283 ], [ -45.775431000240417, -19.215354996935499 ], [ -45.784071000276413, -19.157163997020803 ], [ -45.741969000369004, -19.051099997266984 ], [ -45.699371000071551, -18.984735997268388 ], [ -45.659721999970252, -19.010508996892668 ] ] } }
]
}
