{
"type": "FeatureCollection",
"features": [
{ "type": "Feature", "properties": { "Name": "CHÃCARA", "Description": "CHÃCARA \/ MG" }, "geometry": { "type": "LineString", "coordinates": [ [ -43.169236999487907, -21.617617996673175 ], [ -43.132993000826275, -21.694689996745922 ], [ -43.187587000339761, -21.74286399607649 ], [ -43.246594000112964, -21.769980996525703 ], [ -43.261904000169409, -21.684641996530843 ], [ -43.294856999950525, -21.661367997035367 ], [ -43.226393000236726, -21.631353996090013 ], [ -43.169236999487907, -21.617617996673175 ] ] } }
]
}
