{
"type": "FeatureCollection",
"features": [
{ "type": "Feature", "properties": { "Name": "CHIADOR", "Description": "CHIADOR \/ MG" }, "geometry": { "type": "LineString", "coordinates": [ [ -42.909625459647202, -21.990723504785876 ], [ -42.968985459511316, -22.014895040273871 ], [ -43.075528434589557, -22.092859631866475 ], [ -43.153242290699097, -22.074444774606604 ], [ -43.131223153925362, -22.029213151965333 ], [ -43.12111699994955, -21.986291996478428 ], [ -42.967660000008948, -21.94351299682728 ], [ -42.88447400037478, -21.851378996443486 ], [ -42.920018000030609, -21.929579996419648 ], [ -42.909625459647202, -21.990723504785876 ] ] } }
]
}
