{
"type": "FeatureCollection",
"features": [
{ "type": "Feature", "properties": { "Name": "COIMBRA", "Description": "COIMBRA \/ MG" }, "geometry": { "type": "LineString", "coordinates": [ [ -42.712639000089723, -20.815604996273521 ], [ -42.709367000286818, -20.839284996505341 ], [ -42.72987199979292, -20.861675996649865 ], [ -42.85177499971644, -20.880396996624029 ], [ -42.886080999838214, -20.846666996084934 ], [ -42.886140999907177, -20.824842996906739 ], [ -42.830016999984537, -20.808888996829694 ], [ -42.783779000000834, -20.825228996720796 ], [ -42.712639000089723, -20.815604996273521 ] ] } }
]
}
