{
"type": "FeatureCollection",
"features": [
{ "type": "Feature", "properties": { "Name": "COMENDADOR GOMES", "Description": "COMENDADOR GOMES \/ MG" }, "geometry": { "type": "LineString", "coordinates": [ [ -48.843998999654048, -19.590496997338501 ], [ -48.824266999822157, -19.654491996908064 ], [ -48.860617999820818, -19.704550996831017 ], [ -48.822812000173656, -19.783653997034264 ], [ -48.834005000130617, -19.807707996526801 ], [ -48.879093000141779, -19.780481997346271 ], [ -48.921701000001121, -19.802227997424097 ], [ -49.007867000361728, -19.799112996767349 ], [ -49.080691999735961, -19.776142996901736 ], [ -49.13945099976376, -19.78694199667575 ], [ -49.208677000443174, -19.746672996761333 ], [ -49.202961000349823, -19.694730997237684 ], [ -49.267687000354726, -19.693384997219823 ], [ -49.330264000183433, -19.660893997160201 ], [ -49.365314999587497, -19.539364996497341 ], [ -49.365145999887943, -19.539128996406021 ], [ -49.283416999994522, -19.550684996915034 ], [ -49.163484000086498, -19.603452996758335 ], [ -49.084483000090358, -19.577847996787568 ], [ -48.95967200006271, -19.573992997079131 ], [ -48.843998999654048, -19.590496997338501 ] ] } }
]
}
