{
"type": "FeatureCollection",
"features": [
{ "type": "Feature", "properties": { "Name": "CONSELHEIRO PENA", "Description": "CONSELHEIRO PENA \/ MG" }, "geometry": { "type": "LineString", "coordinates": [ [ -41.137136521433263, -18.890605890449422 ], [ -41.135066999742207, -18.929593996765504 ], [ -41.214425000013705, -18.965344996974011 ], [ -41.287734000123976, -18.982213996978317 ], [ -41.272862999627705, -19.016292997423875 ], [ -41.277025000003732, -19.122564996877031 ], [ -41.311190999964651, -19.166965996683359 ], [ -41.381262000041204, -19.196968997121473 ], [ -41.349009000165211, -19.272320997016379 ], [ -41.419651999640053, -19.277409996973745 ], [ -41.437588000285928, -19.325034997067405 ], [ -41.499431999587046, -19.355759996626485 ], [ -41.473715999893443, -19.41636799738512 ], [ -41.510214000375754, -19.493526996973287 ], [ -41.586004999830834, -19.442883997098761 ], [ -41.569956999915576, -19.344223997039762 ], [ -41.677759999824104, -19.380105996994132 ], [ -41.703707000277802, -19.332304996878065 ], [ -41.703930999815725, -19.27324999668997 ], [ -41.633946000107748, -19.17705399694438 ], [ -41.617105999642149, -19.116508996393009 ], [ -41.55908500037242, -19.100885997190971 ], [ -41.531882999600725, -19.037588996534907 ], [ -41.486206000306652, -19.010560997492007 ], [ -41.402424000167457, -19.023469997442362 ], [ -41.357552000224587, -19.022497996685161 ], [ -41.26379699973171, -18.866476997215614 ], [ -41.243228583632167, -18.853779138296545 ], [ -41.166360733261172, -18.858231669156169 ], [ -41.137136521433263, -18.890605890449422 ] ] } }
]
}
