{
"type": "FeatureCollection",
"features": [
{ "type": "Feature", "properties": { "Name": "CONTAGEM", "Description": "CONTAGEM \/ MG" }, "geometry": { "type": "LineString", "coordinates": [ [ -44.016769356120847, -19.830776124118813 ], [ -44.025624486580739, -19.899897950929642 ], [ -44.012293268419569, -19.967253606368786 ], [ -44.062868555639284, -19.976825938965874 ], [ -44.075595861959414, -19.967195196301248 ], [ -44.083114883145299, -19.935321262466232 ], [ -44.150890069620964, -19.92060212328931 ], [ -44.162426621391432, -19.841846367515814 ], [ -44.135208222381486, -19.798670894546092 ], [ -44.067318358855118, -19.845381475674515 ], [ -44.016769356120847, -19.830776124118813 ] ] } }
]
}
