{
"type": "FeatureCollection",
"features": [
{ "type": "Feature", "properties": { "Name": "CORONEL PACHECO", "Description": "CORONEL PACHECO \/ MG" }, "geometry": { "type": "LineString", "coordinates": [ [ -43.263334999610493, -21.544902996076356 ], [ -43.21372599975507, -21.60998999654106 ], [ -43.226393000236726, -21.631353996090013 ], [ -43.294856999950525, -21.661367997035367 ], [ -43.359285999749034, -21.626525996477483 ], [ -43.357693000031873, -21.587773996372789 ], [ -43.336059999769134, -21.560980996475735 ], [ -43.263334999610493, -21.544902996076356 ] ] } }
]
}
