{
"type": "FeatureCollection",
"features": [
{ "type": "Feature", "properties": { "Name": "CORONEL MURTA", "Description": "CORONEL MURTA \/ MG" }, "geometry": { "type": "LineString", "coordinates": [ [ -42.043085999918901, -16.583591996973041 ], [ -42.041990999784787, -16.630471997784412 ], [ -42.094666999882122, -16.727674997203337 ], [ -42.173926000084805, -16.767466997603833 ], [ -42.254865999566164, -16.733687997503012 ], [ -42.309747999770309, -16.658572997745576 ], [ -42.289282000264052, -16.552735997668094 ], [ -42.377899000338573, -16.473835996933644 ], [ -42.303263000187258, -16.494996997013743 ], [ -42.26533500030996, -16.46829199757758 ], [ -42.181689000147166, -16.478724997560562 ], [ -42.105417000094462, -16.437122997328402 ], [ -42.022643999720742, -16.487542996811783 ], [ -42.043085999918901, -16.583591996973041 ] ] } }
]
}
