{
"type": "FeatureCollection",
"features": [
{ "type": "Feature", "properties": { "Name": "CÃRREGO DANTA", "Description": "CÃRREGO DANTA \/ MG" }, "geometry": { "type": "LineString", "coordinates": [ [ -45.925477000263299, -19.700819997444853 ], [ -45.850946999604332, -19.820384996570283 ], [ -45.808946999904094, -19.846204996563301 ], [ -45.797644000270338, -19.914709997268517 ], [ -45.847215000172064, -19.898149997124616 ], [ -45.98878200038893, -19.912914997229279 ], [ -46.064161999776445, -19.866600997338136 ], [ -46.132671999812885, -19.801747996872507 ], [ -46.10333899969504, -19.695481996796669 ], [ -46.069379000240644, -19.649962996694907 ], [ -46.009750999708842, -19.655725997156988 ], [ -45.948604000174441, -19.608305996624377 ], [ -45.925477000263299, -19.700819997444853 ] ] } }
]
}
