{
"type": "FeatureCollection",
"features": [
{ "type": "Feature", "properties": { "Name": "CRISTÃLIA", "Description": "CRISTÃLIA \/ MG" }, "geometry": { "type": "LineString", "coordinates": [ [ -42.600507000197865, -16.732136997024725 ], [ -42.642048000314894, -16.770263997085749 ], [ -42.737001000295891, -16.851646997211105 ], [ -42.808841000112011, -16.872860997037321 ], [ -42.871598000147564, -16.804605997069075 ], [ -42.918975999642605, -16.84412799760895 ], [ -42.9448559997046, -16.791060997467014 ], [ -42.997316999779684, -16.768873997736762 ], [ -42.990802999758614, -16.681380997335111 ], [ -42.954839999666206, -16.662447997477045 ], [ -42.923393000086833, -16.591558997449738 ], [ -42.874064999699954, -16.580675997399339 ], [ -42.824431999637056, -16.599360997512008 ], [ -42.785832000246558, -16.547193997504962 ], [ -42.7308130000199, -16.573362997404384 ], [ -42.736887000434699, -16.65510099771285 ], [ -42.694846999789149, -16.676182997747105 ], [ -42.677246000202729, -16.720884997044948 ], [ -42.600507000197865, -16.732136997024725 ] ] } }
]
}
