{
"type": "FeatureCollection",
"features": [
{ "type": "Feature", "properties": { "Name": "CRISTINA", "Description": "CRISTINA \/ MG" }, "geometry": { "type": "LineString", "coordinates": [ [ -45.164379999937005, -22.20062199680768 ], [ -45.24345399970229, -22.28201999672541 ], [ -45.325207999849283, -22.299765996703343 ], [ -45.374397000121405, -22.269618996819187 ], [ -45.366533999944124, -22.222434996377956 ], [ -45.393801000116014, -22.167982997117576 ], [ -45.333997999607959, -22.119034996267999 ], [ -45.250601000135987, -22.113826997118167 ], [ -45.234469999990438, -22.148697996315434 ], [ -45.164379999937005, -22.20062199680768 ] ] } }
]
}
