{
"type": "FeatureCollection",
"features": [
{ "type": "Feature", "properties": { "Name": "CRUZEIRO DA FORTALEZA", "Description": "CRUZEIRO DA FORTALEZA \/ MG" }, "geometry": { "type": "LineString", "coordinates": [ [ -46.567508000194039, -18.987893997210165 ], [ -46.647405000140616, -19.049174997528041 ], [ -46.684836999627798, -19.006220997001378 ], [ -46.753349999802595, -19.002048997063525 ], [ -46.750151999814875, -18.940095997232447 ], [ -46.658997999657913, -18.911998997455726 ], [ -46.644427999552477, -18.873944997163846 ], [ -46.605887000184843, -18.975533997396042 ], [ -46.567508000194039, -18.987893997210165 ] ] } }
]
}
