{
"type": "FeatureCollection",
"features": [
{ "type": "Feature", "properties": { "Name": "DESTERRO DE ENTRE RIOS", "Description": "DESTERRO DE ENTRE RIOS \/ MG" }, "geometry": { "type": "LineString", "coordinates": [ [ -44.180162000375951, -20.522925997236939 ], [ -44.136974999896267, -20.55631799657823 ], [ -44.136864000173432, -20.601314996889528 ], [ -44.156242999914468, -20.63883299674535 ], [ -44.225981999969292, -20.649322996658892 ], [ -44.265046000072793, -20.723504996558287 ], [ -44.332198000437302, -20.726568996661797 ], [ -44.380344000275329, -20.75717299693622 ], [ -44.421316000233162, -20.712515997015601 ], [ -44.35722699992607, -20.608084997024946 ], [ -44.315593000016918, -20.585505997203938 ], [ -44.304012000153648, -20.552657996869012 ], [ -44.215300000194809, -20.516490997261656 ], [ -44.180162000375951, -20.522925997236939 ] ] } }
]
}
