{
"type": "FeatureCollection",
"features": [
{ "type": "Feature", "properties": { "Name": "DIVINOLÃNDIA DE MINAS", "Description": "DIVINOLÃNDIA DE MINAS \/ MG" }, "geometry": { "type": "LineString", "coordinates": [ [ -42.474474999621521, -18.73634099713928 ], [ -42.504484000336276, -18.787314996989494 ], [ -42.579088999957321, -18.798807997291192 ], [ -42.575431000340359, -18.836513996823442 ], [ -42.623103999949585, -18.871100997313135 ], [ -42.639649000301063, -18.771063996706062 ], [ -42.534937999988635, -18.724737997160787 ], [ -42.474474999621521, -18.73634099713928 ] ] } }
]
}
