{
"type": "FeatureCollection",
"features": [
{ "type": "Feature", "properties": { "Name": "DOM JOAQUIM", "Description": "DOM JOAQUIM \/ MG" }, "geometry": { "type": "LineString", "coordinates": [ [ -43.199578000224506, -18.860454996500835 ], [ -43.155997000461184, -18.970874996583802 ], [ -43.220545000351422, -19.004640996984392 ], [ -43.260606999713218, -19.095900996633645 ], [ -43.294984000411262, -19.097712996557505 ], [ -43.321506999548376, -19.067285997250906 ], [ -43.308382999575713, -18.966094996486845 ], [ -43.35794900014622, -18.905940996879451 ], [ -43.307812000223578, -18.867765997302911 ], [ -43.325733000177763, -18.813982996518007 ], [ -43.246595000159061, -18.77220099697837 ], [ -43.212748999666587, -18.772671997114912 ], [ -43.199578000224506, -18.860454996500835 ] ] } }
]
}
