{
"type": "FeatureCollection",
"features": [
{ "type": "Feature", "properties": { "Name": "DOM BOSCO", "Description": "DOM BOSCO \/ MG" }, "geometry": { "type": "LineString", "coordinates": [ [ -46.168981999719449, -16.778518997353785 ], [ -46.205687999901215, -16.855263997635348 ], [ -46.20504499992677, -16.939390997496503 ], [ -46.259556000109285, -16.924643997322562 ], [ -46.306649999997433, -16.871227997274218 ], [ -46.390235000045152, -16.818919997060163 ], [ -46.436182000099166, -16.716106997040242 ], [ -46.4674480003249, -16.701270997258689 ], [ -46.408386999860113, -16.660429997046663 ], [ -46.373570000455118, -16.604683997468442 ], [ -46.305174000279862, -16.545456997442443 ], [ -46.287944999861793, -16.578973997152218 ], [ -46.195050000357185, -16.652150997470528 ], [ -46.160878000119567, -16.659260997097306 ], [ -46.168981999719449, -16.778518997353785 ] ] } }
]
}
