{
"type": "FeatureCollection",
"features": [
{ "type": "Feature", "properties": { "Name": "DORES DO TURVO", "Description": "DORES DO TURVO \/ MG" }, "geometry": { "type": "LineString", "coordinates": [ [ -43.102423000321153, -20.955794996841576 ], [ -43.083677000093417, -21.029798996626369 ], [ -43.101953000230701, -21.11067499675363 ], [ -43.119803999654835, -21.119143996997821 ], [ -43.131674000254861, -21.120105996394557 ], [ -43.151454999648479, -21.068802996660907 ], [ -43.239657000370244, -21.087740996749574 ], [ -43.243381000332874, -21.083525996627372 ], [ -43.255743000239249, -21.010824996676206 ], [ -43.239127000210829, -20.968969996468104 ], [ -43.172799000073724, -20.925377997096859 ], [ -43.130470999636884, -20.982348996508961 ], [ -43.102423000321153, -20.955794996841576 ] ] } }
]
}
