{
"type": "FeatureCollection",
"features": [
{ "type": "Feature", "properties": { "Name": "DORES DE GUANHÃES", "Description": "DORES DE GUANHÃES \/ MG" }, "geometry": { "type": "LineString", "coordinates": [ [ -42.800384000421218, -19.096108997232363 ], [ -42.747368999979301, -19.149990997186702 ], [ -42.822956999965527, -19.159196997243555 ], [ -42.903576999978497, -19.109619997065181 ], [ -42.94684399965081, -19.151712997456798 ], [ -43.042678999835914, -19.068133996786457 ], [ -43.078341000436751, -19.059989997140633 ], [ -43.083528999563612, -19.024445997484747 ], [ -43.043669999670726, -19.034491996708255 ], [ -42.985060000218766, -18.964138997117004 ], [ -42.984596000405077, -18.930129997201561 ], [ -42.944368999729534, -18.929031996929098 ], [ -42.881737000062458, -19.010111997470688 ], [ -42.864425000313474, -19.067457997088866 ], [ -42.800384000421218, -19.096108997232363 ] ] } }
]
}
