{
"type": "FeatureCollection",
"features": [
{ "type": "Feature", "properties": { "Name": "ELÃI MENDES", "Description": "ELÃI MENDES \/ MG" }, "geometry": { "type": "LineString", "coordinates": [ [ -45.54509399918868, -21.498235996094309 ], [ -45.519707000277776, -21.601796996434189 ], [ -45.456571999897847, -21.62098999569173 ], [ -45.461797999877774, -21.658005996679375 ], [ -45.528722999666677, -21.689124996421413 ], [ -45.568269000413977, -21.750458996485463 ], [ -45.62084799963543, -21.758345996870219 ], [ -45.705130000349186, -21.678035996763811 ], [ -45.664030999930674, -21.594985996206731 ], [ -45.664042999584694, -21.459287996843557 ], [ -45.628271000206439, -21.44677399622293 ], [ -45.54509399918868, -21.498235996094309 ] ] } }
]
}
