{
"type": "FeatureCollection",
"features": [
{ "type": "Feature", "properties": { "Name": "ENTRE RIOS DE MINAS", "Description": "ENTRE RIOS DE MINAS \/ MG" }, "geometry": { "type": "LineString", "coordinates": [ [ -44.043036999957565, -20.625535995989367 ], [ -43.981473000078829, -20.686872996191767 ], [ -43.944683999666829, -20.676291996578357 ], [ -43.95665599957465, -20.759063996905866 ], [ -44.002339000044792, -20.800061996264045 ], [ -44.054825000373398, -20.803638996642349 ], [ -44.149743999685761, -20.765051996952025 ], [ -44.265046000072793, -20.723504996558287 ], [ -44.225981999969292, -20.649322996658892 ], [ -44.156242999914468, -20.63883299674535 ], [ -44.136864000173432, -20.601314996889528 ], [ -44.043036999957565, -20.625535995989367 ] ] } }
]
}
