{
"type": "FeatureCollection",
"features": [
{ "type": "Feature", "properties": { "Name": "EUGENÃPOLIS", "Description": "EUGENÃPOLIS \/ MG" }, "geometry": { "type": "LineString", "coordinates": [ [ -42.187343000079352, -20.869859997241004 ], [ -42.164665000189586, -20.973694996726689 ], [ -42.217542999709622, -21.008371996870093 ], [ -42.118494169670157, -21.074795710953254 ], [ -42.17449375198504, -21.131777547196009 ], [ -42.298819000296589, -21.122551996777187 ], [ -42.253942000123175, -21.051102997005671 ], [ -42.298657000020505, -21.000142996901726 ], [ -42.259794000192926, -20.905524997080931 ], [ -42.209842999854516, -20.854394997231282 ], [ -42.187343000079352, -20.869859997241004 ] ] } }
]
}
