{
"type": "FeatureCollection",
"features": [
{ "type": "Feature", "properties": { "Name": "FLORESTAL", "Description": "FLORESTAL \/ MG" }, "geometry": { "type": "LineString", "coordinates": [ [ -44.35461299988998, -19.905203995967611 ], [ -44.438674000304843, -19.931187996328902 ], [ -44.479479999802095, -19.916083996778976 ], [ -44.527125999964873, -19.953090996452261 ], [ -44.514545999897962, -19.859735996419033 ], [ -44.444106999938072, -19.765507996596739 ], [ -44.379320999864206, -19.849243996413236 ], [ -44.35461299988998, -19.905203995967611 ] ] } }
]
}
