{
"type": "FeatureCollection",
"features": [
{ "type": "Feature", "properties": { "Name": "FORTUNA DE MINAS", "Description": "FORTUNA DE MINAS \/ MG" }, "geometry": { "type": "LineString", "coordinates": [ [ -44.541767999793308, -19.428016996786937 ], [ -44.514244000360293, -19.483889996825837 ], [ -44.490103999599853, -19.550811997375718 ], [ -44.446573000343676, -19.544161997378239 ], [ -44.40035400033679, -19.589096996629053 ], [ -44.407980000376654, -19.637556996558086 ], [ -44.497955000123113, -19.639038997451735 ], [ -44.565216000118248, -19.604242997216488 ], [ -44.557863000077361, -19.536702996945735 ], [ -44.579141000156994, -19.507482996642921 ], [ -44.554127999607431, -19.430734997122386 ], [ -44.550069000384042, -19.426445997184995 ], [ -44.541767999793308, -19.428016996786937 ] ] } }
]
}
