{
"type": "FeatureCollection",
"features": [
{ "type": "Feature", "properties": { "Name": "FREI LAGONEGRO", "Description": "FREI LAGONEGRO \/ MG" }, "geometry": { "type": "LineString", "coordinates": [ [ -42.703102000057243, -18.091718996434508 ], [ -42.683687999601432, -18.104513997422998 ], [ -42.698691999935818, -18.189048996314057 ], [ -42.761226999626274, -18.213899996587543 ], [ -42.804502999713634, -18.208972996906255 ], [ -42.828911000242435, -18.097844996549327 ], [ -42.762082000383941, -18.082883996399289 ], [ -42.703102000057243, -18.091718996434508 ] ] } }
]
}
