{
"type": "FeatureCollection",
"features": [
{ "type": "Feature", "properties": { "Name": "FRUTA DE LEITE", "Description": "FRUTA DE LEITE \/ MG" }, "geometry": { "type": "LineString", "coordinates": [ [ -42.516396000175234, -15.959770997733301 ], [ -42.46356400007852, -15.999344997073933 ], [ -42.481286999895076, -16.061518997203905 ], [ -42.424430000344216, -16.079765996903177 ], [ -42.352880000411631, -16.195564997726422 ], [ -42.342052000199601, -16.295567996765612 ], [ -42.425114000410758, -16.250507997146315 ], [ -42.468785999873944, -16.25838399702377 ], [ -42.492789999758656, -16.308037997155793 ], [ -42.544335999906416, -16.21009199764751 ], [ -42.625687000354731, -16.161752997902511 ], [ -42.699736000416067, -16.172423997169687 ], [ -42.706124000022555, -16.158274997593022 ], [ -42.664211999883833, -16.120833997690795 ], [ -42.665427000155887, -16.076257997908215 ], [ -42.631833999639355, -16.009029997636219 ], [ -42.635791999601054, -15.973992997079106 ], [ -42.516396000175234, -15.959770997733301 ] ] } }
]
}
