{
"type": "FeatureCollection",
"features": [
{ "type": "Feature", "properties": { "Name": "GOVERNADOR VALADARES", "Description": "GOVERNADOR VALADARES \/ MG" }, "geometry": { "type": "LineString", "coordinates": [ [ -42.008013000399615, -18.552488997569128 ], [ -41.997621999655507, -18.610660997507011 ], [ -42.017954000176928, -18.642450996716093 ], [ -41.828896999796655, -18.661202997220528 ], [ -41.781961, -18.652102996655913 ], [ -41.758000000299717, -18.594699997107114 ], [ -41.695269000563883, -18.561265996728309 ], [ -41.646397999667897, -18.61215399710926 ], [ -41.573324999648946, -18.573019997374956 ], [ -41.539734000123985, -18.58151199688109 ], [ -41.581702000147175, -18.616527997369133 ], [ -41.593209000195145, -18.748150996771017 ], [ -41.646413000359644, -18.75100499708293 ], [ -41.6899319999618, -18.794793997444966 ], [ -41.678257000260317, -18.843800997418043 ], [ -41.713418000240495, -18.910118997094003 ], [ -41.759018999627074, -18.897468996496968 ], [ -41.89228900033703, -18.933436996819921 ], [ -42.020817000004513, -18.927219997005238 ], [ -42.090881999804424, -18.973787996918475 ], [ -42.126619000266601, -19.024993996675562 ], [ -42.135551000278383, -19.036303997531434 ], [ -42.208417999790811, -18.984421997177378 ], [ -42.277094000287832, -18.971960996302869 ], [ -42.260950000442108, -18.8992719969051 ], [ -42.273181999749454, -18.824723997214676 ], [ -42.327017000234321, -18.81829799675512 ], [ -42.301282999710622, -18.739569996757893 ], [ -42.206039999846091, -18.710856997352494 ], [ -42.178335000160075, -18.669426996958293 ], [ -42.049058000126536, -18.583609997403414 ], [ -42.008013000399615, -18.552488997569128 ] ] } }
]
}
