{
"type": "FeatureCollection",
"features": [
{ "type": "Feature", "properties": { "Name": "GUIMARÃNIA", "Description": "GUIMARÃNIA \/ MG" }, "geometry": { "type": "LineString", "coordinates": [ [ -46.644427999552477, -18.873944997163846 ], [ -46.658997999657913, -18.911998997455726 ], [ -46.750151999814875, -18.940095997232447 ], [ -46.794817000104445, -18.917687997203245 ], [ -46.816139000414523, -18.864241996670785 ], [ -46.788514999967219, -18.822053997294116 ], [ -46.827784999677924, -18.726714997499073 ], [ -46.864448999721503, -18.728550996731087 ], [ -46.849534999940253, -18.66926999691276 ], [ -46.810335999906442, -18.650731997283799 ], [ -46.739638999740009, -18.776295996962631 ], [ -46.667418000340376, -18.811080996690578 ], [ -46.644427999552477, -18.873944997163846 ] ] } }
]
}
