{
"type": "FeatureCollection",
"features": [
{ "type": "Feature", "properties": { "Name": "IBITURUNA", "Description": "IBITURUNA \/ MG" }, "geometry": { "type": "LineString", "coordinates": [ [ -44.710760000273744, -21.1369159963761 ], [ -44.732886999935033, -21.211621997057478 ], [ -44.759599999740139, -21.234802996760834 ], [ -44.80957300019378, -21.221147996582715 ], [ -44.863395000079151, -21.16666699598505 ], [ -44.877885000092647, -21.155477997111859 ], [ -44.871716999839634, -21.134925997236962 ], [ -44.765435999971373, -21.113199997182107 ], [ -44.710760000273744, -21.1369159963761 ] ] } }
]
}
