{
"type": "FeatureCollection",
"features": [
{ "type": "Feature", "properties": { "Name": "ICARAÃ DE MINAS", "Description": "ICARAÃ DE MINAS \/ MG" }, "geometry": { "type": "LineString", "coordinates": [ [ -44.65957499968647, -16.133919997709654 ], [ -44.71973599961666, -16.17893999728301 ], [ -44.752342999629661, -16.194557997153822 ], [ -44.960737999658932, -16.353816997556347 ], [ -45.05658899968256, -16.364567997814788 ], [ -45.046557000205318, -16.242813997567907 ], [ -45.079561999686518, -16.121680997180249 ], [ -45.07955999959426, -16.121652997687647 ], [ -44.976180999553435, -16.162985997205965 ], [ -44.856440999552433, -16.129024997705415 ], [ -44.774252000029719, -16.160129997701176 ], [ -44.673851999769902, -16.092617997822288 ], [ -44.65957499968647, -16.133919997709654 ] ] } }
]
}
