{
"type": "FeatureCollection",
"features": [
{ "type": "Feature", "properties": { "Name": "IGARATINGA", "Description": "IGARATINGA \/ MG" }, "geometry": { "type": "LineString", "coordinates": [ [ -44.62041999988304, -19.936061997163392 ], [ -44.696359999914023, -20.000227996524757 ], [ -44.718006999923091, -20.084737996960939 ], [ -44.753790999854743, -20.054288996639855 ], [ -44.74418400019141, -19.962220996601673 ], [ -44.788623999997583, -19.953873996587618 ], [ -44.815982999915484, -19.892705996984148 ], [ -44.780691000189449, -19.867151996667246 ], [ -44.741574000339824, -19.897804997402659 ], [ -44.685886999885099, -19.877142996951704 ], [ -44.62041999988304, -19.936061997163392 ] ] } }
]
}
