{
"type": "FeatureCollection",
"features": [
{ "type": "Feature", "properties": { "Name": "INDAIABIRA", "Description": "INDAIABIRA \/ MG" }, "geometry": { "type": "LineString", "coordinates": [ [ -41.935125999964896, -15.624766997498909 ], [ -41.989137999618947, -15.655669997172593 ], [ -42.108364000198435, -15.680838997721537 ], [ -42.193158000241453, -15.746310997954138 ], [ -42.202560000343681, -15.703735997818001 ], [ -42.284916000373073, -15.655258997104966 ], [ -42.322606000066791, -15.565978997932348 ], [ -42.317861999831386, -15.47021099723969 ], [ -42.245343000179268, -15.45950099797261 ], [ -42.229817000054481, -15.418060998016585 ], [ -42.054976999688733, -15.436377997346654 ], [ -41.976014999692438, -15.52087199794431 ], [ -41.97786699966224, -15.564094997386176 ], [ -41.935125999964896, -15.624766997498909 ] ] } }
]
}
