{
"type": "FeatureCollection",
"features": [
{ "type": "Feature", "properties": { "Name": "INHAPIM", "Description": "INHAPIM \/ MG" }, "geometry": { "type": "LineString", "coordinates": [ [ -41.822847999635421, -19.427343997227638 ], [ -41.758170000045425, -19.507973996802491 ], [ -41.700065999646142, -19.498859997390923 ], [ -41.663602999878492, -19.454694996776649 ], [ -41.653151999964784, -19.5325549972153 ], [ -41.751471999633054, -19.594599996792393 ], [ -41.814537000382245, -19.594404996793116 ], [ -41.854265999676095, -19.583390996996854 ], [ -41.903135999626606, -19.621230997312637 ], [ -41.901703000093335, -19.565083997228669 ], [ -41.894241999568571, -19.537721997172412 ], [ -41.957153000410585, -19.455035997213429 ], [ -41.99978699967027, -19.458765997452758 ], [ -42.058979999927033, -19.499348997458242 ], [ -42.048644999966712, -19.571736997364493 ], [ -42.045840000115845, -19.599840997464014 ], [ -42.161787999716346, -19.615426996758458 ], [ -42.206820999889203, -19.60819299680929 ], [ -42.244185999883939, -19.547097996974912 ], [ -42.196679999882065, -19.470075997409307 ], [ -42.152786000073775, -19.438013997348037 ], [ -42.136200999676362, -19.414940997229166 ], [ -42.103985999754059, -19.429236997289536 ], [ -42.028352000344512, -19.376701996499889 ], [ -41.959594999709452, -19.347509996589054 ], [ -41.822847999635421, -19.427343997227638 ] ] } }
]
}
