{
"type": "FeatureCollection",
"features": [
{ "type": "Feature", "properties": { "Name": "INIMUTABA", "Description": "INIMUTABA \/ MG" }, "geometry": { "type": "LineString", "coordinates": [ [ -44.157508999840445, -18.766830996653141 ], [ -44.196483000290186, -18.744843997152714 ], [ -44.310971000011584, -18.885422996773855 ], [ -44.357547000293771, -18.903997997209785 ], [ -44.388970999711823, -18.80238599681627 ], [ -44.373270999656881, -18.62338699711216 ], [ -44.274824999574037, -18.611413997158195 ], [ -44.219688000201018, -18.581931997363764 ], [ -44.157508999840445, -18.766830996653141 ] ] } }
]
}
