{
"type": "FeatureCollection",
"features": [
{ "type": "Feature", "properties": { "Name": "IPABA", "Description": "IPABA \/ MG" }, "geometry": { "type": "LineString", "coordinates": [ [ -42.3866859999589, -19.328032996825296 ], [ -42.3289149996275, -19.410175996924693 ], [ -42.278384000421219, -19.44375899698008 ], [ -42.394998000157557, -19.449925997186995 ], [ -42.432070000130352, -19.439469997042693 ], [ -42.419150999718795, -19.336217996563221 ], [ -42.3866859999589, -19.328032996825296 ] ] } }
]
}
