{
"type": "FeatureCollection",
"features": [
{ "type": "Feature", "properties": { "Name": "ITAMBACURI", "Description": "ITAMBACURI \/ MG" }, "geometry": { "type": "LineString", "coordinates": [ [ -41.665493999848195, -17.913331997073954 ], [ -41.644132000391437, -17.952414997154335 ], [ -41.593046999919068, -17.970885997290907 ], [ -41.570924000442233, -18.018959997405886 ], [ -41.657009999811571, -18.140645997214961 ], [ -41.681643999970561, -18.189631997118909 ], [ -41.73526799971836, -18.202273997347046 ], [ -41.879169999695705, -18.316875996929696 ], [ -41.875122000080182, -18.352461997623038 ], [ -41.925777000508106, -18.379670996918946 ], [ -41.965853999662329, -18.379834997287276 ], [ -42.027645000116593, -18.454603997276589 ], [ -42.053064999649962, -18.418266997024261 ], [ -42.082098000322389, -18.347545997549673 ], [ -42.06606400015346, -18.261420996381844 ], [ -42.088860000088907, -18.211787997218266 ], [ -42.047860999785257, -18.195204996913048 ], [ -42.049626000239698, -18.145817997402613 ], [ -41.999587000339773, -18.123158997489725 ], [ -41.914837999673921, -18.116913997283117 ], [ -41.864790000258267, -18.046124997370669 ], [ -41.834761999566581, -18.041458997134953 ], [ -41.799256999910597, -17.939589997480368 ], [ -41.761672999709106, -17.915237996836026 ], [ -41.665493999848195, -17.913331997073954 ] ] } }
]
}
