{
"type": "FeatureCollection",
"features": [
{ "type": "Feature", "properties": { "Name": "ITAPAGIPE", "Description": "ITAPAGIPE \/ MG" }, "geometry": { "type": "LineString", "coordinates": [ [ -49.365314999587497, -19.539364996497341 ], [ -49.330264000183433, -19.660893997160201 ], [ -49.267687000354726, -19.693384997219823 ], [ -49.202961000349823, -19.694730997237684 ], [ -49.208677000443174, -19.746672996761333 ], [ -49.13945099976376, -19.78694199667575 ], [ -49.156451000413306, -19.860495997292389 ], [ -49.250105830819393, -19.969253755256545 ], [ -49.297537781543326, -19.960545408543737 ], [ -49.356486489959472, -19.986717259294036 ], [ -49.453809956264422, -19.978059752155787 ], [ -49.514004928084944, -19.914311506770559 ], [ -49.551485234655779, -19.905841005557932 ], [ -49.634405301163667, -19.931932116074279 ], [ -49.749402205647243, -19.924696207763759 ], [ -49.728922999596705, -19.878197997039877 ], [ -49.648730000389151, -19.831094996736681 ], [ -49.670619999913008, -19.756666997184137 ], [ -49.630405999836967, -19.676445996685345 ], [ -49.508358999568145, -19.667763996511212 ], [ -49.483747999570475, -19.635627996634692 ], [ -49.475073999765236, -19.559651996742215 ], [ -49.432260000298754, -19.533280996520716 ], [ -49.365314999587497, -19.539364996497341 ] ] } }
]
}
