{
"type": "FeatureCollection",
"features": [
{ "type": "Feature", "properties": { "Name": "ITINGA", "Description": "ITINGA \/ MG" }, "geometry": { "type": "LineString", "coordinates": [ [ -41.722864999719938, -16.425559997395908 ], [ -41.702735999566698, -16.452401996854633 ], [ -41.698403000298185, -16.545399997511822 ], [ -41.651742000592833, -16.572877997521516 ], [ -41.640444000290351, -16.660820997091321 ], [ -41.604316999829621, -16.699193996805491 ], [ -41.679445000186547, -16.806805996899186 ], [ -41.757031999726962, -16.864702996745844 ], [ -41.797571000401319, -16.811532997249966 ], [ -41.912444999936781, -16.789199997082164 ], [ -41.901808000438848, -16.676737997260716 ], [ -41.971935000399924, -16.642632997414864 ], [ -41.989101999757452, -16.595952996833319 ], [ -42.043085999918901, -16.583591996973041 ], [ -42.022643999720742, -16.487542996811783 ], [ -42.105417000094462, -16.437122997328402 ], [ -42.093742000392972, -16.388274996593793 ], [ -42.027450000117369, -16.377260996797531 ], [ -41.949743999585849, -16.401750996611156 ], [ -41.897601999832375, -16.337039997298007 ], [ -41.84440199985238, -16.355068996836675 ], [ -41.722864999719938, -16.425559997395908 ] ] } }
]
}
