{
"type": "FeatureCollection",
"features": [
{ "type": "Feature", "properties": { "Name": "ITUIUTABA", "Description": "ITUIUTABA \/ MG" }, "geometry": { "type": "LineString", "coordinates": [ [ -49.423890000123379, -18.810724997360694 ], [ -49.433416999694707, -18.84540399669703 ], [ -49.322769999935531, -18.890302996985668 ], [ -49.340101999707485, -18.952246997301017 ], [ -49.259523999832709, -18.940434996677709 ], [ -49.22568399961682, -18.93582199708743 ], [ -49.228694999974209, -18.989904997317748 ], [ -49.196436999867615, -19.057022997013629 ], [ -49.249478999755979, -19.135680997380064 ], [ -49.376745999728087, -19.124520997146249 ], [ -49.376809999981447, -19.159144996644216 ], [ -49.422047000568561, -19.262877996822056 ], [ -49.475517999556018, -19.240883996998832 ], [ -49.537475999617641, -19.354597996999928 ], [ -49.653566000370574, -19.332089996855814 ], [ -49.678935000250021, -19.27740499674314 ], [ -49.599413999656292, -19.116653996784461 ], [ -49.695965999631142, -19.037174997228306 ], [ -49.801801999662523, -18.932360996662624 ], [ -49.862389000352039, -18.846776997060712 ], [ -49.872178998561878, -18.801750997210718 ], [ -49.803005000280507, -18.738280997569916 ], [ -49.81847399957536, -18.697472997081093 ], [ -49.794596329257161, -18.643848156467186 ], [ -49.72296851908186, -18.609360967234807 ], [ -49.727578999671032, -18.717524997280748 ], [ -49.714665000389402, -18.748728997345324 ], [ -49.636152000414427, -18.797497997134823 ], [ -49.528718000435333, -18.755643996972822 ], [ -49.423890000123379, -18.810724997360694 ] ] } }
]
}
