{
"type": "FeatureCollection",
"features": [
{ "type": "Feature", "properties": { "Name": "JECEABA", "Description": "JECEABA \/ MG" }, "geometry": { "type": "LineString", "coordinates": [ [ -43.986423999967599, -20.50676899679172 ], [ -43.93034700041369, -20.531405997089049 ], [ -43.915015000242022, -20.584068996586893 ], [ -43.9653245162134, -20.597100492293862 ], [ -44.00572999993949, -20.565583996704049 ], [ -44.043036999957565, -20.625535995989367 ], [ -44.136864000173432, -20.601314996889528 ], [ -44.136974999896267, -20.55631799657823 ], [ -44.180162000375951, -20.522925997236939 ], [ -44.158666000135781, -20.511152996613475 ], [ -44.064892999712129, -20.493823996979813 ], [ -43.986423999967599, -20.50676899679172 ] ] } }
]
}
