{
"type": "FeatureCollection",
"features": [
{ "type": "Feature", "properties": { "Name": "JESUÃNIA", "Description": "JESUÃNIA \/ MG" }, "geometry": { "type": "LineString", "coordinates": [ [ -45.200449999567809, -21.985427996205033 ], [ -45.236662000350975, -22.040482996293179 ], [ -45.336484000036535, -22.103081997136428 ], [ -45.370885000042676, -22.082247996847514 ], [ -45.364202000321995, -22.0742279966247 ], [ -45.32422000015282, -22.034309996708942 ], [ -45.316892000365499, -21.987276996935805 ], [ -45.270421999575603, -21.948676996646043 ], [ -45.215667999878228, -21.909746996426691 ], [ -45.200449999567809, -21.985427996205033 ] ] } }
]
}
