{
"type": "FeatureCollection",
"features": [
{ "type": "Feature", "properties": { "Name": "JOAÃMA", "Description": "JOAÃMA \/ MG" }, "geometry": { "type": "LineString", "coordinates": [ [ -40.890815000012196, -16.62164899740327 ], [ -40.814949999842554, -16.646490997261651 ], [ -40.82577800005464, -16.683645997464794 ], [ -40.726901999927286, -16.72270799747605 ], [ -40.688891999865852, -16.807263997335554 ], [ -40.71106199971149, -16.83212699726306 ], [ -40.756695999720591, -16.819513997472935 ], [ -40.847784000431204, -16.865823997179689 ], [ -40.893904000369275, -16.804643997022822 ], [ -40.964808000189009, -16.868616997376478 ], [ -40.965687000254832, -16.898696997768184 ], [ -40.999979999777111, -16.930313997093265 ], [ -41.093711000062569, -16.944357997223733 ], [ -41.15659200042046, -17.018293997469982 ], [ -41.194093000391604, -17.038031997578571 ], [ -41.277489999863576, -17.032529997461378 ], [ -41.276406000236705, -17.006040997194244 ], [ -41.244229000268085, -16.983873997486967 ], [ -41.188498999629076, -16.897931997563603 ], [ -41.142178000314402, -16.859106997689764 ], [ -41.22420699965329, -16.76914199750513 ], [ -41.292289999783634, -16.748452997607725 ], [ -41.232098000222493, -16.697258997504662 ], [ -41.093153000410609, -16.610528997215397 ], [ -41.055765000254489, -16.559996997063706 ], [ -40.966220999699317, -16.546787996768614 ], [ -40.890815000012196, -16.62164899740327 ] ] } }
]
}
