{
"type": "FeatureCollection",
"features": [
{ "type": "Feature", "properties": { "Name": "JORDÃNIA", "Description": "JORDÃNIA \/ MG" }, "geometry": { "type": "LineString", "coordinates": [ [ -40.127480395603754, -15.907056406827678 ], [ -40.114206000206707, -15.955441997749972 ], [ -40.199410000271257, -15.979129997451366 ], [ -40.229368999579606, -15.967737997310676 ], [ -40.311269000164202, -15.99291599737535 ], [ -40.418963000442091, -15.932508997791954 ], [ -40.434857999596943, -15.876745997429794 ], [ -40.519769131839894, -15.797572274540812 ], [ -40.461428582762835, -15.753231737054987 ], [ -40.425033808263599, -15.805708351159408 ], [ -40.377967840243571, -15.818421683813597 ], [ -40.229440356287398, -15.808697400864332 ], [ -40.20686255526266, -15.854484408828341 ], [ -40.127480395603754, -15.907056406827678 ] ] } }
]
}
