{
"type": "FeatureCollection",
"features": [
{ "type": "Feature", "properties": { "Name": "LADAINHA", "Description": "LADAINHA \/ MG" }, "geometry": { "type": "LineString", "coordinates": [ [ -41.650316999629808, -17.602130997347615 ], [ -41.633017999581, -17.678423996570128 ], [ -41.839914999777363, -17.7493929975887 ], [ -41.861726000154761, -17.737685997310905 ], [ -41.990181000053042, -17.756098997470701 ], [ -42.042664000243349, -17.716219997554784 ], [ -41.984367999983192, -17.655008996867647 ], [ -41.908769000388986, -17.530385997415806 ], [ -41.809024999803853, -17.499370997073811 ], [ -41.753895999900408, -17.442069997732176 ], [ -41.735150999718826, -17.483016997436437 ], [ -41.656833999789228, -17.558731996984022 ], [ -41.650316999629808, -17.602130997347615 ] ] } }
]
}
