{
"type": "FeatureCollection",
"features": [
{ "type": "Feature", "properties": { "Name": "LAGOA DOURADA", "Description": "LAGOA DOURADA \/ MG" }, "geometry": { "type": "LineString", "coordinates": [ [ -44.149743999685761, -20.765051996952025 ], [ -44.054825000373398, -20.803638996642349 ], [ -44.002339000044792, -20.800061996264045 ], [ -43.974670000220264, -20.880868996806726 ], [ -43.922468000397878, -20.92747199653536 ], [ -43.994929000073228, -20.988766996599566 ], [ -44.085198999933873, -20.995713996803488 ], [ -44.134328000137032, -21.022969996468131 ], [ -44.147342000432957, -20.950471996885085 ], [ -44.149774000169934, -20.90088699723708 ], [ -44.201966999577337, -20.863678997287877 ], [ -44.193210000441127, -20.797580996965394 ], [ -44.149743999685761, -20.765051996952025 ] ] } }
]
}
