{
"type": "FeatureCollection",
"features": [
{ "type": "Feature", "properties": { "Name": "LAMBARI", "Description": "LAMBARI \/ MG" }, "geometry": { "type": "LineString", "coordinates": [ [ -45.270421999575603, -21.948676996646043 ], [ -45.316892000365499, -21.987276996935805 ], [ -45.32422000015282, -22.034309996708942 ], [ -45.364202000321995, -22.0742279966247 ], [ -45.458597999797803, -22.081927996479806 ], [ -45.476931999911812, -21.989836996280303 ], [ -45.436238000183486, -21.977360996512743 ], [ -45.35440499999072, -21.944371996870132 ], [ -45.271721000123989, -21.908523996685059 ], [ -45.270421999575603, -21.948676996646043 ] ] } }
]
}
