{
"type": "FeatureCollection",
"features": [
{ "type": "Feature", "properties": { "Name": "LEANDRO FERREIRA", "Description": "LEANDRO FERREIRA \/ MG" }, "geometry": { "type": "LineString", "coordinates": [ [ -45.004231999906835, -19.530219997454878 ], [ -44.971656000424041, -19.675079996644456 ], [ -44.947895000054189, -19.688995997167467 ], [ -44.991296999656754, -19.793324996951011 ], [ -45.014512000028731, -19.781661996903608 ], [ -45.110252000329524, -19.805862996879739 ], [ -45.128176000422052, -19.780961996998542 ], [ -45.100188000275978, -19.743545997349827 ], [ -45.091430000194293, -19.672211996586327 ], [ -45.101343009472259, -19.575951902158522 ], [ -45.004231999906835, -19.530219997454878 ] ] } }
]
}
