{
"type": "FeatureCollection",
"features": [
{ "type": "Feature", "properties": { "Name": "LUZ", "Description": "LUZ \/ MG" }, "geometry": { "type": "LineString", "coordinates": [ [ -45.510004999830812, -19.698387996808549 ], [ -45.476637999843774, -19.757155997251402 ], [ -45.50503600001133, -19.849554997265273 ], [ -45.613584000101469, -19.997237997135812 ], [ -45.60335999986404, -20.072272996801303 ], [ -45.624035000015169, -20.073726996403707 ], [ -45.632277000583088, -20.073103996452229 ], [ -45.759452999955954, -19.972644997068926 ], [ -45.797644000270338, -19.914709997268517 ], [ -45.808946999904094, -19.846204996563301 ], [ -45.850946999604332, -19.820384996570283 ], [ -45.925477000263299, -19.700819997444853 ], [ -45.848772000027736, -19.68406599734783 ], [ -45.813178999910861, -19.705129997451362 ], [ -45.698993999773222, -19.696420996931408 ], [ -45.636209000245117, -19.663014996944526 ], [ -45.560519000051784, -19.661330996628124 ], [ -45.510004999830812, -19.698387996808549 ] ] } }
]
}
