{
"type": "FeatureCollection",
"features": [
{ "type": "Feature", "properties": { "Name": "MARTINS SOARES", "Description": "MARTINS SOARES \/ MG" }, "geometry": { "type": "LineString", "coordinates": [ [ -41.774963058598246, -20.260099246183245 ], [ -41.822111218357968, -20.310924768862947 ], [ -41.887654999778363, -20.305273996597634 ], [ -41.897457000340239, -20.227051996552348 ], [ -41.873074000065003, -20.197994996571765 ], [ -41.774963058598246, -20.260099246183245 ] ] } }
]
}
