{
"type": "FeatureCollection",
"features": [
{ "type": "Feature", "properties": { "Name": "MATERLÃNDIA", "Description": "MATERLÃNDIA \/ MG" }, "geometry": { "type": "LineString", "coordinates": [ [ -42.869365999741035, -18.364270997208735 ], [ -42.915807000092911, -18.394335996908694 ], [ -42.930572000197628, -18.438819996945256 ], [ -42.995780999993087, -18.455091997297814 ], [ -43.07539899966406, -18.566666997583809 ], [ -43.153177999964669, -18.554422996823799 ], [ -43.167754000346804, -18.482111996871136 ], [ -43.101601000185951, -18.468386997062225 ], [ -43.112580000166815, -18.429531997603533 ], [ -43.066563999628841, -18.40088299755223 ], [ -42.869365999741035, -18.364270997208735 ] ] } }
]
}
