{
"type": "FeatureCollection",
"features": [
{ "type": "Feature", "properties": { "Name": "MATO VERDE", "Description": "MATO VERDE \/ MG" }, "geometry": { "type": "LineString", "coordinates": [ [ -42.755062999557765, -15.398443997192659 ], [ -42.744068999784467, -15.463936997494388 ], [ -42.782401000305867, -15.484744997483574 ], [ -42.782292999822062, -15.57768599731088 ], [ -42.803953999577402, -15.605723997064786 ], [ -42.812882000304, -15.557562997434331 ], [ -42.91222100019894, -15.495256997512399 ], [ -42.95118900037204, -15.433993998024562 ], [ -43.039629000377992, -15.405691997787414 ], [ -42.938548000189996, -15.368502997815026 ], [ -42.962625999889951, -15.327099997766652 ], [ -42.907359999964001, -15.304191997162889 ], [ -42.831264999979737, -15.323622997503266 ], [ -42.765351000048547, -15.368091997747456 ], [ -42.765570000255252, -15.382860997137243 ], [ -42.755062999557765, -15.398443997192659 ] ] } }
]
}
