{
"type": "FeatureCollection",
"features": [
{ "type": "Feature", "properties": { "Name": "MERCÃS", "Description": "MERCÃS \/ MG" }, "geometry": { "type": "LineString", "coordinates": [ [ -43.243381000332874, -21.083525996627372 ], [ -43.239657000370244, -21.087740996749574 ], [ -43.244784000281356, -21.210869996553072 ], [ -43.268386999660265, -21.278373996962326 ], [ -43.324202999768602, -21.296496997238592 ], [ -43.371682000324029, -21.284666996684507 ], [ -43.441193999803204, -21.250674996653743 ], [ -43.451412999810032, -21.19394199652589 ], [ -43.417235000195035, -21.158142996801811 ], [ -43.363949999892554, -21.151764996757151 ], [ -43.352835999981373, -21.092717996937949 ], [ -43.271658000316393, -21.058339996193808 ], [ -43.243381000332874, -21.083525996627372 ] ] } }
]
}
