{
"type": "FeatureCollection",
"features": [
{ "type": "Feature", "properties": { "Name": "MONSENHOR PAULO", "Description": "MONSENHOR PAULO \/ MG" }, "geometry": { "type": "LineString", "coordinates": [ [ -45.461797999877774, -21.658005996679375 ], [ -45.416869000004283, -21.667478996458499 ], [ -45.403664999939728, -21.682633996561663 ], [ -45.392782999935427, -21.744707996576722 ], [ -45.493286999595341, -21.813061996613783 ], [ -45.556205999906922, -21.789082996982696 ], [ -45.568269000413977, -21.750458996485463 ], [ -45.528722999666677, -21.689124996421413 ], [ -45.461797999877774, -21.658005996679375 ] ] } }
]
}
