{
"type": "FeatureCollection",
"features": [
{ "type": "Feature", "properties": { "Name": "MONTE FORMOSO", "Description": "MONTE FORMOSO \/ MG" }, "geometry": { "type": "LineString", "coordinates": [ [ -41.292289999783634, -16.748452997607725 ], [ -41.22420699965329, -16.76914199750513 ], [ -41.142178000314402, -16.859106997689764 ], [ -41.188498999629076, -16.897931997563603 ], [ -41.244229000268085, -16.983873997486967 ], [ -41.276406000236705, -17.006040997194244 ], [ -41.325985999654108, -16.977774997717916 ], [ -41.370248000244999, -16.883429996996711 ], [ -41.301295999610659, -16.819015996990629 ], [ -41.326724999559019, -16.77917899721291 ], [ -41.292289999783634, -16.748452997607725 ] ] } }
]
}
