{
"type": "FeatureCollection",
"features": [
{ "type": "Feature", "properties": { "Name": "MONTE SIÃO", "Description": "MONTE SIÃO \/ MG" }, "geometry": { "type": "LineString", "coordinates": [ [ -46.423162999572753, -22.399332996320652 ], [ -46.456457741731356, -22.521685773279785 ], [ -46.542146935032967, -22.494356003126992 ], [ -46.554813949903803, -22.446649975915591 ], [ -46.666516293292261, -22.41510983535056 ], [ -46.660923476037567, -22.366040998892913 ], [ -46.569717999585968, -22.380111996671246 ], [ -46.50621400017593, -22.340889996476108 ], [ -46.442913000234739, -22.346632996915215 ], [ -46.423162999572753, -22.399332996320652 ] ] } }
]
}
