{
"type": "FeatureCollection",
"features": [
{ "type": "Feature", "properties": { "Name": "MONTEZUMA", "Description": "MONTEZUMA \/ MG" }, "geometry": { "type": "LineString", "coordinates": [ [ -42.265615946718526, -15.124984884444814 ], [ -42.272518999751981, -15.192244997708428 ], [ -42.336744000035537, -15.201599997441861 ], [ -42.349102999803563, -15.31475099756045 ], [ -42.406980999673351, -15.389478997457729 ], [ -42.438584000151423, -15.419208997896874 ], [ -42.516806000196709, -15.42896499723679 ], [ -42.520237000137399, -15.321796997833133 ], [ -42.567155000003197, -15.238877997921238 ], [ -42.618232000106673, -15.244420997231202 ], [ -42.616965000134599, -15.192677997891222 ], [ -42.656112999615175, -15.167910997894181 ], [ -42.642078999945852, -15.053220997850701 ], [ -42.656532000051691, -15.036959998005443 ], [ -42.599129999649733, -15.063959997555799 ], [ -42.515675623431207, -14.982924648353787 ], [ -42.442939213573823, -15.061319755302408 ], [ -42.371857118311311, -15.07362955765791 ], [ -42.265615946718526, -15.124984884444814 ] ] } }
]
}
