{
"type": "FeatureCollection",
"features": [
{ "type": "Feature", "properties": { "Name": "MORRO DO PILAR", "Description": "MORRO DO PILAR \/ MG" }, "geometry": { "type": "LineString", "coordinates": [ [ -43.272594000312836, -19.172109997378413 ], [ -43.307022999811522, -19.22766399709576 ], [ -43.298472000282572, -19.286496996938805 ], [ -43.35094099982723, -19.325920997456024 ], [ -43.383312999795066, -19.336438996862171 ], [ -43.509333999864161, -19.33188699738696 ], [ -43.518102999553712, -19.31609199654838 ], [ -43.535920000107865, -19.261674997103395 ], [ -43.501120999734326, -19.224163996671052 ], [ -43.507458999732989, -19.168284997254773 ], [ -43.456256000114251, -19.137656996772932 ], [ -43.374452000359497, -19.14000999736345 ], [ -43.344135999876471, -19.099041996690744 ], [ -43.272594000312836, -19.172109997378413 ] ] } }
]
}
