{
"type": "FeatureCollection",
"features": [
{ "type": "Feature", "properties": { "Name": "MURIAÃ", "Description": "MURIAÃ \/ MG" }, "geometry": { "type": "LineString", "coordinates": [ [ -42.348062000360983, -20.958787997268189 ], [ -42.298657000020505, -21.000142996901726 ], [ -42.253942000123175, -21.051102997005671 ], [ -42.298819000296589, -21.122551996777187 ], [ -42.327468000347892, -21.210318997223908 ], [ -42.331373999710252, -21.272102996456052 ], [ -42.363782000438903, -21.306356996877863 ], [ -42.399072000072692, -21.300623996899898 ], [ -42.462926000334619, -21.269471996535341 ], [ -42.532926999881113, -21.230093997240147 ], [ -42.528801000265901, -21.202678996538395 ], [ -42.505167000356721, -21.088596996654019 ], [ -42.546598999943853, -21.043981996871594 ], [ -42.5151330003876, -21.003273996497679 ], [ -42.461200999926177, -21.01382599657245 ], [ -42.427118000195492, -20.955651996542372 ], [ -42.566111999569102, -20.922061997063452 ], [ -42.514025999700095, -20.867033996421753 ], [ -42.441052999796057, -20.875824997125846 ], [ -42.416385999913928, -20.943928996425996 ], [ -42.348062000360983, -20.958787997268189 ] ] } }
]
}
