{
"type": "FeatureCollection",
"features": [
{ "type": "Feature", "properties": { "Name": "MUZAMBINHO", "Description": "MUZAMBINHO \/ MG" }, "geometry": { "type": "LineString", "coordinates": [ [ -46.411468999894396, -21.247187996828529 ], [ -46.400910000396152, -21.27302199656782 ], [ -46.4455359997865, -21.389709997018713 ], [ -46.508889995876586, -21.489127082348944 ], [ -46.519052711813167, -21.448953156962599 ], [ -46.601889930076197, -21.443960781964446 ], [ -46.647604679312444, -21.379575768906591 ], [ -46.600619000066786, -21.326371997169872 ], [ -46.612089000207163, -21.291883996748993 ], [ -46.572141999853386, -21.307288996689806 ], [ -46.493948000200014, -21.236989996890827 ], [ -46.411468999894396, -21.247187996828529 ] ] } }
]
}
