{
"type": "FeatureCollection",
"features": [
{ "type": "Feature", "properties": { "Name": "NATÃRCIA", "Description": "NATÃRCIA \/ MG" }, "geometry": { "type": "LineString", "coordinates": [ [ -45.364202000321995, -22.0742279966247 ], [ -45.370885000042676, -22.082247996847514 ], [ -45.445280999918168, -22.119741996495915 ], [ -45.507840999862196, -22.191649996749902 ], [ -45.518308999660576, -22.216591996723253 ], [ -45.615839999816103, -22.160430996892952 ], [ -45.597645999862941, -22.102956996767944 ], [ -45.458597999797803, -22.081927996479806 ], [ -45.364202000321995, -22.0742279966247 ] ] } }
]
}
