{
"type": "FeatureCollection",
"features": [
{ "type": "Feature", "properties": { "Name": "NINHEIRA", "Description": "NINHEIRA \/ MG" }, "geometry": { "type": "LineString", "coordinates": [ [ -41.36425547481025, -15.492992684464751 ], [ -41.446763999858661, -15.48731399724312 ], [ -41.502638999989806, -15.526461997623072 ], [ -41.704398999813975, -15.508910997644362 ], [ -41.740251000183491, -15.444434997477115 ], [ -41.880305999921909, -15.363516997211603 ], [ -41.849660999555454, -15.332457997538482 ], [ -41.831929000223113, -15.248378997192901 ], [ -41.799697000416181, -15.204167998054629 ], [ -41.784289000337026, -15.134272998000426 ], [ -41.802311835922467, -15.10028943271112 ], [ -41.36425547481025, -15.492992684464751 ] ] } }
]
}
