{
"type": "FeatureCollection",
"features": [
{ "type": "Feature", "properties": { "Name": "NOVA PORTEIRINHA", "Description": "NOVA PORTEIRINHA \/ MG" }, "geometry": { "type": "LineString", "coordinates": [ [ -43.262323999752759, -15.828477997361631 ], [ -43.317040414983126, -15.780903529274383 ], [ -43.296920999804222, -15.735923997394536 ], [ -43.301304999625977, -15.66843099749252 ], [ -43.277221999695485, -15.6060009972482 ], [ -43.272632000266583, -15.654303997131704 ], [ -43.232310999752769, -15.742253997024305 ], [ -43.262323999752759, -15.828477997361631 ] ] } }
]
}
