{
"type": "FeatureCollection",
"features": [
{ "type": "Feature", "properties": { "Name": "NOVA UNIÃO", "Description": "NOVA UNIÃO \/ MG" }, "geometry": { "type": "LineString", "coordinates": [ [ -43.542882000104157, -19.540490997161726 ], [ -43.541678000339402, -19.623892996864242 ], [ -43.538150999568927, -19.754349997354439 ], [ -43.628858999842912, -19.69457999656953 ], [ -43.574777999704907, -19.545098997420723 ], [ -43.582232999952957, -19.513692997034127 ], [ -43.542882000104157, -19.540490997161726 ] ] } }
]
}
