{
"type": "FeatureCollection",
"features": [
{ "type": "Feature", "properties": { "Name": "NOVO ORIENTE DE MINAS", "Description": "NOVO ORIENTE DE MINAS \/ MG" }, "geometry": { "type": "LineString", "coordinates": [ [ -41.194093000391604, -17.038031997578571 ], [ -41.160134000083985, -17.042916997121665 ], [ -41.126134999730418, -17.124860997037327 ], [ -41.205315999933418, -17.223842997556233 ], [ -41.179804999800865, -17.281245997105028 ], [ -41.071544000355281, -17.347131997543613 ], [ -41.075632000016753, -17.379000997697858 ], [ -41.151323000256241, -17.401675997449274 ], [ -41.191985000307454, -17.447589996880822 ], [ -41.228629000328056, -17.434794996791595 ], [ -41.264483999936601, -17.349099997466851 ], [ -41.351400999856196, -17.346702996645945 ], [ -41.318334000213888, -17.278114996609759 ], [ -41.341102999803581, -17.216121996732735 ], [ -41.324111000422306, -17.060111996871115 ], [ -41.277489999863576, -17.032529997461378 ], [ -41.194093000391604, -17.038031997578571 ] ] } }
]
}
