{
"type": "FeatureCollection",
"features": [
{ "type": "Feature", "properties": { "Name": "OLIVEIRA FORTES", "Description": "OLIVEIRA FORTES \/ MG" }, "geometry": { "type": "LineString", "coordinates": [ [ -43.423865000169592, -21.336743997037786 ], [ -43.469783999831691, -21.371478996258645 ], [ -43.557108999680565, -21.356662996500059 ], [ -43.631068000088078, -21.375696996519135 ], [ -43.580846999889104, -21.31876699719913 ], [ -43.476659000312559, -21.280618997069041 ], [ -43.423865000169592, -21.336743997037786 ] ] } }
]
}
