{
"type": "FeatureCollection",
"features": [
{ "type": "Feature", "properties": { "Name": "OURO FINO", "Description": "OURO FINO \/ MG" }, "geometry": { "type": "LineString", "coordinates": [ [ -46.255100999711317, -22.14594099687946 ], [ -46.252031000230424, -22.145423996420277 ], [ -46.262770999981626, -22.224033996371816 ], [ -46.2353429995797, -22.267330996528241 ], [ -46.338924999988699, -22.307969996418137 ], [ -46.334285000052652, -22.387623996849925 ], [ -46.423162999572753, -22.399332996320652 ], [ -46.442913000234739, -22.346632996915215 ], [ -46.50621400017593, -22.340889996476108 ], [ -46.525889000077257, -22.276274997093424 ], [ -46.484294000167949, -22.261197996989949 ], [ -46.488351000198463, -22.183125996667339 ], [ -46.430220000352669, -22.148446996431687 ], [ -46.38470799967439, -22.165788996664844 ], [ -46.278911999689001, -22.134484996485355 ], [ -46.255100999711317, -22.14594099687946 ] ] } }
]
}
