{
"type": "FeatureCollection",
"features": [
{ "type": "Feature", "properties": { "Name": "PARAISÃPOLIS", "Description": "PARAISÃPOLIS \/ MG" }, "geometry": { "type": "LineString", "coordinates": [ [ -45.700086999815142, -22.499415996351104 ], [ -45.678717253598336, -22.573291027958533 ], [ -45.730042219272946, -22.618745629407215 ], [ -45.878907000257811, -22.615251997081941 ], [ -45.885709000070278, -22.676037997055857 ], [ -45.9491199996882, -22.694348997008547 ], [ -45.959022000364996, -22.690757996884027 ], [ -45.936253999922144, -22.651445997035069 ], [ -45.951539999771114, -22.587629996726946 ], [ -45.904321000413795, -22.601645996465493 ], [ -45.870803999804707, -22.523689996995699 ], [ -45.883302999733587, -22.500346997016266 ], [ -45.826472999629168, -22.509068996337078 ], [ -45.77858800013604, -22.469721996672774 ], [ -45.700086999815142, -22.499415996351104 ] ] } }
]
}
