{
"type": "FeatureCollection",
"features": [
{ "type": "Feature", "properties": { "Name": "PATROCÃNIO", "Description": "PATROCÃNIO \/ MG" }, "geometry": { "type": "LineString", "coordinates": [ [ -46.864448999721503, -18.728550996731087 ], [ -46.827784999677924, -18.726714997499073 ], [ -46.788514999967219, -18.822053997294116 ], [ -46.816139000414523, -18.864241996670785 ], [ -46.794817000104445, -18.917687997203245 ], [ -46.750151999814875, -18.940095997232447 ], [ -46.753349999802595, -19.002048997063525 ], [ -46.787041000341844, -19.044266996924307 ], [ -46.776347000013971, -19.106483997238627 ], [ -46.812170999991622, -19.1575959971575 ], [ -46.956816000058325, -19.269105997143981 ], [ -47.030456000144227, -19.235786996672516 ], [ -47.086821000388795, -19.1827429966919 ], [ -47.142465999806006, -19.187651997341732 ], [ -47.220213999576394, -19.141250997035854 ], [ -47.389526999571331, -19.127621997157405 ], [ -47.339487999671405, -18.959411996766164 ], [ -47.279187999626458, -18.927017996683162 ], [ -47.31456699976718, -18.784587997138313 ], [ -47.277503000163279, -18.72683199749866 ], [ -47.203784000031533, -18.761106997090224 ], [ -47.115264999979729, -18.744973996852423 ], [ -47.074455000297974, -18.696976996690978 ], [ -47.006186999730232, -18.696999996852355 ], [ -46.960764999605026, -18.748898997090976 ], [ -46.864448999721503, -18.728550996731087 ] ] } }
]
}
