{
"type": "FeatureCollection",
"features": [
{ "type": "Feature", "properties": { "Name": "PEÃANHA", "Description": "PEÃANHA \/ MG" }, "geometry": { "type": "LineString", "coordinates": [ [ -42.472408999675558, -18.347050997205713 ], [ -42.397332999917978, -18.354414996854587 ], [ -42.384530000359177, -18.373178997013042 ], [ -42.40874800021998, -18.482424996916052 ], [ -42.370708999720534, -18.5192459970051 ], [ -42.446165999960897, -18.531560997442057 ], [ -42.419601999832366, -18.609475996819754 ], [ -42.36212300037613, -18.646192997508759 ], [ -42.351768000392838, -18.744253996924385 ], [ -42.474474999621521, -18.73634099713928 ], [ -42.534937999988635, -18.724737997160787 ], [ -42.620576000282135, -18.703318996874145 ], [ -42.632827999612459, -18.664295996862734 ], [ -42.718043000184252, -18.654919997060176 ], [ -42.720368000382848, -18.64732399660511 ], [ -42.685545999847982, -18.587142996651949 ], [ -42.661079000195684, -18.600177997016885 ], [ -42.595368999779446, -18.565233997151211 ], [ -42.614910999842721, -18.416507996846519 ], [ -42.577326999641286, -18.426643997522433 ], [ -42.543475999817474, -18.344180997055332 ], [ -42.472408999675558, -18.347050997205713 ] ] } }
]
}
