{
"type": "FeatureCollection",
"features": [
{ "type": "Feature", "properties": { "Name": "PEDRO LEOPOLDO", "Description": "PEDRO LEOPOLDO \/ MG" }, "geometry": { "type": "LineString", "coordinates": [ [ -43.921897000146366, -19.535690997041854 ], [ -43.960187999676407, -19.539581996611787 ], [ -43.971830999700842, -19.59788099611103 ], [ -44.00531800162446, -19.655701430376666 ], [ -44.006950000442146, -19.722060996717573 ], [ -44.005554259821167, -19.737140668706839 ], [ -44.040859000242619, -19.772730996038604 ], [ -44.133118361623076, -19.709965910198548 ], [ -44.193310999702817, -19.662249996739888 ], [ -44.099132000341513, -19.615055996736828 ], [ -44.048627095863765, -19.562417638663021 ], [ -43.988326000444545, -19.539655996427026 ], [ -43.950145999738027, -19.486744996284528 ], [ -43.921897000146366, -19.535690997041854 ] ] } }
]
}
