{
"type": "FeatureCollection",
"features": [
{ "type": "Feature", "properties": { "Name": "PEDRA AZUL", "Description": "PEDRA AZUL \/ MG" }, "geometry": { "type": "LineString", "coordinates": [ [ -41.142530206303945, -15.772047003066689 ], [ -41.031076000257144, -15.799420997381105 ], [ -41.009608000408832, -15.828306997569825 ], [ -40.963994999569529, -15.884143996847911 ], [ -40.981188000126053, -15.935745996880199 ], [ -40.920798999574117, -15.974798997375785 ], [ -40.912354000436721, -16.045243997612374 ], [ -40.96980899968554, -16.085527997319161 ], [ -41.084455000397895, -16.081658996965075 ], [ -41.156109999776618, -16.055197997089863 ], [ -41.217729000393035, -16.072319997070167 ], [ -41.257419999733145, -16.151389997550325 ], [ -41.297123999672806, -16.171182997497283 ], [ -41.365282999710644, -16.1459049973177 ], [ -41.436443999690766, -16.097253997573887 ], [ -41.45738599956416, -16.047350997650366 ], [ -41.401262999687617, -15.960313997592889 ], [ -41.301015000142115, -15.925421997427179 ], [ -41.275095000034185, -15.863751997156896 ], [ -41.38359499970943, -15.812213997378024 ], [ -41.342549999982452, -15.801226997927586 ], [ -41.330192384271072, -15.743322370031306 ], [ -41.215396412614325, -15.737165861315418 ], [ -41.142530206303945, -15.772047003066689 ] ] } }
]
}
