{
"type": "FeatureCollection",
"features": [
{ "type": "Feature", "properties": { "Name": "PEQUI", "Description": "PEQUI \/ MG" }, "geometry": { "type": "LineString", "coordinates": [ [ -44.557863000077361, -19.536702996945735 ], [ -44.565216000118248, -19.604242997216488 ], [ -44.641004000334306, -19.711617997172766 ], [ -44.666397000421171, -19.659345996820264 ], [ -44.72527200040247, -19.61374399738753 ], [ -44.72191600032312, -19.570533996746516 ], [ -44.650644999766882, -19.556384997169857 ], [ -44.607274999841302, -19.527518997004051 ], [ -44.557863000077361, -19.536702996945735 ] ] } }
]
}
