{
"type": "FeatureCollection",
"features": [
{ "type": "Feature", "properties": { "Name": "PERDIZES", "Description": "PERDIZES \/ MG" }, "geometry": { "type": "LineString", "coordinates": [ [ -47.389526999571331, -19.127621997157405 ], [ -47.220213999576394, -19.141250997035854 ], [ -47.142465999806006, -19.187651997341732 ], [ -47.086821000388795, -19.1827429966919 ], [ -47.030456000144227, -19.235786996672516 ], [ -46.956816000058325, -19.269105997143981 ], [ -46.898531000305354, -19.270857996998927 ], [ -46.837310000056391, -19.303396997473385 ], [ -46.857841999908317, -19.468675996699858 ], [ -46.906276999583838, -19.48201299660246 ], [ -46.942225999929917, -19.444666997483921 ], [ -47.017499999825077, -19.443588997234372 ], [ -47.010354000336804, -19.486683997068781 ], [ -47.088629000128208, -19.563963996840926 ], [ -47.137857000400231, -19.535395996927658 ], [ -47.19474300038911, -19.566252997178026 ], [ -47.234212000283549, -19.642182996747863 ], [ -47.351651000293373, -19.737859996841337 ], [ -47.398547000043948, -19.732955997321366 ], [ -47.451291999725974, -19.650104996948016 ], [ -47.466851999620019, -19.56081499731425 ], [ -47.426245000306494, -19.554790997406542 ], [ -47.365038999849901, -19.43724199682066 ], [ -47.405231999856881, -19.274426997008277 ], [ -47.387156999995511, -19.240157996794096 ], [ -47.440946000157737, -19.138663997345532 ], [ -47.389526999571331, -19.127621997157405 ] ] } }
]
}
