{
"type": "FeatureCollection",
"features": [
{ "type": "Feature", "properties": { "Name": "PIAU", "Description": "PIAU \/ MG" }, "geometry": { "type": "LineString", "coordinates": [ [ -43.30064199962851, -21.43232799643982 ], [ -43.261523999732731, -21.439298995951841 ], [ -43.235354999833305, -21.494851996522357 ], [ -43.263334999610493, -21.544902996076356 ], [ -43.336059999769134, -21.560980996475735 ], [ -43.357693000031873, -21.587773996372789 ], [ -43.41915099951899, -21.530886996337756 ], [ -43.344751000358315, -21.450556996208377 ], [ -43.30064199962851, -21.43232799643982 ] ] } }
]
}
