{
"type": "FeatureCollection",
"features": [
{ "type": "Feature", "properties": { "Name": "PIRANGUÃU", "Description": "PIRANGUÃU \/ MG" }, "geometry": { "type": "LineString", "coordinates": [ [ -45.523798000077591, -22.459985996456506 ], [ -45.429560999840248, -22.514286996847375 ], [ -45.430146999884073, -22.539725996357614 ], [ -45.480377155181536, -22.590489197818158 ], [ -45.488800490550148, -22.628785224558442 ], [ -45.565965277275666, -22.656522751823502 ], [ -45.576519593104699, -22.601702748183243 ], [ -45.582583999551893, -22.533874996333964 ], [ -45.550586999790141, -22.483764996757145 ], [ -45.523798000077591, -22.459985996456506 ] ] } }
]
}
