{
"type": "FeatureCollection",
"features": [
{ "type": "Feature", "properties": { "Name": "PIRAPETINGA", "Description": "PIRAPETINGA \/ MG" }, "geometry": { "type": "LineString", "coordinates": [ [ -42.352656082712031, -21.591686710073589 ], [ -42.36515220121305, -21.646458484871115 ], [ -42.301709163247267, -21.654963901362919 ], [ -42.269429011039961, -21.716983068813533 ], [ -42.377698612500922, -21.748389072797409 ], [ -42.422792000350512, -21.739831996549352 ], [ -42.435197999587956, -21.64635999651659 ], [ -42.410567000466642, -21.601500996273899 ], [ -42.352656082712031, -21.591686710073589 ] ] } }
]
}
