{
"type": "FeatureCollection",
"features": [
{ "type": "Feature", "properties": { "Name": "POCRANE", "Description": "POCRANE \/ MG" }, "geometry": { "type": "LineString", "coordinates": [ [ -41.586004999830834, -19.442883997098761 ], [ -41.510214000375754, -19.493526996973287 ], [ -41.432072999569243, -19.540679996884304 ], [ -41.381667999878232, -19.588022997463327 ], [ -41.386489000067229, -19.658291996778189 ], [ -41.427598000047624, -19.693207997151319 ], [ -41.495327000040959, -19.696515996815776 ], [ -41.641404999640997, -19.667200996628651 ], [ -41.679793000046857, -19.689733997026281 ], [ -41.694924999988693, -19.644095996832732 ], [ -41.751471999633054, -19.594599996792393 ], [ -41.653151999964784, -19.5325549972153 ], [ -41.663602999878492, -19.454694996776649 ], [ -41.637522000439901, -19.417887997333136 ], [ -41.586004999830834, -19.442883997098761 ] ] } }
]
}
