{
"type": "FeatureCollection",
"features": [
{ "type": "Feature", "properties": { "Name": "PONTO CHIQUE", "Description": "PONTO CHIQUE \/ MG" }, "geometry": { "type": "LineString", "coordinates": [ [ -44.972060000168824, -16.548615997430318 ], [ -44.890740000250787, -16.600106997739715 ], [ -44.799131999841904, -16.530873997636832 ], [ -44.811198999634087, -16.649135997828012 ], [ -44.853843000254244, -16.69838799740813 ], [ -45.020296999706716, -16.754073997816704 ], [ -45.009790999954646, -16.700245997654633 ], [ -45.078189000222153, -16.669121997681998 ], [ -45.072923000196283, -16.624605997069068 ], [ -45.104707000027986, -16.565412997711633 ], [ -45.117301999887331, -16.512805997198939 ], [ -45.067064999849833, -16.472242997216483 ], [ -44.950595999605639, -16.507718997333825 ], [ -44.972060000168824, -16.548615997430318 ] ] } }
]
}
