{
"type": "FeatureCollection",
"features": [
{ "type": "Feature", "properties": { "Name": "POUSO ALTO", "Description": "POUSO ALTO \/ MG" }, "geometry": { "type": "LineString", "coordinates": [ [ -44.939799999969978, -22.076897996545256 ], [ -44.92713100029539, -22.082440996754539 ], [ -44.816865000119606, -22.192460996377861 ], [ -44.886337332301991, -22.26378049917065 ], [ -44.935219697930677, -22.254314125596352 ], [ -44.979351000048553, -22.277542997111595 ], [ -44.971089972524169, -22.218462982280755 ], [ -45.016390944586355, -22.199781288975259 ], [ -45.043680208374894, -22.149180903475894 ], [ -45.007252171550419, -22.111717337784849 ], [ -44.939799999969978, -22.076897996545256 ] ] } }
]
}
