{
"type": "FeatureCollection",
"features": [
{ "type": "Feature", "properties": { "Name": "POUSO ALEGRE", "Description": "POUSO ALEGRE \/ MG" }, "geometry": { "type": "LineString", "coordinates": [ [ -45.817054999688423, -22.115563996281367 ], [ -45.858527000220818, -22.179993997025292 ], [ -45.853948000399839, -22.235606996765455 ], [ -45.841771000031599, -22.28412499667121 ], [ -45.851296999556837, -22.353577997026889 ], [ -45.919372000217606, -22.408189996471094 ], [ -46.00730999955681, -22.406221996547856 ], [ -46.038453000405582, -22.360599997092152 ], [ -46.063859000192672, -22.278107997086348 ], [ -46.04441800029042, -22.231224997035952 ], [ -45.994469000044262, -22.207546996896326 ], [ -45.95989500015412, -22.127366996489627 ], [ -45.90361100004759, -22.110473996277847 ], [ -45.817054999688423, -22.115563996281367 ] ] } }
]
}
