{
"type": "FeatureCollection",
"features": [
{ "type": "Feature", "properties": { "Name": "PRATINHA", "Description": "PRATINHA \/ MG" }, "geometry": { "type": "LineString", "coordinates": [ [ -46.22563099957091, -19.796412997261992 ], [ -46.321496000240181, -19.815561997188354 ], [ -46.310906000211666, -19.86269899726085 ], [ -46.425442000347971, -19.867147997382119 ], [ -46.45719499964946, -19.884106997040249 ], [ -46.515788000116061, -19.85884799683754 ], [ -46.494636999597788, -19.824960997152232 ], [ -46.546787999766309, -19.77243899696208 ], [ -46.57092200025005, -19.681498996781215 ], [ -46.480202000322038, -19.655492997204021 ], [ -46.424162999822556, -19.697592997019171 ], [ -46.327811000077531, -19.641512997326913 ], [ -46.298674000005064, -19.682771997029988 ], [ -46.243808999685534, -19.707611996796174 ], [ -46.22563099957091, -19.796412997261992 ] ] } }
]
}
