{
"type": "FeatureCollection",
"features": [
{ "type": "Feature", "properties": { "Name": "PRESIDENTE OLEGÃRIO", "Description": "PRESIDENTE OLEGÃRIO \/ MG" }, "geometry": { "type": "LineString", "coordinates": [ [ -46.007191000364344, -18.322964997136861 ], [ -46.009733999824157, -18.325975996594934 ], [ -46.024239999676183, -18.368096996479153 ], [ -46.108541000366813, -18.457430997242682 ], [ -46.107774000069973, -18.515120996536723 ], [ -46.18647499972144, -18.534666996784438 ], [ -46.232471000236444, -18.524974996798619 ], [ -46.308217000314237, -18.556748997068496 ], [ -46.4243440000755, -18.514140997209211 ], [ -46.468191000414322, -18.476895996453038 ], [ -46.536597000151403, -18.459157996844056 ], [ -46.614365999990866, -18.405883997048761 ], [ -46.654063999653829, -18.405261997143384 ], [ -46.760819999843072, -18.308766997099212 ], [ -46.691713000154778, -18.289952997332932 ], [ -46.639704000239362, -18.298645997115045 ], [ -46.600482000044224, -18.265733996526649 ], [ -46.578101000360846, -18.182566996869355 ], [ -46.545926999631263, -18.176151996917099 ], [ -46.553419999833068, -18.067092996644416 ], [ -46.594899999835093, -18.010437997415579 ], [ -46.571509000340022, -17.96711799709783 ], [ -46.513806999593328, -17.99335199729677 ], [ -46.388141999753429, -17.910485997130987 ], [ -46.360542999559748, -17.844459996531555 ], [ -46.358983999611837, -17.774140996709605 ], [ -46.329280000371682, -17.735998996856154 ], [ -46.287572999794065, -17.858462996569983 ], [ -46.262903999819684, -17.891651997341739 ], [ -46.274859999889031, -18.015324997050925 ], [ -46.242015999738555, -18.058269997162597 ], [ -46.115075999557689, -18.07975799703388 ], [ -46.004248000444818, -18.213322996958709 ], [ -46.021276999733686, -18.285666996634518 ], [ -46.007191000364344, -18.322964997136861 ] ] } }
]
}
