{
"type": "FeatureCollection",
"features": [
{ "type": "Feature", "properties": { "Name": "QUARTEL GERAL", "Description": "QUARTEL GERAL \/ MG" }, "geometry": { "type": "LineString", "coordinates": [ [ -45.65022499998372, -19.200701997499152 ], [ -45.628036000161217, -19.227721997072479 ], [ -45.532671000066557, -19.198235997093544 ], [ -45.517389000401977, -19.254537997130797 ], [ -45.403403000448058, -19.269390996797028 ], [ -45.334742999789569, -19.316772997375892 ], [ -45.338661999751423, -19.344537997130828 ], [ -45.365734999970236, -19.351317996828072 ], [ -45.466095000184055, -19.322164996917024 ], [ -45.501792999747124, -19.35616199717839 ], [ -45.623554000316794, -19.355670997018876 ], [ -45.661301999987245, -19.309847997287193 ], [ -45.712964673680688, -19.313959896432035 ], [ -45.781525999824964, -19.268004996733168 ], [ -45.817186000333599, -19.34158099746503 ], [ -45.85163799999367, -19.325344996973968 ], [ -45.809719000431471, -19.241859997041161 ], [ -45.803860000038924, -19.195967996825573 ], [ -45.784071000276413, -19.157163997020803 ], [ -45.775431000240417, -19.215354996935499 ], [ -45.730035999561665, -19.22710899668283 ], [ -45.65022499998372, -19.200701997499152 ] ] } }
]
}
