{
"type": "FeatureCollection",
"features": [
{ "type": "Feature", "properties": { "Name": "QUELUZITO", "Description": "QUELUZITO \/ MG" }, "geometry": { "type": "LineString", "coordinates": [ [ -43.819378000194483, -20.772527997269208 ], [ -43.894180999953164, -20.804282996662945 ], [ -43.898233999799231, -20.767404996643222 ], [ -43.95665599957465, -20.759063996905866 ], [ -43.944683999666829, -20.676291996578357 ], [ -43.923923000046386, -20.658832997244986 ], [ -43.875137000372206, -20.676550996830997 ], [ -43.826560999590406, -20.733079996544575 ], [ -43.819378000194483, -20.772527997269208 ] ] } }
]
}
