{
"type": "FeatureCollection",
"features": [
{ "type": "Feature", "properties": { "Name": "RAPOSOS", "Description": "RAPOSOS \/ MG" }, "geometry": { "type": "LineString", "coordinates": [ [ -43.834172999884004, -19.927426996458678 ], [ -43.722998000057601, -19.966709996768884 ], [ -43.734263999783707, -20.001271996105686 ], [ -43.782981999919336, -20.029013996598618 ], [ -43.838768000442826, -19.956738996507454 ], [ -43.834172999884004, -19.927426996458678 ] ] } }
]
}
