{
"type": "FeatureCollection",
"features": [
{ "type": "Feature", "properties": { "Name": "RECREIO", "Description": "RECREIO \/ MG" }, "geometry": { "type": "LineString", "coordinates": [ [ -42.391775999962363, -21.445452996458584 ], [ -42.34854900033605, -21.500682996523039 ], [ -42.346004142876836, -21.582744683520275 ], [ -42.352656082712031, -21.591686710073589 ], [ -42.410567000466642, -21.601500996273899 ], [ -42.51422599992992, -21.561097996475326 ], [ -42.529034000218871, -21.513308996013336 ], [ -42.452483999936589, -21.438354996485828 ], [ -42.391775999962363, -21.445452996458584 ] ] } }
]
}
