{
"type": "FeatureCollection",
"features": [
{ "type": "Feature", "properties": { "Name": "RESPLENDOR", "Description": "RESPLENDOR \/ MG" }, "geometry": { "type": "LineString", "coordinates": [ [ -40.932268780279969, -19.25117675400395 ], [ -41.001732999678154, -19.304199996732393 ], [ -41.118914000380755, -19.291796996733979 ], [ -41.19400199979242, -19.33987299694121 ], [ -41.207273000248733, -19.373391996743237 ], [ -41.282631999567052, -19.372015997140522 ], [ -41.349009000165211, -19.272320997016379 ], [ -41.381262000041204, -19.196968997121473 ], [ -41.311190999964651, -19.166965996683359 ], [ -41.277025000003732, -19.122564996877031 ], [ -41.233989000192139, -19.086086997317011 ], [ -41.089333999664291, -19.079238997181903 ], [ -41.060809261638092, -19.056471564211279 ], [ -41.012604388581622, -19.075801658819444 ], [ -40.95611541949097, -19.129113174733163 ], [ -40.927582123516117, -19.208875489512195 ], [ -40.932268780279969, -19.25117675400395 ] ] } }
]
}
