{
"type": "FeatureCollection",
"features": [
{ "type": "Feature", "properties": { "Name": "RESSAQUINHA", "Description": "RESSAQUINHA \/ MG" }, "geometry": { "type": "LineString", "coordinates": [ [ -43.70858499999769, -21.020027996594706 ], [ -43.659989000092253, -21.032365996293663 ], [ -43.631275000640699, -21.095260996397826 ], [ -43.715791999601038, -21.128278996478457 ], [ -43.811446000432511, -21.112954996675683 ], [ -43.830474000174945, -21.145831996549358 ], [ -43.909556000309124, -21.124509996239283 ], [ -43.771981999869354, -21.06445799593973 ], [ -43.70858499999769, -21.020027996594706 ] ] } }
]
}
