{
"type": "FeatureCollection",
"features": [
{ "type": "Feature", "properties": { "Name": "RIACHINHO", "Description": "RIACHINHO \/ MG" }, "geometry": { "type": "LineString", "coordinates": [ [ -45.906117999645907, -16.107019997374948 ], [ -45.862783000435059, -16.169322997158531 ], [ -45.799788000215983, -16.17436699773873 ], [ -45.751629999824608, -16.129344997173856 ], [ -45.655220000102872, -16.182742997291427 ], [ -45.707002000342015, -16.302172997385867 ], [ -45.71265500022804, -16.412644997168854 ], [ -45.830617000074419, -16.506356997477383 ], [ -45.910172000437456, -16.530578997522696 ], [ -45.921458000186533, -16.493016997436428 ], [ -45.892904000019541, -16.448948998597359 ], [ -45.918437000267318, -16.374513998722023 ], [ -45.952373999560393, -16.397944999162348 ], [ -46.082488999567659, -16.371038997651564 ], [ -46.148938999934842, -16.378394997830863 ], [ -46.198226000229681, -16.341301997788946 ], [ -46.276311000252406, -16.320191997362766 ], [ -46.219643000424071, -16.257819997095169 ], [ -46.230852000219606, -16.237744996734193 ], [ -46.13460299982853, -16.245154997605024 ], [ -46.083405000440393, -16.211212997182031 ], [ -46.039913000284685, -16.052836997929091 ], [ -45.987850999723833, -16.01554899788789 ], [ -45.936389999898552, -16.052846997490914 ], [ -45.906117999645907, -16.107019997374948 ] ] } }
]
}
