{
"type": "FeatureCollection",
"features": [
{ "type": "Feature", "properties": { "Name": "RIO PARANAÃBA", "Description": "RIO PARANAÃBA \/ MG" }, "geometry": { "type": "LineString", "coordinates": [ [ -46.217436000271164, -19.062920997406081 ], [ -46.132379999837099, -19.106402996201268 ], [ -46.088633999659294, -19.107635996404042 ], [ -46.109877999969683, -19.196906996960308 ], [ -46.136535999936427, -19.317647996357891 ], [ -46.125765142647197, -19.369142662304 ], [ -46.155457000140416, -19.410242996417082 ], [ -46.266238999829909, -19.431713996403744 ], [ -46.317361000209928, -19.382752996753364 ], [ -46.390477000413171, -19.401679996334735 ], [ -46.422086000268671, -19.330599996492595 ], [ -46.496243999960598, -19.313726997203105 ], [ -46.540766999997004, -19.193343996328338 ], [ -46.411873000538492, -19.067245997204964 ], [ -46.372437000367256, -19.116932997060132 ], [ -46.284131000245395, -19.102291996378483 ], [ -46.26377899970106, -19.064304996478366 ], [ -46.217436000271164, -19.062920997406081 ] ] } }
]
}
