{
"type": "FeatureCollection",
"features": [
{ "type": "Feature", "properties": { "Name": "RIO NOVO", "Description": "RIO NOVO \/ MG" }, "geometry": { "type": "LineString", "coordinates": [ [ -43.06033800029843, -21.430388996055285 ], [ -43.052319000121713, -21.480881996207131 ], [ -43.091156999695727, -21.557291996328502 ], [ -43.123181999849351, -21.57100999671394 ], [ -43.13226100034484, -21.520857996099608 ], [ -43.235354999833305, -21.494851996522357 ], [ -43.261523999732731, -21.439298995951841 ], [ -43.194228999968345, -21.428780996545697 ], [ -43.158591000474246, -21.391195996298165 ], [ -43.086395000428865, -21.439318995974816 ], [ -43.06033800029843, -21.430388996055285 ] ] } }
]
}
