{
"type": "FeatureCollection",
"features": [
{ "type": "Feature", "properties": { "Name": "RIO MANSO", "Description": "RIO MANSO \/ MG" }, "geometry": { "type": "LineString", "coordinates": [ [ -44.266753999697301, -20.250649996600028 ], [ -44.277326999841137, -20.308753996999314 ], [ -44.328213000129836, -20.330608996707777 ], [ -44.437498000032626, -20.346143997247623 ], [ -44.43534799981029, -20.291668996926603 ], [ -44.417886000338626, -20.254580997115283 ], [ -44.361993000276698, -20.237357996973913 ], [ -44.350795000089136, -20.159732996580487 ], [ -44.286452999806045, -20.178928996875641 ], [ -44.266753999697301, -20.250649996600028 ] ] } }
]
}
