{
"type": "FeatureCollection",
"features": [
{ "type": "Feature", "properties": { "Name": "RITÃPOLIS", "Description": "RITÃPOLIS \/ MG" }, "geometry": { "type": "LineString", "coordinates": [ [ -44.277769999585757, -21.016011996656289 ], [ -44.274283999806691, -21.056926996683501 ], [ -44.409389999748662, -21.089703996442211 ], [ -44.482387999906223, -21.043690996941905 ], [ -44.479396000425027, -20.960206997055252 ], [ -44.445959999953971, -20.899196996644037 ], [ -44.396410000121364, -20.857852996618476 ], [ -44.287629000078248, -20.917108997082494 ], [ -44.263706000331581, -20.99119899723587 ], [ -44.277769999585757, -21.016011996656289 ] ] } }
]
}
