{
"type": "FeatureCollection",
"features": [
{ "type": "Feature", "properties": { "Name": "SANTANA DO GARAMBÃU", "Description": "SANTANA DO GARAMBÃU \/ MG" }, "geometry": { "type": "LineString", "coordinates": [ [ -43.957101000310892, -21.635052996698391 ], [ -43.993903999569902, -21.689424996766149 ], [ -44.07126300028721, -21.730486996377749 ], [ -44.077262999987397, -21.662894996406919 ], [ -44.136724000012521, -21.656303996432257 ], [ -44.163559000047769, -21.589391996343519 ], [ -44.105034000019032, -21.580624996746167 ], [ -44.085353999887161, -21.54399699656409 ], [ -44.052595000059171, -21.588208996647833 ], [ -43.957101000310892, -21.635052996698391 ] ] } }
]
}
