{
"type": "FeatureCollection",
"features": [
{ "type": "Feature", "properties": { "Name": "SANTA MARGARIDA", "Description": "SANTA MARGARIDA \/ MG" }, "geometry": { "type": "LineString", "coordinates": [ [ -42.206338000098583, -20.324052996548517 ], [ -42.1877380003084, -20.347618996919152 ], [ -42.188213999776224, -20.433916997071719 ], [ -42.242605999866953, -20.481072997121089 ], [ -42.276928999873398, -20.547908997302329 ], [ -42.319392000240555, -20.546972997305939 ], [ -42.345061999611573, -20.394748996668795 ], [ -42.277019000426492, -20.342603996776973 ], [ -42.206338000098583, -20.324052996548517 ] ] } }
]
}
