{
"type": "FeatureCollection",
"features": [
{ "type": "Feature", "properties": { "Name": "SANTA VITÃRIA", "Description": "SANTA VITÃRIA \/ MG" }, "geometry": { "type": "LineString", "coordinates": [ [ -50.079765857908001, -18.671899450898877 ], [ -50.050694000227907, -18.731740997249176 ], [ -49.96779400029282, -18.786158996740255 ], [ -50.012269999960495, -18.863790996557213 ], [ -49.966648999651568, -18.959534997042454 ], [ -50.02340399989464, -19.044331997223821 ], [ -50.076931999711974, -19.076969996867831 ], [ -50.129025999949867, -19.161429996796869 ], [ -50.121638000093576, -19.198157996194535 ], [ -50.20399600021517, -19.291350996850952 ], [ -50.23642400006753, -19.281265996728337 ], [ -50.321207999649403, -19.233594997211299 ], [ -50.401174000080005, -19.222302997185523 ], [ -50.464515000067138, -19.233075996659863 ], [ -50.514741999643547, -19.273730997287657 ], [ -50.584274000045014, -19.227728997395275 ], [ -50.742083237551356, -19.213843286938072 ], [ -50.682467870695625, -19.175315659589952 ], [ -50.667157423676144, -19.134212072628994 ], [ -50.585025377319255, -19.137385575084181 ], [ -50.531989391197385, -19.093256146254078 ], [ -50.495076167431137, -19.012868461810001 ], [ -50.505684181779543, -18.932200279719098 ], [ -50.443435821206144, -18.894115604451542 ], [ -50.423492673148303, -18.832653195588474 ], [ -50.37026460262927, -18.804393416722743 ], [ -50.314490032488948, -18.700749756995663 ], [ -50.164288025272128, -18.664352469790629 ], [ -50.079765857908001, -18.671899450898877 ] ] } }
]
}
