{
"type": "FeatureCollection",
"features": [
{ "type": "Feature", "properties": { "Name": "SANTA LUZIA", "Description": "SANTA LUZIA \/ MG" }, "geometry": { "type": "LineString", "coordinates": [ [ -43.770449000221156, -19.725513996773486 ], [ -43.803666999632298, -19.761558996150711 ], [ -43.807094000287861, -19.841236996789913 ], [ -43.861989645006076, -19.827768102316043 ], [ -43.946076185267714, -19.777241084408502 ], [ -43.886706999728233, -19.72299399657561 ], [ -43.897524000332275, -19.698792996599479 ], [ -43.815483999586888, -19.716506996001041 ], [ -43.798373000113827, -19.613043996583144 ], [ -43.782247999345657, -19.611130996498218 ], [ -43.754953999727263, -19.625433996881384 ], [ -43.770449000221156, -19.725513996773486 ] ] } }
]
}
