{
"type": "FeatureCollection",
"features": [
{ "type": "Feature", "properties": { "Name": "SANTA BÃRBARA", "Description": "SANTA BÃRBARA \/ MG" }, "geometry": { "type": "LineString", "coordinates": [ [ -43.220451999659986, -19.89278299693774 ], [ -43.210757999581972, -19.970716997191627 ], [ -43.271995999715557, -20.004592997268958 ], [ -43.287953999977042, -20.05357199685011 ], [ -43.315772000377478, -20.077937997240724 ], [ -43.354177999814794, -19.994718996984091 ], [ -43.468096000230162, -20.034026996648549 ], [ -43.513672000262545, -20.083065997197991 ], [ -43.510937000042475, -20.128576996930803 ], [ -43.533717000139404, -20.16085999729097 ], [ -43.547704000339309, -20.207282996812804 ], [ -43.61826100034483, -20.193705996634378 ], [ -43.658949999842548, -20.125837996526286 ], [ -43.690027000345765, -20.075648996903624 ], [ -43.639164000218386, -19.967533996996337 ], [ -43.546148999676575, -20.03157099670409 ], [ -43.507343999825707, -20.00645299670839 ], [ -43.41941299990998, -19.909424996366454 ], [ -43.356333000267682, -19.921538996527431 ], [ -43.316955000073165, -19.891558996250637 ], [ -43.220451999659986, -19.89278299693774 ] ] } }
]
}
