{
"type": "FeatureCollection",
"features": [
{ "type": "Feature", "properties": { "Name": "SANTA FÃ DE MINAS", "Description": "SANTA FÃ DE MINAS \/ MG" }, "geometry": { "type": "LineString", "coordinates": [ [ -45.117301999887331, -16.512805997198939 ], [ -45.104707000027986, -16.565412997711633 ], [ -45.165803999954619, -16.62053299720003 ], [ -45.196732999927967, -16.683970997163726 ], [ -45.306975999942381, -16.790705997283908 ], [ -45.308040999592436, -16.883353997089273 ], [ -45.347995000269009, -16.907811997225849 ], [ -45.429125999565194, -16.916592997468797 ], [ -45.461885000292511, -16.963348997058517 ], [ -45.504893999758224, -16.960873997137185 ], [ -45.564252000429406, -16.941446996981252 ], [ -45.6197330003776, -16.875406997534867 ], [ -45.721264999779855, -16.898256997262592 ], [ -45.855871000046591, -16.810708997022573 ], [ -45.888739000404485, -16.702836997529346 ], [ -45.944746000327598, -16.718693997629824 ], [ -45.991533999594367, -16.694062997609194 ], [ -46.015609000055292, -16.637238997781481 ], [ -45.97079600013523, -16.607659997111114 ], [ -45.95184600039255, -16.554044997778362 ], [ -45.910172000437456, -16.530578997522696 ], [ -45.830617000074419, -16.506356997477383 ], [ -45.691345999618136, -16.566552997222971 ], [ -45.642942999619713, -16.611786997671743 ], [ -45.584883000350146, -16.562572997146049 ], [ -45.527409000225134, -16.563392997188998 ], [ -45.506375999752549, -16.51972199777191 ], [ -45.418938000088588, -16.502875997029605 ], [ -45.304758000181494, -16.563154997005483 ], [ -45.25714799988026, -16.542937997290721 ], [ -45.117301999887331, -16.512805997198939 ] ] } }
]
}
