{
"type": "FeatureCollection",
"features": [
{ "type": "Feature", "properties": { "Name": "SANTA RITA DE CALDAS", "Description": "SANTA RITA DE CALDAS \/ MG" }, "geometry": { "type": "LineString", "coordinates": [ [ -46.091589000132217, -21.876453997154215 ], [ -46.176429999644711, -22.030357997023884 ], [ -46.238364000398235, -22.072748996768723 ], [ -46.255100999711317, -22.14594099687946 ], [ -46.278911999689001, -22.134484996485355 ], [ -46.38470799967439, -22.165788996664844 ], [ -46.430220000352669, -22.148446996431687 ], [ -46.431937000392217, -22.120809996284265 ], [ -46.347264999679965, -22.053634996657706 ], [ -46.394710999612926, -22.013601996834666 ], [ -46.341607999609437, -21.948134996832607 ], [ -46.256874999681422, -21.916752996653425 ], [ -46.139491000409294, -21.891905996564446 ], [ -46.130117999845766, -21.874306996170901 ], [ -46.091589000132217, -21.876453997154215 ] ] } }
]
}
