{
"type": "FeatureCollection",
"features": [
{ "type": "Feature", "properties": { "Name": "SANTA RITA DO SAPUCAÃ", "Description": "SANTA RITA DO SAPUCAÃ \/ MG" }, "geometry": { "type": "LineString", "coordinates": [ [ -45.615839999816103, -22.160430996892952 ], [ -45.518308999660576, -22.216591996723253 ], [ -45.550566999767163, -22.26298099647579 ], [ -45.574660000158815, -22.322229996617011 ], [ -45.660117000199357, -22.277702996396101 ], [ -45.720525999874951, -22.300404996493342 ], [ -45.841771000031599, -22.28412499667121 ], [ -45.853948000399839, -22.235606996765455 ], [ -45.664875000181091, -22.167523996635111 ], [ -45.615839999816103, -22.160430996892952 ] ] } }
]
}
