{
"type": "FeatureCollection",
"features": [
{ "type": "Feature", "properties": { "Name": "SANTANA DOS MONTES", "Description": "SANTANA DOS MONTES \/ MG" }, "geometry": { "type": "LineString", "coordinates": [ [ -43.561584000101504, -20.754144996694205 ], [ -43.552744999881774, -20.778940997129268 ], [ -43.618800000019917, -20.857090996552188 ], [ -43.619019000226615, -20.85716499636743 ], [ -43.656841999758456, -20.835736996565117 ], [ -43.730908999750511, -20.844971997059982 ], [ -43.772750000212284, -20.80102199646791 ], [ -43.760086999915075, -20.759000996698603 ], [ -43.691323999902636, -20.719114996459894 ], [ -43.651407000032975, -20.767752996503532 ], [ -43.561584000101504, -20.754144996694205 ] ] } }
]
}
