{
"type": "FeatureCollection",
"features": [
{ "type": "Feature", "properties": { "Name": "SANTA MARIA DO SALTO", "Description": "SANTA MARIA DO SALTO \/ MG" }, "geometry": { "type": "LineString", "coordinates": [ [ -40.017219821037884, -16.347829501130548 ], [ -40.045570086090549, -16.422038892580758 ], [ -40.109882288236975, -16.449885634414443 ], [ -40.154546999844115, -16.417323997104745 ], [ -40.216813999766259, -16.313064997851313 ], [ -40.135106999988011, -16.12689199736775 ], [ -40.070212000283561, -16.209280997120288 ], [ -40.045338999894902, -16.305243997812227 ], [ -40.017219821037884, -16.347829501130548 ] ] } }
]
}
