{
"type": "FeatureCollection",
"features": [
{ "type": "Feature", "properties": { "Name": "SÃO FRANCISCO", "Description": "SÃO FRANCISCO \/ MG" }, "geometry": { "type": "LineString", "coordinates": [ [ -44.68332999977963, -15.775885997540684 ], [ -44.652608000358889, -15.82558499794925 ], [ -44.562920000357678, -15.855296997558355 ], [ -44.556390999644861, -15.79558599769558 ], [ -44.490067999738358, -15.79952599772656 ], [ -44.438560000443601, -15.851055997136539 ], [ -44.411441999948295, -15.928747997921732 ], [ -44.430178999760983, -15.973178997312855 ], [ -44.475907999654396, -15.993561997488142 ], [ -44.497798000077573, -16.058066997194146 ], [ -44.584211000137479, -16.083197997789341 ], [ -44.65957499968647, -16.133919997709654 ], [ -44.673851999769902, -16.092617997822288 ], [ -44.774252000029719, -16.160129997701176 ], [ -44.856440999552433, -16.129024997705415 ], [ -44.976180999553435, -16.162985997205965 ], [ -45.07955999959426, -16.121652997687647 ], [ -45.041210000041417, -16.007930997317601 ], [ -45.126168999599599, -15.949458997934357 ], [ -45.144343999575881, -15.899577997226741 ], [ -45.225626999586325, -15.843478997557668 ], [ -45.257471000386317, -15.745369997727153 ], [ -45.094191999860861, -15.586761997668019 ], [ -45.036193999853189, -15.553758997379759 ], [ -44.858510999682835, -15.734942997121552 ], [ -44.797428000401844, -15.772449997369449 ], [ -44.778593999713273, -15.807416997396444 ], [ -44.68332999977963, -15.775885997540684 ] ] } }
]
}
