{
"type": "FeatureCollection",
"features": [
{ "type": "Feature", "properties": { "Name": "SÃO DOMINGOS DAS DORES", "Description": "SÃO DOMINGOS DAS DORES \/ MG" }, "geometry": { "type": "LineString", "coordinates": [ [ -41.99978699967027, -19.458765997452758 ], [ -41.991481999794416, -19.538689996845847 ], [ -42.048644999966712, -19.571736997364493 ], [ -42.058979999927033, -19.499348997458242 ], [ -41.99978699967027, -19.458765997452758 ] ] } }
]
}
