{
"type": "FeatureCollection",
"features": [
{ "type": "Feature", "properties": { "Name": "SÃO GOTARDO", "Description": "SÃO GOTARDO \/ MG" }, "geometry": { "type": "LineString", "coordinates": [ [ -45.833881000407814, -19.179660996657617 ], [ -45.803860000038924, -19.195967996825573 ], [ -45.809719000431471, -19.241859997041161 ], [ -45.85163799999367, -19.325344996973968 ], [ -45.900654000381792, -19.437907996956422 ], [ -45.902189000122235, -19.46522499673614 ], [ -45.977464000063492, -19.459623997449455 ], [ -46.042033000022911, -19.554409996923766 ], [ -46.127647000108936, -19.542638997291874 ], [ -46.133203000018398, -19.461815996910673 ], [ -46.155457000140416, -19.410242996417082 ], [ -46.125765142647197, -19.369142662304 ], [ -46.136535999936427, -19.317647996357891 ], [ -46.109877999969683, -19.196906996960308 ], [ -46.001970999761795, -19.266518996554396 ], [ -45.930983999711771, -19.288536996585094 ], [ -45.921613000139807, -19.216180996355831 ], [ -45.833881000407814, -19.179660996657617 ] ] } }
]
}
