{
"type": "FeatureCollection",
"features": [
{ "type": "Feature", "properties": { "Name": "SEM-PEIXE", "Description": "SEM-PEIXE \/ MG" }, "geometry": { "type": "LineString", "coordinates": [ [ -42.755030999880717, -20.020246997001266 ], [ -42.777230000164309, -20.069532997249951 ], [ -42.761534000293864, -20.122816996607071 ], [ -42.810965000034685, -20.145589997280524 ], [ -42.869708000223966, -20.144746997076194 ], [ -42.895691999685994, -20.118808997037547 ], [ -42.873742000093159, -20.03659799739961 ], [ -42.838439999906022, -20.014155996701845 ], [ -42.755030999880717, -20.020246997001266 ] ] } }
]
}
