{
"type": "FeatureCollection",
"features": [
{ "type": "Feature", "properties": { "Name": "SENADOR AMARAL", "Description": "SENADOR AMARAL \/ MG" }, "geometry": { "type": "LineString", "coordinates": [ [ -46.147803999754728, -22.518474996623752 ], [ -46.152892999712151, -22.607682996972699 ], [ -46.158454999898311, -22.615593996665552 ], [ -46.296165000314488, -22.578712996507534 ], [ -46.28269499967444, -22.515208997097488 ], [ -46.18912999984957, -22.501843996802961 ], [ -46.147803999754728, -22.518474996623752 ] ] } }
]
}
