{
"type": "FeatureCollection",
"features": [
{ "type": "Feature", "properties": { "Name": "SERITINGA", "Description": "SERITINGA \/ MG" }, "geometry": { "type": "LineString", "coordinates": [ [ -44.398559999444387, -21.866399996662494 ], [ -44.379316999679752, -21.94080399600756 ], [ -44.441252999626215, -21.959533996396772 ], [ -44.513109000180172, -21.927227996774604 ], [ -44.55653499999022, -21.969238996082765 ], [ -44.557799999870042, -21.904350996701108 ], [ -44.501519999948016, -21.905992995979943 ], [ -44.440749000665789, -21.873016996037506 ], [ -44.398559999444387, -21.866399996662494 ] ] } }
]
}
