{
"type": "FeatureCollection",
"features": [
{ "type": "Feature", "properties": { "Name": "SERRANÃPOLIS DE MINAS", "Description": "SERRANÃPOLIS DE MINAS \/ MG" }, "geometry": { "type": "LineString", "coordinates": [ [ -42.776760000073914, -15.729532997649699 ], [ -42.761580999763282, -15.783907997855747 ], [ -42.795183999841697, -15.825727997349132 ], [ -42.813061999611534, -15.900312997846525 ], [ -42.758628000281924, -15.932296997908054 ], [ -42.725590000178329, -16.041602996980657 ], [ -42.763917999615948, -16.012614997484089 ], [ -42.90078900001231, -15.962048997563157 ], [ -43.003395000378923, -15.853921997102418 ], [ -43.018202999768562, -15.80590799705635 ], [ -42.942312000198626, -15.816032997225022 ], [ -42.878391000444253, -15.686758997329832 ], [ -42.82608899960757, -15.735742997141584 ], [ -42.776760000073914, -15.729532997649699 ] ] } }
]
}
