{
"type": "FeatureCollection",
"features": [
{ "type": "Feature", "properties": { "Name": "SILVEIRÃNIA", "Description": "SILVEIRÃNIA \/ MG" }, "geometry": { "type": "LineString", "coordinates": [ [ -43.131674000254861, -21.120105996394557 ], [ -43.202934000303856, -21.223172996436574 ], [ -43.244784000281356, -21.210869996553072 ], [ -43.239657000370244, -21.087740996749574 ], [ -43.151454999648479, -21.068802996660907 ], [ -43.131674000254861, -21.120105996394557 ] ] } }
]
}
