{
"type": "FeatureCollection",
"features": [
{ "type": "Feature", "properties": { "Name": "TAIOBEIRAS", "Description": "TAIOBEIRAS \/ MG" }, "geometry": { "type": "LineString", "coordinates": [ [ -41.904820999989113, -15.631190997866213 ], [ -41.916440999852227, -15.662089997355451 ], [ -41.880471000336343, -15.748362997254446 ], [ -41.865169999795619, -15.836512997376872 ], [ -41.916957000265306, -15.90640899747723 ], [ -41.908327999837297, -16.016302997585228 ], [ -42.068651999889816, -15.967499997127105 ], [ -42.103578999870876, -15.90594599770958 ], [ -42.155957880152016, -15.966379980551608 ], [ -42.224824080067208, -15.950671020551113 ], [ -42.268155999999351, -15.91548799707334 ], [ -42.290455000397912, -15.858367997085338 ], [ -42.327553999817212, -15.849264997281749 ], [ -42.193158000241453, -15.746310997954138 ], [ -42.108364000198435, -15.680838997721537 ], [ -41.989137999618947, -15.655669997172593 ], [ -41.935125999964896, -15.624766997498909 ], [ -41.904820999989113, -15.631190997866213 ] ] } }
]
}
