{
"type": "FeatureCollection",
"features": [
{ "type": "Feature", "properties": { "Name": "TOLEDO", "Description": "TOLEDO \/ MG" }, "geometry": { "type": "LineString", "coordinates": [ [ -46.308220999599428, -22.691965996833233 ], [ -46.299708000024111, -22.721665996788261 ], [ -46.332566107839568, -22.766115804600641 ], [ -46.452723077607914, -22.727581896387392 ], [ -46.480565276066613, -22.679865301242614 ], [ -46.39305887126983, -22.662974059205396 ], [ -46.308220999599428, -22.691965996833233 ] ] } }
]
}
