{
"type": "FeatureCollection",
"features": [
{ "type": "Feature", "properties": { "Name": "TOMBOS", "Description": "TOMBOS \/ MG" }, "geometry": { "type": "LineString", "coordinates": [ [ -41.92973805007091, -20.843588248898524 ], [ -41.966689268394987, -20.916951506906457 ], [ -42.038537996131595, -20.927458821467383 ], [ -42.150949976560128, -20.974028956371171 ], [ -42.164665000189586, -20.973694996726689 ], [ -42.187343000079352, -20.869859997241004 ], [ -42.097356999825649, -20.838404997292741 ], [ -42.102364999644969, -20.805017997282672 ], [ -42.038567000166893, -20.807235997043559 ], [ -41.92973805007091, -20.843588248898524 ] ] } }
]
}
