{
"type": "FeatureCollection",
"features": [
{ "type": "Feature", "properties": { "Name": "TRÃS MARIAS", "Description": "TRÃS MARIAS \/ MG" }, "geometry": { "type": "LineString", "coordinates": [ [ -44.733601999632526, -18.1394839975884 ], [ -44.805354999933286, -18.171171997489637 ], [ -44.833470999686817, -18.229856996802937 ], [ -44.811122999726592, -18.2969279970294 ], [ -44.8656339999091, -18.436028996840662 ], [ -44.849551000178451, -18.545863996925846 ], [ -44.922716999989518, -18.503825997271917 ], [ -44.998931000065568, -18.520583996654068 ], [ -45.044237000237331, -18.50191899656437 ], [ -45.155853999762257, -18.598975996445063 ], [ -45.162380000336725, -18.667262996989678 ], [ -45.213862000231074, -18.644584997099912 ], [ -45.237471999932836, -18.593372997066126 ], [ -45.220348999906378, -18.541993997424981 ], [ -45.358245999952885, -18.447042997536244 ], [ -45.303547000093943, -18.412633997161208 ], [ -45.283664999639996, -18.353461996973518 ], [ -45.315911000092512, -18.30882799721428 ], [ -45.263050999603934, -18.260282996962701 ], [ -45.26731700027932, -18.22092399764432 ], [ -45.238844610890055, -18.178403696073644 ], [ -45.231776999908561, -18.108203997616329 ], [ -45.179951000338349, -18.029259997550806 ], [ -45.198442999644662, -17.98780399685694 ], [ -45.116429000098208, -17.930780996845495 ], [ -45.020309000260113, -18.007593997564868 ], [ -45.009924999838802, -18.060193996855446 ], [ -44.952084999922761, -18.086263997585373 ], [ -44.874063000107299, -18.097005997428766 ], [ -44.847558000001641, -18.129994997071435 ], [ -44.733601999632526, -18.1394839975884 ] ] } }
]
}
