{
"type": "FeatureCollection",
"features": [
{ "type": "Feature", "properties": { "Name": "TURVOLÃNDIA", "Description": "TURVOLÃNDIA \/ MG" }, "geometry": { "type": "LineString", "coordinates": [ [ -45.787466000355607, -21.822919997060179 ], [ -45.731631000270397, -21.805521996942559 ], [ -45.738865000219562, -21.862002997140564 ], [ -45.730819999743176, -21.954998996806239 ], [ -45.849006000026861, -21.964700996353823 ], [ -45.859180999803243, -21.893794996441898 ], [ -45.875322999556715, -21.847635996503982 ], [ -45.848951000188492, -21.808678996838179 ], [ -45.787466000355607, -21.822919997060179 ] ] } }
]
}
