{
"type": "FeatureCollection",
"features": [
{ "type": "Feature", "properties": { "Name": "VARGINHA", "Description": "VARGINHA \/ MG" }, "geometry": { "type": "LineString", "coordinates": [ [ -45.364764000158452, -21.481176996321267 ], [ -45.254574999936267, -21.554052996248743 ], [ -45.284799999820109, -21.600536996784911 ], [ -45.330929000173171, -21.583758996480469 ], [ -45.346821000089051, -21.631682996872769 ], [ -45.416869000004283, -21.667478996458499 ], [ -45.461797999877774, -21.658005996679375 ], [ -45.456571999897847, -21.62098999569173 ], [ -45.519707000277776, -21.601796996434189 ], [ -45.54509399918868, -21.498235996094309 ], [ -45.442761999766446, -21.459708996472955 ], [ -45.364764000158452, -21.481176996321267 ] ] } }
]
}
