{
"type": "FeatureCollection",
"features": [
{ "type": "Feature", "properties": { "Name": "VÃRZEA DA PALMA", "Description": "VÃRZEA DA PALMA \/ MG" }, "geometry": { "type": "LineString", "coordinates": [ [ -44.649673999955098, -17.168126997562865 ], [ -44.687846000292609, -17.220465997407814 ], [ -44.614180999953128, -17.328058997524693 ], [ -44.484278999875926, -17.445638997741526 ], [ -44.433754000047031, -17.455866997264081 ], [ -44.468236000191212, -17.604798997175919 ], [ -44.527595000009228, -17.600388997054552 ], [ -44.609746999624292, -17.782918996814203 ], [ -44.647837999823764, -17.760013997248105 ], [ -44.649408000278925, -17.690845997444793 ], [ -44.737202000172147, -17.705318997573613 ], [ -44.752337000252339, -17.757338997097005 ], [ -44.848868000158063, -17.731801997564105 ], [ -44.879118000295421, -17.743589997080676 ], [ -45.006667999828259, -17.721432996935221 ], [ -45.045349000256124, -17.610602996830778 ], [ -44.981781999739439, -17.551030997082819 ], [ -44.987524000132453, -17.518857997298706 ], [ -44.956656000274165, -17.548782996837815 ], [ -44.899746000077812, -17.555030997182712 ], [ -44.879993000176796, -17.520541997615055 ], [ -44.77404699956935, -17.463828997510177 ], [ -44.793861999631531, -17.316893997060276 ], [ -44.82968400041625, -17.203573997242131 ], [ -44.855182999995407, -17.174541997515121 ], [ -44.830465999606133, -17.122747997621957 ], [ -44.789512999625174, -17.101872997241003 ], [ -44.806143000299187, -17.05131299759671 ], [ -44.711460000178818, -17.087409997573275 ], [ -44.709210999887716, -17.120411996916062 ], [ -44.649673999955098, -17.168126997562865 ] ] } }
]
}
