{
"type": "FeatureCollection",
"features": [
{ "type": "Feature", "properties": { "Name": "VERÃSSIMO", "Description": "VERÃSSIMO \/ MG" }, "geometry": { "type": "LineString", "coordinates": [ [ -48.355212999780065, -19.411807996641699 ], [ -48.306480999898213, -19.447820997241195 ], [ -48.272429999844576, -19.439147997482049 ], [ -48.147439999656228, -19.579060996967371 ], [ -48.168089999553786, -19.600994996721681 ], [ -48.184546000297644, -19.694578997422752 ], [ -48.327200000279731, -19.740610996899932 ], [ -48.388035999861465, -19.795958997010075 ], [ -48.454452999606183, -19.777354997035445 ], [ -48.447953000230711, -19.707053997144214 ], [ -48.484332999768071, -19.60439499703142 ], [ -48.5458340003388, -19.542534996992458 ], [ -48.443770999831713, -19.516063996656101 ], [ -48.409165000264515, -19.483258997404789 ], [ -48.399300000394646, -19.410332996970169 ], [ -48.355212999780065, -19.411807996641699 ] ] } }
]
}
