{
"type": "FeatureCollection",
"features": [
{ "type": "Feature", "properties": { "Name": "VIRGEM DA LAPA", "Description": "VIRGEM DA LAPA \/ MG" }, "geometry": { "type": "LineString", "coordinates": [ [ -42.377899000338573, -16.473835996933644 ], [ -42.289282000264052, -16.552735997668094 ], [ -42.309747999770309, -16.658572997745576 ], [ -42.254865999566164, -16.733687997503012 ], [ -42.173926000084805, -16.767466997603833 ], [ -42.142217000114435, -16.815929997671219 ], [ -42.18695900035754, -16.864941996975517 ], [ -42.214506999998036, -16.883233996951333 ], [ -42.336940000080915, -16.860936997544339 ], [ -42.391054999988228, -16.91401499729426 ], [ -42.422798999773988, -16.857660997556934 ], [ -42.400445000436378, -16.770394997730932 ], [ -42.465766000000876, -16.776051997801403 ], [ -42.483756999585808, -16.730385997215933 ], [ -42.468707999874255, -16.672651997691503 ], [ -42.453996999561809, -16.66020599750874 ], [ -42.42526600022569, -16.589531997503624 ], [ -42.467868999854431, -16.488522997038615 ], [ -42.377899000338573, -16.473835996933644 ] ] } }
]
}
