{
"type": "FeatureCollection",
"features": [
{ "type": "Feature", "properties": { "Name": "VISCONDE DO RIO BRANCO", "Description": "VISCONDE DO RIO BRANCO \/ MG" }, "geometry": { "type": "LineString", "coordinates": [ [ -42.758080000191789, -20.966246996801431 ], [ -42.763664999639957, -21.062911996591311 ], [ -42.790119000091742, -21.095925996487495 ], [ -42.845682000224087, -21.107020996421795 ], [ -42.868699999605269, -21.054681996576846 ], [ -42.922580000366679, -21.014220996801498 ], [ -42.942603000128315, -20.984518996754275 ], [ -42.933144000095467, -20.947367996735636 ], [ -42.812853999912136, -20.93613999696322 ], [ -42.758080000191789, -20.966246996801431 ] ] } }
]
}
