<?xml version="1.0" encoding="UTF-8" standalone="no"?>
<!-- Created with Inkscape (http://www.inkscape.org/) -->

<svg
   xmlns:dc="http://purl.org/dc/elements/1.1/"
   xmlns:cc="http://creativecommons.org/ns#"
   xmlns:rdf="http://www.w3.org/1999/02/22-rdf-syntax-ns#"
   xmlns:svg="http://www.w3.org/2000/svg"
   xmlns="http://www.w3.org/2000/svg"
   version="1.1"
   width="669.42499"
   height="284.95001"
   id="svg2"
   xml:space="preserve"><metadata
     id="metadata8"><rdf:RDF><cc:Work
         rdf:about=""><dc:format>image/svg+xml</dc:format><dc:type
           rdf:resource="http://purl.org/dc/dcmitype/StillImage" /><dc:title></dc:title></cc:Work></rdf:RDF></metadata><defs
     id="defs6" /><g
     transform="matrix(1.25,0,0,-1.25,0,284.95)"
     id="g10"><g
       transform="scale(0.1,0.1)"
       id="g12"><path
         d="m 1695.38,1996.6 88.23,0 0,-33.93 c 18.24,26.11 44.89,41.78 79.33,41.78 33.45,0 57.43,-13.59 69.43,-41.78 18.29,26.11 44.94,41.78 79.36,41.78 49.06,0 78.33,-29.24 78.33,-90.84 l 0,-136.28 29.72,-1.53 0,-41.76 -124.26,0 0,39.68 17.23,1.57 c 9.42,1.02 14.65,4.14 15.16,16.69 l 0,108.09 c 0,31.79 -2.62,56.34 -36.06,56.34 -34.93,0 -50.61,-22.95 -50.61,-53.76 l 0,-125.32 28.73,-1.53 0,-41.76 -123.18,0 0,39.68 17.2,1.57 c 9.93,1.02 15.14,4.14 15.14,17.23 l 0,107.55 c 0,31.79 -2.62,56.34 -36.02,56.34 -36.51,0 -50.62,-25.57 -50.62,-52.68 l 0,-126.4 28.18,-1.53 0,-41.76 -123.21,0 0,39.68 17.21,1.57 c 9.92,1.02 15.16,4.14 15.16,17.23 l 0.51,0 0,144.06 c 0,11.47 -3.1,15.68 -13.03,16.19 l -21.93,1.56 0,42.27"
         id="path14"
         style="fill:#fff;fill-opacity:1;fill-rule:nonzero;stroke:none" /><path
         d="m 2334.81,1952.26 c -7.79,3.64 -23.98,6.79 -40.19,6.79 -49.6,0 -66.27,-46.5 -66.27,-102.85 0,-43.34 10.44,-84.59 54.3,-84.59 32.36,0 52.16,22.99 52.16,45.43 l 0,135.22 z m 60.61,-160.28 c 0,-11.46 3.08,-14.65 13,-15.13 l 16.73,-1.05 0,-41.76 -83,0 0,30.26 -1.59,0.49 c -16.19,-23.47 -42.78,-37.52 -71.48,-37.52 -73.61,0 -104.44,52.16 -104.44,126.86 0,91.84 43.86,150.32 137.84,150.32 17.23,0 55.29,-4.18 92.94,-18.26 l 0,-194.21"
         id="path16"
         style="fill:#fff;fill-opacity:1;fill-rule:nonzero;stroke:none" /><path
         d="m 2604.14,1953.79 c -29.72,0 -52.68,-20.87 -52.68,-44.88 l 0,-120.06 c 13.57,-8.87 32.37,-13.05 45.94,-13.05 44.34,0 59.47,45.39 59.47,90.84 0,69.43 -25,87.15 -52.73,87.15 z m -112.69,-16.66 c 0,11.46 -3.16,15.64 -13.09,15.64 l -21.9,1.56 0,42.27 88.24,0 0,-33.93 c 9.35,17.78 38.11,41.78 82.42,41.78 57.97,0 94.55,-39.2 94.55,-132.6 0,-96.05 -45.45,-145.66 -114.34,-145.66 -20.37,0 -42.3,6.83 -55.87,15.13 l 0,-71.99 42.27,-2.13 0,-41.21 -134.65,0 0,39.67 17.21,1.54 c 9.93,1.05 15.16,4.21 15.16,17.23 l 0,252.7"
         id="path18"
         style="fill:#fff;fill-opacity:1;fill-rule:nonzero;stroke:none" /><path
         d="m 2942.99,1952.26 c -7.85,3.64 -24.06,6.79 -40.2,6.79 -49.66,0 -66.3,-46.5 -66.3,-102.85 0,-43.34 10.44,-84.59 54.3,-84.59 32.37,0 52.2,22.99 52.2,45.43 l 0,135.22 z m 60.55,-160.28 c 0,-11.46 3.1,-14.65 13.02,-15.13 l 16.7,-1.05 0,-41.76 -83,0 0,30.26 -1.53,0.49 c -16.21,-23.47 -42.8,-37.52 -71.53,-37.52 -73.62,0 -104.42,52.16 -104.42,126.86 0,91.84 43.83,150.32 137.83,150.32 17.21,0 55.33,-4.18 92.93,-18.26 l 0,-194.21"
         id="path20"
         style="fill:#fff;fill-opacity:1;fill-rule:nonzero;stroke:none" /><path
         d="m 3364.23,1950.66 c -9.39,4.18 -23.53,8.39 -39.68,8.39 -49.61,0 -66.3,-47.01 -66.3,-98.18 0,-47.47 11.46,-87.66 56.4,-87.66 29.21,0 49.58,19.31 49.58,42.27 l 0,135.18 z m 0,47.54 0,52.7 c 0,8.87 -4.73,12.03 -13.6,12.54 l -22.44,1.57 0,41.21 97.1,0 0,-317.37 c 0.52,-8.87 4.13,-12 13.06,-12 l 18.29,-1.05 0,-41.76 -84.59,0 0,30.75 -1.56,0.6 c -16.19,-26.14 -42.3,-38.12 -71,-38.12 -81.46,0 -105.47,62.61 -105.47,127.86 0,89.28 45.94,149.32 127.4,149.32 18.26,0 30.75,-2.59 42.81,-6.25"
         id="path22"
         style="fill:#fff;fill-opacity:1;fill-rule:nonzero;stroke:none" /><path
         d="m 3624.68,1960.05 c -41.75,0 -60.53,-40.19 -62.12,-78.82 38.66,0.54 93.47,9.42 93.47,49.61 0,19.29 -12.54,29.21 -31.35,29.21 z m 88.72,-28.19 c 0,-80.4 -87.12,-93.94 -148.73,-94.48 2.07,-33.91 19.82,-61.58 64.2,-61.58 30.8,0 53.27,14.08 65.75,22.98 l 19.85,-42.32 c -8.33,-7.29 -42.77,-29.19 -91.86,-29.19 -88.77,0 -123.2,54.27 -123.2,132.06 0,77.25 43.32,145.12 128.94,145.12 51.17,0 85.05,-26.11 85.05,-72.59"
         id="path24"
         style="fill:#fff;fill-opacity:1;fill-rule:nonzero;stroke:none" /><path
         d="m 326.418,392.719 c 0,94.972 -22.871,153.48 -90.738,153.48 -66.985,0 -94.117,-57.679 -94.117,-139.09 0,-78.879 10.976,-163.687 92.441,-163.687 66.129,0 92.414,61.058 92.414,149.297 z m -85.676,228.082 c 62.805,0 189.176,-19.481 189.176,-214.571 0,-162.808 -90.762,-237.468 -202.711,-237.468 -113.66,0 -188.2968,72.949 -188.2968,226.468 0,176.418 114.5118,225.571 201.8318,225.571"
         id="path26"
         style="fill:#fff;fill-opacity:1;fill-rule:nonzero;stroke:none" /><path
         d="m 513.941,511.41 c 0,18.66 -5.125,24.61 -21.191,25.43 l -35.641,2.558 0,68.723 143.325,0 0,-63.601 c 19.511,42.41 64.453,76.281 120.429,76.281 27.961,0 53.418,-5.063 81.403,-18.621 l 0,-126.379 -78.899,-5.949 0,39 c 0,10.207 -1.679,17.839 -8.422,21.218 -7.648,3.391 -13.593,4.239 -22.925,4.239 -45.79,0 -77.192,-36.469 -77.192,-85.68 l 0,-196.758 73.809,-3.351 0,-67.04 -227.289,0 0,64.469 27.957,2.571 c 16.129,1.671 24.636,6.761 24.636,27.96 l 0,234.93"
         id="path28"
         style="fill:#fff;fill-opacity:1;fill-rule:nonzero;stroke:none" /><path
         d="m 1108.52,536.84 c -19.52,6.82 -44.09,10.18 -67.87,10.18 -70.427,0 -106.861,-55.969 -106.861,-141.649 0,-57.609 9.332,-133.961 88.231,-133.961 47.47,0 86.5,31.371 86.5,83.078 l 0,182.352 z M 849.824,27.9922 l 0,117.8668 80.551,6.832 0,-40.742 c 0,-16.117 4.27,-24.5701 19.543,-30.5076 16.066,-5.9805 34.727,-8.5117 60.182,-8.5117 78.05,0 98.42,53.4223 98.42,124.6993 l 0,46.652 c -28.88,-33.972 -71.28,-47.5 -112.836,-47.5 -123.789,0 -166.227,101.77 -166.227,198.449 0,153.532 92.441,225.571 220.493,225.571 40.73,0 106.89,-10.153 156.92,-31.371 l 0,-314.66 c 0,-29.668 0.85,-61.872 -1.7,-92.418 C 1195.01,57.6602 1136.47,0 1009.28,0 955.836,0 885.434,10.1602 849.824,27.9922"
         id="path30"
         style="fill:#fff;fill-opacity:1;fill-rule:nonzero;stroke:none" /><path
         d="m 1546.2,536.02 c -12.74,5.941 -39.05,11 -65.31,11 -80.61,0 -107.71,-75.489 -107.71,-167.071 0,-70.367 16.95,-137.347 88.17,-137.347 52.59,0 84.85,37.277 84.85,73.718 l 0,219.7 z m 98.36,-260.399 c 0,-18.641 5.09,-23.75 21.19,-24.601 l 27.13,-1.68 0,-67.86 -134.82,0 0,49.2 -2.59,0.851 c -26.25,-38.172 -69.51,-61.039 -116.16,-61.039 -119.57,0 -169.66,84.789 -169.66,206.067 0,149.273 71.27,244.242 223.96,244.242 27.96,0 89.88,-6.742 150.95,-29.641 l 0,-315.539"
         id="path32"
         style="fill:#fff;fill-opacity:1;fill-rule:nonzero;stroke:none" /><path
         d="m 1739.64,608.121 143.32,0 0,-55.121 c 29.7,42.398 81.41,67.801 137.42,67.801 84.81,0 134.81,-47.469 134.81,-147.563 l 0,-221.367 48.36,-2.531 0,-67.86 -201.84,0 0,64.469 27.99,2.571 c 16.1,1.671 24.61,6.761 24.61,27.96 l 0,174.719 c 0,55.973 -11.92,91.641 -69.54,91.641 -56.01,0 -87.38,-41.578 -87.38,-85.699 l 0,-205.27 48.32,-2.531 0,-67.86 -201.83,0 0,64.469 27.96,2.571 c 16.15,1.671 24.6,6.761 24.6,27.96 l 0,234.93 c 0,18.66 -5.91,25.43 -21.19,26.32 l -35.61,2.532 0,67.859"
         id="path34"
         style="fill:#fff;fill-opacity:1;fill-rule:nonzero;stroke:none" /><path
         d="m 2347.84,764.102 c 37.32,0 64.43,-27.961 64.43,-63.571 0,-35.609 -27.11,-61.941 -65.31,-61.941 -38.97,0 -64.46,26.332 -64.46,61.941 0,35.61 25.49,63.571 65.34,63.571 z m 59.39,-512.231 48.33,-2.531 0,-67.86 -201.87,0 0,64.469 27.99,2.571 c 15.27,1.671 24.57,6.761 24.57,27.101 l 0,235.789 c 0,18.66 -5.06,24.61 -21.21,24.61 l -29.67,1.71 0,70.391 151.86,0 0,-356.25"
         id="path36"
         style="fill:#fff;fill-opacity:1;fill-rule:nonzero;stroke:none" /><path
         d="m 2814.34,284.121 36.46,-65.269 c -33.05,-27.172 -84.78,-49.243 -147.57,-49.243 -124.66,0 -198.44,78.911 -198.44,219.672 0,172.199 105.98,231.52 201.83,231.52 50.89,0 91.62,-12.68 132.3,-34.719 l 0,-110.281 -78.03,-5.949 0,40.738 c 0,16.101 -2.5,23.719 -17.78,28.808 -10.18,3.442 -20.34,5.122 -33.1,5.122 -67.87,0 -102.63,-50.891 -102.63,-145.059 0,-92.441 33.94,-151.801 109.43,-151.801 33.07,0 62.77,11 97.53,36.461"
         id="path38"
         style="fill:#fff;fill-opacity:1;fill-rule:nonzero;stroke:none" /><path
         d="m 3161.26,536.02 c -12.72,5.941 -38.99,11 -65.31,11 -80.58,0 -107.69,-75.489 -107.69,-167.071 0,-70.367 16.95,-137.347 88.18,-137.347 52.59,0 84.82,37.277 84.82,73.718 l 0,219.7 z m 98.41,-260.399 c 0,-18.641 5.07,-23.75 21.19,-24.601 l 27.14,-1.68 0,-67.86 -134.86,0 0,49.2 -2.55,0.851 c -26.28,-38.172 -69.52,-61.039 -116.17,-61.039 -119.6,0 -169.65,84.789 -169.65,206.067 0,149.273 71.25,244.242 223.92,244.242 27.96,0 89.91,-6.742 150.98,-29.641 l 0,-315.539"
         id="path40"
         style="fill:#fff;fill-opacity:1;fill-rule:nonzero;stroke:none" /><path
         d="m 3532.84,551.262 c -36.49,0 -63.6,-16.953 -63.6,-50.832 0,-39.051 40.7,-50.969 80.55,-61.942 66.16,-18.656 139.12,-39.859 139.12,-132.328 0,-88.199 -72.96,-135.668 -163.7,-135.668 -53.44,0 -120.43,8.477 -156.09,26.289 l 0,117.86 76.34,5.98 0,-40.742 c 0,-16.117 4.27,-22.899 19.51,-28.859 16.13,-5.918 35.64,-8.418 56.01,-8.418 42.41,0 67.01,16.058 67.01,51.679 0,40.731 -37.32,48.348 -83.14,60.207 -62.77,16.16 -131.43,37.352 -131.43,131.473 0,88.23 74.6,134.84 163.66,134.84 57.68,0 107.71,-17.77 140.79,-33.871 l 0,-101.801 -76.34,-5.918 0,35.59 c 0,16.129 -4.26,22.929 -19.49,28.859 -16.12,5.922 -28.87,7.602 -49.2,7.602"
         id="path42"
         style="fill:#fff;fill-opacity:1;fill-rule:nonzero;stroke:none" /><path
         d="m 1387.17,649.93 77.65,51.031 c 18.89,12.508 42.52,11.121 60.07,-0.711 l 76.32,-50 -27.7,-11.469 -79.68,35.129 -78.98,-34.789 -27.68,10.809"
         id="path44"
         style="fill:#fff;fill-opacity:1;fill-rule:nonzero;stroke:none" /><path
         d="m 124.84,1407.18 -124.84,0 0,121.99 124.84,0 0,55.15 c 0,116.1 26.137,264.18 251.121,264.18 63.859,0 152.398,-23.24 201.809,-50.8 l -42.157,-116.14 c -42.066,21.76 -97.25,36.3 -137.863,36.3 -72.59,0 -100.176,-40.68 -100.176,-120.52 l 0,-68.17 214.856,0 0,-121.99 -214.856,0 0,-486.27 121.934,-5.828 0,-116.16 -384.6955,0 0,110.387 47.9297,4.312 c 27.5588,2.899 42.0978,11.617 42.0978,47.899 l 0,445.66"
         id="path46"
         style="fill:#fff;fill-opacity:1;fill-rule:nonzero;stroke:none" /><path
         d="m 924.629,1427.48 c -116.133,0 -168.383,-111.72 -172.734,-219.15 107.402,1.45 259.855,26.13 259.855,137.89 0,53.7 -34.871,81.26 -87.121,81.26 z m 246.801,-78.33 c 0,-223.59 -242.422,-261.31 -413.758,-262.76 5.828,-94.378 55.203,-171.308 178.594,-171.308 85.634,0 148.074,39.219 182.884,63.859 l 55.16,-117.562 C 1151.12,841.07 1055.3,780.09 918.828,780.09 c -246.773,0 -342.57,150.98 -342.57,367.28 0,214.81 120.484,403.56 358.527,403.56 142.275,0 236.645,-72.59 236.645,-201.78"
         id="path48"
         style="fill:#fff;fill-opacity:1;fill-rule:nonzero;stroke:none" /><path
         d="m 1434.13,1788.82 c 63.89,0 110.36,-47.89 110.36,-108.88 0,-60.95 -46.47,-105.95 -111.84,-105.95 -66.75,0 -110.33,45 -110.33,105.95 0,60.99 43.58,108.88 111.81,108.88 z m 101.6,-869.371 82.74,-4.367 0,-116.16 -345.44,0 0,110.387 47.87,4.312 c 26.14,2.899 42.13,11.617 42.13,46.461 l 0,403.548 c 0,32 -8.74,42.15 -36.33,42.15 l -50.8,2.85 0,120.54 259.83,0 0,-609.721"
         id="path50"
         style="fill:#fff;fill-opacity:1;fill-rule:nonzero;stroke:none" /><path
         d="m 1792.63,1363.63 c 0,32 -8.7,42.15 -36.29,43.55 l -60.96,4.37 0,117.62 245.35,0 0,-108.92 c 33.37,72.62 110.3,130.68 206.13,130.68 47.87,0 91.45,-8.73 139.35,-31.97 l 0,-216.29 -135.02,-10.15 0,66.78 c 0,17.41 -2.88,30.47 -14.48,36.33 -13.09,5.74 -23.24,7.22 -39.23,7.22 -78.38,0 -132.08,-62.43 -132.08,-146.63 l 0,-336.771 126.31,-5.828 0,-114.699 -389.07,0 0,110.387 47.92,4.312 c 27.59,2.899 42.07,11.617 42.07,47.899 l 0,402.11"
         id="path52"
         style="fill:#fff;fill-opacity:1;fill-rule:nonzero;stroke:none" /><path
         d="m 2831.14,1405.78 c -21.76,10.13 -66.75,18.83 -111.75,18.83 -137.89,0 -184.37,-129.22 -184.37,-285.97 0,-120.48 29.05,-235.171 150.99,-235.171 89.99,0 145.13,63.863 145.13,126.291 l 0,376.02 z m 168.42,-445.698 c 0,-31.91 8.7,-40.633 36.26,-42.07 l 46.47,-2.93 0,-116.16 -230.78,0 0,84.25 -4.38,1.437 C 2802.14,819.25 2728.12,780.09 2648.29,780.09 c -204.71,0 -290.38,145.148 -290.38,352.75 0,255.48 121.93,418.09 383.24,418.09 47.93,0 153.91,-11.61 258.41,-50.84 l 0,-540.008"
         id="path54"
         style="fill:#fff;fill-opacity:1;fill-rule:nonzero;stroke:none" /><path
         d="m 3466.93,1431.89 c -62.43,0 -108.9,-29.04 -108.9,-87.12 0,-66.76 69.68,-87.09 137.92,-105.98 113.23,-31.94 238.06,-68.24 238.06,-226.46 0,-150.951 -124.83,-232.24 -280.16,-232.24 -91.44,0 -206.13,14.531 -267.08,44.992 l 0,201.778 130.64,10.15 0,-69.678 c 0,-27.562 7.26,-39.16 33.39,-49.32 27.56,-10.192 60.93,-14.543 95.77,-14.543 72.62,0 114.71,27.601 114.71,88.543 0,69.688 -63.85,82.778 -142.27,103.088 -107.43,27.59 -224.99,63.85 -224.99,224.98 0,150.97 127.72,230.85 280.14,230.85 98.73,0 184.39,-30.5 240.97,-58.06 l 0,-174.24 -130.64,-10.16 0,61.01 c 0,27.57 -7.22,39.15 -33.37,49.3 -27.56,10.18 -49.37,13.11 -84.19,13.11"
         id="path56"
         style="fill:#fff;fill-opacity:1;fill-rule:nonzero;stroke:none" /><path
         d="m 4620.36,962.949 c -321.29,0 -582,260.421 -582,581.891 0,321.29 260.71,581.91 582,581.91 321.5,0 582.06,-260.62 582.06,-581.91 0,-321.47 -260.56,-581.891 -582.06,-581.891 z m 0,1316.691 c -405.88,0 -734.85,-328.89 -734.85,-734.8 0,-405.91 734.85,-1370.219 734.85,-1370.219 0,0 735,964.309 735,1370.219 0,405.91 -329.03,734.8 -735,734.8"
         id="path58"
         style="fill:#fff;fill-opacity:1;fill-rule:nonzero;stroke:none" /></g></g></svg>
