{
"type": "FeatureCollection",
"features": [
{ "type": "Feature", "properties": { "Name": "CRUZEIRO DO SUL", "Description": "CRUZEIRO DO SUL \/ AC" }, "geometry": { "type": "LineString", "coordinates": [ [ -71.945425046228877, -7.626754444162202 ], [ -72.000853023048535, -7.808375869650603 ], [ -72.084551976192699, -7.860156985856178 ], [ -72.135357649935543, -7.921116762728388 ], [ -72.182684889895711, -7.946619430642158 ], [ -72.215027571065491, -7.975048579728139 ], [ -72.225685190219338, -8.020362515517604 ], [ -72.246663928297608, -8.035915957555346 ], [ -72.257682565897639, -8.071450146507004 ], [ -72.26630001633265, -8.260568399711813 ], [ -72.28341083953859, -8.210426977822747 ], [ -72.301803017695079, -8.20566320958943 ], [ -72.319429519356788, -8.229280140366143 ], [ -72.396164586626355, -8.254417444309581 ], [ -72.421425884596871, -8.250811800524104 ], [ -72.456354324392521, -8.232331655181667 ], [ -72.506099088601999, -8.232968985829984 ], [ -72.564692043203195, -8.18762111322377 ], [ -72.634021050431087, -8.185166682596275 ], [ -72.673984536257308, -8.223161912192438 ], [ -72.7031955712186, -8.212738861409264 ], [ -72.731694268475678, -8.218007335470134 ], [ -72.758153425640046, -8.20040393919038 ], [ -72.797003141581683, -8.201535934735546 ], [ -72.794877924876289, -8.177813271565185 ], [ -72.807321089496668, -8.126206947592493 ], [ -72.867950552575905, -8.158656939466141 ], [ -72.893840210457313, -8.187016813774903 ], [ -72.928108946270811, -8.205014396397246 ], [ -73.003577518987299, -8.224884094125571 ], [ -73.01528060181829, -8.255387550195223 ], [ -73.037615290013605, -8.282384072966522 ], [ -73.079696079410496, -8.294873759516349 ], [ -73.100590224559184, -8.33778029472478 ], [ -73.177539214463138, -8.373854326915591 ], [ -73.20257102882988, -8.378594594065191 ], [ -73.3321447772596, -8.475366756170786 ], [ -73.365061432738912, -8.46337609173321 ], [ -73.394447218564267, -8.467280548758252 ], [ -73.406725495185412, -8.419167676347115 ], [ -73.421564647090747, -8.40699788494436 ], [ -73.482004569055562, -8.391756350275273 ], [ -73.536951374406385, -8.345482303665335 ], [ -73.529734028102894, -8.314759738571013 ], [ -73.540117631923124, -8.295012038374805 ], [ -73.540316038554295, -8.262745481218928 ], [ -73.571642287961183, -8.229798974542973 ], [ -73.58647384329322, -8.186376366975708 ], [ -73.593950737536488, -8.097404418878796 ], [ -73.632242867514265, -8.058960577768403 ], [ -73.399578403020826, -8.030366736735459 ], [ -73.380075813947599, -7.992161529830695 ], [ -73.341874303256461, -7.985695262226499 ], [ -73.324859419726408, -7.996467273345957 ], [ -73.297114844474436, -7.988734646086982 ], [ -73.267337662902762, -7.953457604784602 ], [ -73.238018412519693, -7.942253052136606 ], [ -73.199307640035499, -7.905131230621748 ], [ -73.171337451861859, -7.895742477533247 ], [ -73.132010990914466, -7.899146153372214 ], [ -73.10640912238307, -7.88960799321427 ], [ -73.115316542124674, -7.934083961405634 ], [ -73.076828768233042, -7.946260444663721 ], [ -73.04205872692863, -7.935411464167714 ], [ -72.970427151291972, -7.937134348471374 ], [ -72.949362939847731, -7.946754574463966 ], [ -72.917712001907319, -7.92853599064341 ], [ -72.892194982612295, -7.929831621432128 ], [ -72.851956736813918, -7.909667718590299 ], [ -72.780103669848472, -7.897543360937335 ], [ -72.777229363744084, -7.885803766530557 ], [ -72.72314408463177, -7.868615760808665 ], [ -72.641042425467504, -7.821854640479216 ], [ -72.623838119533559, -7.755727348338382 ], [ -72.645464498088074, -7.729577900599566 ], [ -72.654666908950674, -7.694766990504149 ], [ -72.741096497005685, -7.725073337664354 ], [ -72.794349670301017, -7.688624859249785 ], [ -72.860057993481576, -7.673958611001069 ], [ -72.852846344383238, -7.658731835106039 ], [ -72.783421793181162, -7.660086209610824 ], [ -72.860745802177007, -7.58662992213317 ], [ -72.887216676608318, -7.537903769643207 ], [ -72.900313046709698, -7.437681232602756 ], [ -72.58476562173604, -7.552004229211775 ], [ -72.17515609667646, -7.59994265383034 ], [ -71.945425046228877, -7.626754444162202 ] ] } }
]
}
