{
"type": "FeatureCollection",
"features": [
{ "type": "Feature", "properties": { "Name": "PLÃCIDO DE CASTRO", "Description": "PLÃCIDO DE CASTRO \/ AC" }, "geometry": { "type": "LineString", "coordinates": [ [ -67.001221650758509, -10.229427102678583 ], [ -67.014844837419275, -10.256907687339833 ], [ -67.079494707114975, -10.28893233405995 ], [ -67.136757952017831, -10.296981541564833 ], [ -67.140091871042941, -10.319337355734318 ], [ -67.180332567493963, -10.339460113693233 ], [ -67.196264898406298, -10.323746413366223 ], [ -67.235725078649409, -10.315796888515536 ], [ -67.261472315394983, -10.329476361944501 ], [ -67.310510049699019, -10.320922286734117 ], [ -67.318627756765522, -10.379984887992121 ], [ -67.383474273119191, -10.380382078969717 ], [ -67.406747772591586, -10.372978990288116 ], [ -67.422148507947256, -10.389358795971589 ], [ -67.413355037704775, -10.425505823434946 ], [ -67.435728463297892, -10.446790360686578 ], [ -67.52096606203412, -10.491003156670274 ], [ -67.53732316253388, -10.487951390044543 ], [ -67.587680715792374, -10.510411746804607 ], [ -67.606511129984597, -10.504389009545093 ], [ -67.621271841222438, -10.480044189088005 ], [ -67.670664097270219, -10.479993400774788 ], [ -67.710837519036261, -10.440576758510529 ], [ -67.678529335860105, -10.389595454366656 ], [ -67.657022972731966, -10.397818454957701 ], [ -67.637026388756794, -10.363440770774901 ], [ -67.623263426765675, -10.319351727799926 ], [ -67.503585044713972, -10.263773309690464 ], [ -67.501807880029617, -10.243915248290023 ], [ -67.444287170016821, -10.16653528797309 ], [ -67.429089668853123, -10.127993312841056 ], [ -67.426498012473246, -10.095983542706279 ], [ -67.346408315691178, -10.062152091445796 ], [ -67.298385620100248, -10.062266349412425 ], [ -67.247813618103976, -10.026801043133558 ], [ -67.165658478955606, -9.985896682985469 ], [ -67.124553724674627, -9.970684018352699 ], [ -67.100336419989731, -10.103557903674242 ], [ -67.076122257536099, -10.088027530146347 ], [ -67.075959455064776, -10.20241847862985 ], [ -67.002387512073994, -10.20225319942557 ], [ -67.001221650758509, -10.229427102678583 ] ] } }
]
}
