{
"type": "FeatureCollection",
"features": [
{ "type": "Feature", "properties": { "Name": "PORTO ACRE", "Description": "PORTO ACRE \/ AC" }, "geometry": { "type": "LineString", "coordinates": [ [ -67.976837447889864, -9.352731913846696 ], [ -67.51688199870523, -9.560906660913645 ], [ -67.325817221387638, -9.592381468430004 ], [ -67.339515685800222, -9.62425327267033 ], [ -67.326232910520389, -9.664065361227415 ], [ -67.336921692082399, -9.682015419176196 ], [ -67.333698106382485, -9.722650005193543 ], [ -67.369079589551404, -9.782904624548735 ], [ -67.406768798741041, -9.804263114850812 ], [ -67.441390991500995, -9.844211578401598 ], [ -67.437911987548148, -9.88191509220769 ], [ -67.451034545907532, -9.918045044243343 ], [ -67.481692544175516, -9.92697757305649 ], [ -67.516879519274354, -9.906312246912591 ], [ -67.513111644087076, -9.88536879643277 ], [ -67.542396550260534, -9.850062851819132 ], [ -67.59134030720935, -9.84204143246609 ], [ -67.612384550106867, -9.858904517629355 ], [ -67.653200900800869, -9.863172397887809 ], [ -67.684717016876789, -9.833779600048445 ], [ -67.709996415502133, -9.836402256059216 ], [ -67.718166574627674, -9.805616248291187 ], [ -67.702829138953575, -9.787365139589495 ], [ -67.743516551147877, -9.739733759705189 ], [ -67.793969398368972, -9.782264668779419 ], [ -67.795800775984958, -9.761998263908707 ], [ -67.86462263752469, -9.7407956989623 ], [ -67.875485488264644, -9.720475515532542 ], [ -67.906030330235524, -9.711921120163538 ], [ -67.922203582329416, -9.693545217937412 ], [ -67.910035763139945, -9.669265946366295 ], [ -68.090338656603706, -9.557801932313282 ], [ -68.072861110551798, -9.523332578435713 ], [ -68.027943200218488, -9.491549788192115 ], [ -68.018402939244183, -9.459186324589155 ], [ -68.056125723723142, -9.412256823293715 ], [ -68.059359657921846, -9.392204087448647 ], [ -68.045273409440256, -9.352488693997998 ], [ -68.031820865540453, -9.343717896563646 ], [ -67.997693254040428, -9.359037941148017 ], [ -67.976837447889864, -9.352731913846696 ] ] } }
]
}
