{
"type": "FeatureCollection",
"features": [
{ "type": "Feature", "properties": { "Name": "ALVORADA DO SUL", "Description": "ALVORADA DO SUL \/ PR" }, "geometry": { "type": "LineString", "coordinates": [ [ -51.175964248751029, -22.738806416682731 ], [ -51.184076947493111, -22.77152761620647 ], [ -51.154593149054563, -22.854980443792385 ], [ -51.17749480853854, -22.899981349859388 ], [ -51.197146301960231, -22.915605477710582 ], [ -51.203208815334499, -22.944780535293432 ], [ -51.223606740658511, -22.95666369927028 ], [ -51.271917183331311, -22.924853307034425 ], [ -51.315785878015781, -22.915676784955622 ], [ -51.342436576386831, -22.891808984696866 ], [ -51.334907161736112, -22.835890323379658 ], [ -51.317782404434347, -22.830127008154875 ], [ -51.311846368115368, -22.785135508996518 ], [ -51.343953894556535, -22.733605807262162 ], [ -51.345227920931791, -22.702864678362175 ], [ -51.333070432254594, -22.667109522386511 ], [ -51.306494967568653, -22.674490237734233 ], [ -51.265199856488152, -22.667697405610738 ], [ -51.228335958737489, -22.716017185944338 ], [ -51.175964248751029, -22.738806416682731 ] ] } }
]
}
