{
"type": "FeatureCollection",
"features": [
{ "type": "Feature", "properties": { "Name": "ASTORGA", "Description": "ASTORGA \/ PR" }, "geometry": { "type": "LineString", "coordinates": [ [ -51.592984832284117, -23.130586576409314 ], [ -51.609426367432889, -23.151793414034785 ], [ -51.615144003393027, -23.219454941492302 ], [ -51.622307436239169, -23.228874511649337 ], [ -51.591604372044117, -23.282981969842012 ], [ -51.67666399045077, -23.373938442005453 ], [ -51.690206165282234, -23.377693535128511 ], [ -51.727852313133724, -23.351827089648395 ], [ -51.776352224975142, -23.335479833127749 ], [ -51.811587066489892, -23.322497079776383 ], [ -51.846399799511119, -23.327923937039998 ], [ -51.842238671477446, -23.311409548711651 ], [ -51.868474360603216, -23.288011320466012 ], [ -51.818349684090606, -23.259076256863693 ], [ -51.781898175860078, -23.252285510268052 ], [ -51.762962951978636, -23.225644879807305 ], [ -51.731866991968047, -23.222481353531577 ], [ -51.723853192570743, -23.170185897960778 ], [ -51.694150068370902, -23.156918457021106 ], [ -51.679600500862364, -23.130062806753074 ], [ -51.672302361264933, -23.086875862031377 ], [ -51.594954493255216, -23.11617975738983 ], [ -51.592984832284117, -23.130586576409314 ] ] } }
]
}
