{
"type": "FeatureCollection",
"features": [
{ "type": "Feature", "properties": { "Name": "BARRACÃO", "Description": "BARRACÃO \/ PR" }, "geometry": { "type": "LineString", "coordinates": [ [ -53.473762880952165, -26.199104121158197 ], [ -53.45351860569906, -26.20502986113911 ], [ -53.4281347975828, -26.281211758116115 ], [ -53.495834711702514, -26.302798865974864 ], [ -53.557265037251625, -26.287083038751177 ], [ -53.584329571252674, -26.259073397319412 ], [ -53.629110111942055, -26.257847911851627 ], [ -53.653168324758326, -26.235971332910651 ], [ -53.651720556558416, -26.206921688485064 ], [ -53.63354958464555, -26.201905989569696 ], [ -53.565526896648919, -26.210156676689223 ], [ -53.541015199791616, -26.197546391053038 ], [ -53.505800541761566, -26.219038355135922 ], [ -53.473762880952165, -26.199104121158197 ] ] } }
]
}
