{
"type": "FeatureCollection",
"features": [
{ "type": "Feature", "properties": { "Name": "BELA VISTA DA CAROBA", "Description": "BELA VISTA DA CAROBA \/ PR" }, "geometry": { "type": "LineString", "coordinates": [ [ -53.603226063132233, -25.81339621626233 ], [ -53.587205318970234, -25.817362007050917 ], [ -53.569760590978433, -25.860137553305378 ], [ -53.57450771995525, -25.929631799268066 ], [ -53.60958025092782, -25.951573013383836 ], [ -53.683520356579145, -25.923847944427052 ], [ -53.697087060419449, -25.901819418731119 ], [ -53.686576694458836, -25.852836542172607 ], [ -53.693411721873417, -25.826301881526547 ], [ -53.635476645630654, -25.830250725490544 ], [ -53.603226063132233, -25.81339621626233 ] ] } }
]
}
