{
"type": "FeatureCollection",
"features": [
{ "type": "Feature", "properties": { "Name": "BELA VISTA DO PARAÃSO", "Description": "BELA VISTA DO PARAÃSO \/ PR" }, "geometry": { "type": "LineString", "coordinates": [ [ -51.17749480853854, -22.899981349859388 ], [ -51.169453476396768, -22.967145834612552 ], [ -51.170203991221172, -23.117857206145118 ], [ -51.231405992392581, -23.11806330018112 ], [ -51.231852735115581, -23.051819674438374 ], [ -51.282607532411639, -23.04452654946067 ], [ -51.320382860680411, -23.012812572642073 ], [ -51.344150362249358, -22.961675657905232 ], [ -51.323898547979582, -22.95311016580149 ], [ -51.315785878015781, -22.915676784955622 ], [ -51.271917183331311, -22.924853307034425 ], [ -51.223606740658511, -22.95666369927028 ], [ -51.203208815334499, -22.944780535293432 ], [ -51.197146301960231, -22.915605477710582 ], [ -51.17749480853854, -22.899981349859388 ] ] } }
]
}
