{
"type": "FeatureCollection",
"features": [
{ "type": "Feature", "properties": { "Name": "BOA VENTURA DE SÃO ROQUE", "Description": "BOA VENTURA DE SÃO ROQUE \/ PR" }, "geometry": { "type": "LineString", "coordinates": [ [ -51.47192855935549, -24.647483291420713 ], [ -51.451288863889935, -24.658438730962644 ], [ -51.446376843316614, -24.686640263437369 ], [ -51.416738848918726, -24.722160521890544 ], [ -51.410129036026149, -24.756331131776275 ], [ -51.459653397985896, -24.837019784235622 ], [ -51.445434072324524, -24.858393919144021 ], [ -51.519098508789114, -24.943544669450883 ], [ -51.568763151498217, -24.96369834969903 ], [ -51.588352544933969, -24.982072154706145 ], [ -51.619680055190372, -24.984911139937136 ], [ -51.642559375514736, -25.016567032242676 ], [ -51.70870023033131, -25.012220048516379 ], [ -51.722577871171779, -24.993682689204718 ], [ -51.757465129212271, -24.982132270787645 ], [ -51.735550594384392, -24.937322895135477 ], [ -51.78048944183422, -24.877770534782314 ], [ -51.69154370178034, -24.896078843963437 ], [ -51.640329097309973, -24.866861422916315 ], [ -51.614201608317501, -24.824881408849873 ], [ -51.546516199363055, -24.784407182745266 ], [ -51.531746130679316, -24.718911644556727 ], [ -51.517552298999362, -24.705299340592035 ], [ -51.511880686744234, -24.657134736478838 ], [ -51.47192855935549, -24.647483291420713 ] ] } }
]
}
