{
"type": "FeatureCollection",
"features": [
{ "type": "Feature", "properties": { "Name": "CAFEZAL DO SUL", "Description": "CAFEZAL DO SUL \/ PR" }, "geometry": { "type": "LineString", "coordinates": [ [ -53.53599921758979, -23.819597774217868 ], [ -53.499586579856725, -23.838980372146409 ], [ -53.531525888109222, -23.865215984829774 ], [ -53.457799289605468, -23.97993115869599 ], [ -53.519137932869285, -24.050399513426783 ], [ -53.555738927309619, -24.091100023347337 ], [ -53.55623306970034, -24.074119043359133 ], [ -53.606444695366342, -24.028101094889564 ], [ -53.580040007440346, -23.996706616617018 ], [ -53.605806631770577, -23.957129706170974 ], [ -53.644101110777619, -23.944932587069218 ], [ -53.680401562582006, -23.911033020257662 ], [ -53.657927513643813, -23.880184193945354 ], [ -53.618495335591206, -23.847961975164992 ], [ -53.605357361952656, -23.837172072932788 ], [ -53.53599921758979, -23.819597774217868 ] ] } }
]
}
