{
"type": "FeatureCollection",
"features": [
{ "type": "Feature", "properties": { "Name": "CAMPO DO TENENTE", "Description": "CAMPO DO TENENTE \/ PR" }, "geometry": { "type": "LineString", "coordinates": [ [ -49.540727795251485, -25.948252485263932 ], [ -49.546490081651882, -26.025127199260794 ], [ -49.533497888116976, -26.04451866990064 ], [ -49.539854830535944, -26.070368650592684 ], [ -49.568546904515983, -26.056283877898579 ], [ -49.593499120787719, -26.026108323640187 ], [ -49.62177681954455, -26.046432818419817 ], [ -49.680149916885114, -26.026512454685982 ], [ -49.724078244715201, -26.022621611598023 ], [ -49.773350886434223, -26.028162712439155 ], [ -49.791434702349591, -26.000507044164692 ], [ -49.792124050684315, -25.946447257235093 ], [ -49.750577807519733, -25.943037959733999 ], [ -49.703613436810599, -25.928257478699663 ], [ -49.644393894862333, -25.893140277501743 ], [ -49.60555706620562, -25.896342874823745 ], [ -49.601535410430813, -25.920545980112816 ], [ -49.564660774774886, -25.927493579265217 ], [ -49.540727795251485, -25.948252485263932 ] ] } }
]
}
