{
"type": "FeatureCollection",
"features": [
{ "type": "Feature", "properties": { "Name": "CAPANEMA", "Description": "CAPANEMA \/ PR" }, "geometry": { "type": "LineString", "coordinates": [ [ -53.604234829074073, -25.561797904749483 ], [ -53.618877230000123, -25.585207657807132 ], [ -53.612989841607885, -25.636170835215808 ], [ -53.62202344522575, -25.648225097010595 ], [ -53.66777885281175, -25.648340863140277 ], [ -53.708872736987189, -25.674241014311292 ], [ -53.73091937053249, -25.666227996424823 ], [ -53.779457837209407, -25.705710493344554 ], [ -53.820936910909658, -25.70918569946042 ], [ -53.84978636624777, -25.690813038390957 ], [ -53.861637008940761, -25.659347080203531 ], [ -53.939858773363653, -25.620962800292943 ], [ -53.990932313775197, -25.586110013266477 ], [ -53.939991947670194, -25.571574820521501 ], [ -53.916517260862861, -25.582928012217959 ], [ -53.895835709150617, -25.594953724134996 ], [ -53.807264118544197, -25.540041651500985 ], [ -53.798133057194775, -25.557332772589348 ], [ -53.818058300650023, -25.589700824533395 ], [ -53.791093420524867, -25.6055644463421 ], [ -53.775883912512477, -25.555796548871569 ], [ -53.757534817277929, -25.552931108283985 ], [ -53.725447958156671, -25.586184852149184 ], [ -53.717609845817663, -25.552071523681828 ], [ -53.681820899614763, -25.5048388105626 ], [ -53.624066380259194, -25.533120037359765 ], [ -53.604234829074073, -25.561797904749483 ] ] } }
]
}
