{
"type": "FeatureCollection",
"features": [
{ "type": "Feature", "properties": { "Name": "CARAMBEÃ", "Description": "CARAMBEÃ \/ PR" }, "geometry": { "type": "LineString", "coordinates": [ [ -49.978698419496425, -25.020954722882095 ], [ -50.00037438936652, -25.006425882948122 ], [ -50.056712605102575, -24.989619078257817 ], [ -50.12495631318324, -25.010781152128402 ], [ -50.158859108560982, -24.996236575857267 ], [ -50.177618312634984, -24.963445479225413 ], [ -50.206606446130536, -24.954030440752202 ], [ -50.246733021311854, -24.955785426356272 ], [ -50.266891887050917, -24.933831831273949 ], [ -50.301613004336616, -24.923700948639805 ], [ -50.323257602256483, -24.892378202991608 ], [ -50.356801373884245, -24.844902141420619 ], [ -50.326582823938111, -24.845365279683847 ], [ -50.295495666491775, -24.819497462737672 ], [ -50.304912903807406, -24.783558149888677 ], [ -50.246328465786007, -24.765234848109685 ], [ -50.194804992756183, -24.755912901159434 ], [ -50.149222105715573, -24.783243162342043 ], [ -50.149196359924012, -24.809893688942566 ], [ -50.130612465193053, -24.821369715439971 ], [ -50.10416817831873, -24.806332926723144 ], [ -50.077557101379057, -24.819321947449851 ], [ -50.077331684509595, -24.846882400002698 ], [ -50.033111483508094, -24.873424850576328 ], [ -50.009022620897213, -24.914086141961832 ], [ -49.939883571169844, -24.946167603352194 ], [ -49.959194651412012, -25.012671192521452 ], [ -49.978698419496425, -25.020954722882095 ] ] } }
]
}
