{
"type": "FeatureCollection",
"features": [
{ "type": "Feature", "properties": { "Name": "CERRO AZUL", "Description": "CERRO AZUL \/ PR" }, "geometry": { "type": "LineString", "coordinates": [ [ -49.129818990853721, -24.681926717843737 ], [ -49.136802043979117, -24.709148116092649 ], [ -49.113239421462083, -24.732344228903003 ], [ -49.100846562219033, -24.774091061353371 ], [ -49.062017287867491, -24.787440244371734 ], [ -49.075431916349828, -24.852768382754618 ], [ -49.10539286628773, -24.892272793454595 ], [ -49.123334133363528, -24.897459104554002 ], [ -49.103565689405002, -24.970695021258166 ], [ -49.115935793102324, -24.984527768841417 ], [ -49.094392226819764, -25.010127059016497 ], [ -49.092923284082246, -25.038180452465834 ], [ -49.054043968754108, -25.050918651374612 ], [ -49.093910627273601, -25.0741436908786 ], [ -49.142795892316542, -25.097814948800817 ], [ -49.15190062421442, -25.086036005457228 ], [ -49.206441506170506, -25.073110269123561 ], [ -49.240111897845786, -25.074699062711545 ], [ -49.30346577432595, -25.039912352473038 ], [ -49.393326048458327, -24.975416322605156 ], [ -49.380895809793742, -24.931997286245746 ], [ -49.389732060785946, -24.895115858010399 ], [ -49.451051498128095, -24.91570278935222 ], [ -49.49877655679262, -24.905280351906697 ], [ -49.528407648893847, -24.862123440044684 ], [ -49.53891085265365, -24.818797456537368 ], [ -49.567418586298679, -24.795487112740034 ], [ -49.529769846601084, -24.715578629350205 ], [ -49.482316908398559, -24.719040735941174 ], [ -49.471393693364234, -24.709081952070392 ], [ -49.431340635961533, -24.725895876693301 ], [ -49.394114693638187, -24.729365145485019 ], [ -49.382205809050781, -24.743941507394592 ], [ -49.317266909839987, -24.764804143896072 ], [ -49.292152798512795, -24.783043537129515 ], [ -49.203476962092111, -24.779541479055979 ], [ -49.221044533878114, -24.738594393916117 ], [ -49.20791665243155, -24.700906408703759 ], [ -49.185650879284587, -24.672750351347588 ], [ -49.129818990853721, -24.681926717843737 ] ] } }
]
}
