{
"type": "FeatureCollection",
"features": [
{ "type": "Feature", "properties": { "Name": "CÃU AZUL", "Description": "CÃU AZUL \/ PR" }, "geometry": { "type": "LineString", "coordinates": [ [ -53.732538947914065, -24.999574576905161 ], [ -53.697604131925118, -25.001910761972056 ], [ -53.666940448143116, -25.017872460245826 ], [ -53.658635745043561, -25.039850547464763 ], [ -53.632300143936448, -25.054184456647302 ], [ -53.624261403640844, -25.080347039883918 ], [ -53.654987425729068, -25.146530800456048 ], [ -53.653424777231635, -25.197272452361741 ], [ -53.637815365886404, -25.239975653553529 ], [ -53.652581944301232, -25.30562506214687 ], [ -53.65722077511861, -25.355620974628206 ], [ -53.67566464270908, -25.371593503437392 ], [ -53.67324472176648, -25.429715948032538 ], [ -53.698629145918289, -25.484541463617632 ], [ -53.681820899614763, -25.5048388105626 ], [ -53.717609845817663, -25.552071523681828 ], [ -53.725447958156671, -25.586184852149184 ], [ -53.757534817277929, -25.552931108283985 ], [ -53.775883912512477, -25.555796548871569 ], [ -53.791093420524867, -25.6055644463421 ], [ -53.818058300650023, -25.589700824533395 ], [ -53.798133057194775, -25.557332772589348 ], [ -53.807264118544197, -25.540041651500985 ], [ -53.790986002801731, -25.508571765074862 ], [ -53.812983424545394, -25.484726381317383 ], [ -53.803373910377609, -25.429281510733063 ], [ -53.815387579473168, -25.406879596416218 ], [ -53.778815778825106, -25.327033260676387 ], [ -53.800529753145547, -25.301640435957324 ], [ -53.82296792273138, -25.305251024215352 ], [ -53.906891778332863, -25.269286211089707 ], [ -53.897148924383316, -25.23023183643005 ], [ -53.900464753545521, -25.200874917943054 ], [ -53.949553246485088, -25.162318218211166 ], [ -53.945080242559129, -25.121420230659055 ], [ -53.954025053413432, -25.103128465406314 ], [ -53.813723408308583, -25.096670603765286 ], [ -53.811280023154488, -24.97664006518681 ], [ -53.772079328797929, -24.968882975468883 ], [ -53.732538947914065, -24.999574576905161 ] ] } }
]
}
