{
"type": "FeatureCollection",
"features": [
{ "type": "Feature", "properties": { "Name": "CHOPINZINHO", "Description": "CHOPINZINHO \/ PR" }, "geometry": { "type": "LineString", "coordinates": [ [ -52.395280622702558, -25.700266181139284 ], [ -52.354412807405083, -25.703098418756948 ], [ -52.327423839838268, -25.678577661230065 ], [ -52.295973755584328, -25.708654050843734 ], [ -52.233087686647359, -25.740418840257234 ], [ -52.21399646726308, -25.756530925861512 ], [ -52.26309706867471, -25.859656018510407 ], [ -52.324252935524498, -25.905725486442009 ], [ -52.347028242959027, -25.936679281623526 ], [ -52.382614480174084, -25.944979585239647 ], [ -52.448702255204857, -25.929546107366889 ], [ -52.564780506315287, -25.930652644903603 ], [ -52.618836181544509, -25.881041850900658 ], [ -52.656978958412139, -25.887745198681955 ], [ -52.714508145434536, -25.886948617884343 ], [ -52.722508131245206, -25.871676770666397 ], [ -52.674488426799428, -25.852177512682029 ], [ -52.699812873365374, -25.788105864793806 ], [ -52.703974891727853, -25.751196092625548 ], [ -52.662361520467755, -25.758548886721712 ], [ -52.642979941471083, -25.789298948587543 ], [ -52.601838695399408, -25.797341318546955 ], [ -52.603562625614643, -25.769262651450163 ], [ -52.547218897034433, -25.777325387456642 ], [ -52.554560253552836, -25.753099364743832 ], [ -52.544200477270181, -25.696216897291947 ], [ -52.52168471507747, -25.680443534141716 ], [ -52.530646765036124, -25.645973573221795 ], [ -52.467118821176598, -25.678693888711958 ], [ -52.431200563255345, -25.679098276963884 ], [ -52.395280622702558, -25.700266181139284 ] ] } }
]
}
