{
"type": "FeatureCollection",
"features": [
{ "type": "Feature", "properties": { "Name": "COLORADO", "Description": "COLORADO \/ PR" }, "geometry": { "type": "LineString", "coordinates": [ [ -51.940110205321673, -22.792974048513486 ], [ -51.922604222706696, -22.828812720030953 ], [ -51.905816863157668, -22.836178322271735 ], [ -51.839933161386227, -22.829873702409373 ], [ -51.844316606326288, -22.890018535227171 ], [ -51.873432597336432, -22.956680636202346 ], [ -51.905502258722201, -22.949607674254707 ], [ -51.919159375904421, -22.955446403029043 ], [ -51.971095436305291, -22.930635907321228 ], [ -52.017233934398519, -22.898271317767069 ], [ -52.06618785908239, -22.876892323821664 ], [ -52.077655593830571, -22.866741164173334 ], [ -52.069243492792907, -22.809660112923837 ], [ -52.088628949666258, -22.769661441122537 ], [ -52.053791831527739, -22.75346071024353 ], [ -52.056040943334828, -22.729314318900663 ], [ -52.057881156789904, -22.695017027813549 ], [ -52.033404281682238, -22.677296360838341 ], [ -51.9977091374667, -22.714433382694438 ], [ -51.979183103317496, -22.748302293416089 ], [ -51.940110205321673, -22.792974048513486 ] ] } }
]
}
