{
"type": "FeatureCollection",
"features": [
{ "type": "Feature", "properties": { "Name": "CONSELHEIRO MAIRINCK", "Description": "CONSELHEIRO MAIRINCK \/ PR" }, "geometry": { "type": "LineString", "coordinates": [ [ -50.082777941948386, -23.537089664156611 ], [ -50.09430142567021, -23.562370677065076 ], [ -50.08723664845251, -23.60201433609268 ], [ -50.049192064961801, -23.651339089027715 ], [ -50.092103365677758, -23.68012169236215 ], [ -50.1686586431818, -23.678579927921305 ], [ -50.186146187896213, -23.661016844651613 ], [ -50.182159869182549, -23.615385541709315 ], [ -50.19093904739907, -23.570196906661863 ], [ -50.160422700447214, -23.512173875823692 ], [ -50.140602466330733, -23.489692177252152 ], [ -50.094456173813334, -23.50584417746677 ], [ -50.082777941948386, -23.537089664156611 ] ] } }
]
}
