{
"type": "FeatureCollection",
"features": [
{ "type": "Feature", "properties": { "Name": "CURITIBA", "Description": "CURITIBA \/ PR" }, "geometry": { "type": "LineString", "coordinates": [ [ -49.229397005367446, -25.350017815169959 ], [ -49.193484558865237, -25.390348454617424 ], [ -49.203344607067947, -25.435623376017929 ], [ -49.185224822767339, -25.471450119827125 ], [ -49.225994000422759, -25.538743999935605 ], [ -49.223317453437687, -25.562029847099723 ], [ -49.270981556053925, -25.612210906608027 ], [ -49.304154725160402, -25.615989974757497 ], [ -49.359916378338141, -25.64316470358818 ], [ -49.35714264971346, -25.607404918801929 ], [ -49.34284044073371, -25.580360909128615 ], [ -49.339630999570936, -25.513216999964527 ], [ -49.374462960996823, -25.513423911484267 ], [ -49.383415806394275, -25.485841796062005 ], [ -49.38348417915148, -25.418878484254606 ], [ -49.347849977494434, -25.375948260004179 ], [ -49.340246050414862, -25.349460377594308 ], [ -49.311996999561813, -25.382387000259826 ], [ -49.287307878156014, -25.372069675575005 ], [ -49.272354956615914, -25.34681032283811 ], [ -49.229397005367446, -25.350017815169959 ] ] } }
]
}
