{
"type": "FeatureCollection",
"features": [
{ "type": "Feature", "properties": { "Name": "DIAMANTE DO NORTE", "Description": "DIAMANTE DO NORTE \/ PR" }, "geometry": { "type": "LineString", "coordinates": [ [ -52.782864229200754, -22.602061630739627 ], [ -52.789112328471163, -22.636818425030238 ], [ -52.778407509299086, -22.662290507001273 ], [ -52.800968810462166, -22.703265642895076 ], [ -52.815736001315372, -22.709366218276326 ], [ -52.840242447031237, -22.690027125051756 ], [ -52.908139844178436, -22.689532148090109 ], [ -52.913598932244895, -22.678374170431596 ], [ -52.968133613375528, -22.678572279387136 ], [ -53.008027395447925, -22.615269961039814 ], [ -53.011672991615228, -22.598794963916419 ], [ -52.972424980328526, -22.570484747473074 ], [ -52.924742618776804, -22.565623982860473 ], [ -52.858362803300679, -22.608001008939368 ], [ -52.81543966480865, -22.597043166408977 ], [ -52.782864229200754, -22.602061630739627 ] ] } }
]
}
