{
"type": "FeatureCollection",
"features": [
{ "type": "Feature", "properties": { "Name": "DOIS VIZINHOS", "Description": "DOIS VIZINHOS \/ PR" }, "geometry": { "type": "LineString", "coordinates": [ [ -52.978720322784625, -25.78171603236893 ], [ -52.990159223469334, -25.813593131817527 ], [ -53.026161845892432, -25.85811039597797 ], [ -53.079780599894718, -25.877071054485555 ], [ -53.120355904401436, -25.871641851790002 ], [ -53.146318579139063, -25.826227357406591 ], [ -53.14909248223222, -25.776910014885228 ], [ -53.15325055077227, -25.75208048592566 ], [ -53.259753974566252, -25.699821918746522 ], [ -53.206875374299045, -25.705952449645789 ], [ -53.177721241242239, -25.691475664270456 ], [ -53.169169168822066, -25.656017988739166 ], [ -53.12012849193632, -25.684170708711179 ], [ -53.076533820679231, -25.660775101089996 ], [ -53.063973790058299, -25.616644933916518 ], [ -53.037229196170415, -25.623563805125457 ], [ -53.002486008622384, -25.659295142556743 ], [ -52.979706818814577, -25.695292185585856 ], [ -52.951981473765947, -25.713193887887599 ], [ -52.952658085002554, -25.738104107618426 ], [ -52.981816673300784, -25.75044762285944 ], [ -52.978720322784625, -25.78171603236893 ] ] } }
]
}
