{
"type": "FeatureCollection",
"features": [
{ "type": "Feature", "properties": { "Name": "DOUTOR CAMARGO", "Description": "DOUTOR CAMARGO \/ PR" }, "geometry": { "type": "LineString", "coordinates": [ [ -52.100259580415241, -23.519553935565625 ], [ -52.10027074100185, -23.519663284133227 ], [ -52.125966483466414, -23.550714989405208 ], [ -52.143070369302052, -23.541936500069369 ], [ -52.162909451410023, -23.570626431864298 ], [ -52.196461931173133, -23.574944648077008 ], [ -52.242212952765499, -23.613063828532802 ], [ -52.269773681410236, -23.625326897618208 ], [ -52.294246165128357, -23.618521067593122 ], [ -52.304826572987906, -23.572977574455479 ], [ -52.266411753899263, -23.555277576598826 ], [ -52.224216992520155, -23.522964326642295 ], [ -52.205660566681786, -23.511548319998951 ], [ -52.100259580415241, -23.519553935565625 ] ] } }
]
}
