{
"type": "FeatureCollection",
"features": [
{ "type": "Feature", "properties": { "Name": "FLORESTÃPOLIS", "Description": "FLORESTÃPOLIS \/ PR" }, "geometry": { "type": "LineString", "coordinates": [ [ -51.317782404434347, -22.830127008154875 ], [ -51.334907161736112, -22.835890323379658 ], [ -51.342436576386831, -22.891808984696866 ], [ -51.315785878015781, -22.915676784955622 ], [ -51.323898547979582, -22.95311016580149 ], [ -51.344150362249358, -22.961675657905232 ], [ -51.403325119758449, -22.977248267193715 ], [ -51.42801462427547, -22.994413406753267 ], [ -51.455864527226083, -22.977536483721678 ], [ -51.436950556123229, -22.916645977130084 ], [ -51.480910526599473, -22.91718626913098 ], [ -51.475870616135971, -22.832564800425132 ], [ -51.484298991305359, -22.798088584720347 ], [ -51.455912637358267, -22.800041670286813 ], [ -51.447476671910856, -22.828212645597091 ], [ -51.408449743660697, -22.819094653195634 ], [ -51.378954637146762, -22.828837088061103 ], [ -51.362264705651619, -22.807287598843569 ], [ -51.317782404434347, -22.830127008154875 ] ] } }
]
}
