{
"type": "FeatureCollection",
"features": [
{ "type": "Feature", "properties": { "Name": "GUAMIRANGA", "Description": "GUAMIRANGA \/ PR" }, "geometry": { "type": "LineString", "coordinates": [ [ -50.768834502610162, -25.159180005153075 ], [ -50.728650375314544, -25.181381669228585 ], [ -50.751209721351529, -25.236679997983458 ], [ -50.751885132892539, -25.258901398580633 ], [ -50.804523888466633, -25.273729263994309 ], [ -50.819106723696279, -25.263472725385896 ], [ -50.814841604356502, -25.231067572810218 ], [ -50.89019826903484, -25.201969498093828 ], [ -50.943398528019593, -25.147568073108062 ], [ -50.927424865165335, -25.103351597098477 ], [ -50.938152121523153, -25.072842540051109 ], [ -50.886041549477909, -25.073699678497345 ], [ -50.847064718861645, -25.096128609347772 ], [ -50.795636582062563, -25.159823087865163 ], [ -50.768834502610162, -25.159180005153075 ] ] } }
]
}
