{
"type": "FeatureCollection",
"features": [
{ "type": "Feature", "properties": { "Name": "GUAPIRAMA", "Description": "GUAPIRAMA \/ PR" }, "geometry": { "type": "LineString", "coordinates": [ [ -50.004300902264781, -23.445191120673655 ], [ -50.027539174393326, -23.455829799205844 ], [ -50.018587014279262, -23.480153475702309 ], [ -49.987312409340177, -23.506725290939357 ], [ -50.004051598502421, -23.533681801973554 ], [ -50.038421669024778, -23.548687249317084 ], [ -50.082777941948386, -23.537089664156611 ], [ -50.094456173813334, -23.50584417746677 ], [ -50.140602466330733, -23.489692177252152 ], [ -50.13043937088019, -23.464006140271124 ], [ -50.164747238893938, -23.437992386739211 ], [ -50.155073773935499, -23.41874774211459 ], [ -50.171018421063245, -23.397338349285349 ], [ -50.142498045648267, -23.402977013078669 ], [ -50.106158923895173, -23.393213883014255 ], [ -50.046353003288402, -23.41301798149459 ], [ -50.004300902264781, -23.445191120673655 ] ] } }
]
}
