{
"type": "FeatureCollection",
"features": [
{ "type": "Feature", "properties": { "Name": "GUARATUBA", "Description": "GUARATUBA \/ PR" }, "geometry": { "type": "LineString", "coordinates": [ [ -48.688335148848012, -25.627011575623669 ], [ -48.654413924562895, -25.642144920051976 ], [ -48.627785394480327, -25.666869204050496 ], [ -48.634518503526067, -25.704499827804735 ], [ -48.632378343685559, -25.758676094026498 ], [ -48.599383672018803, -25.768593618800423 ], [ -48.549650946134193, -25.852126690194552 ], [ -48.56531899147825, -25.860104745137846 ], [ -48.561568343704039, -25.892725261961232 ], [ -48.60138344229199, -25.980805968420668 ], [ -48.634062072406657, -25.977747482060579 ], [ -48.644369622360159, -25.955841821742634 ], [ -48.682032315938613, -25.983671319076048 ], [ -48.960478395161772, -25.980799832346349 ], [ -48.968278140623624, -25.986731595986328 ], [ -48.954481491827323, -25.96543139794062 ], [ -48.992452535056429, -25.921653163362748 ], [ -48.974944573033554, -25.889658061170564 ], [ -48.962750336258978, -25.830919016199569 ], [ -48.909715860998112, -25.81206582847517 ], [ -48.891072950056582, -25.819267944759815 ], [ -48.85222814890988, -25.796839573287627 ], [ -48.875479083492849, -25.760186534181173 ], [ -48.911123467274138, -25.756973586561738 ], [ -48.973427148743887, -25.72649763086093 ], [ -48.92368872745277, -25.699734133223615 ], [ -48.904072570192909, -25.668305016663169 ], [ -48.871933330059107, -25.658049763186 ], [ -48.847270613647879, -25.610327348528244 ], [ -48.789896327653366, -25.622860691767471 ], [ -48.760001719803476, -25.597299624577943 ], [ -48.688335148848012, -25.627011575623669 ] ] } }
]
}
