{
"type": "FeatureCollection",
"features": [
{ "type": "Feature", "properties": { "Name": "IBIPORÃ", "Description": "IBIPORÃ \/ PR" }, "geometry": { "type": "LineString", "coordinates": [ [ -50.959550144223726, -23.14789153446668 ], [ -50.950757512149437, -23.172403586556243 ], [ -50.969000228377809, -23.196840151351864 ], [ -50.96700822285117, -23.237305279015345 ], [ -50.98816389624676, -23.254026963773295 ], [ -50.963401771474537, -23.303417356425825 ], [ -50.993221414536606, -23.318953436152128 ], [ -50.980950746179929, -23.342593150353537 ], [ -51.046536625764638, -23.345991378998917 ], [ -51.072306298796605, -23.337369628905208 ], [ -51.0949590043545, -23.293212017120819 ], [ -51.10848661736344, -23.23982021153347 ], [ -51.132430049707011, -23.223559833119737 ], [ -51.171102662158091, -23.220365010436865 ], [ -51.170527976484891, -23.196211009030776 ], [ -51.131672620894676, -23.197997341404118 ], [ -51.076740203797321, -23.179062661612477 ], [ -51.036927483916202, -23.1577579678559 ], [ -51.000696712483261, -23.124625272738115 ], [ -50.948358801717283, -23.106380144527972 ], [ -50.97090842158633, -23.12871324901721 ], [ -50.959550144223726, -23.14789153446668 ] ] } }
]
}
