{
"type": "FeatureCollection",
"features": [
{ "type": "Feature", "properties": { "Name": "IRACEMA DO OESTE", "Description": "IRACEMA DO OESTE \/ PR" }, "geometry": { "type": "LineString", "coordinates": [ [ -53.318612042112015, -24.430254732070178 ], [ -53.311053770914775, -24.446006387384841 ], [ -53.327789731510848, -24.486190011959422 ], [ -53.351462180135456, -24.498021392073554 ], [ -53.380138584328165, -24.493985453266021 ], [ -53.389400229936598, -24.40936317517037 ], [ -53.345156747286012, -24.365267855826858 ], [ -53.332437239886637, -24.379047535315465 ], [ -53.318612042112015, -24.430254732070178 ] ] } }
]
}
