{
"type": "FeatureCollection",
"features": [
{ "type": "Feature", "properties": { "Name": "ITAMBARACÃ", "Description": "ITAMBARACÃ \/ PR" }, "geometry": { "type": "LineString", "coordinates": [ [ -50.340186596933847, -22.948072768943064 ], [ -50.335690879730294, -22.978511433355948 ], [ -50.347909315462516, -23.03909339424473 ], [ -50.369986602399756, -23.059507026228232 ], [ -50.403272963776203, -23.069314765364084 ], [ -50.41357049887938, -23.045849717490398 ], [ -50.447808453597183, -23.031301147330055 ], [ -50.499545050663528, -22.977419794887567 ], [ -50.52837908982309, -22.961130212789044 ], [ -50.526772855682673, -22.93482212643994 ], [ -50.425712601954956, -22.944185550122995 ], [ -50.416426447122774, -22.912771656386777 ], [ -50.379074598813645, -22.90540557121011 ], [ -50.359249489472347, -22.91605881516216 ], [ -50.340186596933847, -22.948072768943064 ] ] } }
]
}
