{
"type": "FeatureCollection",
"features": [
{ "type": "Feature", "properties": { "Name": "IVATÃ", "Description": "IVATÃ \/ PR" }, "geometry": { "type": "LineString", "coordinates": [ [ -53.379652880276183, -23.240763928612353 ], [ -53.366135396331451, -23.271901214269576 ], [ -53.37347117705314, -23.323759624507034 ], [ -53.362438747450192, -23.354986376520003 ], [ -53.33041328414572, -23.401034085354695 ], [ -53.362666570905503, -23.448803017445243 ], [ -53.38325922733145, -23.455660177175389 ], [ -53.364202892649359, -23.505418713602694 ], [ -53.367231572778792, -23.550400138555517 ], [ -53.409074659667795, -23.564793307664957 ], [ -53.413851765746358, -23.517072040542189 ], [ -53.442774683105085, -23.516113708580747 ], [ -53.454726535501152, -23.472283267458806 ], [ -53.456819618530517, -23.432958282298841 ], [ -53.44222308482744, -23.40109473023756 ], [ -53.462551993479678, -23.344202045587906 ], [ -53.510574059545142, -23.290952416520778 ], [ -53.528051092084183, -23.243453969924698 ], [ -53.524578142367318, -23.223624972814207 ], [ -53.557358722327137, -23.216009573083284 ], [ -53.538665550075052, -23.18811007701839 ], [ -53.51571003558962, -23.197524695508264 ], [ -53.476789997160608, -23.227696220803921 ], [ -53.414170145535763, -23.191346527520182 ], [ -53.379652880276183, -23.240763928612353 ] ] } }
]
}
