{
"type": "FeatureCollection",
"features": [
{ "type": "Feature", "properties": { "Name": "IVATUBA", "Description": "IVATUBA \/ PR" }, "geometry": { "type": "LineString", "coordinates": [ [ -52.10027074100185, -23.519663284133227 ], [ -52.097420934228694, -23.560714855206356 ], [ -52.155804225384657, -23.624702534294496 ], [ -52.190833261545713, -23.644573947029979 ], [ -52.205685235085468, -23.655054203688508 ], [ -52.242296173329692, -23.634731293514335 ], [ -52.264104476640227, -23.642842271853336 ], [ -52.269773681410236, -23.625326897618208 ], [ -52.242212952765499, -23.613063828532802 ], [ -52.196461931173133, -23.574944648077008 ], [ -52.162909451410023, -23.570626431864298 ], [ -52.143070369302052, -23.541936500069369 ], [ -52.125966483466414, -23.550714989405208 ], [ -52.10027074100185, -23.519663284133227 ] ] } }
]
}
