{
"type": "FeatureCollection",
"features": [
{ "type": "Feature", "properties": { "Name": "JABOTI", "Description": "JABOTI \/ PR" }, "geometry": { "type": "LineString", "coordinates": [ [ -50.049192064961801, -23.651339089027715 ], [ -50.038164404463657, -23.692643230200872 ], [ -50.006909291430588, -23.719526816109635 ], [ -50.019987160678909, -23.73809621826581 ], [ -50.033950842357456, -23.7719469518903 ], [ -50.094042943427034, -23.791547523899055 ], [ -50.133346066068036, -23.716310898928782 ], [ -50.156186560861038, -23.7093333613455 ], [ -50.1686586431818, -23.678579927921305 ], [ -50.092103365677758, -23.68012169236215 ], [ -50.049192064961801, -23.651339089027715 ] ] } }
]
}
