{
"type": "FeatureCollection",
"features": [
{ "type": "Feature", "properties": { "Name": "JACAREZINHO", "Description": "JACAREZINHO \/ PR" }, "geometry": { "type": "LineString", "coordinates": [ [ -49.809468582509055, -23.089206854412737 ], [ -49.80897553459323, -23.115470962115182 ], [ -49.862405224121744, -23.173596438324921 ], [ -49.860653563311239, -23.216215755252847 ], [ -49.891468326901702, -23.245426525813457 ], [ -49.879174673672189, -23.271583809345259 ], [ -49.844967339970708, -23.286258494134131 ], [ -49.834538868074276, -23.327026875889544 ], [ -49.891496657344817, -23.335025643118911 ], [ -49.932903758301784, -23.306105441712702 ], [ -49.932783475776716, -23.294446605526389 ], [ -49.970633862362831, -23.237882040323882 ], [ -50.037827455472666, -23.205725864157273 ], [ -50.049690168866164, -23.188824456183681 ], [ -50.117969329121195, -23.169296610550077 ], [ -50.134200100054557, -23.144839713881652 ], [ -50.097282351799038, -23.13490204879048 ], [ -50.057109297855789, -23.104010319420638 ], [ -50.062785846489589, -23.093232925858786 ], [ -50.005952883118994, -23.038516409904329 ], [ -49.971227026406098, -23.017313985252144 ], [ -49.974198287520892, -22.954496785498179 ], [ -49.954501916130475, -22.97842048941402 ], [ -49.901670169642557, -22.99931180259756 ], [ -49.911602198682488, -23.051118642111589 ], [ -49.867415280690636, -23.07169185429558 ], [ -49.833658903035882, -23.065942950706585 ], [ -49.809468582509055, -23.089206854412737 ] ] } }
]
}
