{
"type": "FeatureCollection",
"features": [
{ "type": "Feature", "properties": { "Name": "JAGUARIAÃVA", "Description": "JAGUARIAÃVA \/ PR" }, "geometry": { "type": "LineString", "coordinates": [ [ -49.634410206066086, -24.070696405314834 ], [ -49.613591248737123, -24.086276697511551 ], [ -49.632318591629655, -24.114127493488979 ], [ -49.629851825901028, -24.146872302015083 ], [ -49.580166943949273, -24.245894081346705 ], [ -49.601500051785933, -24.36735799447581 ], [ -49.462660946245649, -24.367367627114277 ], [ -49.457314501862747, -24.385373606706537 ], [ -49.487406630511543, -24.47213192664708 ], [ -49.516905792068599, -24.494328039207574 ], [ -49.527427681042575, -24.531421535675292 ], [ -49.507131288278288, -24.564940614617626 ], [ -49.510698651521523, -24.614212130385454 ], [ -49.539212641749998, -24.572011187965927 ], [ -49.573595681395545, -24.613681047442356 ], [ -49.592705169607818, -24.598568031289574 ], [ -49.620164412457648, -24.604762397866295 ], [ -49.635255703687733, -24.496607257618791 ], [ -49.739024642573156, -24.445205002408898 ], [ -49.798125303140175, -24.460789775927363 ], [ -49.819060334167027, -24.44540298186206 ], [ -49.847749924219613, -24.389071540718987 ], [ -49.879081726040795, -24.380571074095766 ], [ -49.893645513629508, -24.361713286339068 ], [ -49.949680593984169, -24.370226442396358 ], [ -49.965697636536667, -24.335450000617012 ], [ -49.960776423093421, -24.311514952652885 ], [ -49.986073732616603, -24.245418913751848 ], [ -49.932847303360347, -24.200368766205539 ], [ -49.910528501688987, -24.193643639542298 ], [ -49.786501007215691, -24.235313807486193 ], [ -49.739872620524977, -24.173638700865297 ], [ -49.751368094861611, -24.170054782002524 ], [ -49.766919773328823, -24.114497280325164 ], [ -49.759402132602304, -24.084097247190186 ], [ -49.697522846602055, -24.065440729506008 ], [ -49.680375377821406, -24.07821800036038 ], [ -49.634410206066086, -24.070696405314834 ] ] } }
]
}
