{
"type": "FeatureCollection",
"features": [
{ "type": "Feature", "properties": { "Name": "JATAIZINHO", "Description": "JATAIZINHO \/ PR" }, "geometry": { "type": "LineString", "coordinates": [ [ -50.845625768514367, -23.282934956882681 ], [ -50.873927844294542, -23.332364032973715 ], [ -50.897644334518361, -23.349895089586653 ], [ -50.963401771474537, -23.303417356425825 ], [ -50.98816389624676, -23.254026963773295 ], [ -50.96700822285117, -23.237305279015345 ], [ -50.969000228377809, -23.196840151351864 ], [ -50.950757512149437, -23.172403586556243 ], [ -50.959550144223726, -23.14789153446668 ], [ -50.903281879555038, -23.147331282912319 ], [ -50.900293899144117, -23.282529439082282 ], [ -50.845625768514367, -23.282934956882681 ] ] } }
]
}
