{
"type": "FeatureCollection",
"features": [
{ "type": "Feature", "properties": { "Name": "KALORÃ", "Description": "KALORÃ \/ PR" }, "geometry": { "type": "LineString", "coordinates": [ [ -51.590103958430916, -23.834653121344445 ], [ -51.587039701121284, -23.861655657882238 ], [ -51.653263564262026, -23.867143298524354 ], [ -51.679275860892233, -23.88429361635724 ], [ -51.688459019068425, -23.929608589964403 ], [ -51.731009683550035, -23.938885520450356 ], [ -51.758022055973072, -23.938373141607144 ], [ -51.795897569617125, -23.920062915970732 ], [ -51.763458142079571, -23.890504423440348 ], [ -51.734530388166831, -23.84162589431952 ], [ -51.766449859173633, -23.838868118768627 ], [ -51.732052403395642, -23.813696024551859 ], [ -51.674494592751216, -23.790245536702116 ], [ -51.629108015122767, -23.779962441113696 ], [ -51.61834942098892, -23.806551121337119 ], [ -51.590103958430916, -23.834653121344445 ] ] } }
]
}
