{
"type": "FeatureCollection",
"features": [
{ "type": "Feature", "properties": { "Name": "LARANJAL", "Description": "LARANJAL \/ PR" }, "geometry": { "type": "LineString", "coordinates": [ [ -52.45305793807335, -24.746332112237152 ], [ -52.431221016536654, -24.760740159730513 ], [ -52.399506761827581, -24.831863636397657 ], [ -52.382075069508801, -24.88979451640375 ], [ -52.381424454974592, -24.961009176232437 ], [ -52.411678762864589, -25.018639698862955 ], [ -52.456431987546125, -25.027623605045278 ], [ -52.513758464681359, -25.025110146515999 ], [ -52.517915210318677, -25.050411252976915 ], [ -52.555253633548311, -25.035141297033192 ], [ -52.56827892842977, -24.966119074635515 ], [ -52.591928139472031, -24.964541174535555 ], [ -52.655801726968093, -24.929365133394128 ], [ -52.637416654355093, -24.907782455595793 ], [ -52.602437726619769, -24.896423000121331 ], [ -52.601689730796409, -24.878643157755505 ], [ -52.537153378925261, -24.840105091976337 ], [ -52.540939155117883, -24.769771488063668 ], [ -52.489613020324612, -24.739829940099639 ], [ -52.45305793807335, -24.746332112237152 ] ] } }
]
}
