{
"type": "FeatureCollection",
"features": [
{ "type": "Feature", "properties": { "Name": "LIDIANÃPOLIS", "Description": "LIDIANÃPOLIS \/ PR" }, "geometry": { "type": "LineString", "coordinates": [ [ -51.619037499480953, -24.025548746977048 ], [ -51.550324958629915, -24.093585638866102 ], [ -51.580151869113422, -24.125450946403987 ], [ -51.643512657782871, -24.140816201706286 ], [ -51.661413582171065, -24.153189960248426 ], [ -51.705905197666709, -24.134395429005792 ], [ -51.711762042384294, -24.094436016209158 ], [ -51.683801161294525, -24.064234535395428 ], [ -51.675317179244352, -24.002032354109815 ], [ -51.640929635794009, -24.046209874186275 ], [ -51.619037499480953, -24.025548746977048 ] ] } }
]
}
