{
"type": "FeatureCollection",
"features": [
{ "type": "Feature", "properties": { "Name": "LUIZIANA", "Description": "LUIZIANA \/ PR" }, "geometry": { "type": "LineString", "coordinates": [ [ -52.222095351519215, -24.192958746448937 ], [ -52.148784993432685, -24.201454571671093 ], [ -52.144492418690106, -24.21406753998491 ], [ -52.083235475236954, -24.222867747048838 ], [ -52.124289916946054, -24.233314589396741 ], [ -52.132390272493012, -24.253843559432653 ], [ -52.178900801230952, -24.26442893514718 ], [ -52.24151746475917, -24.314230913325957 ], [ -52.168017116796477, -24.358891771338104 ], [ -52.191592604115328, -24.388036488493128 ], [ -52.215873365863104, -24.398466894831301 ], [ -52.277692804679134, -24.455746648588899 ], [ -52.313946746245279, -24.50222322162432 ], [ -52.327975914756621, -24.495739092584984 ], [ -52.393307614454784, -24.535042087522299 ], [ -52.508614816520549, -24.522966733028284 ], [ -52.516349450166956, -24.459602169004825 ], [ -52.483517708675265, -24.426733033702472 ], [ -52.42610768452198, -24.331587367462987 ], [ -52.44298893599057, -24.298060749503918 ], [ -52.419389990755398, -24.284235645258775 ], [ -52.391081102610769, -24.219144627522496 ], [ -52.35874850733768, -24.178461782984868 ], [ -52.333473788784261, -24.16505322222838 ], [ -52.222095351519215, -24.192958746448937 ] ] } }
]
}
