{
"type": "FeatureCollection",
"features": [
{ "type": "Feature", "properties": { "Name": "MARIPÃ", "Description": "MARIPÃ \/ PR" }, "geometry": { "type": "LineString", "coordinates": [ [ -53.715419440854468, -24.467481895672904 ], [ -53.715429582509159, -24.575100892492173 ], [ -53.769516337409009, -24.55037187716033 ], [ -53.776019400774658, -24.526165898537329 ], [ -53.805651003690798, -24.507698617996763 ], [ -53.812465343101053, -24.482929737517335 ], [ -53.845504646322354, -24.455116359632253 ], [ -53.881652216076873, -24.46750124188878 ], [ -53.906394637602368, -24.456742626171206 ], [ -53.901818535397069, -24.418131750379928 ], [ -53.90740877429544, -24.369927388138422 ], [ -53.714852470465075, -24.369535812527658 ], [ -53.715419440854468, -24.467481895672904 ] ] } }
]
}
