{
"type": "FeatureCollection",
"features": [
{ "type": "Feature", "properties": { "Name": "MATO RICO", "Description": "MATO RICO \/ PR" }, "geometry": { "type": "LineString", "coordinates": [ [ -52.094630682360048, -24.596849247894454 ], [ -52.092498558861337, -24.675356422061157 ], [ -52.07620421395324, -24.694376342294333 ], [ -52.104333827643984, -24.739070049842894 ], [ -52.119972587464872, -24.779067175709542 ], [ -52.168208763223788, -24.797000406443541 ], [ -52.184429977961088, -24.768483848650646 ], [ -52.219631968140789, -24.759839823249195 ], [ -52.25029377233966, -24.77667066232118 ], [ -52.284406777051053, -24.779093176908532 ], [ -52.29942765855958, -24.730841689292504 ], [ -52.376553077462518, -24.755335644324475 ], [ -52.394109824109073, -24.716604204520365 ], [ -52.370583897528832, -24.695490988118532 ], [ -52.325883339844211, -24.680665238809695 ], [ -52.273235877933359, -24.642990186747681 ], [ -52.207400595660943, -24.617727801496812 ], [ -52.134143902818835, -24.62533075101328 ], [ -52.094630682360048, -24.596849247894454 ] ] } }
]
}
