{
"type": "FeatureCollection",
"features": [
{ "type": "Feature", "properties": { "Name": "MIRADOR", "Description": "MIRADOR \/ PR" }, "geometry": { "type": "LineString", "coordinates": [ [ -52.649979751664148, -23.116916181636441 ], [ -52.649840049178863, -23.161872282579736 ], [ -52.701445836256305, -23.211342555714335 ], [ -52.719601677075666, -23.223847126044006 ], [ -52.714935793751863, -23.276005209272963 ], [ -52.763704463490171, -23.295931769335652 ], [ -52.786471153620823, -23.269730304809684 ], [ -52.845938871581602, -23.278130764123432 ], [ -52.862987861000924, -23.267941269074239 ], [ -52.850221891926708, -23.229940319789872 ], [ -52.819181099028469, -23.222010048524851 ], [ -52.772488588877252, -23.179760007618199 ], [ -52.749966167204832, -23.109114317371791 ], [ -52.686132107610661, -23.11954783896158 ], [ -52.649979751664148, -23.116916181636441 ] ] } }
]
}
