{
"type": "FeatureCollection",
"features": [
{ "type": "Feature", "properties": { "Name": "MORRETES", "Description": "MORRETES \/ PR" }, "geometry": { "type": "LineString", "coordinates": [ [ -48.844884895721293, -25.309996821296235 ], [ -48.849551995827881, -25.368283883194632 ], [ -48.834574241308125, -25.386318993626613 ], [ -48.81899944037184, -25.443045490756731 ], [ -48.796472471727157, -25.470799302046089 ], [ -48.719837025058609, -25.483717864487801 ], [ -48.683828576827295, -25.502537110898913 ], [ -48.681349925658481, -25.53258627623563 ], [ -48.7040710318526, -25.568223131792081 ], [ -48.688335148848012, -25.627011575623669 ], [ -48.760001719803476, -25.597299624577943 ], [ -48.789896327653366, -25.622860691767471 ], [ -48.847270613647879, -25.610327348528244 ], [ -48.871933330059107, -25.658049763186 ], [ -48.904072570192909, -25.668305016663169 ], [ -48.92368872745277, -25.699734133223615 ], [ -48.973427148743887, -25.72649763086093 ], [ -48.969481561225052, -25.664285289034805 ], [ -48.953317331129881, -25.642197720148602 ], [ -48.958599185304138, -25.601914983989275 ], [ -48.972728526600179, -25.575926674076698 ], [ -48.970163812110172, -25.522644302492495 ], [ -48.964162786283509, -25.491740406194761 ], [ -48.943490925665628, -25.477159505406803 ], [ -48.962869616939201, -25.444746738271306 ], [ -48.964675936745039, -25.427212120343029 ], [ -48.942473689908809, -25.386626792892113 ], [ -48.919019192881414, -25.379438478502948 ], [ -48.90636567323719, -25.333006135025073 ], [ -48.905698833134579, -25.30933317738419 ], [ -48.884493913763094, -25.290276639455325 ], [ -48.844884895721293, -25.309996821296235 ] ] } }
]
}
