{
"type": "FeatureCollection",
"features": [
{ "type": "Feature", "properties": { "Name": "NOVA PRATA DO IGUAÃU", "Description": "NOVA PRATA DO IGUAÃU \/ PR" }, "geometry": { "type": "LineString", "coordinates": [ [ -53.261930623499438, -25.591884824524982 ], [ -53.302345277612403, -25.670644322377541 ], [ -53.340686871202081, -25.694965108452948 ], [ -53.388943752951775, -25.692384325775947 ], [ -53.40470667137572, -25.653242662918501 ], [ -53.436375302578085, -25.628409380188714 ], [ -53.479176171942747, -25.641077979664999 ], [ -53.490517070806106, -25.594486187287657 ], [ -53.505376495229029, -25.580319477361964 ], [ -53.500003515449862, -25.549934029431881 ], [ -53.478859219377455, -25.531529131264335 ], [ -53.447716833664913, -25.528794646355777 ], [ -53.437710110533139, -25.504889431601953 ], [ -53.386905159845185, -25.505786146513401 ], [ -53.370149102998646, -25.531549872328696 ], [ -53.338818586308655, -25.513646872305287 ], [ -53.343957555296925, -25.479773659226964 ], [ -53.30317278699448, -25.496747658677464 ], [ -53.328850776841811, -25.539066978857928 ], [ -53.27987680357159, -25.544015559570369 ], [ -53.261930623499438, -25.591884824524982 ] ] } }
]
}
