{
"type": "FeatureCollection",
"features": [
{ "type": "Feature", "properties": { "Name": "NOVA AMÃRICA DA COLINA", "Description": "NOVA AMÃRICA DA COLINA \/ PR" }, "geometry": { "type": "LineString", "coordinates": [ [ -50.735948161478404, -23.250899867235031 ], [ -50.734782679676869, -23.273402501124508 ], [ -50.703361005006343, -23.289739553937238 ], [ -50.690615614219148, -23.311712599556756 ], [ -50.640684401663748, -23.345240635746677 ], [ -50.657085829747189, -23.363590066428401 ], [ -50.637724152747403, -23.41885535139329 ], [ -50.662970317825852, -23.392320581929255 ], [ -50.720570504525135, -23.415589776347076 ], [ -50.739809409676468, -23.372251862433473 ], [ -50.767277719491119, -23.347357271121098 ], [ -50.758139705482961, -23.338907636877877 ], [ -50.760839678008665, -23.28751614475425 ], [ -50.735948161478404, -23.250899867235031 ] ] } }
]
}
