{
"type": "FeatureCollection",
"features": [
{ "type": "Feature", "properties": { "Name": "NOVO ITACOLOMI", "Description": "NOVO ITACOLOMI \/ PR" }, "geometry": { "type": "LineString", "coordinates": [ [ -51.480702597946497, -23.699477181126952 ], [ -51.474854282399178, -23.725067862991466 ], [ -51.506530234982336, -23.857288214579398 ], [ -51.557742051554385, -23.86951903037891 ], [ -51.587039701121284, -23.861655657882238 ], [ -51.590103958430916, -23.834653121344445 ], [ -51.581288788446784, -23.796676258602417 ], [ -51.565185199637192, -23.791197755971609 ], [ -51.574605696995256, -23.741018558959297 ], [ -51.593028738985076, -23.704579429896739 ], [ -51.561935905017947, -23.691371831644688 ], [ -51.547335613947382, -23.705800821650541 ], [ -51.480702597946497, -23.699477181126952 ] ] } }
]
}
