{
"type": "FeatureCollection",
"features": [
{ "type": "Feature", "properties": { "Name": "ORTIGUEIRA", "Description": "ORTIGUEIRA \/ PR" }, "geometry": { "type": "LineString", "coordinates": [ [ -50.804921562380173, -23.876409837344056 ], [ -50.787139592218352, -23.905570855610449 ], [ -50.732034828144776, -23.94765748430541 ], [ -50.754483406483978, -23.977265963853085 ], [ -50.721805614537459, -24.027856258059842 ], [ -50.702833449204263, -24.024894650267868 ], [ -50.692919492940177, -24.036635309471933 ], [ -50.71981419446945, -24.110243371934018 ], [ -50.710324456508424, -24.133468046313226 ], [ -50.740402935247232, -24.140782567061763 ], [ -50.678870963823897, -24.229949674337941 ], [ -50.708060862918444, -24.261191500787103 ], [ -50.723346556098647, -24.313862809121304 ], [ -50.758202711985518, -24.34248411005359 ], [ -50.78039786137213, -24.378770706003252 ], [ -50.829064351938257, -24.399657386778927 ], [ -50.857121020718466, -24.394802977675226 ], [ -50.884840294444018, -24.411575399485059 ], [ -50.94976018198679, -24.390299801494621 ], [ -50.968252834200882, -24.354977272483097 ], [ -50.997256616799405, -24.342726328956871 ], [ -51.055285673994597, -24.343762496342094 ], [ -51.098007897646312, -24.325832041815261 ], [ -51.098339734890828, -24.299577589234332 ], [ -51.13156376785355, -24.268109219964458 ], [ -51.203876114091372, -24.245891497594471 ], [ -51.207290554815188, -24.223029358817826 ], [ -51.259784462882635, -24.212425654919969 ], [ -51.333816754439624, -24.158897731545039 ], [ -51.37253526109339, -24.142583781416363 ], [ -51.312868001556978, -24.129478342551408 ], [ -51.28047602944514, -24.098171123698364 ], [ -51.262683914031356, -24.110732229009102 ], [ -51.234397328174111, -24.086506698225492 ], [ -51.211062754842203, -24.105749009109445 ], [ -51.178007204468884, -24.10042557028379 ], [ -51.133174801675686, -24.06957743195289 ], [ -51.114270120569586, -24.08527416746881 ], [ -51.085441224632746, -24.074418168663499 ], [ -51.096036234784378, -24.032877413162055 ], [ -51.095527598919489, -23.988009758743317 ], [ -51.112563710047134, -23.942674056662327 ], [ -51.089226373997917, -23.929612910307526 ], [ -51.081900517294962, -23.905956714230911 ], [ -51.069754768367822, -23.916526609015762 ], [ -51.028174850988535, -23.908256629639709 ], [ -51.016510218671613, -23.918675194604475 ], [ -50.951450286901206, -23.883897444311572 ], [ -50.960919297287717, -23.866991188992131 ], [ -50.899062827987052, -23.795560844757116 ], [ -50.886088273754808, -23.805863054536303 ], [ -50.895783442951483, -23.840191341657032 ], [ -50.857420078573739, -23.868417391449384 ], [ -50.843668486711238, -23.894437440235606 ], [ -50.804921562380173, -23.876409837344056 ] ] } }
]
}
