{
"type": "FeatureCollection",
"features": [
{ "type": "Feature", "properties": { "Name": "PAIÃANDU", "Description": "PAIÃANDU \/ PR" }, "geometry": { "type": "LineString", "coordinates": [ [ -52.100259580415241, -23.519553935565625 ], [ -52.205660566681786, -23.511548319998951 ], [ -52.224216992520155, -23.522964326642295 ], [ -52.213272950086541, -23.48068388775118 ], [ -52.148636389457742, -23.414249029269229 ], [ -52.094986329155745, -23.400338042466611 ], [ -52.047878746806703, -23.422673467206721 ], [ -52.04503938026312, -23.439411374835061 ], [ -52.006470840057197, -23.454908010296379 ], [ -52.070487248887389, -23.484235798842974 ], [ -52.100259580415241, -23.519553935565625 ] ] } }
]
}
