{
"type": "FeatureCollection",
"features": [
{ "type": "Feature", "properties": { "Name": "PALMEIRA", "Description": "PALMEIRA \/ PR" }, "geometry": { "type": "LineString", "coordinates": [ [ -49.81966373609248, -25.270055223169948 ], [ -49.756556444724083, -25.360568957291491 ], [ -49.740876754058888, -25.367000707116915 ], [ -49.741210675032562, -25.408417518053966 ], [ -49.767160463384641, -25.466718960111848 ], [ -49.84652464739451, -25.47610674283186 ], [ -49.860735487053034, -25.496635786612217 ], [ -49.910073529269937, -25.448884051357822 ], [ -49.932719807373189, -25.503450751950595 ], [ -49.961290032209149, -25.507261922299847 ], [ -49.990026072245364, -25.56238423664314 ], [ -49.986038301126648, -25.5997107114801 ], [ -50.026779604295257, -25.604256326668121 ], [ -50.034966780392551, -25.629919522667819 ], [ -50.065316721289605, -25.65095636684282 ], [ -50.095221381761291, -25.635376625031199 ], [ -50.156801974131774, -25.603394953314417 ], [ -50.171409288907512, -25.583773570094138 ], [ -50.247086996267797, -25.580115391512038 ], [ -50.273692211426351, -25.54380687728553 ], [ -50.32085319371987, -25.546348756190127 ], [ -50.358451190070298, -25.527775286400296 ], [ -50.358398520375374, -25.527673909423356 ], [ -50.341473730028554, -25.453983454672652 ], [ -50.348266935370702, -25.425828014251408 ], [ -50.321381531932104, -25.415335532208985 ], [ -50.305192250322079, -25.380432155619417 ], [ -50.277047692596909, -25.376997700483457 ], [ -50.287387360937942, -25.318879300139542 ], [ -50.276147617818253, -25.288581850871648 ], [ -50.245728051408378, -25.310498562958287 ], [ -50.249773501445873, -25.35319785839442 ], [ -50.235040120605049, -25.385887966556368 ], [ -50.163219212496642, -25.375136349363004 ], [ -50.15115362374069, -25.34718779617981 ], [ -50.087675444765914, -25.315680099556914 ], [ -50.091867235184736, -25.28010580983522 ], [ -50.055611787254122, -25.262582307527449 ], [ -50.033316537028497, -25.30208174497653 ], [ -50.011588223018009, -25.300965828410199 ], [ -49.98328001835813, -25.321435189582303 ], [ -49.938427903325021, -25.32102477137607 ], [ -49.862507016585475, -25.283634655115179 ], [ -49.81966373609248, -25.270055223169948 ] ] } }
]
}
