{
"type": "FeatureCollection",
"features": [
{ "type": "Feature", "properties": { "Name": "PARANAGUÃ", "Description": "PARANAGUÃ \/ PR" }, "geometry": { "type": "LineString", "coordinates": [ [ -48.30974494537287, -25.493277379947074 ], [ -48.276912922393414, -25.514049679549029 ], [ -48.28989995292045, -25.546373297789444 ], [ -48.319932359390805, -25.586566077462464 ], [ -48.358527313584595, -25.585945070408627 ], [ -48.349333076660116, -25.569568453721104 ], [ -48.3724812708939, -25.544865833491372 ], [ -48.423611466795705, -25.557152280453348 ], [ -48.460446616817876, -25.545656833096299 ], [ -48.490630990727595, -25.600578729924393 ], [ -48.496891006015062, -25.649257381123221 ], [ -48.533651482629743, -25.640954089959219 ], [ -48.584532795651967, -25.653902580039983 ], [ -48.572482437814188, -25.70118213254932 ], [ -48.59001952168353, -25.733364657952563 ], [ -48.634518503526067, -25.704499827804735 ], [ -48.627785394480327, -25.666869204050496 ], [ -48.654413924562895, -25.642144920051976 ], [ -48.688335148848012, -25.627011575623669 ], [ -48.7040710318526, -25.568223131792081 ], [ -48.681349925658481, -25.53258627623563 ], [ -48.683828576827295, -25.502537110898913 ], [ -48.615429922752689, -25.451518294233832 ], [ -48.567595826685988, -25.403393936580869 ], [ -48.535594006558142, -25.371426032585305 ], [ -48.512261617679485, -25.368354629262683 ], [ -48.499657109288137, -25.39268145428565 ], [ -48.427783411874941, -25.393721069671585 ], [ -48.30974494537287, -25.493277379947074 ] ] } }
]
}
