{
"type": "FeatureCollection",
"features": [
{ "type": "Feature", "properties": { "Name": "PARANACITY", "Description": "PARANACITY \/ PR" }, "geometry": { "type": "LineString", "coordinates": [ [ -52.056040943334828, -22.729314318900663 ], [ -52.053791831527739, -22.75346071024353 ], [ -52.088628949666258, -22.769661441122537 ], [ -52.069243492792907, -22.809660112923837 ], [ -52.077655593830571, -22.866741164173334 ], [ -52.06618785908239, -22.876892323821664 ], [ -52.101048507082908, -22.910479040775044 ], [ -52.075184405236079, -22.917569549395125 ], [ -52.058498163659294, -22.953804732902029 ], [ -52.16211182649954, -22.954120426416523 ], [ -52.210894375474993, -22.939945205306913 ], [ -52.256549003233886, -22.897771639149767 ], [ -52.231106383053081, -22.852045322833362 ], [ -52.238407886114999, -22.816233914263705 ], [ -52.176589641598639, -22.804994717931834 ], [ -52.163293551855872, -22.764121323240431 ], [ -52.164084409367945, -22.711992165805782 ], [ -52.121077649214101, -22.720341875477118 ], [ -52.074598996946115, -22.717680638550572 ], [ -52.056040943334828, -22.729314318900663 ] ] } }
]
}
