{
"type": "FeatureCollection",
"features": [
{ "type": "Feature", "properties": { "Name": "PAULA FREITAS", "Description": "PAULA FREITAS \/ PR" }, "geometry": { "type": "LineString", "coordinates": [ [ -50.697515197668217, -26.181799592077482 ], [ -50.729872534190065, -26.203382219513799 ], [ -50.715617688005864, -26.244579673213305 ], [ -50.745929590278308, -26.246772863376915 ], [ -50.762658374284513, -26.222043543174948 ], [ -50.799939230111356, -26.231286866895346 ], [ -50.8468730193743, -26.266383148963087 ], [ -50.87324432356661, -26.245891774185964 ], [ -50.881961878437892, -26.279265758308043 ], [ -50.909286523354353, -26.283687040424525 ], [ -50.909498911745345, -26.249437536612959 ], [ -50.943564260482219, -26.243838537418526 ], [ -50.9713074273958, -26.261335565483929 ], [ -50.99150620864458, -26.23502134036255 ], [ -50.993375518765163, -26.187448334572935 ], [ -50.978730312853592, -26.156272187411503 ], [ -50.897453914766288, -26.057190840584781 ], [ -50.898369713291572, -26.092590769748199 ], [ -50.86117632462765, -26.107794637212688 ], [ -50.819813985626865, -26.068734293752584 ], [ -50.790340291071516, -26.080615109599592 ], [ -50.751457755271133, -26.140571379765333 ], [ -50.745422424805042, -26.164467702922082 ], [ -50.697515197668217, -26.181799592077482 ] ] } }
]
}
