{
"type": "FeatureCollection",
"features": [
{ "type": "Feature", "properties": { "Name": "PINHALÃO", "Description": "PINHALÃO \/ PR" }, "geometry": { "type": "LineString", "coordinates": [ [ -50.019987160678909, -23.73809621826581 ], [ -50.059337628129015, -23.891149653733461 ], [ -49.973112741959426, -23.902144347783405 ], [ -49.970423591875196, -23.956365371464699 ], [ -49.993385127321737, -23.976202519130936 ], [ -50.04214870869589, -23.98965657299243 ], [ -50.064778563379946, -23.985972222340138 ], [ -50.081491587666619, -23.961079410786112 ], [ -50.118324089185307, -23.962107271133615 ], [ -50.161703583253711, -23.942085567295067 ], [ -50.163878269866245, -23.93083215358098 ], [ -50.115347790068427, -23.884011111423604 ], [ -50.120303441250769, -23.855868088841188 ], [ -50.077145399840276, -23.821261726847183 ], [ -50.094042943427034, -23.791547523899055 ], [ -50.033950842357456, -23.7719469518903 ], [ -50.019987160678909, -23.73809621826581 ] ] } }
]
}
