{
"type": "FeatureCollection",
"features": [
{ "type": "Feature", "properties": { "Name": "PINHAIS", "Description": "PINHAIS \/ PR" }, "geometry": { "type": "LineString", "coordinates": [ [ -49.103961705868016, -25.394234720156192 ], [ -49.115918188873245, -25.440130713361668 ], [ -49.154820002541044, -25.44477716773207 ], [ -49.175576676422452, -25.462598883431667 ], [ -49.185224822767339, -25.471450119827125 ], [ -49.203344607067947, -25.435623376017929 ], [ -49.193484558865237, -25.390348454617424 ], [ -49.141459415219792, -25.38903127877046 ], [ -49.119947492482765, -25.378441703221995 ], [ -49.103961705868016, -25.394234720156192 ] ] } }
]
}
