{
"type": "FeatureCollection",
"features": [
{ "type": "Feature", "properties": { "Name": "PIRAÃ DO SUL", "Description": "PIRAÃ DO SUL \/ PR" }, "geometry": { "type": "LineString", "coordinates": [ [ -49.986073732616603, -24.245418913751848 ], [ -49.960776423093421, -24.311514952652885 ], [ -49.965697636536667, -24.335450000617012 ], [ -49.949680593984169, -24.370226442396358 ], [ -49.893645513629508, -24.361713286339068 ], [ -49.879081726040795, -24.380571074095766 ], [ -49.847749924219613, -24.389071540718987 ], [ -49.819060334167027, -24.44540298186206 ], [ -49.798125303140175, -24.460789775927363 ], [ -49.739024642573156, -24.445205002408898 ], [ -49.635255703687733, -24.496607257618791 ], [ -49.620164412457648, -24.604762397866295 ], [ -49.592705169607818, -24.598568031289574 ], [ -49.573595681395545, -24.613681047442356 ], [ -49.591695262426356, -24.636294845630573 ], [ -49.641528399416067, -24.641980418061792 ], [ -49.673712089441324, -24.603589216968768 ], [ -49.733232126361486, -24.610582640176631 ], [ -49.781425603208959, -24.597954917585355 ], [ -49.82108580976228, -24.59793689157425 ], [ -49.910849446344848, -24.584181310319195 ], [ -49.941382782389439, -24.626987754581137 ], [ -49.958762226795272, -24.610400072405351 ], [ -49.992765765127899, -24.645907644122417 ], [ -50.026233107871576, -24.623287711658516 ], [ -50.045908126658667, -24.625238457189027 ], [ -50.083397883305622, -24.600774401017755 ], [ -50.134818067399863, -24.541095738977106 ], [ -50.098643056631715, -24.520637294675339 ], [ -50.102914699653638, -24.490524325137471 ], [ -50.1801098142165, -24.449858313210541 ], [ -50.209717125544842, -24.424781980603882 ], [ -50.170022693492456, -24.35132826158997 ], [ -50.193248555876096, -24.330210999138274 ], [ -50.185051604148157, -24.290598210239182 ], [ -50.123721292203811, -24.301353636061435 ], [ -50.043076343198663, -24.264300015533252 ], [ -49.986073732616603, -24.245418913751848 ] ] } }
]
}
