{
"type": "FeatureCollection",
"features": [
{ "type": "Feature", "properties": { "Name": "PORECATU", "Description": "PORECATU \/ PR" }, "geometry": { "type": "LineString", "coordinates": [ [ -51.333070432254594, -22.667109522386511 ], [ -51.345227920931791, -22.702864678362175 ], [ -51.343953894556535, -22.733605807262162 ], [ -51.311846368115368, -22.785135508996518 ], [ -51.317782404434347, -22.830127008154875 ], [ -51.362264705651619, -22.807287598843569 ], [ -51.378954637146762, -22.828837088061103 ], [ -51.408449743660697, -22.819094653195634 ], [ -51.447476671910856, -22.828212645597091 ], [ -51.455912637358267, -22.800041670286813 ], [ -51.484298991305359, -22.798088584720347 ], [ -51.482593849726356, -22.758798504946977 ], [ -51.512620652521029, -22.729046877611268 ], [ -51.517213696155125, -22.689964460291549 ], [ -51.474951068337077, -22.679217422446072 ], [ -51.453096084816423, -22.655750534559502 ], [ -51.424725596708868, -22.653510808077272 ], [ -51.402016286022722, -22.667905495242394 ], [ -51.373649237822008, -22.658132862941216 ], [ -51.333070432254594, -22.667109522386511 ] ] } }
]
}
