{
"type": "FeatureCollection",
"features": [
{ "type": "Feature", "properties": { "Name": "QUATRO BARRAS", "Description": "QUATRO BARRAS \/ PR" }, "geometry": { "type": "LineString", "coordinates": [ [ -48.90636567323719, -25.333006135025073 ], [ -48.919019192881414, -25.379438478502948 ], [ -48.942473689908809, -25.386626792892113 ], [ -48.964675936745039, -25.427212120343029 ], [ -48.962869616939201, -25.444746738271306 ], [ -49.010031369052399, -25.440641184742844 ], [ -49.035755310658999, -25.409709449931142 ], [ -49.076450286151719, -25.389312821429538 ], [ -49.103961705868016, -25.394234720156192 ], [ -49.119947492482765, -25.378441703221995 ], [ -49.123853669910886, -25.370627011027693 ], [ -49.086600902609518, -25.364334128217422 ], [ -49.044945338756342, -25.345615126536813 ], [ -49.016516424393444, -25.312530059514586 ], [ -48.963958228289584, -25.302804191060545 ], [ -48.90636567323719, -25.333006135025073 ] ] } }
]
}
