{
"type": "FeatureCollection",
"features": [
{ "type": "Feature", "properties": { "Name": "QUATIGUÃ", "Description": "QUATIGUÃ \/ PR" }, "geometry": { "type": "LineString", "coordinates": [ [ -49.850290637602825, -23.571405869784996 ], [ -49.877603478917358, -23.607330440947067 ], [ -49.902666546523847, -23.600486273722478 ], [ -49.953714619933749, -23.599360595914732 ], [ -50.024334559891997, -23.566699691437577 ], [ -50.038421669024778, -23.548687249317084 ], [ -50.004051598502421, -23.533681801973554 ], [ -49.973125337864019, -23.53303937756516 ], [ -49.923507074991448, -23.556351724152705 ], [ -49.8815659053422, -23.50520811126529 ], [ -49.865066433169318, -23.521685019448054 ], [ -49.850290637602825, -23.571405869784996 ] ] } }
]
}
