{
"type": "FeatureCollection",
"features": [
{ "type": "Feature", "properties": { "Name": "QUERÃNCIA DO NORTE", "Description": "QUERÃNCIA DO NORTE \/ PR" }, "geometry": { "type": "LineString", "coordinates": [ [ -53.316530981219778, -22.912489255774517 ], [ -53.375390251159097, -22.988487396975756 ], [ -53.44882842988806, -23.096777889687814 ], [ -53.462226815714921, -23.124853255373409 ], [ -53.467764249120762, -23.177307522224339 ], [ -53.494897403192567, -23.198652046954351 ], [ -53.51571003558962, -23.197524695508264 ], [ -53.538665550075052, -23.18811007701839 ], [ -53.557358722327137, -23.216009573083284 ], [ -53.582021731018017, -23.226177361196221 ], [ -53.615449544960484, -23.210978540727012 ], [ -53.635390953729484, -23.241399294242001 ], [ -53.629014448358078, -23.269884804739888 ], [ -53.648166892687925, -23.285790843972222 ], [ -53.698746906744304, -23.305785193132124 ], [ -53.714907660959739, -23.283381813819631 ], [ -53.699341038458101, -23.234904327472691 ], [ -53.669363268499978, -23.184260907614771 ], [ -53.654754592150653, -23.14416008811753 ], [ -53.636588728387039, -23.125030776149345 ], [ -53.629895815439511, -23.013504758337888 ], [ -53.634125060822839, -22.998495487077033 ], [ -53.60742350309215, -22.951333468764517 ], [ -53.570771231107415, -22.928491310225748 ], [ -53.5468269426093, -22.89009623755129 ], [ -53.484761202867162, -22.863854220795584 ], [ -53.42965074968231, -22.832955352607371 ], [ -53.410406591590913, -22.813869645167927 ], [ -53.394526996024013, -22.840358276713062 ], [ -53.370129969022798, -22.852320016255703 ], [ -53.372481384108539, -22.895097998773561 ], [ -53.336611730946572, -22.920036356492631 ], [ -53.316530981219778, -22.912489255774517 ] ] } }
]
}
