{
"type": "FeatureCollection",
"features": [
{ "type": "Feature", "properties": { "Name": "ROLÃNDIA", "Description": "ROLÃNDIA \/ PR" }, "geometry": { "type": "LineString", "coordinates": [ [ -51.310186193537959, -23.383417942983613 ], [ -51.349640197237242, -23.389897114060545 ], [ -51.396385284453288, -23.360084931774111 ], [ -51.442336405200869, -23.363111646884931 ], [ -51.454626120299167, -23.382187020214754 ], [ -51.500407121691296, -23.342360492142973 ], [ -51.519071671220615, -23.285030856588719 ], [ -51.53815417527494, -23.263250996136492 ], [ -51.520287902664506, -23.196186468330779 ], [ -51.483794762118521, -23.190492142798121 ], [ -51.473611675638267, -23.167178356395993 ], [ -51.418039437669847, -23.168750298487453 ], [ -51.306159656243096, -23.171874891313166 ], [ -51.2990951551173, -23.198048734961105 ], [ -51.310668079068535, -23.242891946705925 ], [ -51.32870078201546, -23.256515092897189 ], [ -51.334266800372511, -23.288935435022267 ], [ -51.320567538261223, -23.312907356089568 ], [ -51.290010385470843, -23.331455155630863 ], [ -51.310186193537959, -23.383417942983613 ] ] } }
]
}
