{
"type": "FeatureCollection",
"features": [
{ "type": "Feature", "properties": { "Name": "SABÃUDIA", "Description": "SABÃUDIA \/ PR" }, "geometry": { "type": "LineString", "coordinates": [ [ -51.500407121691296, -23.342360492142973 ], [ -51.590684630890962, -23.426236133290896 ], [ -51.625986019539141, -23.426331498299984 ], [ -51.627624317208415, -23.408666574902441 ], [ -51.690206165282234, -23.377693535128511 ], [ -51.67666399045077, -23.373938442005453 ], [ -51.591604372044117, -23.282981969842012 ], [ -51.53815417527494, -23.263250996136492 ], [ -51.519071671220615, -23.285030856588719 ], [ -51.500407121691296, -23.342360492142973 ] ] } }
]
}
