{
"type": "FeatureCollection",
"features": [
{ "type": "Feature", "properties": { "Name": "SANTA CRUZ DE MONTE CASTELO", "Description": "SANTA CRUZ DE MONTE CASTELO \/ PR" }, "geometry": { "type": "LineString", "coordinates": [ [ -53.347821494266498, -23.233496589895651 ], [ -53.379652880276183, -23.240763928612353 ], [ -53.414170145535763, -23.191346527520182 ], [ -53.476789997160608, -23.227696220803921 ], [ -53.51571003558962, -23.197524695508264 ], [ -53.494897403192567, -23.198652046954351 ], [ -53.467764249120762, -23.177307522224339 ], [ -53.462226815714921, -23.124853255373409 ], [ -53.44882842988806, -23.096777889687814 ], [ -53.375390251159097, -22.988487396975756 ], [ -53.316530981219778, -22.912489255774517 ], [ -53.284709122627866, -22.935179184271874 ], [ -53.229321216900587, -22.973120294465957 ], [ -53.249494103070333, -22.9959709309137 ], [ -53.259885011184281, -23.040627205980741 ], [ -53.306068274830977, -23.078222377560621 ], [ -53.32052389556128, -23.106071034950276 ], [ -53.335515840483595, -23.164346489299021 ], [ -53.332399194067534, -23.187453504475627 ], [ -53.350053853502509, -23.206707228655659 ], [ -53.347821494266498, -23.233496589895651 ] ] } }
]
}
