{
"type": "FeatureCollection",
"features": [
{ "type": "Feature", "properties": { "Name": "SANTO INÃCIO", "Description": "SANTO INÃCIO \/ PR" }, "geometry": { "type": "LineString", "coordinates": [ [ -51.718173636603979, -22.669021088952036 ], [ -51.725093209284125, -22.701062197762155 ], [ -51.759459753564727, -22.739344669920513 ], [ -51.770422854431153, -22.77755214131821 ], [ -51.759163899094624, -22.830459998330241 ], [ -51.800213645443364, -22.831015544631612 ], [ -51.839933161386227, -22.829873702409373 ], [ -51.905816863157668, -22.836178322271735 ], [ -51.864044536725942, -22.699408407471989 ], [ -51.85582720186386, -22.631697753648382 ], [ -51.77162057872669, -22.614126911028048 ], [ -51.733036632234757, -22.628614387543905 ], [ -51.718173636603979, -22.669021088952036 ] ] } }
]
}
