{
"type": "FeatureCollection",
"features": [
{ "type": "Feature", "properties": { "Name": "SANTANA DO ITARARÃ", "Description": "SANTANA DO ITARARÃ \/ PR" }, "geometry": { "type": "LineString", "coordinates": [ [ -49.608037905424965, -23.839379555122317 ], [ -49.678000803394298, -23.826279810764614 ], [ -49.696510163213418, -23.742669009167397 ], [ -49.738123919383327, -23.747627979747449 ], [ -49.762447582389996, -23.737099532017737 ], [ -49.738109085965505, -23.714137994772614 ], [ -49.651115073501785, -23.688689541589039 ], [ -49.602133843601955, -23.652116067302643 ], [ -49.549199109451308, -23.704016460591163 ], [ -49.567323638575026, -23.736778604449 ], [ -49.560068938930321, -23.811930716529272 ], [ -49.608037905424965, -23.839379555122317 ] ] } }
]
}
