{
"type": "FeatureCollection",
"features": [
{ "type": "Feature", "properties": { "Name": "SANTA TEREZA DO OESTE", "Description": "SANTA TEREZA DO OESTE \/ PR" }, "geometry": { "type": "LineString", "coordinates": [ [ -53.527756235861546, -25.169115876096782 ], [ -53.587430975059419, -25.168331915485453 ], [ -53.654987425729068, -25.146530800456048 ], [ -53.624261403640844, -25.080347039883918 ], [ -53.632300143936448, -25.054184456647302 ], [ -53.658635745043561, -25.039850547464763 ], [ -53.666940448143116, -25.017872460245826 ], [ -53.697604131925118, -25.001910761972056 ], [ -53.732538947914065, -24.999574576905161 ], [ -53.674391524649081, -24.957795368861127 ], [ -53.684443963917772, -24.939771125836728 ], [ -53.636604129277089, -24.93393785504793 ], [ -53.635608473652098, -24.881577887509479 ], [ -53.625010806003836, -24.870936202543646 ], [ -53.621730969508576, -24.89350208305467 ], [ -53.594590271923494, -24.92682693901196 ], [ -53.550600271285475, -24.949207880239442 ], [ -53.571489550202557, -24.985726397854933 ], [ -53.560629063780254, -25.023848623415176 ], [ -53.518413598208944, -25.052543608500685 ], [ -53.522244595012012, -25.086341149024744 ], [ -53.541787808260715, -25.100989799339743 ], [ -53.527756235861546, -25.169115876096782 ] ] } }
]
}
