{
"type": "FeatureCollection",
"features": [
{ "type": "Feature", "properties": { "Name": "SANTA FÃ", "Description": "SANTA FÃ \/ PR" }, "geometry": { "type": "LineString", "coordinates": [ [ -51.873432597336432, -22.956680636202346 ], [ -51.794653766757897, -23.005753082538657 ], [ -51.750380016524502, -23.028118185805564 ], [ -51.749376995451939, -23.039158573509326 ], [ -51.759318042893312, -23.065879919922338 ], [ -51.754295589170056, -23.096252402326456 ], [ -51.763593286800699, -23.122981641189767 ], [ -51.788544695481278, -23.146635765228325 ], [ -51.795701625329684, -23.174393996685581 ], [ -51.865713141548213, -23.132853242982719 ], [ -51.914528742407462, -23.136916782883191 ], [ -51.915033339417043, -23.048705784444337 ], [ -51.893017423115566, -23.007468872990042 ], [ -51.905502258722201, -22.949607674254707 ], [ -51.873432597336432, -22.956680636202346 ] ] } }
]
}
