{
"type": "FeatureCollection",
"features": [
{ "type": "Feature", "properties": { "Name": "SAUDADE DO IGUAÃU", "Description": "SAUDADE DO IGUAÃU \/ PR" }, "geometry": { "type": "LineString", "coordinates": [ [ -52.544200477270181, -25.696216897291947 ], [ -52.554560253552836, -25.753099364743832 ], [ -52.547218897034433, -25.777325387456642 ], [ -52.603562625614643, -25.769262651450163 ], [ -52.601838695399408, -25.797341318546955 ], [ -52.642979941471083, -25.789298948587543 ], [ -52.662361520467755, -25.758548886721712 ], [ -52.643425823542884, -25.736398805060784 ], [ -52.645254987927331, -25.704357177341819 ], [ -52.67679762860763, -25.655677312058287 ], [ -52.62779628177293, -25.655033780584461 ], [ -52.619333766540073, -25.629640586244022 ], [ -52.575263869232117, -25.648742164019609 ], [ -52.576676399296332, -25.66206047511082 ], [ -52.544200477270181, -25.696216897291947 ] ] } }
]
}
