{
"type": "FeatureCollection",
"features": [
{ "type": "Feature", "properties": { "Name": "TAMBOARA", "Description": "TAMBOARA \/ PR" }, "geometry": { "type": "LineString", "coordinates": [ [ -52.420914802975744, -23.141060001817607 ], [ -52.420519614788354, -23.234107913049684 ], [ -52.420760103395992, -23.250781726895127 ], [ -52.421240619259152, -23.266074059770006 ], [ -52.546881726810227, -23.267829455464948 ], [ -52.546943094747974, -23.179283145700595 ], [ -52.546916888503574, -23.130923645909487 ], [ -52.421114742051657, -23.130991153518892 ], [ -52.420914802975744, -23.141060001817607 ] ] } }
]
}
