{
"type": "FeatureCollection",
"features": [
{ "type": "Feature", "properties": { "Name": "TEIXEIRA SOARES", "Description": "TEIXEIRA SOARES \/ PR" }, "geometry": { "type": "LineString", "coordinates": [ [ -50.370613407382784, -25.097010982770595 ], [ -50.322053206790031, -25.135242767339776 ], [ -50.273470139135554, -25.146481442064839 ], [ -50.280502080306746, -25.21183047349751 ], [ -50.266799937666967, -25.23690958770726 ], [ -50.276147617818253, -25.288581850871648 ], [ -50.287387360937942, -25.318879300139542 ], [ -50.277047692596909, -25.376997700483457 ], [ -50.305192250322079, -25.380432155619417 ], [ -50.321381531932104, -25.415335532208985 ], [ -50.348266935370702, -25.425828014251408 ], [ -50.341473730028554, -25.453983454672652 ], [ -50.358398520375374, -25.527673909423356 ], [ -50.408527680008376, -25.52575395667969 ], [ -50.431112580281308, -25.502383430251086 ], [ -50.429603976542239, -25.476291141622823 ], [ -50.531148422561614, -25.465628049195061 ], [ -50.509348367832843, -25.435762067665223 ], [ -50.541194576468513, -25.411206753688703 ], [ -50.553172902207621, -25.376681792031036 ], [ -50.546935168523191, -25.334206392710826 ], [ -50.564098657826776, -25.309109610420137 ], [ -50.575490599511511, -25.243568514375397 ], [ -50.54314005466972, -25.214722709385509 ], [ -50.491888936824921, -25.207233560080681 ], [ -50.448487432748777, -25.215022129667489 ], [ -50.430975277187258, -25.2142899358318 ], [ -50.41003158209179, -25.168954792229837 ], [ -50.387165055522864, -25.150951987244351 ], [ -50.394057360758552, -25.118976492970713 ], [ -50.370613407382784, -25.097010982770595 ] ] } }
]
}
