{
"type": "FeatureCollection",
"features": [
{ "type": "Feature", "properties": { "Name": "TERRA RICA", "Description": "TERRA RICA \/ PR" }, "geometry": { "type": "LineString", "coordinates": [ [ -52.53781047847076, -22.615996526018819 ], [ -52.569611273141675, -22.670771223613031 ], [ -52.559049000111195, -22.766358595472752 ], [ -52.594826613057705, -22.872748003217737 ], [ -52.658586121552219, -22.858842268455874 ], [ -52.713777670203285, -22.86441507399644 ], [ -52.737215470417595, -22.857766416686729 ], [ -52.760299069946086, -22.827694159457845 ], [ -52.780354371556939, -22.845346312482263 ], [ -52.811962187904605, -22.802593424646769 ], [ -52.84929011514663, -22.782429552381867 ], [ -52.843747874864505, -22.751436046736103 ], [ -52.815736001315372, -22.709366218276326 ], [ -52.800968810462166, -22.703265642895076 ], [ -52.778407509299086, -22.662290507001273 ], [ -52.789112328471163, -22.636818425030238 ], [ -52.782864229200754, -22.602061630739627 ], [ -52.726904259324044, -22.625242309385044 ], [ -52.697105379809386, -22.627006574194013 ], [ -52.663037322314544, -22.611917584329035 ], [ -52.589344442092276, -22.566096593682801 ], [ -52.53781047847076, -22.615996526018819 ] ] } }
]
}
