{
"type": "FeatureCollection",
"features": [
{ "type": "Feature", "properties": { "Name": "UNIFLOR", "Description": "UNIFLOR \/ PR" }, "geometry": { "type": "LineString", "coordinates": [ [ -52.036888965753121, -23.022069010276539 ], [ -52.02748113084948, -23.059634068957052 ], [ -52.082811786634579, -23.090512639446729 ], [ -52.13304950433109, -23.107020601219745 ], [ -52.153624250758526, -23.103995865516708 ], [ -52.186185379051949, -23.107249100065872 ], [ -52.182387031236487, -23.042539889504269 ], [ -52.162893265411803, -23.066385827244062 ], [ -52.056826820401398, -23.021684901736762 ], [ -52.036888965753121, -23.022069010276539 ] ] } }
]
}
