{
"type": "FeatureCollection",
"features": [
{ "type": "Feature", "properties": { "Name": "VERÃ", "Description": "VERÃ \/ PR" }, "geometry": { "type": "LineString", "coordinates": [ [ -52.944414087939776, -25.782479375123046 ], [ -52.905130714410916, -25.805106590296873 ], [ -52.895676460100503, -25.830656485208578 ], [ -52.853769172409329, -25.831283259614679 ], [ -52.867011375674387, -25.865812437294096 ], [ -52.842758992033794, -25.911512687660377 ], [ -52.868929263574607, -25.922948410140975 ], [ -52.887233364827864, -25.949733572446348 ], [ -52.918123305446159, -25.942482888274636 ], [ -52.996140389567294, -25.948906514523969 ], [ -53.027682870168292, -25.937434548465603 ], [ -53.095512334326706, -25.949790068756613 ], [ -53.072077875093839, -25.915048835435357 ], [ -53.079780599894718, -25.877071054485555 ], [ -53.026161845892432, -25.85811039597797 ], [ -52.990159223469334, -25.813593131817527 ], [ -52.978720322784625, -25.78171603236893 ], [ -52.965500423605647, -25.756007058179136 ], [ -52.9206724319871, -25.74857678658941 ], [ -52.944414087939776, -25.782479375123046 ] ] } }
]
}
