{
"type": "FeatureCollection",
"features": [
{ "type": "Feature", "properties": { "Name": "ÃGUAS BELAS", "Description": "ÃGUAS BELAS \/ PE" }, "geometry": { "type": "LineString", "coordinates": [ [ -37.05534094912548, -9.307447581940323 ], [ -37.057201429702154, -9.281788467064075 ], [ -37.090672477652674, -9.246362051067763 ], [ -37.159863903895996, -9.238248609485709 ], [ -37.198315127541036, -9.215482421176773 ], [ -37.160712961034278, -9.140246215290574 ], [ -37.162360149401309, -9.073096895805065 ], [ -37.116032767598085, -9.010564052688835 ], [ -37.099343525882944, -8.971033174940999 ], [ -37.046961400847913, -8.920993107545826 ], [ -36.993132912353985, -8.896603333576934 ], [ -36.941563406625846, -8.897722493997831 ], [ -36.901453836725125, -8.909062299285665 ], [ -36.865590210819505, -8.888191463665066 ], [ -36.888252478868765, -8.932782172759005 ], [ -36.901559610487588, -8.997131727347266 ], [ -36.92519658085746, -9.025479947341637 ], [ -36.939997037633134, -9.067512082516544 ], [ -36.985418112355944, -9.129335866856707 ], [ -36.976786573141794, -9.158681988083231 ], [ -36.946043914495021, -9.186475150108038 ], [ -36.974104519607863, -9.244518162982786 ], [ -37.037077430678835, -9.27591765047913 ], [ -37.05534094912548, -9.307447581940323 ] ] } }
]
}
