{
"type": "FeatureCollection",
"features": [
{ "type": "Feature", "properties": { "Name": "ÃGUA PRETA", "Description": "ÃGUA PRETA \/ PE" }, "geometry": { "type": "LineString", "coordinates": [ [ -35.470843348841413, -8.545937492421274 ], [ -35.487824012268334, -8.583949413434652 ], [ -35.474035507732474, -8.627869099679174 ], [ -35.394471840602932, -8.683052124555843 ], [ -35.403748916779023, -8.713721213263341 ], [ -35.341598123654421, -8.72495509460191 ], [ -35.340015567764169, -8.747210368163906 ], [ -35.361420702303519, -8.806480862102033 ], [ -35.409013848410325, -8.837989068640582 ], [ -35.409519716161924, -8.837887227613408 ], [ -35.411225605976881, -8.836230570284556 ], [ -35.449483184001679, -8.842001852603346 ], [ -35.470700793706612, -8.816056147173413 ], [ -35.495753690880065, -8.828302316198915 ], [ -35.535177909033223, -8.819454778714999 ], [ -35.582523804529899, -8.846466791409227 ], [ -35.613118181159102, -8.813974734646251 ], [ -35.606299873040648, -8.775646778376085 ], [ -35.602841716272167, -8.742222755975375 ], [ -35.557747746561233, -8.717592463721189 ], [ -35.564765000004684, -8.68375189333517 ], [ -35.537637776961787, -8.658697413354901 ], [ -35.51267776806452, -8.635298679690266 ], [ -35.521238951516352, -8.556621624488342 ], [ -35.487703211733788, -8.505992433703796 ], [ -35.470843348841413, -8.545937492421274 ] ] } }
]
}
