{
"type": "FeatureCollection",
"features": [
{ "type": "Feature", "properties": { "Name": "ALTINHO", "Description": "ALTINHO \/ PE" }, "geometry": { "type": "LineString", "coordinates": [ [ -36.008918222298064, -8.361757199834869 ], [ -36.0024595854415, -8.431502264018206 ], [ -35.968599999790115, -8.535939999931031 ], [ -35.996502522073683, -8.546993316288479 ], [ -36.094989251552647, -8.591176415758923 ], [ -36.168134743223789, -8.546334964886682 ], [ -36.229663202794541, -8.57298193286988 ], [ -36.267095801230198, -8.562404178010354 ], [ -36.217570165830466, -8.487965943273593 ], [ -36.134121256590674, -8.428353826567786 ], [ -36.130986001402782, -8.401371373689869 ], [ -36.098109908045785, -8.383200363106198 ], [ -36.063171601787928, -8.383740961775914 ], [ -36.008918222298064, -8.361757199834869 ] ] } }
]
}
