{
"type": "FeatureCollection",
"features": [
{ "type": "Feature", "properties": { "Name": "BARREIROS", "Description": "BARREIROS \/ PE" }, "geometry": { "type": "LineString", "coordinates": [ [ -35.103057032056313, -8.785200672173231 ], [ -35.132094171408824, -8.826758029159691 ], [ -35.130392689171231, -8.862818754981504 ], [ -35.136876765150532, -8.829514194024796 ], [ -35.260630800970659, -8.855600697314287 ], [ -35.235015990295665, -8.883198549073711 ], [ -35.252782133288804, -8.887233015691095 ], [ -35.394571158132408, -8.849835965657235 ], [ -35.409013848410325, -8.837989068640582 ], [ -35.361420702303519, -8.806480862102033 ], [ -35.28437015286022, -8.789369490309696 ], [ -35.223646993913576, -8.753688076043829 ], [ -35.19222744164307, -8.774129866699923 ], [ -35.1522603998975, -8.775356293757909 ], [ -35.125452322866352, -8.801394019618272 ], [ -35.103057032056313, -8.785200672173231 ] ] } }
]
}
