{
"type": "FeatureCollection",
"features": [
{ "type": "Feature", "properties": { "Name": "BEZERROS", "Description": "BEZERROS \/ PE" }, "geometry": { "type": "LineString", "coordinates": [ [ -35.630328649247701, -8.104082805077326 ], [ -35.657695556005081, -8.169866840382326 ], [ -35.655130953031005, -8.203610893727728 ], [ -35.718374640976833, -8.219472257338737 ], [ -35.718131293424392, -8.243437522523605 ], [ -35.758281572936198, -8.290269363740094 ], [ -35.809489722072954, -8.361251110850048 ], [ -35.845574332089711, -8.378693932279077 ], [ -35.902830187263305, -8.384484291916465 ], [ -35.921015861292915, -8.365903695898794 ], [ -35.890217509430499, -8.351097085062406 ], [ -35.853516138958582, -8.303457140934256 ], [ -35.851556866056455, -8.27231232975015 ], [ -35.879943525773058, -8.206291270026043 ], [ -35.888299331948588, -8.172184213430683 ], [ -35.847882113868422, -8.154064640470722 ], [ -35.835755451253014, -8.114443551728471 ], [ -35.649827364940904, -8.10529356684458 ], [ -35.630328649247701, -8.104082805077326 ] ] } }
]
}
