{
"type": "FeatureCollection",
"features": [
{ "type": "Feature", "properties": { "Name": "BREJÃO", "Description": "BREJÃO \/ PE" }, "geometry": { "type": "LineString", "coordinates": [ [ -36.478323611745225, -9.085963569163312 ], [ -36.530266130177722, -9.103544049818026 ], [ -36.533023345450999, -9.101389455858678 ], [ -36.57875408553258, -9.064532352486026 ], [ -36.60050011708671, -9.033376905919454 ], [ -36.590811072273141, -8.99551012379311 ], [ -36.55566672144198, -8.965745806124005 ], [ -36.509852181632823, -8.954436060675619 ], [ -36.48036253040641, -8.970363670147208 ], [ -36.478323611745225, -9.085963569163312 ] ] } }
]
}
