{
"type": "FeatureCollection",
"features": [
{ "type": "Feature", "properties": { "Name": "CABO DE SANTO AGOSTINHO", "Description": "CABO DE SANTO AGOSTINHO \/ PE" }, "geometry": { "type": "LineString", "coordinates": [ [ -35.064495688225406, -8.222790467905725 ], [ -35.007049789216353, -8.20603937891417 ], [ -34.976981269569876, -8.231094481225284 ], [ -34.927259127806451, -8.224392030068088 ], [ -34.951883118511091, -8.298972001556592 ], [ -34.955780665145539, -8.369704152624479 ], [ -34.977901624959991, -8.35398566430689 ], [ -35.024385439336527, -8.363552256531362 ], [ -35.078718639953252, -8.334505167079726 ], [ -35.108224776652094, -8.334045440844363 ], [ -35.140148406124013, -8.309932864909738 ], [ -35.1517430819776, -8.279194246017596 ], [ -35.190745590936217, -8.293770300359029 ], [ -35.238207085288707, -8.291655993329357 ], [ -35.264830104325817, -8.242849024163093 ], [ -35.215250922392102, -8.18756201157754 ], [ -35.164633264513498, -8.217335014898993 ], [ -35.1481677894119, -8.184882630828724 ], [ -35.109456183256214, -8.189931277306528 ], [ -35.064495688225406, -8.222790467905725 ] ] } }
]
}
