{
"type": "FeatureCollection",
"features": [
{ "type": "Feature", "properties": { "Name": "CATENDE", "Description": "CATENDE \/ PE" }, "geometry": { "type": "LineString", "coordinates": [ [ -35.693559288030656, -8.597473485812657 ], [ -35.695623769021665, -8.632700600352393 ], [ -35.668640881771239, -8.669033376489097 ], [ -35.707673292288575, -8.7301994470468 ], [ -35.663233368924807, -8.739098041741215 ], [ -35.720862090213238, -8.800982927819803 ], [ -35.724231293239541, -8.759447235501455 ], [ -35.77440257801652, -8.765860934134764 ], [ -35.745579777684554, -8.723055601434794 ], [ -35.817933531407277, -8.69560427261905 ], [ -35.813902146766615, -8.675124671766127 ], [ -35.810159271832902, -8.672943243835562 ], [ -35.759494587505174, -8.673357186484907 ], [ -35.800156429275773, -8.594850914338167 ], [ -35.754748322776834, -8.582305140669632 ], [ -35.693559288030656, -8.597473485812657 ] ] } }
]
}
