{
"type": "FeatureCollection",
"features": [
{ "type": "Feature", "properties": { "Name": "CEDRO", "Description": "CEDRO \/ PE" }, "geometry": { "type": "LineString", "coordinates": [ [ -39.102617136871345, -7.771038249515585 ], [ -39.115863686559862, -7.776618486154177 ], [ -39.27048515296741, -7.789348142402787 ], [ -39.282365918452342, -7.75062623271441 ], [ -39.257886212278827, -7.700727536046884 ], [ -39.266395888859165, -7.66476542088742 ], [ -39.252564870672181, -7.704930899841087 ], [ -39.208335245675016, -7.689480338446799 ], [ -39.171001361323697, -7.715240282612911 ], [ -39.142299675389665, -7.719025746740783 ], [ -39.102617136871345, -7.771038249515585 ] ] } }
]
}
