{
"type": "FeatureCollection",
"features": [
{ "type": "Feature", "properties": { "Name": "CHÃ DE ALEGRIA", "Description": "CHÃ DE ALEGRIA \/ PE" }, "geometry": { "type": "LineString", "coordinates": [ [ -35.166497828911645, -7.978135745468251 ], [ -35.223630557903903, -8.020846095370985 ], [ -35.260715728448076, -8.057826719727302 ], [ -35.254934179468762, -7.99923771314991 ], [ -35.230112304639079, -7.956173782194241 ], [ -35.166497828911645, -7.978135745468251 ] ] } }
]
}
