{
"type": "FeatureCollection",
"features": [
{ "type": "Feature", "properties": { "Name": "CONDADO", "Description": "CONDADO \/ PE" }, "geometry": { "type": "LineString", "coordinates": [ [ -35.072514379035333, -7.618297619839211 ], [ -35.121618119980212, -7.670459267980788 ], [ -35.121859787599078, -7.669446355265052 ], [ -35.146822418020122, -7.619572061701263 ], [ -35.12912586906355, -7.565090186962493 ], [ -35.097186733480896, -7.543663692625273 ], [ -35.061302500509953, -7.541194875542998 ], [ -35.072514379035333, -7.618297619839211 ] ] } }
]
}
