{
"type": "FeatureCollection",
"features": [
{ "type": "Feature", "properties": { "Name": "CORTÃS", "Description": "CORTÃS \/ PE" }, "geometry": { "type": "LineString", "coordinates": [ [ -35.445466414243583, -8.451794347231269 ], [ -35.500153273254909, -8.478033291902875 ], [ -35.500224324193141, -8.498052672792596 ], [ -35.542561412279326, -8.485175283112767 ], [ -35.551329655639051, -8.433210985798326 ], [ -35.57843951097459, -8.431094874728615 ], [ -35.597030662335158, -8.412708749009537 ], [ -35.549342795133839, -8.35164548984744 ], [ -35.547954646589631, -8.339112890347565 ], [ -35.505534909908135, -8.431794335040479 ], [ -35.445466414243583, -8.451794347231269 ] ] } }
]
}
