{
"type": "FeatureCollection",
"features": [
{ "type": "Feature", "properties": { "Name": "ESCADA", "Description": "ESCADA \/ PE" }, "geometry": { "type": "LineString", "coordinates": [ [ -35.140148406124013, -8.309932864909738 ], [ -35.17072132942576, -8.355121033209059 ], [ -35.238052813786283, -8.417451583723562 ], [ -35.202997038082799, -8.479023673004065 ], [ -35.240097263278017, -8.475213196931463 ], [ -35.27268614644845, -8.48766065581458 ], [ -35.289886283125441, -8.464060984826517 ], [ -35.316125194522044, -8.479043333083323 ], [ -35.346143114712902, -8.42770785523328 ], [ -35.364345842586545, -8.395776562638218 ], [ -35.344281128671128, -8.376173961758864 ], [ -35.359029854644007, -8.300638681829639 ], [ -35.300497072781639, -8.308086390374569 ], [ -35.276316880419643, -8.285178084900679 ], [ -35.264830104325817, -8.242849024163093 ], [ -35.238207085288707, -8.291655993329357 ], [ -35.190745590936217, -8.293770300359029 ], [ -35.1517430819776, -8.279194246017596 ], [ -35.140148406124013, -8.309932864909738 ] ] } }
]
}
