{
"type": "FeatureCollection",
"features": [
{ "type": "Feature", "properties": { "Name": "GARANHUNS", "Description": "GARANHUNS \/ PE" }, "geometry": { "type": "LineString", "coordinates": [ [ -36.487024713519645, -8.7956842140552 ], [ -36.444452003057442, -8.800900630859358 ], [ -36.462502816551705, -8.845012468050923 ], [ -36.44845556717064, -8.882037063859343 ], [ -36.416259130154685, -8.906689749232498 ], [ -36.400205279250201, -8.956310085042333 ], [ -36.377643020309108, -8.989222213334415 ], [ -36.366488219955329, -9.018580103089221 ], [ -36.409504981469695, -9.038598715957903 ], [ -36.465205433084229, -9.078082028562733 ], [ -36.478323611745225, -9.085963569163312 ], [ -36.48036253040641, -8.970363670147208 ], [ -36.509852181632823, -8.954436060675619 ], [ -36.55566672144198, -8.965745806124005 ], [ -36.590811072273141, -8.99551012379311 ], [ -36.60050011708671, -9.033376905919454 ], [ -36.637087684648854, -9.02082810783088 ], [ -36.630860506307272, -8.956497527139106 ], [ -36.606889837995595, -8.941814117127763 ], [ -36.612295691592863, -8.906292657180359 ], [ -36.605262586698977, -8.891614082823594 ], [ -36.543255064569507, -8.881198892115151 ], [ -36.581831343441706, -8.825746153362218 ], [ -36.540075200310184, -8.783849334679019 ], [ -36.487024713519645, -8.7956842140552 ] ] } }
]
}
