{
"type": "FeatureCollection",
"features": [
{ "type": "Feature", "properties": { "Name": "IGUARACI", "Description": "IGUARACI \/ PE" }, "geometry": { "type": "LineString", "coordinates": [ [ -37.170667624211397, -7.80022917473656 ], [ -37.217416028127197, -7.80668587895013 ], [ -37.244093513704598, -7.873845562222869 ], [ -37.287394449294403, -7.90387646412745 ], [ -37.308976362668901, -7.93417624174009 ], [ -37.3502187249142, -7.94859748768386 ], [ -37.403153480648598, -7.957527852728159 ], [ -37.425440709820897, -7.940433991635359 ], [ -37.473875084467494, -7.96548041099214 ], [ -37.541011189314901, -7.97882838891894 ], [ -37.577748395072298, -7.960876306596219 ], [ -37.551574461492201, -7.92371130593199 ], [ -37.585245721013202, -7.89081906884491 ], [ -37.616525391833299, -7.895886264739259 ], [ -37.617253609766202, -7.89457685453817 ], [ -37.605812201771599, -7.851608037680761 ], [ -37.5247580810206, -7.765574705308379 ], [ -37.537902458731402, -7.718027810435049 ], [ -37.521671864964603, -7.70983522311701 ], [ -37.481574324395503, -7.75023143033621 ], [ -37.4534112442335, -7.796069187043319 ], [ -37.392874078575794, -7.773140334758579 ], [ -37.355507822228198, -7.76947361261711 ], [ -37.323663905964494, -7.72018514462866 ], [ -37.251107323644, -7.718853795466259 ], [ -37.241720345817299, -7.74213983778321 ], [ -37.186855136855101, -7.74552587252094 ], [ -37.170667624211397, -7.80022917473656 ] ] } }
]
}
