{
"type": "FeatureCollection",
"features": [
{ "type": "Feature", "properties": { "Name": "ILHA DE ITAMARACÃ", "Description": "ILHA DE ITAMARACÃ \/ PE" }, "geometry": { "type": "LineString", "coordinates": [ [ -34.84770310761229, -7.816015799289687 ], [ -34.889422103347329, -7.804712685442041 ], [ -34.88766299974759, -7.771147000033977 ], [ -34.864175198126873, -7.713349120765257 ], [ -34.846266170847059, -7.688504208002768 ], [ -34.831378412383799, -7.699475490001816 ], [ -34.823639085175614, -7.754875639099396 ], [ -34.84770310761229, -7.816015799289687 ] ] } }
]
}
