{
"type": "FeatureCollection",
"features": [
{ "type": "Feature", "properties": { "Name": "INAJÃ", "Description": "INAJÃ \/ PE" }, "geometry": { "type": "LineString", "coordinates": [ [ -37.852922570720011, -8.594982429395543 ], [ -37.88221183500815, -8.669186309800295 ], [ -37.853783407178462, -8.695646382474536 ], [ -37.804479971773219, -8.69362505365325 ], [ -37.754240146965174, -8.709783527187994 ], [ -37.671203171289278, -8.714587175857446 ], [ -37.658567514878882, -8.730792294528726 ], [ -37.652813658723346, -8.788344743415109 ], [ -37.592306055579968, -8.832492711769191 ], [ -37.556047219003915, -8.81976987597892 ], [ -37.635689474289791, -8.902424164043907 ], [ -37.699079013385699, -8.935914703900437 ], [ -37.755361890238987, -8.84636368593533 ], [ -37.825640160664818, -8.888567339810834 ], [ -37.826233659255934, -8.932716849602855 ], [ -37.891967025857525, -8.963787713132433 ], [ -37.933056890063369, -8.998239470874807 ], [ -37.978085260526314, -9.019712277599467 ], [ -38.005493075644893, -8.96283622141442 ], [ -38.006482023226738, -8.680051697527745 ], [ -38.024733524032847, -8.652310121514859 ], [ -37.975094824966163, -8.657535727591721 ], [ -37.932037251318036, -8.617625585052679 ], [ -37.852922570720011, -8.594982429395543 ] ] } }
]
}
