{
"type": "FeatureCollection",
"features": [
{ "type": "Feature", "properties": { "Name": "IPOJUCA", "Description": "IPOJUCA \/ PE" }, "geometry": { "type": "LineString", "coordinates": [ [ -34.955780665145539, -8.369704152624479 ], [ -34.996193999953107, -8.479533000447589 ], [ -35.006330999775791, -8.525520999694322 ], [ -35.044716820225005, -8.611332297547449 ], [ -35.065315034461207, -8.597214162703381 ], [ -35.077504582170654, -8.52931930344306 ], [ -35.126100000214819, -8.519310000156338 ], [ -35.145338391853265, -8.489452022592729 ], [ -35.202997038082799, -8.479023673004065 ], [ -35.238052813786283, -8.417451583723562 ], [ -35.17072132942576, -8.355121033209059 ], [ -35.140148406124013, -8.309932864909738 ], [ -35.108224776652094, -8.334045440844363 ], [ -35.078718639953252, -8.334505167079726 ], [ -35.024385439336527, -8.363552256531362 ], [ -34.977901624959991, -8.35398566430689 ], [ -34.955780665145539, -8.369704152624479 ] ] } }
]
}
