{
"type": "FeatureCollection",
"features": [
{ "type": "Feature", "properties": { "Name": "IPUBI", "Description": "IPUBI \/ PE" }, "geometry": { "type": "LineString", "coordinates": [ [ -40.157133418572357, -7.371456987250098 ], [ -40.103938243455104, -7.686923853652899 ], [ -40.162594670407657, -7.702853648477059 ], [ -40.211758622762204, -7.677072213212 ], [ -40.238361113874248, -7.685166670105673 ], [ -40.272498428159906, -7.562131303217028 ], [ -40.345351408140914, -7.329162254534368 ], [ -40.310740830125155, -7.300697385276066 ], [ -40.26299560686175, -7.301020938865178 ], [ -40.195684671110655, -7.358148691908581 ], [ -40.157133418572357, -7.371456987250098 ] ] } }
]
}
