{
"type": "FeatureCollection",
"features": [
{ "type": "Feature", "properties": { "Name": "ITAPISSUMA", "Description": "ITAPISSUMA \/ PE" }, "geometry": { "type": "LineString", "coordinates": [ [ -34.864175198126873, -7.713349120765257 ], [ -34.88766299974759, -7.771147000033977 ], [ -34.889422103347329, -7.804712685442041 ], [ -34.926147658387663, -7.805410520678947 ], [ -34.943205507028495, -7.741591186583947 ], [ -34.922720951810447, -7.69166114584516 ], [ -34.864175198126873, -7.713349120765257 ] ] } }
]
}
