{
"type": "FeatureCollection",
"features": [
{ "type": "Feature", "properties": { "Name": "JUCATI", "Description": "JUCATI \/ PE" }, "geometry": { "type": "LineString", "coordinates": [ [ -36.448222904463421, -8.657788730265622 ], [ -36.400653550820664, -8.777714002299319 ], [ -36.444452003057442, -8.800900630859358 ], [ -36.487024713519645, -8.7956842140552 ], [ -36.515951962912702, -8.770203468914927 ], [ -36.514695232299061, -8.732494803792122 ], [ -36.48721224195134, -8.703889790481412 ], [ -36.448222904463421, -8.657788730265622 ] ] } }
]
}
