{
"type": "FeatureCollection",
"features": [
{ "type": "Feature", "properties": { "Name": "LAGOA DO OURO", "Description": "LAGOA DO OURO \/ PE" }, "geometry": { "type": "LineString", "coordinates": [ [ -36.402913064186521, -9.223424287400917 ], [ -36.431829951590942, -9.21213048873102 ], [ -36.500373141107559, -9.262785594379636 ], [ -36.520694057484718, -9.223588180749914 ], [ -36.52562481633214, -9.184631375337629 ], [ -36.511387058166179, -9.138047074312963 ], [ -36.530266130177722, -9.103544049818026 ], [ -36.478323611745225, -9.085963569163312 ], [ -36.465205433084229, -9.078082028562733 ], [ -36.415131320054343, -9.087537028411075 ], [ -36.402913064186521, -9.223424287400917 ] ] } }
]
}
