{
"type": "FeatureCollection",
"features": [
{ "type": "Feature", "properties": { "Name": "MANARI", "Description": "MANARI \/ PE" }, "geometry": { "type": "LineString", "coordinates": [ [ -37.411686848968884, -8.814909184211444 ], [ -37.42456025914862, -8.858556043126839 ], [ -37.448648276396789, -8.880241998169652 ], [ -37.490593140461044, -8.886361575326417 ], [ -37.500658291646801, -8.92889882641964 ], [ -37.525305290606639, -8.963359772535455 ], [ -37.595750000362159, -8.968805556031555 ], [ -37.628708243190829, -9.000451441580708 ], [ -37.657777777922092, -8.992666667132937 ], [ -37.699079013385699, -8.935914703900437 ], [ -37.635689474289791, -8.902424164043907 ], [ -37.556047219003915, -8.81976987597892 ], [ -37.470805728001892, -8.78375406499805 ], [ -37.411686848968884, -8.814909184211444 ] ] } }
]
}
