{
"type": "FeatureCollection",
"features": [
{ "type": "Feature", "properties": { "Name": "MARAIAL", "Description": "MARAIAL \/ PE" }, "geometry": { "type": "LineString", "coordinates": [ [ -35.720862090213238, -8.800982927819803 ], [ -35.673224870131605, -8.865530277500284 ], [ -35.723306370192802, -8.909470909854576 ], [ -35.748399258418999, -8.917151719076514 ], [ -35.782980727178767, -8.897542133162858 ], [ -35.775768909007923, -8.863584245316645 ], [ -35.795075238131687, -8.847685126367423 ], [ -35.845002723896528, -8.872481068346588 ], [ -35.847184286725394, -8.80799993035248 ], [ -35.820429765221434, -8.778901512994366 ], [ -35.77440257801652, -8.765860934134764 ], [ -35.724231293239541, -8.759447235501455 ], [ -35.720862090213238, -8.800982927819803 ] ] } }
]
}
