{
"type": "FeatureCollection",
"features": [
{ "type": "Feature", "properties": { "Name": "OURICURI", "Description": "OURICURI \/ PE" }, "geometry": { "type": "LineString", "coordinates": [ [ -40.103938243455104, -7.686923853652899 ], [ -40.088942855927996, -7.778228081061059 ], [ -40.054197174559931, -7.805253897449347 ], [ -40.019115421039828, -7.792772310193925 ], [ -39.936552337720173, -7.825058060680931 ], [ -39.928078641216302, -7.853446504652425 ], [ -39.940602844645525, -7.89122819202737 ], [ -39.910125022851503, -7.940515113181902 ], [ -39.903353314004221, -7.977090292582886 ], [ -39.853406763511259, -8.028017416170767 ], [ -39.940279933172349, -8.137865459123589 ], [ -39.940099798067195, -8.164715758425473 ], [ -39.915143273143485, -8.220936247509769 ], [ -39.973200426058781, -8.218742286627162 ], [ -40.002333397168513, -8.193609301228207 ], [ -40.005954458931107, -8.170217972581327 ], [ -40.051849701202684, -8.172072869267481 ], [ -40.077898102915071, -8.152652294767563 ], [ -40.152761834790795, -8.160798435699178 ], [ -40.195059421954738, -8.196728495423656 ], [ -40.229552211265514, -8.196624399796178 ], [ -40.233816057165257, -8.166472811570941 ], [ -40.256620577277772, -8.139088877049971 ], [ -40.229920298383036, -8.108829148046709 ], [ -40.221991392288878, -8.075154830830741 ], [ -40.316482611083586, -8.057335562186381 ], [ -40.354147331733934, -8.08718420208919 ], [ -40.42851476734262, -8.069749646329056 ], [ -40.434290470728627, -8.031863261680144 ], [ -40.575739960130988, -8.030468264798515 ], [ -40.580467018038398, -8.040816950641727 ], [ -40.560663046362436, -7.997286540441451 ], [ -40.526307351503021, -7.997290068481846 ], [ -40.519758831904539, -7.951755904011692 ], [ -40.454064143345477, -7.877105567767671 ], [ -40.345036472754998, -7.848740472894463 ], [ -40.23703441240815, -7.818580535363367 ], [ -40.238361113874248, -7.685166670105673 ], [ -40.211758622762204, -7.677072213212 ], [ -40.162594670407657, -7.702853648477059 ], [ -40.103938243455104, -7.686923853652899 ] ] } }
]
}
