{
"type": "FeatureCollection",
"features": [
{ "type": "Feature", "properties": { "Name": "PARANATAMA", "Description": "PARANATAMA \/ PE" }, "geometry": { "type": "LineString", "coordinates": [ [ -36.612295691592863, -8.906292657180359 ], [ -36.606889837995595, -8.941814117127763 ], [ -36.630860506307272, -8.956497527139106 ], [ -36.650206199656338, -8.934398315629721 ], [ -36.735819840912882, -8.949572361575179 ], [ -36.864802786919029, -8.888422950958386 ], [ -36.797231173679677, -8.870186512897192 ], [ -36.818413073104807, -8.836978203681099 ], [ -36.667437175884913, -8.832522147479096 ], [ -36.671564085614023, -8.854752495431285 ], [ -36.612295691592863, -8.906292657180359 ] ] } }
]
}
