{
"type": "FeatureCollection",
"features": [
{ "type": "Feature", "properties": { "Name": "PARNAMIRIM", "Description": "PARNAMIRIM \/ PE" }, "geometry": { "type": "LineString", "coordinates": [ [ -39.437095249546076, -8.059430929493772 ], [ -39.431278564953743, -8.126853069113793 ], [ -39.478723680853129, -8.155336619089667 ], [ -39.522204999760902, -8.169268333466789 ], [ -39.379046222005513, -8.25955683597914 ], [ -39.40995254287548, -8.241592643385729 ], [ -39.467186432108122, -8.236823437851342 ], [ -39.500480078892508, -8.24724413331006 ], [ -39.539987836869159, -8.238473213567886 ], [ -39.569321433237519, -8.249364651057761 ], [ -39.682701004147987, -8.349687495781268 ], [ -39.670255220701847, -8.385860616174455 ], [ -39.672329965655365, -8.456582338703925 ], [ -39.713676266146706, -8.409547865841262 ], [ -39.747204148552555, -8.347929409314759 ], [ -39.808312649908828, -8.329994690202739 ], [ -39.851090877941601, -8.335618746308057 ], [ -39.898048609855437, -8.373698788268428 ], [ -39.940032821057798, -8.364365898367453 ], [ -39.963693262833772, -8.377703129395854 ], [ -40.01108273677886, -8.356301466239643 ], [ -40.082407952065296, -8.371443323650396 ], [ -40.108724085548083, -8.348091486033184 ], [ -40.087335743149993, -8.337214381038791 ], [ -40.200681778341334, -8.255946579570946 ], [ -40.195059421954738, -8.196728495423656 ], [ -40.152761834790795, -8.160798435699178 ], [ -40.077898102915071, -8.152652294767563 ], [ -40.051849701202684, -8.172072869267481 ], [ -40.005954458931107, -8.170217972581327 ], [ -40.002333397168513, -8.193609301228207 ], [ -39.973200426058781, -8.218742286627162 ], [ -39.915143273143485, -8.220936247509769 ], [ -39.940099798067195, -8.164715758425473 ], [ -39.940279933172349, -8.137865459123589 ], [ -39.853406763511259, -8.028017416170767 ], [ -39.762649464201388, -7.912550857835753 ], [ -39.573637380460696, -7.870802610751866 ], [ -39.558755616878159, -7.924965432108934 ], [ -39.568951914399292, -7.988340397691162 ], [ -39.453805330351656, -7.951534621325663 ], [ -39.486787496046077, -8.00636502742401 ], [ -39.467378297070695, -8.056215632845124 ], [ -39.437095249546076, -8.059430929493772 ] ] } }
]
}
