{
"type": "FeatureCollection",
"features": [
{ "type": "Feature", "properties": { "Name": "PASSIRA", "Description": "PASSIRA \/ PE" }, "geometry": { "type": "LineString", "coordinates": [ [ -35.442045829351514, -7.961089525960801 ], [ -35.457237925589766, -7.988957958542925 ], [ -35.465614593338785, -8.031139112280187 ], [ -35.439056737378507, -8.039750022845226 ], [ -35.429633581624444, -8.081222332744403 ], [ -35.462505838473646, -8.093833346831445 ], [ -35.510800213858715, -8.057606683501604 ], [ -35.583468847209474, -8.078626293968227 ], [ -35.630328649247701, -8.104082805077326 ], [ -35.649827364940904, -8.10529356684458 ], [ -35.639865321927005, -8.042232622937149 ], [ -35.61042318368294, -8.011405478380084 ], [ -35.654179337206585, -7.944311728003812 ], [ -35.600859238163252, -7.935590585736917 ], [ -35.579583818238568, -7.946466432579768 ], [ -35.514002740134288, -7.938583507023168 ], [ -35.499985377023506, -7.919638270989367 ], [ -35.442045829351514, -7.961089525960801 ] ] } }
]
}
