{
"type": "FeatureCollection",
"features": [
{ "type": "Feature", "properties": { "Name": "PAULISTA", "Description": "PAULISTA \/ PE" }, "geometry": { "type": "LineString", "coordinates": [ [ -34.827789209104651, -7.959145052302291 ], [ -34.864129392957068, -7.974639999736155 ], [ -34.913871043713641, -7.979362309223119 ], [ -34.909248553577868, -7.944014573114032 ], [ -34.948411827144071, -7.92953750894884 ], [ -34.967758203078574, -7.941791414841872 ], [ -35.000114442427552, -7.92919947627479 ], [ -35.029088568982218, -7.933360984721616 ], [ -35.031899210280301, -7.927025808594125 ], [ -35.018287868590221, -7.915792708766447 ], [ -34.961892148403869, -7.915583054314482 ], [ -34.90639708755549, -7.935497344027168 ], [ -34.866236135788995, -7.891118123102842 ], [ -34.840785503548091, -7.844447562704828 ], [ -34.819301000240898, -7.923860999885164 ], [ -34.827789209104651, -7.959145052302291 ] ] } }
]
}
