{
"type": "FeatureCollection",
"features": [
{ "type": "Feature", "properties": { "Name": "QUIPAPÃ", "Description": "QUIPAPÃ \/ PE" }, "geometry": { "type": "LineString", "coordinates": [ [ -35.966181614889585, -8.750850625056273 ], [ -35.955321491793363, -8.812815070558996 ], [ -35.950620962087669, -8.892294838136252 ], [ -36.005384875011941, -8.91300010317218 ], [ -36.033256235786602, -8.908419153620969 ], [ -36.061116148191616, -8.89507769398034 ], [ -36.120982358449055, -8.836800724273985 ], [ -36.090711422094387, -8.776868028037029 ], [ -36.075460087512965, -8.770532248464461 ], [ -36.055786164999461, -8.755080544031841 ], [ -36.027347375181186, -8.776559320456215 ], [ -35.985946442674162, -8.780955124779155 ], [ -35.966181614889585, -8.750850625056273 ] ] } }
]
}
