{
"type": "FeatureCollection",
"features": [
{ "type": "Feature", "properties": { "Name": "RIACHO DAS ALMAS", "Description": "RIACHO DAS ALMAS \/ PE" }, "geometry": { "type": "LineString", "coordinates": [ [ -35.757756366163335, -7.97493652869781 ], [ -35.760062387069468, -8.01230902184386 ], [ -35.84015676482278, -8.071312075391914 ], [ -35.835755451253014, -8.114443551728471 ], [ -35.847882113868422, -8.154064640470722 ], [ -35.888299331948588, -8.172184213430683 ], [ -35.879943525773058, -8.206291270026043 ], [ -35.922540124027471, -8.203274648905904 ], [ -35.976220593105836, -8.166746927628537 ], [ -35.985119103263969, -8.144097602622196 ], [ -35.915647221641905, -8.00468967408915 ], [ -35.805019256033802, -7.973557005551299 ], [ -35.757756366163335, -7.97493652869781 ] ] } }
]
}
