{
"type": "FeatureCollection",
"features": [
{ "type": "Feature", "properties": { "Name": "SAIRÃ", "Description": "SAIRÃ \/ PE" }, "geometry": { "type": "LineString", "coordinates": [ [ -35.655130953031005, -8.203610893727728 ], [ -35.649165528666174, -8.278448269172259 ], [ -35.613528535513467, -8.344462827697271 ], [ -35.628033492151872, -8.374282122721752 ], [ -35.699915125182827, -8.372882046469215 ], [ -35.723354739329693, -8.386672432386773 ], [ -35.738773423354758, -8.339479641971877 ], [ -35.729645062669476, -8.314937081281244 ], [ -35.758281572936198, -8.290269363740094 ], [ -35.718131293424392, -8.243437522523605 ], [ -35.718374640976833, -8.219472257338737 ], [ -35.655130953031005, -8.203610893727728 ] ] } }
]
}
