{
"type": "FeatureCollection",
"features": [
{ "type": "Feature", "properties": { "Name": "SALGADINHO", "Description": "SALGADINHO \/ PE" }, "geometry": { "type": "LineString", "coordinates": [ [ -35.520719306151022, -7.90432122294601 ], [ -35.514002740134288, -7.938583507023168 ], [ -35.579583818238568, -7.946466432579768 ], [ -35.600859238163252, -7.935590585736917 ], [ -35.654179337206585, -7.944311728003812 ], [ -35.68106176658722, -7.90999894069853 ], [ -35.615859638511438, -7.879549207429931 ], [ -35.520719306151022, -7.90432122294601 ] ] } }
]
}
