{
"type": "FeatureCollection",
"features": [
{ "type": "Feature", "properties": { "Name": "SALGUEIRO", "Description": "SALGUEIRO \/ PE" }, "geometry": { "type": "LineString", "coordinates": [ [ -39.018041944580027, -7.812666021619577 ], [ -39.015466100979722, -7.824926670629281 ], [ -39.077001394498723, -7.903545154785037 ], [ -39.074795626416964, -7.965217532862823 ], [ -39.102961560127881, -8.028804170076342 ], [ -39.064722714981251, -8.060906046077093 ], [ -38.995916229150623, -8.062448221508191 ], [ -38.968188897499601, -8.090116308520749 ], [ -38.910617423455278, -8.0867754979908 ], [ -38.9372807555024, -8.124850322084624 ], [ -38.906014215683456, -8.158736157147871 ], [ -38.869611188105807, -8.169816233732149 ], [ -38.879656408516382, -8.209478709274947 ], [ -38.812534396045521, -8.235205345250449 ], [ -38.839962754377552, -8.27577832411032 ], [ -38.911163738215919, -8.330450958544871 ], [ -38.928344517885137, -8.356532413040384 ], [ -38.994015092022835, -8.355086883253023 ], [ -38.996858909311179, -8.374288458445562 ], [ -39.046522707556846, -8.379661935549848 ], [ -39.208731874576301, -8.227209256202173 ], [ -39.249494160726897, -8.21379822500802 ], [ -39.301799234546991, -8.227330327432639 ], [ -39.316960960679751, -8.182783974700611 ], [ -39.296899224419633, -8.151608042477108 ], [ -39.31629615214564, -8.110132639809422 ], [ -39.307456787700573, -8.051663706215038 ], [ -39.238155515564529, -8.025167614793531 ], [ -39.223533063400112, -7.965304580042299 ], [ -39.220141881842324, -7.901330048143165 ], [ -39.146094881873239, -7.827079187154708 ], [ -39.142303367106649, -7.798916295850347 ], [ -39.115863686559862, -7.776618486154177 ], [ -39.102617136871345, -7.771038249515585 ], [ -39.087964873979729, -7.832617329226308 ], [ -39.018041944580027, -7.812666021619577 ] ] } }
]
}
