{
"type": "FeatureCollection",
"features": [
{ "type": "Feature", "properties": { "Name": "SALOÃ", "Description": "SALOÃ \/ PE" }, "geometry": { "type": "LineString", "coordinates": [ [ -36.630860506307272, -8.956497527139106 ], [ -36.637087684648854, -9.02082810783088 ], [ -36.688429431672887, -9.02039507886974 ], [ -36.705030530834279, -9.021106303213287 ], [ -36.750364725651536, -9.088061627242269 ], [ -36.784543719017393, -9.113187968449949 ], [ -36.802173486117447, -9.086345459075631 ], [ -36.78680785939514, -9.008155568424684 ], [ -36.865590210819505, -8.888191463665066 ], [ -36.864802786919029, -8.888422950958386 ], [ -36.735819840912882, -8.949572361575179 ], [ -36.650206199656338, -8.934398315629721 ], [ -36.630860506307272, -8.956497527139106 ] ] } }
]
}
