{
"type": "FeatureCollection",
"features": [
{ "type": "Feature", "properties": { "Name": "SANTA MARIA DO CAMBUCÃ", "Description": "SANTA MARIA DO CAMBUCÃ \/ PE" }, "geometry": { "type": "LineString", "coordinates": [ [ -35.881044488412385, -7.766341085972272 ], [ -35.845852540961971, -7.808725700530602 ], [ -35.822035998462525, -7.859536235109091 ], [ -35.873874580447477, -7.863541865864364 ], [ -35.911329919140428, -7.879142541195278 ], [ -35.914802842776908, -7.846383178041207 ], [ -35.943354573954366, -7.789987872442338 ], [ -35.898245520814093, -7.788917143211563 ], [ -35.881044488412385, -7.766341085972272 ] ] } }
]
}
