{
"type": "FeatureCollection",
"features": [
{ "type": "Feature", "properties": { "Name": "SANTA CRUZ", "Description": "SANTA CRUZ \/ PE" }, "geometry": { "type": "LineString", "coordinates": [ [ -40.195059421954738, -8.196728495423656 ], [ -40.200681778341334, -8.255946579570946 ], [ -40.087335743149993, -8.337214381038791 ], [ -40.108724085548083, -8.348091486033184 ], [ -40.197140054769648, -8.460887411324904 ], [ -40.196591115787328, -8.512610328803589 ], [ -40.212853670560371, -8.503614881621445 ], [ -40.34087353888264, -8.51771322688387 ], [ -40.351253843090319, -8.508938475130492 ], [ -40.361020521879539, -8.444500378689497 ], [ -40.381455591902011, -8.415312791751887 ], [ -40.435415442568569, -8.390174104651178 ], [ -40.430979787487153, -8.361453503276492 ], [ -40.459938809028749, -8.308446194736064 ], [ -40.445576637751572, -8.275489978079975 ], [ -40.42851476734262, -8.069749646329056 ], [ -40.354147331733934, -8.08718420208919 ], [ -40.316482611083586, -8.057335562186381 ], [ -40.221991392288878, -8.075154830830741 ], [ -40.229920298383036, -8.108829148046709 ], [ -40.256620577277772, -8.139088877049971 ], [ -40.233816057165257, -8.166472811570941 ], [ -40.229552211265514, -8.196624399796178 ], [ -40.195059421954738, -8.196728495423656 ] ] } }
]
}
