{
"type": "FeatureCollection",
"features": [
{ "type": "Feature", "properties": { "Name": "SÃO CAITANO", "Description": "SÃO CAITANO \/ PE" }, "geometry": { "type": "LineString", "coordinates": [ [ -36.063171601787928, -8.383740961775914 ], [ -36.098109908045785, -8.383200363106198 ], [ -36.130986001402782, -8.401371373689869 ], [ -36.134121256590674, -8.428353826567786 ], [ -36.217570165830466, -8.487965943273593 ], [ -36.224166356691967, -8.453905284501218 ], [ -36.217364460301553, -8.41612454591103 ], [ -36.232066386454505, -8.401521087428193 ], [ -36.209052112065251, -8.353750872005094 ], [ -36.227041147530883, -8.283749224946746 ], [ -36.184890548260171, -8.256107014127338 ], [ -36.193055753020531, -8.236166172830565 ], [ -36.122668972195243, -8.187331342667278 ], [ -36.074571088784694, -8.24168495519649 ], [ -36.063171601787928, -8.383740961775914 ] ] } }
]
}
