{
"type": "FeatureCollection",
"features": [
{ "type": "Feature", "properties": { "Name": "SERRITA", "Description": "SERRITA \/ PE" }, "geometry": { "type": "LineString", "coordinates": [ [ -39.266395888859165, -7.66476542088742 ], [ -39.257886212278827, -7.700727536046884 ], [ -39.282365918452342, -7.75062623271441 ], [ -39.27048515296741, -7.789348142402787 ], [ -39.115863686559862, -7.776618486154177 ], [ -39.142303367106649, -7.798916295850347 ], [ -39.146094881873239, -7.827079187154708 ], [ -39.220141881842324, -7.901330048143165 ], [ -39.223533063400112, -7.965304580042299 ], [ -39.238155515564529, -8.025167614793531 ], [ -39.307456787700573, -8.051663706215038 ], [ -39.437095249546076, -8.059430929493772 ], [ -39.467378297070695, -8.056215632845124 ], [ -39.486787496046077, -8.00636502742401 ], [ -39.453805330351656, -7.951534621325663 ], [ -39.568951914399292, -7.988340397691162 ], [ -39.558755616878159, -7.924965432108934 ], [ -39.573637380460696, -7.870802610751866 ], [ -39.572977300561945, -7.786686293937294 ], [ -39.590311491981709, -7.76574303950963 ], [ -39.568472365307343, -7.737101771829258 ], [ -39.531138016905906, -7.741963419576109 ], [ -39.500755197694161, -7.727274111810744 ], [ -39.509006910940172, -7.697874227313718 ], [ -39.489539079764654, -7.669233283389246 ], [ -39.4421677703263, -7.658485416368818 ], [ -39.391869168527251, -7.608192440728487 ], [ -39.306893849871244, -7.665086128122254 ], [ -39.266395888859165, -7.66476542088742 ] ] } }
]
}
