{
"type": "FeatureCollection",
"features": [
{ "type": "Feature", "properties": { "Name": "SERRA TALHADA", "Description": "SERRA TALHADA \/ PE" }, "geometry": { "type": "LineString", "coordinates": [ [ -38.221922825677836, -7.82038808634104 ], [ -38.206671774382812, -7.838190829942788 ], [ -38.238294010460152, -7.906083977793287 ], [ -38.163455183509882, -7.905384588527908 ], [ -38.149377795149064, -7.945388876595359 ], [ -38.097360454920988, -8.054135120539343 ], [ -38.02820238992831, -8.133565047688762 ], [ -38.062659076854857, -8.148118064097332 ], [ -38.106595280048111, -8.186657299894421 ], [ -38.118774378534681, -8.221051760030662 ], [ -38.152361695335912, -8.223385007012439 ], [ -38.178669080213865, -8.27666562941522 ], [ -38.206693885114646, -8.285449582132458 ], [ -38.264809502056835, -8.253908663653872 ], [ -38.314321450674356, -8.291694394380727 ], [ -38.367676348084956, -8.280788079406307 ], [ -38.40660956787724, -8.305795862988646 ], [ -38.417533358477669, -8.341517413098074 ], [ -38.44992801236782, -8.367120861738329 ], [ -38.468979912492898, -8.402003408230655 ], [ -38.51501390936437, -8.438503593166217 ], [ -38.517425909078376, -8.400506571221229 ], [ -38.499520604991858, -8.320193811994784 ], [ -38.549452400307985, -8.288317969798412 ], [ -38.555834249450982, -8.265685669857703 ], [ -38.536569129061995, -8.230883505669224 ], [ -38.589325801944142, -8.128103345293084 ], [ -38.598251310649403, -8.132320535264455 ], [ -38.620500763799157, -8.098821302561021 ], [ -38.607851496149578, -8.037301994491429 ], [ -38.558042769458211, -7.940013840066626 ], [ -38.555326226024476, -7.905307618251924 ], [ -38.627556690788595, -7.822037062560355 ], [ -38.623507617382579, -7.786756731537878 ], [ -38.593627515597348, -7.754349370227202 ], [ -38.496575436806893, -7.750031892357924 ], [ -38.457083419664059, -7.718106981352036 ], [ -38.40950782562561, -7.730493261155003 ], [ -38.35497787492892, -7.678425228841205 ], [ -38.326685641329213, -7.693704509855195 ], [ -38.295688513214259, -7.775203269814994 ], [ -38.293351102371446, -7.82304589864924 ], [ -38.275454295978932, -7.834241186481506 ], [ -38.221922825677836, -7.82038808634104 ] ] } }
]
}
