{
"type": "FeatureCollection",
"features": [
{ "type": "Feature", "properties": { "Name": "SOLIDÃO", "Description": "SOLIDÃO \/ PE" }, "geometry": { "type": "LineString", "coordinates": [ [ -37.619943667266398, -7.525879523621087 ], [ -37.558805259854807, -7.639223253850048 ], [ -37.651417343435583, -7.617479939147813 ], [ -37.704831251660892, -7.616929196125453 ], [ -37.745705577150602, -7.609331069673089 ], [ -37.6558188323732, -7.523416623178548 ], [ -37.619943667266398, -7.525879523621087 ] ] } }
]
}
