{
"type": "FeatureCollection",
"features": [
{ "type": "Feature", "properties": { "Name": "SURUBIM", "Description": "SURUBIM \/ PE" }, "geometry": { "type": "LineString", "coordinates": [ [ -35.752323914217243, -7.809251762558745 ], [ -35.707980917085585, -7.831402959379034 ], [ -35.687675396202508, -7.847407164109313 ], [ -35.68106176658722, -7.90999894069853 ], [ -35.654179337206585, -7.944311728003812 ], [ -35.757756366163335, -7.97493652869781 ], [ -35.805019256033802, -7.973557005551299 ], [ -35.817391719552177, -7.957124076015247 ], [ -35.808220932450013, -7.916455174566579 ], [ -35.822035998462525, -7.859536235109091 ], [ -35.845852540961971, -7.808725700530602 ], [ -35.752323914217243, -7.809251762558745 ] ] } }
]
}
