{
"type": "FeatureCollection",
"features": [
{ "type": "Feature", "properties": { "Name": "TACARATU", "Description": "TACARATU \/ PE" }, "geometry": { "type": "LineString", "coordinates": [ [ -37.826233659255934, -8.932716849602855 ], [ -37.853093230568106, -9.00013962594295 ], [ -37.937676692125592, -9.080115257213322 ], [ -37.993657987625959, -9.155333169090452 ], [ -38.066097989930256, -9.174219912319073 ], [ -38.092287331595053, -9.172724978275085 ], [ -38.198901426859322, -9.152183799942348 ], [ -38.204986892730858, -9.103970844678713 ], [ -38.21256696259519, -8.979555709128645 ], [ -38.205605722526059, -8.950048730664319 ], [ -38.214266521182935, -8.887408081317858 ], [ -38.236109804523835, -8.855458314849329 ], [ -38.065455416234443, -8.684415957230613 ], [ -38.024733524032847, -8.652310121514859 ], [ -38.006482023226738, -8.680051697527745 ], [ -38.005493075644893, -8.96283622141442 ], [ -37.978085260526314, -9.019712277599467 ], [ -37.933056890063369, -8.998239470874807 ], [ -37.891967025857525, -8.963787713132433 ], [ -37.826233659255934, -8.932716849602855 ] ] } }
]
}
