{
"type": "FeatureCollection",
"features": [
{ "type": "Feature", "properties": { "Name": "VENTUROSA", "Description": "VENTUROSA \/ PE" }, "geometry": { "type": "LineString", "coordinates": [ [ -36.759076944845106, -8.599010804005331 ], [ -36.729174495806319, -8.607337954183208 ], [ -36.724934129406506, -8.648346030444882 ], [ -36.690014624375351, -8.670190955048497 ], [ -36.702222323101694, -8.723862039701316 ], [ -36.782111079862375, -8.732924557422336 ], [ -36.786258027385998, -8.706355877221881 ], [ -36.91224472821159, -8.612082012874566 ], [ -36.905652248852164, -8.568088597510721 ], [ -36.875077466651703, -8.541463527120015 ], [ -36.847956496594975, -8.465751990861634 ], [ -36.822030145474798, -8.422823455537978 ], [ -36.82626898842301, -8.503745947017819 ], [ -36.787307564992091, -8.544512960904399 ], [ -36.783487254832892, -8.589265870823226 ], [ -36.759076944845106, -8.599010804005331 ] ] } }
]
}
