{
"type": "FeatureCollection",
"features": [
{ "type": "Feature", "properties": { "Name": "ANGRA DOS REIS", "Description": "ANGRA DOS REIS \/ RJ" }, "geometry": { "type": "LineString", "coordinates": [ [ -44.234249409982226, -23.08987621621435 ], [ -44.217365546882434, -23.089790046773199 ], [ -44.194857365974599, -23.099734499047827 ], [ -44.206856870747963, -23.108347278404153 ], [ -44.20178238404975, -23.120050332456856 ], [ -44.1762528839634, -23.117415901622508 ], [ -44.164241500045136, -23.141983249427366 ], [ -44.148235958023008, -23.125177628244895 ], [ -44.13633514035439, -23.136583007599654 ], [ -44.138497624066076, -23.160162115589117 ], [ -44.120859167716389, -23.153045453784614 ], [ -44.095441327455262, -23.175389056060055 ], [ -44.117917091400614, -23.186387907675737 ], [ -44.126894689738094, -23.173305486059292 ], [ -44.140555457268476, -23.167663143139521 ], [ -44.159360712027194, -23.172017211724892 ], [ -44.169251813820097, -23.18137882417335 ], [ -44.186275730140778, -23.180963441709423 ], [ -44.206663747633797, -23.195012765826448 ], [ -44.244949662396948, -23.200243821794913 ], [ -44.273802763586609, -23.180132438461214 ], [ -44.28981160432204, -23.176809680022643 ], [ -44.316561185849991, -23.184278022612602 ], [ -44.315838286507699, -23.190197674183253 ], [ -44.333946370628439, -23.21529948818079 ], [ -44.351644711933886, -23.214004471629039 ], [ -44.340446479721201, -23.19102423837785 ], [ -44.345953112246256, -23.180698444777363 ], [ -44.377639059894648, -23.171737173631641 ], [ -44.339972646720241, -23.153637356079059 ], [ -44.327118264396347, -23.154929726825401 ], [ -44.320445904554788, -23.13681131489022 ], [ -44.306524967653104, -23.120978734980611 ], [ -44.284812110290602, -23.136636753783133 ], [ -44.273247757777767, -23.117504942598998 ], [ -44.249947333502575, -23.109780626874393 ], [ -44.248306972788498, -23.095777498232906 ], [ -44.234249409982226, -23.08987621621435 ] ] } },
{ "type": "Feature", "properties": { "Name": "ANGRA DOS REIS", "Description": "ANGRA DOS REIS \/ RJ" }, "geometry": { "type": "LineString", "coordinates": [ [ -44.371558328953654, -23.038441243668387 ], [ -44.351832915756397, -23.036099263370261 ], [ -44.350744389841672, -23.053515680704038 ], [ -44.37046980303893, -23.045170313858875 ], [ -44.371558328953654, -23.038441243668387 ] ] } },
{ "type": "Feature", "properties": { "Name": "ANGRA DOS REIS", "Description": "ANGRA DOS REIS \/ RJ" }, "geometry": { "type": "LineString", "coordinates": [ [ -44.318056694560759, -22.845094991540577 ], [ -44.299613699312715, -22.851665752272591 ], [ -44.291758494458918, -22.842464945800543 ], [ -44.260888169853104, -22.847597048464991 ], [ -44.23767191672556, -22.872031168903277 ], [ -44.237029861938538, -22.906764670752917 ], [ -44.241581577227976, -22.912976792644827 ], [ -44.21497744934976, -22.931874013874619 ], [ -44.192590105848637, -22.928914224511797 ], [ -44.188316213622329, -22.949280132172305 ], [ -44.163287460547849, -23.008158706958739 ], [ -44.165659211103666, -23.034005594882274 ], [ -44.17284596876641, -23.049225632157174 ], [ -44.195954628803008, -23.054423754952268 ], [ -44.201136169898291, -23.039022494392555 ], [ -44.235241944959739, -23.056578132174991 ], [ -44.244249078831899, -23.043872670387369 ], [ -44.230728982356588, -23.014712040628126 ], [ -44.251744049448291, -22.99924334800204 ], [ -44.267254490402365, -23.002521109761343 ], [ -44.297092332145382, -23.026550749317607 ], [ -44.298237815722587, -23.008022971382957 ], [ -44.315028232966533, -23.008462625649599 ], [ -44.328081726090765, -23.02203211109298 ], [ -44.345969177735299, -23.028298086187704 ], [ -44.363459446496222, -23.018342781793876 ], [ -44.354406458890935, -22.996522747726601 ], [ -44.329870914710909, -22.983069227163071 ], [ -44.314992593733159, -22.982669662874567 ], [ -44.311167883191217, -22.969033017859431 ], [ -44.316918513478583, -22.960191862864122 ], [ -44.335881653215665, -22.965337020087361 ], [ -44.334479829580403, -22.947621657313558 ], [ -44.320819743736138, -22.936218355392725 ], [ -44.345280086606692, -22.921830571423694 ], [ -44.360859816727093, -22.924419990290289 ], [ -44.37138750542897, -22.937920739650394 ], [ -44.352695522080637, -22.952014730395433 ], [ -44.375283338854956, -22.962878939111704 ], [ -44.41623747467969, -22.952271160385688 ], [ -44.431421140673081, -22.975553664769791 ], [ -44.433924632016101, -22.98820331732918 ], [ -44.423449461023779, -22.996953165955802 ], [ -44.444107124044478, -23.011658070663369 ], [ -44.444890559451721, -23.027942418707596 ], [ -44.477906216798431, -23.006099257674578 ], [ -44.489387339753875, -23.020536134734812 ], [ -44.506091706267171, -23.030321100338483 ], [ -44.521076560035169, -23.027616308345898 ], [ -44.546939768855218, -23.015552715185606 ], [ -44.540568719670659, -22.995983704884054 ], [ -44.544504150246269, -22.980908532202932 ], [ -44.555429687330161, -22.97201069024112 ], [ -44.564224391442451, -22.955117818632402 ], [ -44.584876045193312, -22.945661719812449 ], [ -44.594532620883683, -22.94766744989283 ], [ -44.621579515582141, -22.938416747235067 ], [ -44.630238396884465, -22.917084594478411 ], [ -44.638673491788154, -22.914153774077363 ], [ -44.607142975767651, -22.885341413975027 ], [ -44.570193773723645, -22.883830156336614 ], [ -44.555174010072449, -22.888050343748318 ], [ -44.530093500114901, -22.867906838429803 ], [ -44.519133294166124, -22.865694963951395 ], [ -44.505278479018557, -22.851549343127658 ], [ -44.484374749794817, -22.846356994879386 ], [ -44.475333335564926, -22.857239342021956 ], [ -44.479892934311408, -22.866826886651438 ], [ -44.466920677846986, -22.884967461479107 ], [ -44.433292482362106, -22.868837593580054 ], [ -44.423059174141542, -22.850496487023232 ], [ -44.410679258840673, -22.846358972488531 ], [ -44.400535729040598, -22.855097513039766 ], [ -44.38119587858688, -22.85835133574551 ], [ -44.33370444040753, -22.84291620222092 ], [ -44.318056694560759, -22.845094991540577 ] ] } }
]
}
