{
"type": "FeatureCollection",
"features": [
{ "type": "Feature", "properties": { "Name": "APERIBÃ", "Description": "APERIBÃ \/ RJ" }, "geometry": { "type": "LineString", "coordinates": [ [ -42.115901323487265, -21.604896181613469 ], [ -42.116134345923278, -21.612015876831208 ], [ -42.057015870685852, -21.636862307649324 ], [ -42.06791981234943, -21.65366251671173 ], [ -42.107569357439843, -21.681098325926939 ], [ -42.117491816793859, -21.696384171991895 ], [ -42.138316829258201, -21.704476061321142 ], [ -42.149959767229404, -21.692172340181287 ], [ -42.179124471816863, -21.686912258593793 ], [ -42.193430739437019, -21.668571143043778 ], [ -42.192930139913983, -21.659046390878189 ], [ -42.203127512124922, -21.643624488179569 ], [ -42.186901622711673, -21.628723352300824 ], [ -42.162699361885984, -21.625894882842545 ], [ -42.140563314145595, -21.606604649784742 ], [ -42.115901323487265, -21.604896181613469 ] ] } }
]
}
