{
"type": "FeatureCollection",
"features": [
{ "type": "Feature", "properties": { "Name": "CACHOEIRAS DE MACACU", "Description": "CACHOEIRAS DE MACACU \/ RJ" }, "geometry": { "type": "LineString", "coordinates": [ [ -42.552289291117859, -22.455256413252812 ], [ -42.553094251798257, -22.46678807720798 ], [ -42.5656433475624, -22.468604153758633 ], [ -42.576950405836492, -22.500648298680005 ], [ -42.592709574986827, -22.533139188123016 ], [ -42.602870942839672, -22.54107860099657 ], [ -42.564564659331495, -22.620125788374366 ], [ -42.58461458659383, -22.625104096177036 ], [ -42.613979894856243, -22.650601137032822 ], [ -42.626225507201347, -22.657138955598271 ], [ -42.640786148961574, -22.642835636855125 ], [ -42.65509631963937, -22.637831730749724 ], [ -42.692787008213827, -22.642966912692827 ], [ -42.691315532985406, -22.654472060137437 ], [ -42.709260905466344, -22.670481209340267 ], [ -42.744201903395094, -22.685171302213803 ], [ -42.790280525525816, -22.63457873811825 ], [ -42.824688944938828, -22.639086508035859 ], [ -42.845186975598381, -22.636181226582323 ], [ -42.907449854826893, -22.655307762343284 ], [ -42.89925850227803, -22.638480232776487 ], [ -42.910531635426594, -22.620014168119326 ], [ -42.906945701183133, -22.601060896643048 ], [ -42.887144090227537, -22.591621016196882 ], [ -42.882159515049523, -22.581273289930323 ], [ -42.866675487183954, -22.571337055660535 ], [ -42.877675847862065, -22.552838733220938 ], [ -42.886676196349356, -22.547658823495848 ], [ -42.892819656801692, -22.523926174253514 ], [ -42.892347472257995, -22.502824851385753 ], [ -42.907594122270893, -22.495946927208877 ], [ -42.921681243094838, -22.47555916422402 ], [ -42.920876649337856, -22.460743954070153 ], [ -42.912315569308021, -22.4549062873952 ], [ -42.897327591295266, -22.458397934916718 ], [ -42.885791303026167, -22.453054123748757 ], [ -42.852285356883669, -22.41585402524305 ], [ -42.828540412110272, -22.412750731960667 ], [ -42.810434310095275, -22.399809321343071 ], [ -42.795016845550947, -22.376046362249781 ], [ -42.768709402217098, -22.383343639397367 ], [ -42.747124566045841, -22.373126931762439 ], [ -42.74112053648355, -22.361126494392181 ], [ -42.727531380169012, -22.355589648243608 ], [ -42.710869763828491, -22.362206721363066 ], [ -42.710783107854127, -22.378169383710031 ], [ -42.681644428747347, -22.392845671990127 ], [ -42.6628411345107, -22.385822370605865 ], [ -42.649514786178365, -22.395766814786612 ], [ -42.626595558438225, -22.390084867522543 ], [ -42.610270386569027, -22.374499608370172 ], [ -42.595784067480679, -22.36824095645494 ], [ -42.587953809820419, -22.35727832323596 ], [ -42.562006598026016, -22.362928542418274 ], [ -42.551590069126341, -22.387106874982237 ], [ -42.558479675496585, -22.401845640064209 ], [ -42.558590465677412, -22.424362476946726 ], [ -42.575782339383409, -22.440101729710985 ], [ -42.552289291117859, -22.455256413252812 ] ] } }
]
}
