{
"type": "FeatureCollection",
"features": [
{ "type": "Feature", "properties": { "Name": "CAMBUCI", "Description": "CAMBUCI \/ RJ" }, "geometry": { "type": "LineString", "coordinates": [ [ -41.779921056111789, -21.399409259929367 ], [ -41.709962848106898, -21.456316002781247 ], [ -41.742970144456535, -21.464264568055341 ], [ -41.824020465572005, -21.482066282832648 ], [ -41.815977837507148, -21.491369647990837 ], [ -41.837453829630476, -21.525409529725948 ], [ -41.845800773886538, -21.530235107464193 ], [ -41.871537184593365, -21.560231937653782 ], [ -41.870102553689833, -21.575317300552911 ], [ -41.880536234459612, -21.579795087972911 ], [ -41.900751489489608, -21.575273827325248 ], [ -41.926574848450457, -21.587663822227569 ], [ -41.93772957685843, -21.597358961746636 ], [ -41.980604639392539, -21.625168960878796 ], [ -42.010279672368938, -21.639992532929 ], [ -42.022790707924798, -21.629149657031007 ], [ -42.057015870685852, -21.636862307649324 ], [ -42.116134345923278, -21.612015876831208 ], [ -42.115901323487265, -21.604896181613469 ], [ -42.104502077508805, -21.602041058048371 ], [ -42.070486448690588, -21.565686311474053 ], [ -42.051279567497993, -21.537337881937674 ], [ -42.054991812422145, -21.526723182928489 ], [ -42.029702146237014, -21.507059887703633 ], [ -42.020664362570244, -21.5058847426867 ], [ -41.997365015682874, -21.488353654597461 ], [ -41.985226210421217, -21.482095790488302 ], [ -41.961616002976086, -21.455138401715828 ], [ -41.953116895228497, -21.434311237173802 ], [ -41.919683015358828, -21.414496657994331 ], [ -41.903546076989812, -21.40041335569174 ], [ -41.894916389479754, -21.381927523936042 ], [ -41.874351900719603, -21.367512227906957 ], [ -41.854710986023122, -21.344632350902202 ], [ -41.831172018373927, -21.338644037891981 ], [ -41.815297443721988, -21.326915629252824 ], [ -41.777335314573058, -21.387584961077039 ], [ -41.779921056111789, -21.399409259929367 ] ] } }
]
}
