{
"type": "FeatureCollection",
"features": [
{ "type": "Feature", "properties": { "Name": "CARDOSO MOREIRA", "Description": "CARDOSO MOREIRA \/ RJ" }, "geometry": { "type": "LineString", "coordinates": [ [ -41.537993959453615, -21.621574375157252 ], [ -41.548624048560946, -21.615057240998851 ], [ -41.541998520914944, -21.561466594407761 ], [ -41.560748258725141, -21.565709329621825 ], [ -41.604938018574671, -21.587307644831924 ], [ -41.627103607245658, -21.595257113025298 ], [ -41.657558053861067, -21.478697045632089 ], [ -41.618887865082847, -21.471760482060574 ], [ -41.600270784469103, -21.481163332022106 ], [ -41.593948385009924, -21.469779985158137 ], [ -41.551767827523179, -21.429970919222512 ], [ -41.542931054924225, -21.426684678654965 ], [ -41.512987137246569, -21.417404049257414 ], [ -41.449921848714325, -21.397857992352442 ], [ -41.449722647981787, -21.398131892572735 ], [ -41.44970002193844, -21.398166566833538 ], [ -41.449083547467694, -21.399111294750412 ], [ -41.448485946169455, -21.400173696259003 ], [ -41.448112446032496, -21.40115309753736 ], [ -41.447987945687089, -21.401734099149337 ], [ -41.44788834487116, -21.402339999391415 ], [ -41.448079245760539, -21.402630500197404 ], [ -41.448402945939165, -21.402921001003335 ], [ -41.448668546316298, -21.404439902879176 ], [ -41.448162245990829, -21.405577004774898 ], [ -41.447381620065691, -21.406164231494017 ], [ -41.44714284556585, -21.406766217886627 ], [ -41.447058344367058, -21.407087607706899 ], [ -41.445431540932809, -21.40805040929888 ], [ -41.445348541601845, -21.408199809173819 ], [ -41.445340240859366, -21.408440510021478 ], [ -41.445008240837581, -21.408921909918149 ], [ -41.44380232281889, -21.409425143555495 ], [ -41.44166333479501, -21.410955413761315 ], [ -41.436733127231996, -21.410391012734976 ], [ -41.430740517261029, -21.414200718987956 ], [ -41.422191503435101, -21.430916945760373 ], [ -41.416090993704358, -21.435050352191979 ], [ -41.41382636679333, -21.437392872083308 ], [ -41.413625889922855, -21.439598759774924 ], [ -41.413376889231984, -21.439714960277172 ], [ -41.413136751359957, -21.439762223247953 ], [ -41.412563488414207, -21.44027936130345 ], [ -41.413260689629055, -21.444462567693279 ], [ -41.413650790351653, -21.44507676867789 ], [ -41.413592689650834, -21.44520956886646 ], [ -41.413286906665348, -21.445311930601061 ], [ -41.413119588698009, -21.447043871977087 ], [ -41.412878888749674, -21.447060471663406 ], [ -41.412671388173976, -21.447093671935363 ], [ -41.412455587755119, -21.447209872437607 ], [ -41.412108651792771, -21.447503336509726 ], [ -41.411907787314476, -21.447832373265381 ], [ -41.412052837168631, -21.44821001298169 ], [ -41.412098687304528, -21.448770274428568 ], [ -41.411882886885678, -21.448869875244498 ], [ -41.411716886425154, -21.449135475621631 ], [ -41.411442986204804, -21.449318075768531 ], [ -41.411451286047964, -21.44951727560175 ], [ -41.41176668728275, -21.449791176721359 ], [ -41.412339388152191, -21.450330677318846 ], [ -41.412754388404267, -21.450828677801212 ], [ -41.413161699452807, -21.451132395943262 ], [ -41.413293889001743, -21.451301778754043 ], [ -41.413252388886576, -21.451642079518308 ], [ -41.412995089251922, -21.451824679665208 ], [ -41.412371820403166, -21.452548484624799 ], [ -41.412133348974805, -21.452724773329575 ], [ -41.412007387231085, -21.452911981602597 ], [ -41.411974186959128, -21.453019881362366 ], [ -41.411916087157636, -21.453302082325195 ], [ -41.412123587733333, -21.45345148220008 ], [ -41.412422387483161, -21.453526182587211 ], [ -41.412618706787839, -21.453740009893519 ], [ -41.412716860594571, -21.453846918600391 ], [ -41.413094689168524, -21.454264883917233 ], [ -41.411906322318885, -21.457316847494496 ], [ -41.412214887806783, -21.457916889552791 ], [ -41.4122563879219, -21.45842319077758 ], [ -41.412505387713452, -21.458547690223668 ], [ -41.412679688017136, -21.458946090789425 ], [ -41.412791738148144, -21.4590083409621 ], [ -41.412903788279145, -21.459087191720471 ], [ -41.412895488435986, -21.459244891438516 ], [ -41.4127460885611, -21.459385992369619 ], [ -41.412555188571048, -21.459535392244504 ], [ -41.412115286990854, -21.459402592055934 ], [ -41.4118579873562, -21.459585192202837 ], [ -41.411260386057897, -21.45967649227623 ], [ -41.411774987125909, -21.460124692800264 ], [ -41.412073787775057, -21.460697393669758 ], [ -41.411916087157636, -21.460962994046895 ], [ -41.411849686613721, -21.461162194779433 ], [ -41.412355987838509, -21.461942396224572 ], [ -41.412671388173976, -21.462033696298018 ], [ -41.412927806473022, -21.462083880266789 ], [ -41.41324408904341, -21.462141596057791 ], [ -41.413268989472272, -21.462382296905442 ], [ -41.41311128885485, -21.462598097324303 ], [ -41.412930984677132, -21.462752216841292 ], [ -41.412829088791398, -21.463037998005177 ], [ -41.412953589136805, -21.463278697953509 ], [ -41.41311128885485, -21.463253798424034 ], [ -41.41332582482692, -21.46326199664378 ], [ -41.41328558915859, -21.463436398570877 ], [ -41.413086389325372, -21.463560898916285 ], [ -41.412480488183917, -21.464399200162916 ], [ -41.412488788027076, -21.464756100613499 ], [ -41.412687988759615, -21.464781001042297 ], [ -41.412795888519376, -21.464913801230921 ], [ -41.412754388404267, -21.465054901262647 ], [ -41.405807277583733, -21.466789603557288 ], [ -41.401184169613714, -21.470167708972554 ], [ -41.400047067717935, -21.472010311926283 ], [ -41.399059366596475, -21.471728111862831 ], [ -41.398885066292728, -21.471869211894557 ], [ -41.398677565717037, -21.472026912511978 ], [ -41.39846176529818, -21.472093312156574 ], [ -41.398544765528463, -21.47231741241859 ], [ -41.398436864869382, -21.472425313077679 ], [ -41.398196164921039, -21.472458513349693 ], [ -41.398212764607365, -21.472674313768493 ], [ -41.398345564795925, -21.472856913915393 ], [ -41.39827086530812, -21.473064414491091 ], [ -41.398353865538411, -21.473164014407701 ], [ -41.39849496557013, -21.473338314711384 ], [ -41.397955464972711, -21.473886115152023 ], [ -41.397128016744539, -21.474189385431771 ], [ -41.3957642614115, -21.476019218911802 ], [ -41.394842959934635, -21.479106823521022 ], [ -41.393149756855735, -21.479189823751312 ], [ -41.392842656363484, -21.479181523908153 ], [ -41.392087355347144, -21.478899323844701 ], [ -41.391863255085127, -21.478783123342396 ], [ -41.391639153923784, -21.478658622996988 ], [ -41.391423354404253, -21.478650323153825 ], [ -41.391275861991396, -21.478677812730837 ], [ -41.391141153441417, -21.478766523656077 ], [ -41.390958553294581, -21.478791423185612 ], [ -41.390825753105958, -21.478700123112159 ], [ -41.390633825190832, -21.478663241015735 ], [ -41.390458497861339, -21.478742559421562 ], [ -41.390290401980451, -21.478853673358287 ], [ -41.390219851964559, -21.478949123802977 ], [ -41.390062151347138, -21.479621424589027 ], [ -41.389879551200295, -21.479737625091271 ], [ -41.389772175745286, -21.479811099702431 ], [ -41.389979152016224, -21.480185825615308 ], [ -41.390070452089674, -21.480999226433084 ], [ -41.390377552581924, -21.48128142739591 ], [ -41.390427352540257, -21.481870727951673 ], [ -41.390684653074231, -21.482177828443977 ], [ -41.390692952917384, -21.482318929375026 ], [ -41.390593353000774, -21.482526429051401 ], [ -41.389979152016224, -21.482991230161076 ], [ -41.389054829716599, -21.484578551558855 ], [ -41.388989337487885, -21.484749783375776 ], [ -41.389008049681699, -21.485008133418603 ], [ -41.388717549775038, -21.485182433722287 ], [ -41.38617774560646, -21.486369335576338 ], [ -41.385746144768746, -21.488444338635247 ], [ -41.384617342716126, -21.488958939703252 ], [ -41.383563241050695, -21.488792939242728 ], [ -41.383471940977245, -21.488975539389571 ], [ -41.383455341290926, -21.489149839693312 ], [ -41.383355741374316, -21.489349040425846 ], [ -41.383123340369821, -21.489473540771254 ], [ -41.382866039835847, -21.489548240259012 ], [ -41.382592139615497, -21.489548240259012 ], [ -41.38245933942693, -21.489697641033271 ], [ -41.382268439436871, -21.489788941106724 ], [ -41.382193739049796, -21.489896840866493 ], [ -41.382243539008073, -21.490013041368741 ], [ -41.382318239395204, -21.490187341672424 ], [ -41.382392939782278, -21.490361641976165 ], [ -41.382400066010177, -21.490644953601702 ], [ -41.38236368483615, -21.490878223351274 ], [ -41.382517439228423, -21.491216543808378 ], [ -41.382654389788229, -21.491353493468921 ], [ -41.382832840463152, -21.491523644300685 ], [ -41.382832840463152, -21.492121244699661 ], [ -41.382658540159468, -21.492519645265361 ], [ -41.38250083954204, -21.492801846228186 ], [ -41.37498102695281, -21.500180557886377 ], [ -41.373478724763288, -21.516705884668795 ], [ -41.364820714903999, -21.531467407095136 ], [ -41.364386813600504, -21.53239306398865 ], [ -41.364295212254206, -21.532831786557665 ], [ -41.363922561077288, -21.53606274310107 ], [ -41.363676409438703, -21.537049217547292 ], [ -41.363460609019853, -21.537422717684251 ], [ -41.363095407826791, -21.537638518103108 ], [ -41.362871307564774, -21.537895818637082 ], [ -41.362713607846672, -21.538186319443071 ], [ -41.362622307773222, -21.53850171977848 ], [ -41.362439706727052, -21.538933320616195 ], [ -41.361593105637262, -21.540535222722323 ], [ -41.360895904422414, -21.542294826345142 ], [ -41.360256803908328, -21.543514927571778 ], [ -41.360132303562921, -21.543921628880014 ], [ -41.360065903018949, -21.544303428860132 ], [ -41.360115702977282, -21.544693529582673 ], [ -41.360273403594647, -21.545216430493838 ], [ -41.364929710937361, -21.55678664928439 ], [ -41.378840534063329, -21.560455255505588 ], [ -41.400911268540142, -21.582506031328251 ], [ -41.400456710708568, -21.590630749509444 ], [ -41.400481724451993, -21.591068175256055 ], [ -41.400530055817399, -21.591469324149955 ], [ -41.400589994732456, -21.591785368399997 ], [ -41.400726221338005, -21.592123209518434 ], [ -41.400933284843177, -21.59249374459057 ], [ -41.401167594209078, -21.592793442763139 ], [ -41.402239649040553, -21.594681261830715 ], [ -41.402382731178079, -21.594956714280897 ], [ -41.402480814837702, -21.595191023646805 ], [ -41.402518957783627, -21.595714132301339 ], [ -41.402469915953816, -21.595970237636323 ], [ -41.402360935208947, -21.596188199126061 ], [ -41.402170218680624, -21.596433406476478 ], [ -41.401554476258013, -21.597130884682542 ], [ -41.401527231296654, -21.597332499195431 ], [ -41.402442670992457, -21.601430182756701 ], [ -41.409052366073801, -21.608857234773495 ], [ -41.420239260533371, -21.61086248461595 ], [ -41.420626049952205, -21.610903276964621 ], [ -41.421013025530669, -21.610916975438045 ], [ -41.42145439840175, -21.610916975438045 ], [ -41.424378029622339, -21.610886361616224 ], [ -41.425219690736071, -21.611074997113406 ], [ -41.427597193355716, -21.615974708665817 ], [ -41.490938509004934, -21.674022180379268 ], [ -41.493502947403037, -21.670816056815511 ], [ -41.494221388806011, -21.668256609654748 ], [ -41.495470712603264, -21.664829242075825 ], [ -41.499472942122566, -21.660086584528187 ], [ -41.504833320601222, -21.655708891651955 ], [ -41.509437901637789, -21.650069574051543 ], [ -41.509771130133515, -21.647764598157607 ], [ -41.510369164905001, -21.645930624198911 ], [ -41.511743417124933, -21.643913937678064 ], [ -41.512697324421936, -21.642515991020105 ], [ -41.514559850956289, -21.640963885275028 ], [ -41.517387001109171, -21.639742802888009 ], [ -41.520354379850687, -21.636876673419692 ], [ -41.52232038148037, -21.633565513537576 ], [ -41.526562803730371, -21.629840459569493 ], [ -41.529699278398937, -21.625557839422697 ], [ -41.531102018443335, -21.624842638277073 ], [ -41.533331503446107, -21.623489604661472 ], [ -41.537993959453615, -21.621574375157252 ] ] } }
]
}
