{
"type": "FeatureCollection",
"features": [
{ "type": "Feature", "properties": { "Name": "ENGENHEIRO PAULO DE FRONTIN", "Description": "ENGENHEIRO PAULO DE FRONTIN \/ RJ" }, "geometry": { "type": "LineString", "coordinates": [ [ -43.597882757583136, -22.564449613958459 ], [ -43.622274710609354, -22.525692226914714 ], [ -43.623522997488294, -22.542706864929812 ], [ -43.634269316775487, -22.55498677471985 ], [ -43.634407502104523, -22.571100207508547 ], [ -43.672027012936262, -22.586803176225544 ], [ -43.693412040433259, -22.577339311759772 ], [ -43.690235304915348, -22.551304961954372 ], [ -43.707488435043217, -22.56486424458916 ], [ -43.716422498099746, -22.560097567049013 ], [ -43.70002759639641, -22.53730659162585 ], [ -43.686815572580542, -22.460339252854169 ], [ -43.584008801265099, -22.455101239730368 ], [ -43.573185101611102, -22.461007330423911 ], [ -43.560962282583205, -22.504579800117654 ], [ -43.597882757583136, -22.564449613958459 ] ] } }
]
}
