{
"type": "FeatureCollection",
"features": [
{ "type": "Feature", "properties": { "Name": "JAPERI", "Description": "JAPERI \/ RJ" }, "geometry": { "type": "LineString", "coordinates": [ [ -43.556411713030116, -22.678810472025646 ], [ -43.555978735330314, -22.689385073862013 ], [ -43.586053078087048, -22.693096417665515 ], [ -43.59691507986701, -22.685809757913944 ], [ -43.610301770010608, -22.693001074240158 ], [ -43.628409372094779, -22.718874623465069 ], [ -43.628420359112226, -22.722575314798913 ], [ -43.633475288253919, -22.721487933721107 ], [ -43.638709669915272, -22.720361950143854 ], [ -43.652448959951471, -22.680475429197656 ], [ -43.633209011586587, -22.662577594880077 ], [ -43.633261246909001, -22.661497963260331 ], [ -43.633400173279313, -22.661075438380749 ], [ -43.633510466135071, -22.660739999351446 ], [ -43.633847198389446, -22.659437968987049 ], [ -43.640488033395968, -22.650964625017362 ], [ -43.650663445961243, -22.653442540540766 ], [ -43.65294445492259, -22.655916300296948 ], [ -43.653584262303809, -22.657209970563656 ], [ -43.654275662891507, -22.657816709873202 ], [ -43.655150497297598, -22.658423450082125 ], [ -43.659536418970504, -22.659950016879748 ], [ -43.659959491537279, -22.660029653645552 ], [ -43.66005742321147, -22.660024471751907 ], [ -43.660293655327905, -22.660011972074813 ], [ -43.660331761401608, -22.659996338260385 ], [ -43.660830604548721, -22.659791684938284 ], [ -43.661360278254222, -22.659333599965635 ], [ -43.6618394064634, -22.658743902808794 ], [ -43.6623175400224, -22.65724461874413 ], [ -43.666688114764668, -22.655446196784506 ], [ -43.66871984964132, -22.655565710389165 ], [ -43.670892273559559, -22.65270335267752 ], [ -43.66851659836226, -22.632596514517502 ], [ -43.660072314185925, -22.61939205220142 ], [ -43.622712479896961, -22.642227127679746 ], [ -43.61060378123949, -22.63439329971095 ], [ -43.608522988345214, -22.632452157141302 ], [ -43.603443201042865, -22.628297554588414 ], [ -43.601201340469459, -22.626341309703662 ], [ -43.600722862470086, -22.62597065771962 ], [ -43.600385906284487, -22.62557978807672 ], [ -43.593175019811262, -22.619912331588807 ], [ -43.578633916721849, -22.616044006625543 ], [ -43.577331671419472, -22.614430777558312 ], [ -43.577230602010616, -22.614356918936608 ], [ -43.577098433146141, -22.614337482788528 ], [ -43.576468690977265, -22.613987625828202 ], [ -43.575815972029432, -22.613503396664385 ], [ -43.575395042547143, -22.613357998772585 ], [ -43.574595998506481, -22.612769455445971 ], [ -43.57438120173105, -22.612756568161046 ], [ -43.574093373710184, -22.612533179262755 ], [ -43.56907572056798, -22.609414329507672 ], [ -43.569149844489687, -22.61871135804267 ], [ -43.569045350462488, -22.620476153451648 ], [ -43.568041246606178, -22.623710160495477 ], [ -43.546288498015713, -22.655778037626302 ], [ -43.544627058092196, -22.655114397311536 ], [ -43.541774994020727, -22.654413634781349 ], [ -43.540925855044122, -22.654013560577312 ], [ -43.540529499536717, -22.653749156298488 ], [ -43.540117539892492, -22.653613485473954 ], [ -43.539782694415749, -22.653544430131319 ], [ -43.539563676222656, -22.653524699005629 ], [ -43.538973042871589, -22.653602783541601 ], [ -43.537528799114739, -22.65393466845012 ], [ -43.53735868695378, -22.65396665193941 ], [ -43.535043925536684, -22.65440185815919 ], [ -43.534276226466659, -22.654613275282369 ], [ -43.533986928953539, -22.65483543300877 ], [ -43.534158897315194, -22.655098086307589 ], [ -43.534304780840898, -22.65535338225277 ], [ -43.5349539609565, -22.655922326653979 ], [ -43.535288739883413, -22.656140252170871 ], [ -43.535512839246103, -22.656286130300597 ], [ -43.536118057802071, -22.656780716956462 ], [ -43.536768830617007, -22.657451013153661 ], [ -43.537647373827213, -22.658622404400376 ], [ -43.537933713470068, -22.659130006944224 ], [ -43.538220053112923, -22.659455393351664 ], [ -43.538558455408349, -22.659773903542771 ], [ -43.538829200806902, -22.659990499861635 ], [ -43.539472975097681, -22.660183030322571 ], [ -43.539839986626014, -22.660471826913238 ], [ -43.540387494787012, -22.66078468846257 ], [ -43.540488075863948, -22.660889302099577 ], [ -43.540592058176912, -22.661013318609719 ], [ -43.542723840832537, -22.668012171924147 ], [ -43.545207698176682, -22.668630046639294 ], [ -43.54849479310019, -22.670755536738568 ], [ -43.549027497520967, -22.670345763346234 ], [ -43.54949575022863, -22.670137661124102 ], [ -43.55165544873995, -22.67184546109911 ], [ -43.551763368284746, -22.672169221532325 ], [ -43.55229217594313, -22.673377924751378 ], [ -43.552896527552662, -22.67411178053419 ], [ -43.554461366798591, -22.67457583610593 ], [ -43.554558494478897, -22.674824051688574 ], [ -43.554526118885235, -22.675115435628808 ], [ -43.554126815400188, -22.675849291411623 ], [ -43.554180774722902, -22.676097506994324 ], [ -43.554213151215883, -22.676302555118752 ], [ -43.554450574934037, -22.676464434885702 ], [ -43.5549502967188, -22.676429294776081 ], [ -43.5551883724454, -22.67659303703897 ], [ -43.555226536975056, -22.676941289608806 ], [ -43.555388736900625, -22.677241836741302 ], [ -43.555579560448336, -22.677346789422757 ], [ -43.555756071285593, -22.677351560326201 ], [ -43.555884877585015, -22.677313395796546 ], [ -43.556142489284412, -22.677113030441944 ], [ -43.556453686188604, -22.677081733135424 ], [ -43.556614777250104, -22.67715119587092 ], [ -43.556767435368783, -22.677265689459944 ], [ -43.556867618046113, -22.677413577574494 ], [ -43.556886700760572, -22.677604401122153 ], [ -43.556853306235041, -22.677742748329134 ], [ -43.556807985799871, -22.677835774201583 ], [ -43.556552759102487, -22.678153018147214 ], [ -43.556390559176918, -22.678582370679806 ], [ -43.556411713030116, -22.678810472025646 ] ] } }
]
}
