{
"type": "FeatureCollection",
"features": [
{ "type": "Feature", "properties": { "Name": "MACAÃ", "Description": "MACAÃ \/ RJ" }, "geometry": { "type": "LineString", "coordinates": [ [ -41.771764239328149, -22.179461895150268 ], [ -41.705447563454243, -22.257936210787477 ], [ -41.70835996573976, -22.266191998861586 ], [ -41.689021024500619, -22.300112411058876 ], [ -41.714443474686561, -22.31775901616561 ], [ -41.740919948296948, -22.340683983379108 ], [ -41.757715691326041, -22.348024957685595 ], [ -41.773778390660141, -22.364502257972784 ], [ -41.767001775111794, -22.377764358738148 ], [ -41.770059634644383, -22.389294635039334 ], [ -41.817658852973636, -22.417013378164825 ], [ -41.834053555027481, -22.409558310467617 ], [ -41.855115195309956, -22.412233311518094 ], [ -41.870393012227673, -22.419347355396098 ], [ -41.888279036648157, -22.41454182624426 ], [ -41.906724880049126, -22.400107795538304 ], [ -41.928641258487232, -22.397581840029829 ], [ -41.964736951748876, -22.387569218244778 ], [ -41.980920747494451, -22.396365408037127 ], [ -42.001393096214372, -22.398785347865442 ], [ -42.023557048119244, -22.389144282782354 ], [ -42.064893868856927, -22.422955789777859 ], [ -42.08472787339258, -22.438075921366647 ], [ -42.106194133952101, -22.436404356875528 ], [ -42.099275479479722, -22.418271860657796 ], [ -42.102114318121266, -22.406151619201808 ], [ -42.117643127728115, -22.402420025363821 ], [ -42.138480283738033, -22.414100857168762 ], [ -42.141638927594386, -22.424939421716886 ], [ -42.171975785154302, -22.42181811681257 ], [ -42.182330691608115, -22.432171922496195 ], [ -42.201394089565554, -22.429939653192378 ], [ -42.205341025168138, -22.414574997737926 ], [ -42.219307920124379, -22.405402707868632 ], [ -42.214673532857198, -22.393063878994781 ], [ -42.215338189405884, -22.373423279061058 ], [ -42.205539898547435, -22.368784597531089 ], [ -42.216170599193731, -22.342888114694688 ], [ -42.256949154979452, -22.321797058487391 ], [ -42.251062882645897, -22.306838240991965 ], [ -42.248253176642713, -22.29394238193532 ], [ -42.235169849408976, -22.288899454246348 ], [ -42.227473742718985, -22.27465918607254 ], [ -42.196951108606754, -22.247107829262859 ], [ -42.183284524261353, -22.243389489633213 ], [ -42.171449794172645, -22.225127784219808 ], [ -42.145947306123219, -22.210314486924005 ], [ -42.128752586062937, -22.214134224215059 ], [ -42.09291629684958, -22.201126922069761 ], [ -42.097441075645065, -22.18390486891451 ], [ -42.088359601114632, -22.1696560832616 ], [ -42.055528161795159, -22.160330013819021 ], [ -42.027167782067465, -22.157519009194854 ], [ -42.020110404471552, -22.147201661127724 ], [ -41.978476667164443, -22.125131812483119 ], [ -41.971748766092617, -22.131753738344287 ], [ -41.973446424412941, -22.15639682255528 ], [ -41.953222586253332, -22.151872101316371 ], [ -41.934615120291539, -22.164937898964808 ], [ -41.920917324974539, -22.161824288659943 ], [ -41.901025981463818, -22.187379820522267 ], [ -41.90644920906368, -22.204451496239528 ], [ -41.918110332226036, -22.215908011945146 ], [ -41.918080677980868, -22.228136080315835 ], [ -41.902888417166643, -22.2312845447459 ], [ -41.886671636986421, -22.2689166631734 ], [ -41.877779459854139, -22.274876409218848 ], [ -41.859418266939429, -22.268568719071084 ], [ -41.840947236225929, -22.201405667837264 ], [ -41.819662400399409, -22.186294523173672 ], [ -41.824195113014014, -22.145315949171675 ], [ -41.771764239328149, -22.179461895150268 ] ] } }
]
}
