{
"type": "FeatureCollection",
"features": [
{ "type": "Feature", "properties": { "Name": "MESQUITA", "Description": "MESQUITA \/ RJ" }, "geometry": { "type": "LineString", "coordinates": [ [ -43.410755501667794, -22.768061407259896 ], [ -43.410543223267396, -22.768213034688699 ], [ -43.409264498617603, -22.769102582271195 ], [ -43.405213519143899, -22.771958232180893 ], [ -43.4022179862109, -22.774046791307399 ], [ -43.400399019907489, -22.775318172746292 ], [ -43.397142258921285, -22.777594541345202 ], [ -43.39718690647458, -22.777636170050798 ], [ -43.397281028579201, -22.777723928082295 ], [ -43.397308002665596, -22.777749078313697 ], [ -43.397414994211992, -22.777848835618798 ], [ -43.398312185154992, -22.778690329746397 ], [ -43.398798994171997, -22.779131594545099 ], [ -43.399256923864399, -22.779587900373301 ], [ -43.403560933967299, -22.7849721605171 ], [ -43.4044674649423, -22.785468482465099 ], [ -43.406528178002397, -22.786694547505 ], [ -43.406715092092391, -22.787032692097199 ], [ -43.407439444573299, -22.788685820480197 ], [ -43.407804693599005, -22.7891582378397 ], [ -43.408659172219203, -22.789802912376999 ], [ -43.408725472711097, -22.7898272419596 ], [ -43.410292317857596, -22.791419687945599 ], [ -43.414185537200495, -22.793783315949298 ], [ -43.414616254358094, -22.794044460754499 ], [ -43.416274338977196, -22.795132142431001 ], [ -43.4176112026813, -22.796082558952595 ], [ -43.41890494007469, -22.797048434729998 ], [ -43.421154810613096, -22.7986195133387 ], [ -43.422561539980485, -22.799220956355597 ], [ -43.423388456273798, -22.799492288264297 ], [ -43.426017791675193, -22.801023375463696 ], [ -43.427393832069498, -22.801456214460899 ], [ -43.428317652615902, -22.801514357012799 ], [ -43.428987531982202, -22.803318725491096 ], [ -43.428992995604204, -22.803338007158501 ], [ -43.429163949759896, -22.804127541705398 ], [ -43.429351659512008, -22.804300104198099 ], [ -43.432398316526502, -22.806161526224898 ], [ -43.433565322627402, -22.806844000407899 ], [ -43.434754995050099, -22.8074777411301 ], [ -43.435163166333687, -22.807705661008598 ], [ -43.435528235771898, -22.807830247929797 ], [ -43.43694011537179, -22.808919840991397 ], [ -43.436940133603102, -22.808919862739899 ], [ -43.437293612567004, -22.809408000137999 ], [ -43.4392267143716, -22.811656652384201 ], [ -43.439677088780698, -22.812198139806597 ], [ -43.440198381841391, -22.812754185738001 ], [ -43.441183046511597, -22.813929991197099 ], [ -43.442920690047202, -22.816895569498001 ], [ -43.4431349994166, -22.818673758049499 ], [ -43.443221881593402, -22.818893859564099 ], [ -43.443679461057798, -22.819455697640599 ], [ -43.444316597020801, -22.820139170764598 ], [ -43.446042656266201, -22.821813100703999 ], [ -43.446558157181798, -22.822612416730401 ], [ -43.446621870778102, -22.8227745967937 ], [ -43.447667254622999, -22.824775537666198 ], [ -43.447962382950394, -22.825480104588696 ], [ -43.449697820650094, -22.826702185268196 ], [ -43.450786885745501, -22.827192680234901 ], [ -43.452939085270998, -22.828596394593596 ], [ -43.453078284277396, -22.828973948063002 ], [ -43.453217483283787, -22.829113147069496 ], [ -43.453446303568299, -22.829433495467796 ], [ -43.4565410979163, -22.832000096325597 ], [ -43.456850005300396, -22.832122133810699 ], [ -43.457431590190097, -22.832350954095197 ], [ -43.458161908264799, -22.832766644278696 ], [ -43.458720611126196, -22.8329439799992 ], [ -43.459210667902198, -22.8333329744829 ], [ -43.460778712948397, -22.834504924060194 ], [ -43.465378480249001, -22.837737807332701 ], [ -43.469159161731895, -22.840358075698397 ], [ -43.469188591435199, -22.840384523136002 ], [ -43.469218021138389, -22.840410970573593 ], [ -43.484899647499489, -22.830707632837601 ], [ -43.488479614612771, -22.818604381651774 ], [ -43.490062316507327, -22.81551492753772 ], [ -43.491645224475505, -22.802235083924714 ], [ -43.502394521804483, -22.793348930800782 ], [ -43.471366491614113, -22.787881120020799 ], [ -43.432224914275885, -22.765987394393797 ], [ -43.423406667856497, -22.764446754816596 ], [ -43.419451237574286, -22.768244015940596 ], [ -43.410755501667794, -22.768061407259896 ] ] } }
]
}
