{
"type": "FeatureCollection",
"features": [
{ "type": "Feature", "properties": { "Name": "NOVA IGUAÃU", "Description": "NOVA IGUAÃU \/ RJ" }, "geometry": { "type": "LineString", "coordinates": [ [ -43.672262941868695, -22.858399782126298 ], [ -43.67045610805679, -22.8534816516581 ], [ -43.654206749905498, -22.848121848361899 ], [ -43.645375824724191, -22.842703055041298 ], [ -43.644881361771496, -22.842267927642997 ], [ -43.639891884311695, -22.839372807590799 ], [ -43.631919772934395, -22.833722751863 ], [ -43.626677220031596, -22.8288728091634 ], [ -43.627582078687396, -22.8136530065877 ], [ -43.629204365551701, -22.8107294776256 ], [ -43.629787896133095, -22.810646116114 ], [ -43.630996638051592, -22.808270313032796 ], [ -43.6308715957842, -22.807665942073498 ], [ -43.631309243720196, -22.800455171318099 ], [ -43.631288403342289, -22.7995381946903 ], [ -43.631272559715299, -22.797258074274097 ], [ -43.6347827227019, -22.783329765696195 ], [ -43.634231786670895, -22.783299905600501 ], [ -43.633016042207601, -22.783194696944992 ], [ -43.631648329686499, -22.783066108588393 ], [ -43.629894852095291, -22.783013504260602 ], [ -43.629358142755883, -22.782968765975795 ], [ -43.625268634200388, -22.782627878301298 ], [ -43.623882701338999, -22.782542074573001 ], [ -43.623798820845792, -22.782536881493797 ], [ -43.623810281557795, -22.782365375048698 ], [ -43.623821742269698, -22.782193868603599 ], [ -43.624014857239288, -22.780804122495596 ], [ -43.624196049923789, -22.780342373396593 ], [ -43.624464916487796, -22.779605912808201 ], [ -43.624657799022799, -22.77908571445619 ], [ -43.624926665586798, -22.778507066851098 ], [ -43.625452708864088, -22.777460825221596 ], [ -43.626922918817101, -22.774259551516398 ], [ -43.627269003464995, -22.773242062651697 ], [ -43.627331298701584, -22.772882134617895 ], [ -43.626896405414286, -22.772054269315198 ], [ -43.624514169668089, -22.770639506099897 ], [ -43.617006791799696, -22.7635089885204 ], [ -43.615834366700099, -22.761599775098098 ], [ -43.614958145480699, -22.751044685309193 ], [ -43.601049630544097, -22.7483032029279 ], [ -43.592266002181688, -22.754560413360899 ], [ -43.575923885110399, -22.755044931867893 ], [ -43.57528708935839, -22.755017245096099 ], [ -43.575244027773692, -22.755005262742092 ], [ -43.574491094668289, -22.754795750921492 ], [ -43.572923964944295, -22.754419090817997 ], [ -43.570313130408593, -22.752845181615299 ], [ -43.569995912823899, -22.752726225021 ], [ -43.569391216803091, -22.752815442466698 ], [ -43.568895564326994, -22.753311094942795 ], [ -43.568472901543103, -22.754629801198298 ], [ -43.564603213883899, -22.756641879582297 ], [ -43.563859735169792, -22.756830227523192 ], [ -43.562828778019494, -22.757107792909899 ], [ -43.561837473067293, -22.757375445247 ], [ -43.561802688437297, -22.757385640078198 ], [ -43.561003732243492, -22.757619801647898 ], [ -43.559864640473883, -22.757889895572696 ], [ -43.559430141551502, -22.757854665930296 ], [ -43.559171790840892, -22.7577724634315 ], [ -43.558352774600493, -22.757124839070002 ], [ -43.557498382828896, -22.756333919701891 ], [ -43.556099289665589, -22.755231288190004 ], [ -43.546304228608186, -22.755282018837093 ], [ -43.544161680717693, -22.754078609970598 ], [ -43.5439079669394, -22.754055840785398 ], [ -43.5434330667903, -22.754078609970598 ], [ -43.542954913900388, -22.754124148341095 ], [ -43.542135963417394, -22.754347446616595 ], [ -43.535641968178197, -22.751847054342797 ], [ -43.534286456333007, -22.747844030801797 ], [ -43.534229883231191, -22.747250886097795 ], [ -43.534227259362694, -22.746854681951795 ], [ -43.534224635494198, -22.746458477805795 ], [ -43.534490520837196, -22.745053833526697 ], [ -43.533084127312392, -22.741637556718196 ], [ -43.532478888307892, -22.739265579579296 ], [ -43.532307462231486, -22.738957712339996 ], [ -43.53221650145629, -22.738705820962497 ], [ -43.532351821314791, -22.73867337685439 ], [ -43.532500494045884, -22.738637731279393 ], [ -43.532648726331388, -22.738601026142099 ], [ -43.5333772509818, -22.738397718396598 ], [ -43.534811505964001, -22.738027861304694 ], [ -43.535542785239301, -22.73783021825729 ], [ -43.5364688840898, -22.737550694518895 ], [ -43.542204743856004, -22.736130592957998 ], [ -43.54191904392539, -22.735364750677896 ], [ -43.541911484076287, -22.735344485877498 ], [ -43.5415226422964, -22.734323648294698 ], [ -43.541318735973292, -22.7339183355069 ], [ -43.541244011564189, -22.733619607982792 ], [ -43.54113195795469, -22.729932096919093 ], [ -43.540950395107188, -22.729672721422595 ], [ -43.54075586348479, -22.729426314700891 ], [ -43.540405706564499, -22.729141001654696 ], [ -43.539984035219291, -22.7289566515838 ], [ -43.538771640936389, -22.727895999271396 ], [ -43.538356640141991, -22.727597717450401 ], [ -43.538278827493002, -22.727429123377696 ], [ -43.538569766165296, -22.727129440227998 ], [ -43.538635468800692, -22.726839044123093 ], [ -43.538771640936389, -22.726618574950994 ], [ -43.53902610458789, -22.726094023218696 ], [ -43.539041210402701, -22.725588386960997 ], [ -43.539134766631484, -22.724965056160698 ], [ -43.54106711408059, -22.722053566212196 ], [ -43.538014120913004, -22.717793684617199 ], [ -43.53801945199649, -22.717728479807597 ], [ -43.539397272503493, -22.716624665469396 ], [ -43.540041191699189, -22.716171537146501 ], [ -43.540871131995878, -22.715723178595397 ], [ -43.541577058225286, -22.715374985252602 ], [ -43.542034956319995, -22.715141266433395 ], [ -43.542331899702788, -22.715045573222199 ], [ -43.542344538400897, -22.714894802508098 ], [ -43.5426175233452, -22.714770886121794 ], [ -43.542342262042894, -22.714636100528494 ], [ -43.535854035958096, -22.703822834693895 ], [ -43.534180682477597, -22.703407322934297 ], [ -43.532810038569593, -22.702130946474597 ], [ -43.532386525080597, -22.701848604148594 ], [ -43.531950486707089, -22.701584159091496 ], [ -43.531636732929499, -22.701389122959498 ], [ -43.524830254582994, -22.698460754368597 ], [ -43.524646524893399, -22.698291157732001 ], [ -43.524375170274894, -22.697980230564998 ], [ -43.523969992601891, -22.697288886305003 ], [ -43.523487614543697, -22.696603671198496 ], [ -43.523303884854101, -22.696397328623998 ], [ -43.52290312681609, -22.696162134285395 ], [ -43.522574619316998, -22.696001603138697 ], [ -43.522419155733502, -22.695950724147796 ], [ -43.52230609130909, -22.695865925829494 ], [ -43.522108228566495, -22.695614357485297 ], [ -43.52204516003809, -22.695488602886599 ], [ -43.521670103922091, -22.6948313863466 ], [ -43.521609008091801, -22.694771817912095 ], [ -43.521330910648999, -22.694500672905399 ], [ -43.521107529115895, -22.694297655663497 ], [ -43.520773925820194, -22.6941076798905 ], [ -43.520456403332688, -22.694071603662898 ], [ -43.520208746237188, -22.694201052180794 ], [ -43.519957177892991, -22.694396088312793 ], [ -43.519832807026184, -22.694664616320701 ], [ -43.519697129716995, -22.694808773461695 ], [ -43.514261518569796, -22.694155733537599 ], [ -43.514096645585589, -22.694100012954699 ], [ -43.51397414608239, -22.693997577886897 ], [ -43.513884889080998, -22.693840315551199 ], [ -43.513846636080402, -22.693649050548302 ], [ -43.513889139414388, -22.693432283545 ], [ -43.514067653417094, -22.693194264874798 ], [ -43.514063403083696, -22.692990248871695 ], [ -43.513985605217997, -22.692662950148595 ], [ -43.513664826245488, -22.691781503907396 ], [ -43.512253401938189, -22.691725629893892 ], [ -43.512224691634991, -22.691680204801003 ], [ -43.512222151617287, -22.6916476204403 ], [ -43.512208011011893, -22.691466219110694 ], [ -43.512406845058791, -22.691433080102897 ], [ -43.513455605407898, -22.691315617513197 ], [ -43.513693624078087, -22.691302866512999 ], [ -43.514196351481594, -22.691289477735594 ], [ -43.514998476431089, -22.6913113671798 ], [ -43.515636026440703, -22.691392123514298 ], [ -43.517591179803489, -22.691659894518295 ], [ -43.519454231554093, -22.691711787625593 ], [ -43.5210126981884, -22.691774653520099 ], [ -43.521922269535388, -22.691774653520099 ], [ -43.534632072975995, -22.688671496117095 ], [ -43.543331062530996, -22.681582510025599 ], [ -43.548726665782496, -22.682459649646894 ], [ -43.54924119983599, -22.682285275060302 ], [ -43.549644144236197, -22.682117395069099 ], [ -43.551295470745899, -22.681339490634794 ], [ -43.555412382882693, -22.6792492022443 ], [ -43.555912048033385, -22.679029837056198 ], [ -43.55641171318409, -22.678810471868097 ], [ -43.556552759412597, -22.678153018379099 ], [ -43.556807985713391, -22.677835774472499 ], [ -43.556853306271393, -22.677742748063899 ], [ -43.556886700366888, -22.677604401097099 ], [ -43.556867618026587, -22.677413577694693 ], [ -43.556767435740397, -22.6772656895578 ], [ -43.556614777018396, -22.677151195516295 ], [ -43.556453686415196, -22.677081733380994 ], [ -43.55614248909739, -22.677113030835898 ], [ -43.555884877504091, -22.677313395408397 ], [ -43.555756071707492, -22.677351560088894 ], [ -43.555579560060195, -22.677346789503801 ], [ -43.555388736657804, -22.677241836632497 ], [ -43.555226536765801, -22.676941289773691 ], [ -43.555188372085297, -22.676593037064201 ], [ -43.554950296903399, -22.676429295104001 ], [ -43.554450574925596, -22.6764644348901 ], [ -43.554213151051989, -22.676302554976296 ], [ -43.554126815098002, -22.675849291217695 ], [ -43.554526118885391, -22.675115435608493 ], [ -43.554558494868083, -22.674824051763693 ], [ -43.554461366919895, -22.674575835895794 ], [ -43.552896527753092, -22.674111780143001 ], [ -43.552292176074999, -22.673377924533696 ], [ -43.551763368356603, -22.672169221177398 ], [ -43.551655448413996, -22.671845461349797 ], [ -43.5494957505271, -22.6701376615679 ], [ -43.549027497763689, -22.670345763698499 ], [ -43.548494793060094, -22.670755536547496 ], [ -43.545207698168497, -22.668630046617601 ], [ -43.542723840750497, -22.668012171638004 ], [ -43.540592058550388, -22.661013318489598 ], [ -43.540488075463088, -22.660889301835496 ], [ -43.540387494902291, -22.660784688530001 ], [ -43.539839986314796, -22.660471826479899 ], [ -43.539472975063688, -22.660183030741397 ], [ -43.538829201230001, -22.659990500249101 ], [ -43.538558455225186, -22.659773903445199 ], [ -43.538220053415898, -22.659455393179194 ], [ -43.537933713423492, -22.659130006824199 ], [ -43.537647373431, -22.658622404110297 ], [ -43.536768830272493, -22.657451013232198 ], [ -43.536118057562391, -22.656780717340791 ], [ -43.53551283894199, -22.656286130081199 ], [ -43.534953960843694, -22.655922326509398 ], [ -43.5348817985723, -22.655859083170398 ], [ -43.534304780658999, -22.655353382077799 ], [ -43.533986928963202, -22.654835433225799 ], [ -43.534276226150794, -22.654613275572995 ], [ -43.535043925232998, -22.654401858442895 ], [ -43.537528799104294, -22.653934668078698 ], [ -43.538973042661297, -22.653602783826997 ], [ -43.539563675787193, -22.653524699064 ], [ -43.53978269435229, -22.653544430551893 ], [ -43.540117540142489, -22.653613485126598 ], [ -43.540529499850585, -22.653749156248296 ], [ -43.540925855027993, -22.654013560170895 ], [ -43.54177499389759, -22.654413635215199 ], [ -43.544627058177696, -22.655114396944299 ], [ -43.546288497679299, -22.655778037304195 ], [ -43.56804124637469, -22.623710160180394 ], [ -43.569075720122697, -22.609414329370694 ], [ -43.569711518694291, -22.609379961880396 ], [ -43.569771661802385, -22.609792371764595 ], [ -43.571979773057691, -22.611106928270701 ], [ -43.57409337371449, -22.612533179120394 ], [ -43.574381201446187, -22.612756567807693 ], [ -43.574595998260889, -22.612769455616601 ], [ -43.575395042411699, -22.613357998888901 ], [ -43.575815971705097, -22.6135033966195 ], [ -43.576468691192701, -22.613987625981295 ], [ -43.577098433541885, -22.614337482841897 ], [ -43.577230601689195, -22.614356919334199 ], [ -43.577331671449002, -22.614430778004795 ], [ -43.578633916430292, -22.616044006862197 ], [ -43.593175020049287, -22.619912331890397 ], [ -43.600385906390187, -22.625579788395697 ], [ -43.600722862696799, -22.625970657711399 ], [ -43.601201340652295, -22.626341309648701 ], [ -43.603443201385801, -22.628297554433502 ], [ -43.608522988746302, -22.632452157154397 ], [ -43.610603781369591, -22.634393299266101 ], [ -43.622962970479804, -22.638901864301801 ], [ -43.622992936686288, -22.628870251292 ], [ -43.6230229028927, -22.618838638282195 ], [ -43.612327381356593, -22.608167439180299 ], [ -43.609966091877197, -22.607292583554795 ], [ -43.607802554615702, -22.606895405220797 ], [ -43.603075660538295, -22.603933119154195 ], [ -43.60099469879529, -22.598970979505594 ], [ -43.597190471110096, -22.597201267542694 ], [ -43.595655893556199, -22.595970370685492 ], [ -43.591636309337304, -22.594855349419298 ], [ -43.587663636491797, -22.590815578658898 ], [ -43.58524438631099, -22.582885436096596 ], [ -43.583632538216193, -22.581122055268004 ], [ -43.582859335815989, -22.5806628599736 ], [ -43.581740691325997, -22.581144625147395 ], [ -43.57926903062279, -22.579549306057196 ], [ -43.576961500367887, -22.580026292797001 ], [ -43.574018395271189, -22.5782222068962 ], [ -43.566850792256389, -22.576852403545395 ], [ -43.565036822817902, -22.576774470571092 ], [ -43.563877742268488, -22.576724238366296 ], [ -43.563910467483893, -22.578598870882097 ], [ -43.563322844407999, -22.579543859556296 ], [ -43.560964332178202, -22.578884715531998 ], [ -43.559160675464987, -22.576841142514894 ], [ -43.558573286315095, -22.571384064934399 ], [ -43.558637014439498, -22.570291245438298 ], [ -43.558159789232491, -22.567342093627801 ], [ -43.5569397235097, -22.567236159467498 ], [ -43.5553248019324, -22.568347260832997 ], [ -43.554213637344091, -22.569882479960395 ], [ -43.551911087951694, -22.570806599540397 ], [ -43.551025498668892, -22.572578494658998 ], [ -43.550104275094498, -22.5730271843994 ], [ -43.545019135133188, -22.571210144700999 ], [ -43.54294448828189, -22.568774249433197 ], [ -43.543606803483698, -22.567246905381097 ], [ -43.542909524062793, -22.565487646216297 ], [ -43.540883567772994, -22.565992950059893 ], [ -43.533025815793096, -22.566039485815004 ], [ -43.514108728657803, -22.572498894983895 ], [ -43.511244991516691, -22.571439808212691 ], [ -43.510689505646795, -22.571310754922798 ], [ -43.510134019776899, -22.571181701632895 ], [ -43.509126203116693, -22.569945003156896 ], [ -43.508498912432586, -22.568601642557098 ], [ -43.506435803982399, -22.565373774156598 ], [ -43.504966641045186, -22.5649569181749 ], [ -43.503414820922799, -22.564855990330095 ], [ -43.502125944165101, -22.5641214377764 ], [ -43.497938549749193, -22.559488478853496 ], [ -43.4977445846244, -22.558190027410298 ], [ -43.497880265114006, -22.5546479341645 ], [ -43.472932969893186, -22.540241365095895 ], [ -43.470188400227499, -22.543115849600095 ], [ -43.468490868031594, -22.544282187979995 ], [ -43.467940123128997, -22.543826303631398 ], [ -43.46768748426279, -22.542444706993297 ], [ -43.467575354112398, -22.541098962947594 ], [ -43.466686973361483, -22.539836009186494 ], [ -43.465218860942997, -22.538279487588696 ], [ -43.463602897746995, -22.538523035910394 ], [ -43.462242081434887, -22.538210193975594 ], [ -43.46171339966299, -22.537480003391998 ], [ -43.460791106600396, -22.536520022406798 ], [ -43.459659657578797, -22.535669655181998 ], [ -43.458458550260694, -22.534431978476199 ], [ -43.457795202832401, -22.532765076536293 ], [ -43.456687053256083, -22.531738642557993 ], [ -43.454406243793798, -22.530475744330801 ], [ -43.446412249130006, -22.526978247916695 ], [ -43.418637296047493, -22.538152240385095 ], [ -43.4052176848963, -22.548111970663793 ], [ -43.401745242206005, -22.550304922697599 ], [ -43.396132711006103, -22.553160580453699 ], [ -43.394737602472702, -22.5540601051148 ], [ -43.392243896706603, -22.557708277978598 ], [ -43.388969516600795, -22.564123912885698 ], [ -43.389074401523203, -22.5679323240808 ], [ -43.388078853276092, -22.570970449381097 ], [ -43.388960889759893, -22.573553696131299 ], [ -43.399730564352197, -22.583095209039396 ], [ -43.399791117849702, -22.5831801104666 ], [ -43.401082100690004, -22.584990184040798 ], [ -43.409894335165006, -22.590866156535498 ], [ -43.415327782211996, -22.593900912609794 ], [ -43.415807009000503, -22.595347765352599 ], [ -43.416209520515395, -22.596108548398 ], [ -43.412993423770899, -22.608694854838095 ], [ -43.405079400893698, -22.612677099753 ], [ -43.404247211124897, -22.612229397702297 ], [ -43.401653835839696, -22.611078930928599 ], [ -43.398351601489097, -22.613300279769099 ], [ -43.389902554261297, -22.615746907009999 ], [ -43.389702549963602, -22.615928015561401 ], [ -43.385301937208396, -22.620871085230696 ], [ -43.383520263118797, -22.627865435326495 ], [ -43.382936899591201, -22.631219408398898 ], [ -43.383486303328795, -22.6318466910867 ], [ -43.387482001910399, -22.636408786999901 ], [ -43.3878932589069, -22.636878340401999 ], [ -43.388389597773198, -22.637445036179397 ], [ -43.389092952959601, -22.638248093205696 ], [ -43.393826403544196, -22.643652196626199 ], [ -43.401214797563796, -22.652086262080601 ], [ -43.401654046422998, -22.6565921377425 ], [ -43.398712577784295, -22.661345673695202 ], [ -43.393568257210006, -22.665040731940898 ], [ -43.391849713598496, -22.665153141553802 ], [ -43.386464685001791, -22.668780288084399 ], [ -43.3752969858174, -22.672535385283801 ], [ -43.373266842066101, -22.6732616050815 ], [ -43.365459077706696, -22.684321409128501 ], [ -43.365538851332801, -22.6846851795015 ], [ -43.365456559808791, -22.684948512378199 ], [ -43.365349312953597, -22.685107824580498 ], [ -43.36560194150119, -22.685261220169401 ], [ -43.366175239118192, -22.6857686845673 ], [ -43.367149022151992, -22.686539481841898 ], [ -43.367343778758794, -22.6867369814995 ], [ -43.367502875705185, -22.686942710309395 ], [ -43.367697632311902, -22.68734319572609 ], [ -43.370302985259386, -22.694256317578699 ], [ -43.378531321705189, -22.690680882820899 ], [ -43.407977144244597, -22.694386378441898 ], [ -43.411321628244195, -22.701110256033196 ], [ -43.413206881875894, -22.701612108197097 ], [ -43.413617792484004, -22.701536292013799 ], [ -43.414910977485093, -22.701154047344595 ], [ -43.415084466405801, -22.7011050788945 ], [ -43.4164352369407, -22.701751918849492 ], [ -43.416546449959597, -22.702552652586096 ], [ -43.417443192396092, -22.703185180352598 ], [ -43.417757083108896, -22.703531327152895 ], [ -43.417899103121101, -22.703664656974592 ], [ -43.417905204454101, -22.703670384967594 ], [ -43.418922383563491, -22.703945235744293 ], [ -43.419051689095497, -22.704000805063799 ], [ -43.419130768511693, -22.704056374383295 ], [ -43.419609492157491, -22.704488080528193 ], [ -43.420706771907007, -22.705518554838697 ], [ -43.421522450811892, -22.706298862389293 ], [ -43.42189598574339, -22.706834445563096 ], [ -43.421905672000292, -22.7068500470914 ], [ -43.422255787772897, -22.707413974022799 ], [ -43.422343678345001, -22.7075210906576 ], [ -43.422513377914285, -22.707690790226895 ], [ -43.422527699230287, -22.7077051115429 ], [ -43.421209708143792, -22.710211789509493 ], [ -43.422194796088192, -22.711277647895599 ], [ -43.422092836988895, -22.711454115567399 ], [ -43.421865459194095, -22.711902997336999 ], [ -43.422252367216196, -22.712082196841994 ], [ -43.422732243097002, -22.712227267365897 ], [ -43.424963442424797, -22.7127218261978 ], [ -43.429649814491896, -22.720447477974801 ], [ -43.434084147763002, -22.724542472667292 ], [ -43.433984676445192, -22.724703291971998 ], [ -43.433303378546896, -22.725804773852602 ], [ -43.433049795447488, -22.726214751910398 ], [ -43.432531045240395, -22.727119457019398 ], [ -43.432511369239485, -22.727157879446395 ], [ -43.432296368545494, -22.727577723321197 ], [ -43.432170074139009, -22.727824345469489 ], [ -43.426610550718387, -22.741899376133496 ], [ -43.422351081404898, -22.749963201011397 ], [ -43.413914031740894, -22.7556276471568 ], [ -43.415994229334004, -22.764990951825997 ], [ -43.410755501667794, -22.768061407259896 ], [ -43.419451237574286, -22.768244015940596 ], [ -43.423406667856497, -22.764446754816596 ], [ -43.432224914275885, -22.765987394393797 ], [ -43.471366491614113, -22.787881120020799 ], [ -43.502394521804483, -22.793348930800782 ], [ -43.491645224475505, -22.802235083924714 ], [ -43.490062316507327, -22.81551492753772 ], [ -43.521804683106367, -22.822547868054968 ], [ -43.559386906188664, -22.828884736874041 ], [ -43.588465965263296, -22.838693114845807 ], [ -43.596335071798336, -22.857765995473496 ], [ -43.623980134329081, -22.862736309222157 ], [ -43.644130926183266, -22.855733432332432 ], [ -43.66786837031384, -22.865083028014169 ], [ -43.672262941868695, -22.858399782126298 ] ] } }
]
}
