{
"type": "FeatureCollection",
"features": [
{ "type": "Feature", "properties": { "Name": "RIO DAS OSTRAS", "Description": "RIO DAS OSTRAS \/ RJ" }, "geometry": { "type": "LineString", "coordinates": [ [ -41.817658852973636, -22.417013378164825 ], [ -41.853466936749662, -22.447507671941477 ], [ -41.862466095433888, -22.475807884326343 ], [ -41.883171740883085, -22.4885802709627 ], [ -41.891569221642214, -22.487235652303468 ], [ -41.932659537307757, -22.537550687414239 ], [ -41.94463270453565, -22.528165849973959 ], [ -41.96836477281596, -22.541955989477287 ], [ -41.979284152241803, -22.562957190821635 ], [ -41.98669972621132, -22.545846060047605 ], [ -41.99134271279592, -22.502160302755726 ], [ -42.018964371408572, -22.479872760619344 ], [ -42.027667138727452, -22.455630867570449 ], [ -42.01699094587542, -22.44763870586155 ], [ -42.018537409273961, -22.429800287053581 ], [ -42.037256422645726, -22.431907124314307 ], [ -42.047888713293446, -22.42432474589026 ], [ -42.064893868856927, -22.422955789777859 ], [ -42.023557048119244, -22.389144282782354 ], [ -42.001393096214372, -22.398785347865442 ], [ -41.980920747494451, -22.396365408037127 ], [ -41.964736951748876, -22.387569218244778 ], [ -41.928641258487232, -22.397581840029829 ], [ -41.906724880049126, -22.400107795538304 ], [ -41.888279036648157, -22.41454182624426 ], [ -41.870393012227673, -22.419347355396098 ], [ -41.855115195309956, -22.412233311518094 ], [ -41.834053555027481, -22.409558310467617 ], [ -41.817658852973636, -22.417013378164825 ] ] } }
]
}
