{
"type": "FeatureCollection",
"features": [
{ "type": "Feature", "properties": { "Name": "SÃO PEDRO DA ALDEIA", "Description": "SÃO PEDRO DA ALDEIA \/ RJ" }, "geometry": { "type": "LineString", "coordinates": [ [ -42.123530067358672, -22.907529821144291 ], [ -42.153452065860108, -22.890705892462904 ], [ -42.164698180676446, -22.87607547230516 ], [ -42.187942887454255, -22.874225173852665 ], [ -42.199311060956632, -22.879264231758839 ], [ -42.195945676451743, -22.855224560265182 ], [ -42.176951664787453, -22.827234340592327 ], [ -42.192389650961559, -22.821464109580969 ], [ -42.202040335193253, -22.783074775480486 ], [ -42.255485241250824, -22.795150183933799 ], [ -42.21841104963022, -22.770334214052696 ], [ -42.166799719131681, -22.680457037162508 ], [ -42.131434655784687, -22.653182143640944 ], [ -42.080223691769902, -22.71934267832188 ], [ -42.023229689498521, -22.795395372398445 ], [ -42.038483235512842, -22.861484538680486 ], [ -42.061555439731706, -22.867559296324426 ], [ -42.078253555057472, -22.860811635348625 ], [ -42.097142535799321, -22.861552645238362 ], [ -42.109081746425431, -22.871375450716414 ], [ -42.104830383115655, -22.884990447251312 ], [ -42.109414877794336, -22.903155724656926 ], [ -42.123530067358672, -22.907529821144291 ] ] } }
]
}
