{
"type": "FeatureCollection",
"features": [
{ "type": "Feature", "properties": { "Name": "SAQUAREMA", "Description": "SAQUAREMA \/ RJ" }, "geometry": { "type": "LineString", "coordinates": [ [ -42.45057920886336, -22.820093259496275 ], [ -42.369939979546359, -22.835524774148951 ], [ -42.38667788177878, -22.894612739885986 ], [ -42.377789673354698, -22.907837930675896 ], [ -42.382777486092031, -22.935782491768521 ], [ -42.453720018264164, -22.935092272890017 ], [ -42.475529184024587, -22.937863842242507 ], [ -42.517590607420573, -22.933534453751975 ], [ -42.575823374549032, -22.932903907589207 ], [ -42.633951754669674, -22.936609820386877 ], [ -42.634187032605439, -22.922445928037121 ], [ -42.646540836090651, -22.907914739073927 ], [ -42.676278807221138, -22.90813836359456 ], [ -42.679175789730891, -22.878861170006928 ], [ -42.660966700952429, -22.859086497343924 ], [ -42.642438693690735, -22.851192578474695 ], [ -42.629827775831131, -22.833333293596581 ], [ -42.581351050310673, -22.805736861866649 ], [ -42.569540922075873, -22.804006247889959 ], [ -42.554038817837117, -22.814809473578293 ], [ -42.531949891873978, -22.808768058299222 ], [ -42.523505303726722, -22.823879131017062 ], [ -42.492423579084857, -22.828918813052724 ], [ -42.464412054472689, -22.819194100227492 ], [ -42.45057920886336, -22.820093259496275 ] ] } }
]
}
