{
"type": "FeatureCollection",
"features": [
{ "type": "Feature", "properties": { "Name": "ÃGUA BRANCA", "Description": "ÃGUA BRANCA \/ PB" }, "geometry": { "type": "LineString", "coordinates": [ [ -37.571791683339484, -7.489098745710521 ], [ -37.609770780896781, -7.508030828260075 ], [ -37.615914987786425, -7.524943370739947 ], [ -37.630378096272068, -7.532510987691865 ], [ -37.6558188323732, -7.523416623178548 ], [ -37.676634906475719, -7.535613830413921 ], [ -37.682150918929722, -7.548376043019913 ], [ -37.706505730854758, -7.550583781516251 ], [ -37.706571990205134, -7.569466815940758 ], [ -37.728465030336842, -7.579911118603207 ], [ -37.734949497521256, -7.597214161104602 ], [ -37.750410242838363, -7.557097839093956 ], [ -37.727357786832329, -7.541907080147609 ], [ -37.700893676202149, -7.46209411645026 ], [ -37.711324976466464, -7.436699061412527 ], [ -37.72770598724145, -7.432225814669551 ], [ -37.727258607798483, -7.394155340596455 ], [ -37.720464417698679, -7.384843113518854 ], [ -37.72136195728848, -7.382327957968812 ], [ -37.704105873787, -7.373582377524655 ], [ -37.672318227204357, -7.376871344836673 ], [ -37.641995509684982, -7.412370509691242 ], [ -37.608883795750558, -7.411124945060123 ], [ -37.568543226888373, -7.456209969214682 ], [ -37.571791683339484, -7.489098745710521 ] ] } }
]
}
