{
"type": "FeatureCollection",
"features": [
{ "type": "Feature", "properties": { "Name": "ALAGOINHA", "Description": "ALAGOINHA \/ PB" }, "geometry": { "type": "LineString", "coordinates": [ [ -35.563775002913985, -6.908008408461228 ], [ -35.534431916899393, -6.92894720135223 ], [ -35.472691176856301, -6.923471947971962 ], [ -35.460226709095302, -6.964064256859899 ], [ -35.463572974013509, -6.98176340665583 ], [ -35.479720462329453, -6.9903024487989 ], [ -35.51928007251729, -6.985925141731855 ], [ -35.515347964037289, -7.030809961510442 ], [ -35.559490331413599, -6.977666376002389 ], [ -35.573943389975398, -6.969884200595345 ], [ -35.580708530174491, -6.941894438677366 ], [ -35.58267264862377, -6.919641571701106 ], [ -35.563775002913985, -6.908008408461228 ] ] } }
]
}
