{
"type": "FeatureCollection",
"features": [
{ "type": "Feature", "properties": { "Name": "AMPARO", "Description": "AMPARO \/ PB" }, "geometry": { "type": "LineString", "coordinates": [ [ -37.085983641831547, -7.59602492550988 ], [ -37.095958526264951, -7.572569463509864 ], [ -37.086195264000196, -7.517792872842733 ], [ -37.06988780877532, -7.517438675754248 ], [ -37.05382225049641, -7.504568614649828 ], [ -37.02520152063363, -7.496697802061875 ], [ -37.012121590139202, -7.504383413663561 ], [ -36.978493758879836, -7.543128303728167 ], [ -37.000531981965366, -7.564304231654944 ], [ -36.998119061345562, -7.600508741984811 ], [ -36.982557528107407, -7.623798344717785 ], [ -36.999924873034445, -7.625014515907139 ], [ -37.045534238814014, -7.609100598613679 ], [ -37.071851414611046, -7.608909432424297 ], [ -37.085983641831547, -7.59602492550988 ] ] } }
]
}
