{
"type": "FeatureCollection",
"features": [
{ "type": "Feature", "properties": { "Name": "BARAÃNA", "Description": "BARAÃNA \/ PB" }, "geometry": { "type": "LineString", "coordinates": [ [ -36.251022759692539, -6.684566787427229 ], [ -36.266431320049321, -6.696242765591137 ], [ -36.277458326740316, -6.657236553224323 ], [ -36.271543349845672, -6.61192128284091 ], [ -36.299024960633403, -6.566342204429134 ], [ -36.291169491378859, -6.558231077702033 ], [ -36.250331699048616, -6.580702267695471 ], [ -36.234223704460355, -6.594838460026835 ], [ -36.243067650951275, -6.641858309013685 ], [ -36.251022759692539, -6.684566787427229 ] ] } }
]
}
