{
"type": "FeatureCollection",
"features": [
{ "type": "Feature", "properties": { "Name": "BOA VISTA", "Description": "BOA VISTA \/ PB" }, "geometry": { "type": "LineString", "coordinates": [ [ -36.128612658147631, -7.35865449580831 ], [ -36.147658338561428, -7.34629657073009 ], [ -36.175723108434681, -7.347417599942219 ], [ -36.195904564244188, -7.361764961183952 ], [ -36.235450915727142, -7.370044593882881 ], [ -36.268447890557638, -7.360393436607751 ], [ -36.281259809592484, -7.369832279236276 ], [ -36.317421118289928, -7.3720312592352 ], [ -36.345854697436266, -7.367560024275632 ], [ -36.330845471141515, -7.307532465750626 ], [ -36.343725212548463, -7.283148638099135 ], [ -36.326106509807516, -7.188755653150849 ], [ -36.224562374953621, -7.197426079050273 ], [ -36.170723091897116, -7.201834888469306 ], [ -36.140136092406692, -7.164387863109368 ], [ -36.1083895898077, -7.151669574291361 ], [ -36.094842229485266, -7.154009704684086 ], [ -36.091451403159681, -7.200358021805243 ], [ -36.115458869031556, -7.262622125011034 ], [ -36.114283807651532, -7.270758986737803 ], [ -36.128612658147631, -7.35865449580831 ] ] } }
]
}
