{
"type": "FeatureCollection",
"features": [
{ "type": "Feature", "properties": { "Name": "BOM SUCESSO", "Description": "BOM SUCESSO \/ PB" }, "geometry": { "type": "LineString", "coordinates": [ [ -37.919446384742798, -6.41164624987448 ], [ -37.897527462122639, -6.421479375073034 ], [ -37.864244223192316, -6.450191616349968 ], [ -37.887539154408387, -6.499475915980667 ], [ -37.904074457370257, -6.541660967379698 ], [ -37.926093342333843, -6.529867562038305 ], [ -37.979870566773172, -6.531632804410322 ], [ -38.02598868353089, -6.528003608279846 ], [ -38.017308133963184, -6.479727794002429 ], [ -38.026758528383311, -6.474756856143926 ], [ -38.01272655128929, -6.468273728949384 ], [ -38.019849299705349, -6.446940267679167 ], [ -38.008225056840843, -6.43219233400896 ], [ -37.971062430386837, -6.422430766066952 ], [ -37.955205633533126, -6.40806153241374 ], [ -37.942273828574287, -6.424055259142847 ], [ -37.919446384742798, -6.41164624987448 ] ] } }
]
}
