{
"type": "FeatureCollection",
"features": [
{ "type": "Feature", "properties": { "Name": "BOM JESUS", "Description": "BOM JESUS \/ PB" }, "geometry": { "type": "LineString", "coordinates": [ [ -38.67720101421537, -6.854329468230333 ], [ -38.672935009942705, -6.836143089132236 ], [ -38.651870368622554, -6.811712214347153 ], [ -38.616921296580529, -6.793298924605665 ], [ -38.613927762855951, -6.782437400365666 ], [ -38.567788363642023, -6.790932741752556 ], [ -38.603826132469976, -6.813742399691932 ], [ -38.616323036079223, -6.842003026618329 ], [ -38.64139425693935, -6.854897951279384 ], [ -38.647790652616493, -6.877731474527877 ], [ -38.67720101421537, -6.854329468230333 ] ] } }
]
}
