{
"type": "FeatureCollection",
"features": [
{ "type": "Feature", "properties": { "Name": "CAAPORÃ", "Description": "CAAPORÃ \/ PB" }, "geometry": { "type": "LineString", "coordinates": [ [ -34.849479330706515, -7.438876423508077 ], [ -34.854913906851266, -7.463649472345252 ], [ -34.853841780074049, -7.539645939908155 ], [ -34.867392189997531, -7.547959470752914 ], [ -34.887211813474373, -7.536399668809622 ], [ -34.917315751120952, -7.541769676329466 ], [ -34.932677638462224, -7.528520133697157 ], [ -34.960786894199771, -7.538766050412845 ], [ -34.985133676078249, -7.500009586073475 ], [ -34.977460308746231, -7.46962390342037 ], [ -34.981581506881014, -7.456773586032113 ], [ -34.954599481181049, -7.405294258023559 ], [ -34.917821913850219, -7.441672147751376 ], [ -34.884293389328434, -7.459980660179269 ], [ -34.858673196210987, -7.452751816043417 ], [ -34.849479330706515, -7.438876423508077 ] ] } }
]
}
