{
"type": "FeatureCollection",
"features": [
{ "type": "Feature", "properties": { "Name": "CABEDELO", "Description": "CABEDELO \/ PB" }, "geometry": { "type": "LineString", "coordinates": [ [ -34.842363433325716, -7.055972564282342 ], [ -34.849249971209133, -7.063201085561616 ], [ -34.846812172643581, -7.093319511286381 ], [ -34.855044979442198, -7.095209781905851 ], [ -34.864145731839976, -7.059290736178468 ], [ -34.859597567973367, -7.027115807348594 ], [ -34.836263796836704, -7.00070839357744 ], [ -34.825397158152263, -7.005610181664507 ], [ -34.829596897678641, -7.031389210343718 ], [ -34.842363433325716, -7.055972564282342 ] ] } }
]
}
