{
"type": "FeatureCollection",
"features": [
{ "type": "Feature", "properties": { "Name": "CACIMBAS", "Description": "CACIMBAS \/ PB" }, "geometry": { "type": "LineString", "coordinates": [ [ -37.001940992083057, -7.175736199366042 ], [ -37.019154090688687, -7.190457885423029 ], [ -37.034640273329899, -7.189921139448984 ], [ -37.014857098476284, -7.25074791108716 ], [ -37.046172201685685, -7.256522275382679 ], [ -37.073498418617078, -7.235448012215953 ], [ -37.145840044082711, -7.246478805052789 ], [ -37.17631353384246, -7.230659463163647 ], [ -37.16055626406029, -7.191886847899639 ], [ -37.148407045548645, -7.19450386516121 ], [ -37.115331333274355, -7.178900406428567 ], [ -37.096103007747551, -7.188067910105929 ], [ -37.088844537245564, -7.169105874736259 ], [ -37.063310406549988, -7.154947174172719 ], [ -37.00026968389875, -7.174307005763637 ], [ -37.001940992083057, -7.175736199366042 ] ] } }
]
}
