{
"type": "FeatureCollection",
"features": [
{ "type": "Feature", "properties": { "Name": "CAMALAÃ", "Description": "CAMALAÃ \/ PB" }, "geometry": { "type": "LineString", "coordinates": [ [ -36.572588190592455, -7.935974963173976 ], [ -36.637992367553693, -7.94058472700351 ], [ -36.73795075482343, -7.950984470956541 ], [ -36.815450740459255, -7.956731700007878 ], [ -36.86839267098491, -8.012250644151832 ], [ -36.879583687037496, -8.017392165416027 ], [ -36.905301295618244, -8.019228427250084 ], [ -36.925143177315761, -8.036980043494166 ], [ -36.934475126525797, -7.873718299160146 ], [ -36.961692432859422, -7.831115435329025 ], [ -36.828871926797945, -7.810769693166775 ], [ -36.833939500407553, -7.842712630183712 ], [ -36.808691156271777, -7.828383139370316 ], [ -36.79467868097629, -7.830020004419623 ], [ -36.760651236865037, -7.818134509400067 ], [ -36.760708434646517, -7.807181843367346 ], [ -36.725997404156821, -7.775814473359219 ], [ -36.727548151026326, -7.808944475906799 ], [ -36.693931224046707, -7.832769004386024 ], [ -36.652864804267267, -7.881085591227019 ], [ -36.626413195112832, -7.893664981553627 ], [ -36.572588190592455, -7.935974963173976 ] ] } }
]
}
