{
"type": "FeatureCollection",
"features": [
{ "type": "Feature", "properties": { "Name": "CONDADO", "Description": "CONDADO \/ PB" }, "geometry": { "type": "LineString", "coordinates": [ [ -37.575997851219824, -6.8124992029758 ], [ -37.564892954246368, -6.894941724081264 ], [ -37.552747476914476, -6.924825057130646 ], [ -37.538654638200967, -6.943582901429693 ], [ -37.545188170597555, -6.969358467719076 ], [ -37.519611818530564, -7.000547494071554 ], [ -37.588464790317794, -6.993953745768692 ], [ -37.595837162654902, -6.99778621116468 ], [ -37.634531312070351, -6.994108866231159 ], [ -37.667371601618072, -7.008802517721961 ], [ -37.6772659337758, -6.970362334154345 ], [ -37.694668334276173, -6.959935925302659 ], [ -37.696459293661398, -6.94436258396604 ], [ -37.676986514416058, -6.940428178617481 ], [ -37.679546996696502, -6.898438292693015 ], [ -37.632872975707244, -6.852600524294701 ], [ -37.627351031325013, -6.826639071735713 ], [ -37.631040491925091, -6.806620162990099 ], [ -37.622706002380085, -6.780121453642153 ], [ -37.630953423161884, -6.75707953139522 ], [ -37.657348907426069, -6.722665787096332 ], [ -37.638762169038841, -6.722133304808096 ], [ -37.629049471156122, -6.731217936858229 ], [ -37.605060553801479, -6.730180170478434 ], [ -37.599500842389944, -6.79783542966129 ], [ -37.575997851219824, -6.8124992029758 ] ] } }
]
}
