{
"type": "FeatureCollection",
"features": [
{ "type": "Feature", "properties": { "Name": "GURJÃO", "Description": "GURJÃO \/ PB" }, "geometry": { "type": "LineString", "coordinates": [ [ -36.326106509807516, -7.188755653150849 ], [ -36.343725212548463, -7.283148638099135 ], [ -36.330845471141515, -7.307532465750626 ], [ -36.348920260561556, -7.31375207090133 ], [ -36.375193832729167, -7.30075370441989 ], [ -36.42441602068277, -7.302509758418579 ], [ -36.478803031334792, -7.315979098956176 ], [ -36.498178339358844, -7.33047487531519 ], [ -36.537524619565488, -7.351335077351905 ], [ -36.600835078575983, -7.35153530331155 ], [ -36.575861746222586, -7.323590948163655 ], [ -36.559292047789711, -7.321100925067582 ], [ -36.560648909819292, -7.269320925820011 ], [ -36.574266044941957, -7.250451519721821 ], [ -36.558924451702069, -7.245400290391046 ], [ -36.538476525870919, -7.223292997573708 ], [ -36.55266791858952, -7.18860651677727 ], [ -36.568039569870223, -7.179272375020049 ], [ -36.486325432172919, -7.189976721148695 ], [ -36.418526625003722, -7.199458658390313 ], [ -36.40605670555248, -7.218295594466042 ], [ -36.326106509807516, -7.188755653150849 ] ] } }
]
}
