{
"type": "FeatureCollection",
"features": [
{ "type": "Feature", "properties": { "Name": "IBIARA", "Description": "IBIARA \/ PB" }, "geometry": { "type": "LineString", "coordinates": [ [ -38.3100178898137, -7.51889487150106 ], [ -38.345484164662423, -7.53434942048932 ], [ -38.384272870596476, -7.53572074002011 ], [ -38.392897805189534, -7.547506414789155 ], [ -38.386325496724226, -7.5693923053106 ], [ -38.388749048229954, -7.594838047937514 ], [ -38.450592637440195, -7.594082925886255 ], [ -38.424043451843772, -7.567862113345824 ], [ -38.428254012912305, -7.548037227036332 ], [ -38.475462588227799, -7.53704581820989 ], [ -38.475594331713012, -7.520745758110195 ], [ -38.49162857559827, -7.438523315498571 ], [ -38.426667274275246, -7.42316503084146 ], [ -38.401180443422675, -7.424372429144229 ], [ -38.367361346149153, -7.420099670962998 ], [ -38.319239098305673, -7.457577689658592 ], [ -38.328213068778041, -7.486994011964042 ], [ -38.316680393085619, -7.496496888120816 ], [ -38.3100178898137, -7.51889487150106 ] ] } }
]
}
