{
"type": "FeatureCollection",
"features": [
{ "type": "Feature", "properties": { "Name": "INGÃ", "Description": "INGÃ \/ PB" }, "geometry": { "type": "LineString", "coordinates": [ [ -35.542445767558085, -7.199904990123172 ], [ -35.540679610575523, -7.238165249926283 ], [ -35.55288071996921, -7.257121342575829 ], [ -35.562603039698502, -7.30013698983015 ], [ -35.536504616794559, -7.387688137697353 ], [ -35.558525064779872, -7.370402975516867 ], [ -35.605135081918434, -7.354324338397476 ], [ -35.61895791627478, -7.335280256078931 ], [ -35.678679894161746, -7.343841808252819 ], [ -35.7026815072457, -7.338104566172717 ], [ -35.736061578878719, -7.324088313724643 ], [ -35.704139382026824, -7.260232217143083 ], [ -35.680449651130459, -7.268992822560675 ], [ -35.663038617138454, -7.257712090140784 ], [ -35.635817618188469, -7.25032707783231 ], [ -35.625705134784084, -7.225634882543773 ], [ -35.671678458893723, -7.207778564529065 ], [ -35.661916559101883, -7.190848710099829 ], [ -35.622987218085598, -7.17884572225222 ], [ -35.6079204198914, -7.16868174996273 ], [ -35.61660262331236, -7.178589472126419 ], [ -35.599257735356161, -7.198796605379015 ], [ -35.577326238415139, -7.188002297368086 ], [ -35.542445767558085, -7.199904990123172 ] ] } }
]
}
