{
"type": "FeatureCollection",
"features": [
{ "type": "Feature", "properties": { "Name": "JOCA CLAUDINO", "Description": "JOCA CLAUDINO \/ PB" }, "geometry": { "type": "LineString", "coordinates": [ [ -38.499095060188836, -6.527881678196819 ], [ -38.503605679158738, -6.516801683450865 ], [ -38.513361759437601, -6.493397068220077 ], [ -38.535074114978386, -6.444965328586989 ], [ -38.505086170090635, -6.446607492441785 ], [ -38.48103504842868, -6.436699593111712 ], [ -38.468828897435628, -6.411822346124325 ], [ -38.458306608263335, -6.411332368493959 ], [ -38.450298487185364, -6.502778050266784 ], [ -38.452538891756426, -6.519165732212741 ], [ -38.467791749789392, -6.53145346700387 ], [ -38.499095060188836, -6.527881678196819 ] ] } }
]
}
