{
"type": "FeatureCollection",
"features": [
{ "type": "Feature", "properties": { "Name": "JUAREZ TÃVORA", "Description": "JUAREZ TÃVORA \/ PB" }, "geometry": { "type": "LineString", "coordinates": [ [ -35.515498768653231, -7.202161243446596 ], [ -35.542445767558085, -7.199904990123172 ], [ -35.577326238415139, -7.188002297368086 ], [ -35.599257735356161, -7.198796605379015 ], [ -35.61660262331236, -7.178589472126419 ], [ -35.6079204198914, -7.16868174996273 ], [ -35.620604419358415, -7.153788286200381 ], [ -35.624451847674607, -7.132853400863723 ], [ -35.615470808530972, -7.134760484308855 ], [ -35.569539085260544, -7.122755032318821 ], [ -35.53308933070798, -7.120464851171903 ], [ -35.522926688515838, -7.138213166904108 ], [ -35.529625876932641, -7.151536793887885 ], [ -35.547712408800578, -7.158054174460517 ], [ -35.515498768653231, -7.202161243446596 ] ] } }
]
}
