{
"type": "FeatureCollection",
"features": [
{ "type": "Feature", "properties": { "Name": "LAGOA DE DENTRO", "Description": "LAGOA DE DENTRO \/ PB" }, "geometry": { "type": "LineString", "coordinates": [ [ -35.328704268287311, -6.621228960248287 ], [ -35.340685557292595, -6.651279349562286 ], [ -35.319443021977861, -6.671267091403081 ], [ -35.320119884125283, -6.70821834929734 ], [ -35.334654001281073, -6.703703370414188 ], [ -35.34543711273249, -6.720202677111785 ], [ -35.350094359866766, -6.749270106530162 ], [ -35.378003093767738, -6.719292297901177 ], [ -35.399002916451366, -6.711314359869789 ], [ -35.408738204404585, -6.676657644834393 ], [ -35.416101241778847, -6.674421744068184 ], [ -35.391225745771521, -6.649582488940666 ], [ -35.3790565110491, -6.648040829720458 ], [ -35.375045487059538, -6.628157346284468 ], [ -35.328704268287311, -6.621228960248287 ] ] } }
]
}
