{
"type": "FeatureCollection",
"features": [
{ "type": "Feature", "properties": { "Name": "LASTRO", "Description": "LASTRO \/ PB" }, "geometry": { "type": "LineString", "coordinates": [ [ -38.120211931335518, -6.52238089935895 ], [ -38.152272888183177, -6.553500150011871 ], [ -38.155070653887549, -6.574938225818414 ], [ -38.127371969240926, -6.597258912468759 ], [ -38.145747976687744, -6.60537943531267 ], [ -38.163478913920699, -6.62242556938446 ], [ -38.180645144357868, -6.598194675943489 ], [ -38.246298537847224, -6.597791036826834 ], [ -38.224535706057964, -6.580386260317595 ], [ -38.209564636198934, -6.55366332030593 ], [ -38.19543203486046, -6.554655581889563 ], [ -38.2271195221482, -6.483947764677565 ], [ -38.200551659431476, -6.488279376292155 ], [ -38.191728600594388, -6.498585563772679 ], [ -38.169039050711604, -6.500020175790438 ], [ -38.145085328325194, -6.494167736851523 ], [ -38.133227342667681, -6.520014639164231 ], [ -38.120211931335518, -6.52238089935895 ] ] } }
]
}
