{
"type": "FeatureCollection",
"features": [
{ "type": "Feature", "properties": { "Name": "LIVRAMENTO", "Description": "LIVRAMENTO \/ PB" }, "geometry": { "type": "LineString", "coordinates": [ [ -36.759377805841041, -7.305177644932315 ], [ -36.778266229902556, -7.321182452208348 ], [ -36.739817791457881, -7.347933641724126 ], [ -36.774257876000142, -7.371667169604165 ], [ -36.836859237563715, -7.37176283858406 ], [ -36.860437652175847, -7.367858030823413 ], [ -36.884314625519494, -7.384233398352591 ], [ -36.919186430509342, -7.386117822479492 ], [ -36.932106255599194, -7.381522309307059 ], [ -36.97431195363373, -7.387295121372688 ], [ -37.013701439070132, -7.403792545789315 ], [ -37.025623398900677, -7.386044158111361 ], [ -37.053184657246106, -7.37949825374136 ], [ -37.027376149689523, -7.286942341815575 ], [ -37.012022045081267, -7.283457324995481 ], [ -37.014857098476284, -7.25074791108716 ], [ -36.98003424538404, -7.280004514696542 ], [ -36.836314795191583, -7.326821773406095 ], [ -36.801744214523865, -7.330757668931255 ], [ -36.798169207043195, -7.310241292101921 ], [ -36.774052344939719, -7.300969876258762 ], [ -36.759377805841041, -7.305177644932315 ] ] } }
]
}
