{
"type": "FeatureCollection",
"features": [
{ "type": "Feature", "properties": { "Name": "PIANCÃ", "Description": "PIANCÃ \/ PB" }, "geometry": { "type": "LineString", "coordinates": [ [ -37.823638442460094, -7.094461803169622 ], [ -37.824279120385029, -7.118372909382231 ], [ -37.791682486857212, -7.122703609084226 ], [ -37.77647447711535, -7.142034003166657 ], [ -37.812126420597792, -7.161496433913271 ], [ -37.827643488656008, -7.232970103887112 ], [ -37.907947167427771, -7.273220383513831 ], [ -37.900355656388392, -7.308912982647996 ], [ -37.957249421123834, -7.316473211669348 ], [ -37.985564870722158, -7.303389956381352 ], [ -38.009790566981053, -7.285059000472472 ], [ -38.023911734339038, -7.291273051410144 ], [ -38.05286718557209, -7.317465274502752 ], [ -38.085065554331834, -7.324028224622793 ], [ -38.091861641101787, -7.235347109181702 ], [ -38.084646485546841, -7.218725160137978 ], [ -38.064419345975978, -7.221670392174815 ], [ -38.051130372568593, -7.198993097353537 ], [ -38.077905868061293, -7.139821379552984 ], [ -38.062953485215132, -7.113133982547197 ], [ -38.058566400718803, -7.08745082069879 ], [ -38.05063206631678, -7.123465965282037 ], [ -38.031181825880537, -7.139088833183052 ], [ -38.013651673086201, -7.173728934142958 ], [ -37.990774226049659, -7.173743008532994 ], [ -37.984752591358976, -7.143952252594317 ], [ -37.970432603681665, -7.104270348098055 ], [ -37.949853742855908, -7.089594154246754 ], [ -37.916483507108126, -7.086061869959281 ], [ -37.854510492864904, -7.087332143463584 ], [ -37.841384917280031, -7.0995444593093 ], [ -37.823638442460094, -7.094461803169622 ] ] } }
]
}
