{
"type": "FeatureCollection",
"features": [
{ "type": "Feature", "properties": { "Name": "PILÃES", "Description": "PILÃES \/ PB" }, "geometry": { "type": "LineString", "coordinates": [ [ -35.587815621393759, -6.839284556836787 ], [ -35.565409777938832, -6.886452062812396 ], [ -35.563775002913985, -6.908008408461228 ], [ -35.58267264862377, -6.919641571701106 ], [ -35.650070992182521, -6.91002956820995 ], [ -35.645474400722939, -6.882787607861758 ], [ -35.658897217532513, -6.868102301180214 ], [ -35.640530085495008, -6.854310154390077 ], [ -35.624275537386097, -6.854076706574688 ], [ -35.587815621393759, -6.839284556836787 ] ] } }
]
}
