{
"type": "FeatureCollection",
"features": [
{ "type": "Feature", "properties": { "Name": "POÃO DANTAS", "Description": "POÃO DANTAS \/ PB" }, "geometry": { "type": "LineString", "coordinates": [ [ -38.465809164661152, -6.396409900696312 ], [ -38.468828897435628, -6.411822346124325 ], [ -38.48103504842868, -6.436699593111712 ], [ -38.505086170090635, -6.446607492441785 ], [ -38.535074114978386, -6.444965328586989 ], [ -38.555445270183043, -6.437509771658597 ], [ -38.524517360187986, -6.407082992685901 ], [ -38.551522523645531, -6.398167182269617 ], [ -38.571968390029156, -6.40410664500564 ], [ -38.587174640697071, -6.394273875938552 ], [ -38.592466291186327, -6.378246145842922 ], [ -38.577103071949182, -6.364243540606878 ], [ -38.532623015439746, -6.341706203678314 ], [ -38.504251515594945, -6.356141851365294 ], [ -38.494175437646277, -6.344817318364504 ], [ -38.483424521024801, -6.389496268038272 ], [ -38.465809164661152, -6.396409900696312 ] ] } }
]
}
