{
"type": "FeatureCollection",
"features": [
{ "type": "Feature", "properties": { "Name": "PRATA", "Description": "PRATA \/ PB" }, "geometry": { "type": "LineString", "coordinates": [ [ -37.025208069496784, -7.717852649480164 ], [ -37.059182538143602, -7.75174085245834 ], [ -37.115107233012338, -7.769952776799186 ], [ -37.137846339137177, -7.782249389697541 ], [ -37.151950733239687, -7.779844203247308 ], [ -37.157032285911214, -7.772999461355993 ], [ -37.138944680252735, -7.745517659012705 ], [ -37.150599344484135, -7.729032297202706 ], [ -37.161038445467845, -7.697966694707134 ], [ -37.148316257189492, -7.667865466717842 ], [ -37.13467380615117, -7.663322273404161 ], [ -37.114392463541321, -7.640812632896655 ], [ -37.087057214718641, -7.643382702849407 ], [ -37.085983641831547, -7.59602492550988 ], [ -37.080429704966889, -7.608853133065565 ], [ -37.025481350084192, -7.634099087702679 ], [ -37.025208069496784, -7.717852649480164 ] ] } }
]
}
