{
"type": "FeatureCollection",
"features": [
{ "type": "Feature", "properties": { "Name": "PRINCESA ISABEL", "Description": "PRINCESA ISABEL \/ PB" }, "geometry": { "type": "LineString", "coordinates": [ [ -37.982441828327694, -7.539712570678545 ], [ -37.968928981287434, -7.554183787451791 ], [ -37.934639368611954, -7.557223379055642 ], [ -37.931734399223096, -7.569659365287406 ], [ -37.956535916099597, -7.584842572626598 ], [ -37.956570297181429, -7.638662628177713 ], [ -37.934029021222329, -7.6728430388751 ], [ -37.903326078435725, -7.698099673860838 ], [ -37.921392038311858, -7.713226243696169 ], [ -37.926850513939996, -7.729932159741338 ], [ -37.943102021441121, -7.741035129467604 ], [ -37.947545652609726, -7.756221900820036 ], [ -37.970599838012049, -7.777576900853262 ], [ -38.00397095419612, -7.778986407396758 ], [ -38.029915448239301, -7.749835288867417 ], [ -38.039581584622397, -7.748119057748283 ], [ -38.069478295986528, -7.772324341195314 ], [ -38.080618633443123, -7.739027063847857 ], [ -38.061678741180913, -7.699922123007524 ], [ -38.064565811363082, -7.67774038431122 ], [ -38.052527786827852, -7.642084693353866 ], [ -38.084623369372935, -7.642465664159033 ], [ -38.078403302870072, -7.611528177283503 ], [ -38.082476865714732, -7.588965854490538 ], [ -38.103765258359942, -7.570550184243587 ], [ -38.102360287996873, -7.569353747777199 ], [ -38.051461486758164, -7.550881752091128 ], [ -38.046699911071975, -7.51469714016082 ], [ -37.982441828327694, -7.539712570678545 ] ] } }
]
}
