{
"type": "FeatureCollection",
"features": [
{ "type": "Feature", "properties": { "Name": "RIACHO DE SANTO ANTÃNIO", "Description": "RIACHO DE SANTO ANTÃNIO \/ PB" }, "geometry": { "type": "LineString", "coordinates": [ [ -36.071657110886918, -7.60432542427884 ], [ -36.096639995839098, -7.616477366836989 ], [ -36.123746235000681, -7.636387126664545 ], [ -36.131235155877675, -7.668379308758062 ], [ -36.105067735187788, -7.717730395641182 ], [ -36.117396827101857, -7.734895227632592 ], [ -36.127692006880579, -7.769453778069361 ], [ -36.158483418674791, -7.752716600690518 ], [ -36.1630684358596, -7.731038248516312 ], [ -36.160176525526197, -7.688716277134461 ], [ -36.197964484773138, -7.645467657806136 ], [ -36.173042386796681, -7.636007350159047 ], [ -36.157869634975611, -7.638655719585756 ], [ -36.146258243423176, -7.624651003640849 ], [ -36.120849980941841, -7.609052386858139 ], [ -36.087285102225621, -7.600868571527315 ], [ -36.071657110886918, -7.60432542427884 ] ] } }
]
}
