{
"type": "FeatureCollection",
"features": [
{ "type": "Feature", "properties": { "Name": "SERRA BRANCA", "Description": "SERRA BRANCA \/ PB" }, "geometry": { "type": "LineString", "coordinates": [ [ -36.673427604999915, -7.381877680010859 ], [ -36.634401889935248, -7.39167714268592 ], [ -36.530786668569867, -7.528074492643667 ], [ -36.600333896292227, -7.582323061659906 ], [ -36.714451677502893, -7.592420802477988 ], [ -36.699340277431816, -7.675194837072013 ], [ -36.658662063503357, -7.684746067077298 ], [ -36.713828951844619, -7.695172841953023 ], [ -36.764137764546149, -7.72878546657597 ], [ -36.796888176747927, -7.673596994505657 ], [ -36.7834984199161, -7.648663331247689 ], [ -36.810323273800002, -7.646141703276953 ], [ -36.818527749256191, -7.612619400265089 ], [ -36.839062369732517, -7.596307488899469 ], [ -36.824627996384891, -7.577210441009014 ], [ -36.838822117646544, -7.554299299073364 ], [ -36.828849925783402, -7.53737282159841 ], [ -36.900859383953382, -7.53400448911583 ], [ -36.854255757397254, -7.500057564904637 ], [ -36.834456106963728, -7.485638792096552 ], [ -36.737831624329942, -7.452723745504386 ], [ -36.735358990524958, -7.422178293793195 ], [ -36.713933435079923, -7.396408822209311 ], [ -36.691271454813773, -7.386754480434888 ], [ -36.684860464039161, -7.389228053132114 ], [ -36.673427604999915, -7.381877680010859 ] ] } }
]
}
