{
"type": "FeatureCollection",
"features": [
{ "type": "Feature", "properties": { "Name": "SUMÃ", "Description": "SUMÃ \/ PB" }, "geometry": { "type": "LineString", "coordinates": [ [ -36.984225594235738, -7.482261692123359 ], [ -36.960755505662007, -7.485353891368958 ], [ -36.950255053827618, -7.500942552656624 ], [ -36.91589596582611, -7.507179616346149 ], [ -36.883866133615129, -7.493115073002173 ], [ -36.854255757397254, -7.500057564904637 ], [ -36.900859383953382, -7.53400448911583 ], [ -36.828849925783402, -7.53737282159841 ], [ -36.838822117646544, -7.554299299073364 ], [ -36.824627996384891, -7.577210441009014 ], [ -36.839062369732517, -7.596307488899469 ], [ -36.818527749256191, -7.612619400265089 ], [ -36.810323273800002, -7.646141703276953 ], [ -36.7834984199161, -7.648663331247689 ], [ -36.796888176747927, -7.673596994505657 ], [ -36.764137764546149, -7.72878546657597 ], [ -36.725997404156821, -7.775814473359219 ], [ -36.760708434646517, -7.807181843367346 ], [ -36.760651236865037, -7.818134509400067 ], [ -36.79467868097629, -7.830020004419623 ], [ -36.808691156271777, -7.828383139370316 ], [ -36.833939500407553, -7.842712630183712 ], [ -36.828871926797945, -7.810769693166775 ], [ -36.961692432859422, -7.831115435329025 ], [ -37.012941031703235, -7.751029387995799 ], [ -37.025208069496784, -7.717852649480164 ], [ -37.025481350084192, -7.634099087702679 ], [ -37.080429704966889, -7.608853133065565 ], [ -37.085983641831547, -7.59602492550988 ], [ -37.071851414611046, -7.608909432424297 ], [ -37.045534238814014, -7.609100598613679 ], [ -36.999924873034445, -7.625014515907139 ], [ -36.982557528107407, -7.623798344717785 ], [ -36.998119061345562, -7.600508741984811 ], [ -37.000531981965366, -7.564304231654944 ], [ -36.978493758879836, -7.543128303728167 ], [ -37.012121590139202, -7.504383413663561 ], [ -37.02520152063363, -7.496697802061875 ], [ -37.003253267524258, -7.496388479344773 ], [ -36.984225594235738, -7.482261692123359 ] ] } }
]
}
