{
"type": "FeatureCollection",
"features": [
{ "type": "Feature", "properties": { "Name": "TAVARES", "Description": "TAVARES \/ PB" }, "geometry": { "type": "LineString", "coordinates": [ [ -37.755847747175721, -7.619521832766338 ], [ -37.740367959613593, -7.636085274615709 ], [ -37.744180272101858, -7.654495194597529 ], [ -37.760974531249587, -7.666810504401212 ], [ -37.785827636835904, -7.625798225607582 ], [ -37.801063537252389, -7.626051902773042 ], [ -37.809841156044456, -7.643754959223941 ], [ -37.837871551131116, -7.644503116925249 ], [ -37.857158855097055, -7.651968882058213 ], [ -37.880596708371343, -7.683650056105137 ], [ -37.903326078435725, -7.698099673860838 ], [ -37.934029021222329, -7.6728430388751 ], [ -37.956570297181429, -7.638662628177713 ], [ -37.956535916099597, -7.584842572626598 ], [ -37.931734399223096, -7.569659365287406 ], [ -37.934639368611954, -7.557223379055642 ], [ -37.968928981287434, -7.554183787451791 ], [ -37.982441828327694, -7.539712570678545 ], [ -37.979935384510327, -7.525768092223643 ], [ -37.954120166212647, -7.501336159835886 ], [ -37.921299857802126, -7.475843451913704 ], [ -37.898112133867812, -7.537388436527066 ], [ -37.89765772982031, -7.561886255046602 ], [ -37.866852942409309, -7.561934902973348 ], [ -37.863918917723822, -7.581095812621583 ], [ -37.847406529487728, -7.579655666175995 ], [ -37.798018850089818, -7.614939502755816 ], [ -37.755847747175721, -7.619521832766338 ] ] } }
]
}
