{
"type": "FeatureCollection",
"features": [
{ "type": "Feature", "properties": { "Name": "TRIUNFO", "Description": "TRIUNFO \/ PB" }, "geometry": { "type": "LineString", "coordinates": [ [ -38.503605679158738, -6.516801683450865 ], [ -38.536451878151638, -6.522902513340284 ], [ -38.532277734230036, -6.549329657337751 ], [ -38.545541806309245, -6.590744793737201 ], [ -38.527956650978638, -6.618915605370829 ], [ -38.526589520489949, -6.636512092159251 ], [ -38.509103697077926, -6.660662069998465 ], [ -38.497015230468492, -6.662517758987348 ], [ -38.52458664665636, -6.673912064989736 ], [ -38.52247592342507, -6.704382426907443 ], [ -38.546223936685294, -6.699235397295694 ], [ -38.557535608481487, -6.70655041536935 ], [ -38.579370621656835, -6.704235485779008 ], [ -38.612654158262728, -6.657752616589959 ], [ -38.649129317763766, -6.627585849607215 ], [ -38.629160360961862, -6.604582449820157 ], [ -38.642968137069829, -6.582131465794475 ], [ -38.626605919427618, -6.552954205771925 ], [ -38.607084545315438, -6.529514828146773 ], [ -38.592096400028822, -6.519264488565227 ], [ -38.536355790986931, -6.51126158355521 ], [ -38.537080799239448, -6.49205703790193 ], [ -38.513361759437601, -6.493397068220077 ], [ -38.503605679158738, -6.516801683450865 ] ] } }
]
}
