{
"type": "FeatureCollection",
"features": [
{ "type": "Feature", "properties": { "Name": "BAÃA FORMOSA", "Description": "BAÃA FORMOSA \/ RN" }, "geometry": { "type": "LineString", "coordinates": [ [ -35.112549579499444, -6.505117526852358 ], [ -35.110129174721578, -6.446116575919177 ], [ -35.127324738345969, -6.411963539685587 ], [ -35.09634345718473, -6.391257495836726 ], [ -35.093643457679377, -6.379006814912543 ], [ -35.076854792314748, -6.375116890032416 ], [ -35.0628140855016, -6.361986007548182 ], [ -35.067709594522114, -6.346407088616218 ], [ -35.037171144033039, -6.314490620445724 ], [ -35.027538799675824, -6.352932185372026 ], [ -35.018145849451344, -6.368611257303655 ], [ -35.003349076298775, -6.3658677000343 ], [ -34.992904151305481, -6.372278310395642 ], [ -34.976093490322278, -6.419558048165356 ], [ -34.972619109784027, -6.437720659980413 ], [ -34.971574119150254, -6.485239621910978 ], [ -34.992067614528764, -6.501494550433108 ], [ -35.011116685386696, -6.506123146965592 ], [ -35.028540916929728, -6.505522615676114 ], [ -35.036963216279389, -6.517125326972233 ], [ -35.057732122739253, -6.527791199204444 ], [ -35.09554183298917, -6.497677717052965 ], [ -35.112549579499444, -6.505117526852358 ] ] } }
]
}
