{
"type": "FeatureCollection",
"features": [
{ "type": "Feature", "properties": { "Name": "BARAÃNA", "Description": "BARAÃNA \/ RN" }, "geometry": { "type": "LineString", "coordinates": [ [ -37.58309543390709, -5.277932265761422 ], [ -37.788161967500741, -5.219197443107475 ], [ -37.787416025728987, -5.203933525211994 ], [ -37.776309814846059, -5.187120713949753 ], [ -37.764955921678386, -5.139617493752269 ], [ -37.733422882160255, -5.100641783691344 ], [ -37.725089352191787, -5.070624277188585 ], [ -37.710491456915179, -5.061149977889102 ], [ -37.677620364688039, -5.054085667419542 ], [ -37.66026583150289, -4.997910043713489 ], [ -37.640340213929676, -4.926411184628421 ], [ -37.558550456738146, -4.907904998516813 ], [ -37.46708132334436, -4.885924727743941 ], [ -37.474004290065864, -4.900753572519307 ], [ -37.49237176384576, -4.924544606648226 ], [ -37.49153295897883, -4.943192413499048 ], [ -37.49665041708306, -4.969333001117036 ], [ -37.498426891088116, -4.996510431511183 ], [ -37.488579198671061, -5.01689626904755 ], [ -37.58309543390709, -5.277932265761422 ] ] } }
]
}
