{
"type": "FeatureCollection",
"features": [
{ "type": "Feature", "properties": { "Name": "BODÃ", "Description": "BODÃ \/ RN" }, "geometry": { "type": "LineString", "coordinates": [ [ -36.334046269819453, -5.88979995840134 ], [ -36.338517270955265, -5.907362372575391 ], [ -36.372005200979174, -5.895604380737552 ], [ -36.373690403689118, -5.911535580302768 ], [ -36.363085643987233, -5.96892403511606 ], [ -36.37044918767981, -5.969672136160113 ], [ -36.379627595636975, -5.986590969397696 ], [ -36.392428206596435, -5.989763336009105 ], [ -36.394676778810265, -6.012961156632002 ], [ -36.410643830748143, -6.021217246878393 ], [ -36.44873003756112, -6.011490705731433 ], [ -36.444167495333602, -6.041420010325168 ], [ -36.470662830425219, -6.045249511555653 ], [ -36.521788552199894, -6.046670619353563 ], [ -36.547439140603778, -6.056274614381891 ], [ -36.540382761255387, -5.989741461798985 ], [ -36.475008333867493, -5.926573099269092 ], [ -36.435473111494844, -5.910886779701058 ], [ -36.424420591037396, -5.897390801244455 ], [ -36.414823709646441, -5.858428884085696 ], [ -36.401134206078723, -5.859617894849919 ], [ -36.388443896968226, -5.851913387592731 ], [ -36.368214657480394, -5.874658653174265 ], [ -36.35111978195232, -5.870629113942414 ], [ -36.331938082676345, -5.872854753444073 ], [ -36.334046269819453, -5.88979995840134 ] ] } }
]
}
