{
"type": "FeatureCollection",
"features": [
{ "type": "Feature", "properties": { "Name": "BREJINHO", "Description": "BREJINHO \/ RN" }, "geometry": { "type": "LineString", "coordinates": [ [ -35.349931123922204, -6.224879301138799 ], [ -35.358129602698966, -6.2498125345208 ], [ -35.401360154647364, -6.245389996051414 ], [ -35.405148170151904, -6.263526093154609 ], [ -35.420938422570089, -6.273231135108745 ], [ -35.436425156495716, -6.253426451169729 ], [ -35.40302004324036, -6.210324608393933 ], [ -35.381389844365792, -6.15845969515874 ], [ -35.352381567855048, -6.181966598379745 ], [ -35.339371924774468, -6.185445950370251 ], [ -35.34542693600423, -6.195319769891397 ], [ -35.349931123922204, -6.224879301138799 ] ] } }
]
}
