{
"type": "FeatureCollection",
"features": [
{ "type": "Feature", "properties": { "Name": "CARAÃBAS", "Description": "CARAÃBAS \/ RN" }, "geometry": { "type": "LineString", "coordinates": [ [ -37.417135361907349, -5.739516960039623 ], [ -37.442126362341696, -5.742643737318588 ], [ -37.467452556290418, -5.752280479360593 ], [ -37.447513167398711, -5.902718468682338 ], [ -37.476631666618061, -5.89958677750775 ], [ -37.493098763197338, -5.893949544535815 ], [ -37.502891659022794, -5.906132346430581 ], [ -37.534056566457309, -5.923094005383973 ], [ -37.554605197471851, -5.958944607307728 ], [ -37.574792160729594, -5.968451283999514 ], [ -37.593096984138462, -5.981919849321514 ], [ -37.648576349119196, -5.94131206220186 ], [ -37.733789871205545, -5.911870510315737 ], [ -37.720868921963131, -5.740455556378777 ], [ -37.707721002722053, -5.721264382745004 ], [ -37.691587522246323, -5.65321207377815 ], [ -37.681612182755998, -5.650651566316696 ], [ -37.674755523948249, -5.632633132013382 ], [ -37.578945625640074, -5.571625767515115 ], [ -37.493236223672739, -5.566844688231753 ], [ -37.442120191193851, -5.586933393361391 ], [ -37.449748339714063, -5.666957678853748 ], [ -37.434989408234571, -5.666682858626984 ], [ -37.426946623687684, -5.706378288027508 ], [ -37.41369352783402, -5.706459448244914 ], [ -37.417135361907349, -5.739516960039623 ] ] } }
]
}
