{
"type": "FeatureCollection",
"features": [
{ "type": "Feature", "properties": { "Name": "CERRO CORÃ", "Description": "CERRO CORÃ \/ RN" }, "geometry": { "type": "LineString", "coordinates": [ [ -36.224179366284652, -5.899953398730304 ], [ -36.252893502433153, -5.982007034996627 ], [ -36.281357126130445, -6.044041999038996 ], [ -36.30221686141897, -6.115371668667535 ], [ -36.295700304625313, -6.122166195113778 ], [ -36.320984044278191, -6.112460619861679 ], [ -36.343371488503351, -6.09794981493195 ], [ -36.411699792211607, -6.104200317190816 ], [ -36.426756019774473, -6.092566840986876 ], [ -36.444167495333602, -6.041420010325168 ], [ -36.44873003756112, -6.011490705731433 ], [ -36.410643830748143, -6.021217246878393 ], [ -36.394676778810265, -6.012961156632002 ], [ -36.392428206596435, -5.989763336009105 ], [ -36.379627595636975, -5.986590969397696 ], [ -36.37044918767981, -5.969672136160113 ], [ -36.363085643987233, -5.96892403511606 ], [ -36.373690403689118, -5.911535580302768 ], [ -36.372005200979174, -5.895604380737552 ], [ -36.338517270955265, -5.907362372575391 ], [ -36.334046269819453, -5.88979995840134 ], [ -36.320670847281747, -5.865573530993628 ], [ -36.284752029982144, -5.859291489510611 ], [ -36.263620042930597, -5.833219027336212 ], [ -36.258099513181946, -5.847261428472109 ], [ -36.257956243985404, -5.864840110482646 ], [ -36.224179366284652, -5.899953398730304 ] ] } }
]
}
