{
"type": "FeatureCollection",
"features": [
{ "type": "Feature", "properties": { "Name": "EQUADOR", "Description": "EQUADOR \/ RN" }, "geometry": { "type": "LineString", "coordinates": [ [ -36.560156202746491, -6.840773423154928 ], [ -36.574079431120822, -6.85745775097439 ], [ -36.567939737928498, -6.874796560412904 ], [ -36.603608120118615, -6.93045695262623 ], [ -36.637446249744585, -6.933807058548894 ], [ -36.648330659032638, -6.92960998641172 ], [ -36.687218136607669, -6.925962690525694 ], [ -36.694671175434337, -6.934490267212027 ], [ -36.709271519564929, -6.974688590306129 ], [ -36.718553881056721, -6.982734812961212 ], [ -36.737375534952946, -6.972808634910507 ], [ -36.754551934024505, -6.956002506510401 ], [ -36.766543915069576, -6.935867631086239 ], [ -36.757408039649249, -6.899364052109263 ], [ -36.744988922900404, -6.879513974889959 ], [ -36.730198010629636, -6.836396082812938 ], [ -36.726020817106978, -6.816602452441202 ], [ -36.710919109029582, -6.816095636804164 ], [ -36.702446396384055, -6.830575221769038 ], [ -36.692700736549682, -6.833148897103854 ], [ -36.676199209425924, -6.817241239991176 ], [ -36.660219915017024, -6.82673292138719 ], [ -36.654223555772425, -6.818330723683914 ], [ -36.634278937323074, -6.817669911736971 ], [ -36.625452928709649, -6.80543501121673 ], [ -36.611478780721086, -6.799770854341432 ], [ -36.601295574631024, -6.805709322427219 ], [ -36.574882088637416, -6.806232557886176 ], [ -36.567942919729944, -6.83546426556336 ], [ -36.560156202746491, -6.840773423154928 ] ] } }
]
}
