{
"type": "FeatureCollection",
"features": [
{ "type": "Feature", "properties": { "Name": "ESPÃRITO SANTO", "Description": "ESPÃRITO SANTO \/ RN" }, "geometry": { "type": "LineString", "coordinates": [ [ -35.272214640892912, -6.370207467600494 ], [ -35.271211683672213, -6.372204051575693 ], [ -35.309618800966859, -6.403112192673517 ], [ -35.338892824444258, -6.381105929694854 ], [ -35.345824644092033, -6.33462255238885 ], [ -35.342209008838665, -6.315256326618111 ], [ -35.333132988696434, -6.313792906617323 ], [ -35.323235352429549, -6.271131242412878 ], [ -35.324577964701291, -6.206387051820911 ], [ -35.31895571803193, -6.190958641627958 ], [ -35.285676355179589, -6.205322250921085 ], [ -35.266691164965266, -6.324288458945205 ], [ -35.272214640892912, -6.370207467600494 ] ] } }
]
}
