{
"type": "FeatureCollection",
"features": [
{ "type": "Feature", "properties": { "Name": "FRUTUOSO GOMES", "Description": "FRUTUOSO GOMES \/ RN" }, "geometry": { "type": "LineString", "coordinates": [ [ -37.800953274074288, -6.153687993106359 ], [ -37.810701872893048, -6.168129982812387 ], [ -37.798735688900877, -6.189377784557053 ], [ -37.797790961883322, -6.21726362441666 ], [ -37.855069369355867, -6.183802665960229 ], [ -37.88949667273323, -6.166870138745878 ], [ -37.880799165549035, -6.150691403485439 ], [ -37.870462172691077, -6.14622048328863 ], [ -37.879943337415057, -6.125608952790913 ], [ -37.85868934293876, -6.123642422359864 ], [ -37.863958056219303, -6.103980363702759 ], [ -37.837552423105819, -6.120111612061179 ], [ -37.814509586248391, -6.143830735499988 ], [ -37.800953274074288, -6.153687993106359 ] ] } }
]
}
