{
"type": "FeatureCollection",
"features": [
{ "type": "Feature", "properties": { "Name": "IELMO MARINHO", "Description": "IELMO MARINHO \/ RN" }, "geometry": { "type": "LineString", "coordinates": [ [ -35.446864189130963, -5.73335838378233 ], [ -35.471585113262329, -5.834824817211484 ], [ -35.489027818678835, -5.831212320592101 ], [ -35.529010211851755, -5.881808562914784 ], [ -35.594525870572397, -5.867485056190333 ], [ -35.635440607997623, -5.803540954651282 ], [ -35.638769822669133, -5.7900498046547 ], [ -35.656277577847902, -5.717982877108057 ], [ -35.632136294654231, -5.714432387844397 ], [ -35.631816283494629, -5.714385644681727 ], [ -35.557694460830646, -5.721130120258805 ], [ -35.551899897762041, -5.703347146453609 ], [ -35.547355213372327, -5.709590045843868 ], [ -35.499916099548329, -5.716999886635392 ], [ -35.480699633381334, -5.714905147954141 ], [ -35.458206886638436, -5.717837963051522 ], [ -35.446864189130963, -5.73335838378233 ] ] } }
]
}
