{
"type": "FeatureCollection",
"features": [
{ "type": "Feature", "properties": { "Name": "JARDIM DE PIRANHAS", "Description": "JARDIM DE PIRANHAS \/ RN" }, "geometry": { "type": "LineString", "coordinates": [ [ -37.140719624511007, -6.180951805181621 ], [ -37.150663209839188, -6.184986462455242 ], [ -37.163002954222918, -6.201345161949632 ], [ -37.193047298294118, -6.21227168469045 ], [ -37.221419671380659, -6.234107873279696 ], [ -37.216619833138736, -6.245462458025997 ], [ -37.219532068150386, -6.368087103636866 ], [ -37.260899315650875, -6.40432339061192 ], [ -37.318479154289491, -6.454669148362483 ], [ -37.38124660174924, -6.437096507997409 ], [ -37.395774089102872, -6.420122333179108 ], [ -37.396123934372042, -6.401144108213998 ], [ -37.388548900711157, -6.37973393926984 ], [ -37.377540958748227, -6.369332095399841 ], [ -37.377328835657181, -6.34439261262895 ], [ -37.363353265840487, -6.322165603859502 ], [ -37.330424406561065, -6.306327606433854 ], [ -37.321450168090728, -6.282812181237148 ], [ -37.315094526990777, -6.278152176781475 ], [ -37.286849211022229, -6.282265623659555 ], [ -37.273138609359307, -6.279972249020034 ], [ -37.270552477514798, -6.251714376717075 ], [ -37.251527378985315, -6.226458278626637 ], [ -37.234271500529296, -6.213278337225461 ], [ -37.201581323119512, -6.205703988847972 ], [ -37.194238498907566, -6.198247099124274 ], [ -37.193523798684339, -6.18425308601104 ], [ -37.174221022781914, -6.180103617687735 ], [ -37.156922969719233, -6.152488230047709 ], [ -37.145620741703851, -6.150600702360464 ], [ -37.128192424540707, -6.158078361027492 ], [ -37.140719624511007, -6.180951805181621 ] ] } }
]
}
