{
"type": "FeatureCollection",
"features": [
{ "type": "Feature", "properties": { "Name": "JOSÃ DA PENHA", "Description": "JOSÃ DA PENHA \/ RN" }, "geometry": { "type": "LineString", "coordinates": [ [ -38.247640854241979, -6.289723817400215 ], [ -38.247482497119506, -6.333778776968927 ], [ -38.237011756187542, -6.338455061851562 ], [ -38.22532658155643, -6.357030206179046 ], [ -38.238065054758408, -6.370248959621733 ], [ -38.238451831586701, -6.38558878209659 ], [ -38.252677817627159, -6.418375524211 ], [ -38.258245257812348, -6.405459304503268 ], [ -38.286699293837266, -6.391757139380444 ], [ -38.275258319315924, -6.378354594189147 ], [ -38.309514596821145, -6.377667350267926 ], [ -38.316642872470538, -6.383826539862866 ], [ -38.336580316128618, -6.374200899052198 ], [ -38.331296983468974, -6.328736100190838 ], [ -38.333359584876916, -6.311550202479793 ], [ -38.317314975405736, -6.289930997817237 ], [ -38.297573556074724, -6.278066795146458 ], [ -38.271684779528918, -6.284135756659794 ], [ -38.26104253428548, -6.280578320133316 ], [ -38.247640854241979, -6.289723817400215 ] ] } }
]
}
