{
"type": "FeatureCollection",
"features": [
{ "type": "Feature", "properties": { "Name": "LUCRÃCIA", "Description": "LUCRÃCIA \/ RN" }, "geometry": { "type": "LineString", "coordinates": [ [ -37.800953274074288, -6.153687993106359 ], [ -37.814509586248391, -6.143830735499988 ], [ -37.837552423105819, -6.120111612061179 ], [ -37.863958056219303, -6.103980363702759 ], [ -37.832378769964237, -6.082211282524611 ], [ -37.845822469931022, -6.056906290093139 ], [ -37.813103633825619, -6.080691052350119 ], [ -37.789041243658403, -6.09089402733747 ], [ -37.81015009115373, -6.113982824947357 ], [ -37.807896189557482, -6.135686367132109 ], [ -37.800953274074288, -6.153687993106359 ] ] } }
]
}
