{
"type": "FeatureCollection",
"features": [
{ "type": "Feature", "properties": { "Name": "MAJOR SALES", "Description": "MAJOR SALES \/ RN" }, "geometry": { "type": "LineString", "coordinates": [ [ -38.286699293837266, -6.391757139380444 ], [ -38.306836655886904, -6.426080334539733 ], [ -38.347580016704342, -6.448013555481168 ], [ -38.340585447760191, -6.424613146379556 ], [ -38.339182472093341, -6.384123315238752 ], [ -38.336580316128618, -6.374200899052198 ], [ -38.316642872470538, -6.383826539862866 ], [ -38.309514596821145, -6.377667350267926 ], [ -38.275258319315924, -6.378354594189147 ], [ -38.286699293837266, -6.391757139380444 ] ] } }
]
}
