{
"type": "FeatureCollection",
"features": [
{ "type": "Feature", "properties": { "Name": "NATAL", "Description": "NATAL \/ RN" }, "geometry": { "type": "LineString", "coordinates": [ [ -35.204246044419392, -5.743007050834706 ], [ -35.194422479913499, -5.755290488665081 ], [ -35.1922969124725, -5.781127088344419 ], [ -35.183052006844605, -5.801715475688582 ], [ -35.179066431870297, -5.868232044772981 ], [ -35.170224612276002, -5.882450705835367 ], [ -35.154650426475932, -5.883849407024456 ], [ -35.15511908477788, -5.897924222424876 ], [ -35.176195270695132, -5.899817655060701 ], [ -35.217935392404399, -5.868573712506758 ], [ -35.223998788013603, -5.878102377622553 ], [ -35.242863248739866, -5.864911001341568 ], [ -35.254034998616248, -5.865809335032735 ], [ -35.282414131906592, -5.849817166828757 ], [ -35.28196982274909, -5.829472521839364 ], [ -35.279664329745003, -5.81891556919811 ], [ -35.261238345173467, -5.810028744830674 ], [ -35.252282192069458, -5.798196681231786 ], [ -35.251520608389342, -5.776595098784753 ], [ -35.286574281477833, -5.763499900499937 ], [ -35.291341791790217, -5.732497630061516 ], [ -35.276500257580778, -5.721654315294359 ], [ -35.265535726792336, -5.704048909929213 ], [ -35.237554657721262, -5.714391258249918 ], [ -35.226065105420219, -5.727250394390125 ], [ -35.204246044419392, -5.743007050834706 ] ] } }
]
}
