{
"type": "FeatureCollection",
"features": [
{ "type": "Feature", "properties": { "Name": "OURO BRANCO", "Description": "OURO BRANCO \/ RN" }, "geometry": { "type": "LineString", "coordinates": [ [ -36.816688195903453, -6.679581014352266 ], [ -36.842645820048517, -6.674623805544115 ], [ -36.850763990265875, -6.689611102770129 ], [ -36.841354044653372, -6.698691865037517 ], [ -36.841268407610862, -6.717816029286269 ], [ -36.835029624417587, -6.731070935475259 ], [ -36.903428434974273, -6.753614785294076 ], [ -36.937314750275441, -6.772609788011266 ], [ -36.95713546732793, -6.790478196511515 ], [ -36.958144386154451, -6.775679733532854 ], [ -36.969231392914423, -6.770496257995887 ], [ -36.973332350007922, -6.758199485018167 ], [ -36.971797956410512, -6.740645351801504 ], [ -36.977621761834826, -6.721855206552505 ], [ -36.993533672740732, -6.707537442898627 ], [ -37.003591179689124, -6.709612318253846 ], [ -36.979821769758814, -6.641564853934824 ], [ -36.980620091643857, -6.617136397426748 ], [ -36.936899597138677, -6.577684928016993 ], [ -36.930974862599783, -6.577592635092002 ], [ -36.909994008416732, -6.607647333057912 ], [ -36.893080616077555, -6.614076902926683 ], [ -36.870539391379793, -6.630562518345471 ], [ -36.86990119468436, -6.64868917526519 ], [ -36.844593052827065, -6.653799722978761 ], [ -36.816688195903453, -6.679581014352266 ] ] } }
]
}
