{
"type": "FeatureCollection",
"features": [
{ "type": "Feature", "properties": { "Name": "PASSAGEM", "Description": "PASSAGEM \/ RN" }, "geometry": { "type": "LineString", "coordinates": [ [ -35.388480361979077, -6.322845197248 ], [ -35.425354856441402, -6.31936242603507 ], [ -35.425550702702708, -6.280577189685515 ], [ -35.420938422570089, -6.273231135108745 ], [ -35.405148170151904, -6.263526093154609 ], [ -35.401360154647364, -6.245389996051414 ], [ -35.358129602698966, -6.2498125345208 ], [ -35.388480361979077, -6.322845197248 ] ] } }
]
}
