{
"type": "FeatureCollection",
"features": [
{ "type": "Feature", "properties": { "Name": "PAU DOS FERROS", "Description": "PAU DOS FERROS \/ RN" }, "geometry": { "type": "LineString", "coordinates": [ [ -38.189437012907774, -6.046281044734371 ], [ -38.177707891106252, -6.056314091022443 ], [ -38.147667799029648, -6.096063892534573 ], [ -38.103518231680987, -6.113837477417576 ], [ -38.06543578493347, -6.118391895169793 ], [ -38.043781943781653, -6.125989317452991 ], [ -38.041660291988812, -6.169102575323564 ], [ -38.054914264681543, -6.161025573371489 ], [ -38.057303574500338, -6.195733205323108 ], [ -38.081411907433562, -6.191366244056894 ], [ -38.12915045053284, -6.175831300174309 ], [ -38.169640094614635, -6.194056868129906 ], [ -38.161726864603054, -6.184761921525421 ], [ -38.173474483660463, -6.16998348824734 ], [ -38.207191829839019, -6.155570262457615 ], [ -38.236267585180883, -6.163865704338718 ], [ -38.249116004100244, -6.163794067042488 ], [ -38.249573365118636, -6.135930756998789 ], [ -38.266965675225663, -6.112150671216455 ], [ -38.261959141301304, -6.102318983134523 ], [ -38.261334108881954, -6.074867750546218 ], [ -38.274900409825982, -6.065798793679335 ], [ -38.25256908599448, -6.043103051064918 ], [ -38.252171902211501, -6.010157596595775 ], [ -38.21545516772175, -6.024108462935145 ], [ -38.189437012907774, -6.046281044734371 ] ] } }
]
}
