{
"type": "FeatureCollection",
"features": [
{ "type": "Feature", "properties": { "Name": "PEDRA GRANDE", "Description": "PEDRA GRANDE \/ RN" }, "geometry": { "type": "LineString", "coordinates": [ [ -35.790788374983492, -5.076977600735631 ], [ -35.831864594675267, -5.210024351942252 ], [ -35.952154445571182, -5.237380947972325 ], [ -35.908251017270572, -5.05945212621458 ], [ -35.883758931929087, -5.067396614861821 ], [ -35.852492295882712, -5.068742326197366 ], [ -35.831164467066458, -5.074593700338937 ], [ -35.80276620069958, -5.073196945282745 ], [ -35.790788374983492, -5.076977600735631 ] ] } }
]
}
