{
"type": "FeatureCollection",
"features": [
{ "type": "Feature", "properties": { "Name": "PEDRO AVELINO", "Description": "PEDRO AVELINO \/ RN" }, "geometry": { "type": "LineString", "coordinates": [ [ -36.262237561913935, -5.679883568971491 ], [ -36.269118746133188, -5.680223313055421 ], [ -36.306954040296652, -5.650260943088028 ], [ -36.31788896270541, -5.647423815856371 ], [ -36.469907264108883, -5.598372419951147 ], [ -36.43986853990117, -5.369881392512184 ], [ -36.410328964609953, -5.334149988531124 ], [ -36.38126852562192, -5.314866352000479 ], [ -36.380341151023231, -5.271267849631499 ], [ -36.36818510485864, -5.250781732291046 ], [ -36.275840007510283, -5.289477499586894 ], [ -36.223231634632214, -5.433874222017663 ], [ -36.179728452306165, -5.477532630026814 ], [ -36.262237561913935, -5.679883568971491 ] ] } }
]
}
