{
"type": "FeatureCollection",
"features": [
{ "type": "Feature", "properties": { "Name": "PEDRA PRETA", "Description": "PEDRA PRETA \/ RN" }, "geometry": { "type": "LineString", "coordinates": [ [ -36.062534840410535, -5.655286794449978 ], [ -36.143164950601943, -5.591525952260838 ], [ -36.143694396778926, -5.566936436167565 ], [ -36.171978847645676, -5.54467945299433 ], [ -36.140900632158377, -5.500239493657659 ], [ -36.128546853854175, -5.456816633380868 ], [ -36.063302297562927, -5.405398727269414 ], [ -36.027670721926256, -5.445245080895744 ], [ -35.992408198379621, -5.463787551953884 ], [ -36.062534840410535, -5.655286794449978 ] ] } }
]
}
