{
"type": "FeatureCollection",
"features": [
{ "type": "Feature", "properties": { "Name": "PEDRO VELHO", "Description": "PEDRO VELHO \/ RN" }, "geometry": { "type": "LineString", "coordinates": [ [ -35.145807087027379, -6.55275959697775 ], [ -35.168853511280474, -6.558261260748566 ], [ -35.199474582485948, -6.54994409394476 ], [ -35.207309888940188, -6.543718484920077 ], [ -35.218234535695217, -6.518604809764099 ], [ -35.22442937441604, -6.52163278842238 ], [ -35.275373221796713, -6.480937066492402 ], [ -35.279173977996663, -6.448540156203193 ], [ -35.314360850572761, -6.449605496696279 ], [ -35.312704329940857, -6.436360991166737 ], [ -35.30328580029942, -6.420793654603415 ], [ -35.309618800966859, -6.403112192673517 ], [ -35.271211683672213, -6.372204051575693 ], [ -35.256707107447028, -6.389903800320099 ], [ -35.231646894288701, -6.403072887803489 ], [ -35.230628385091848, -6.418451931511355 ], [ -35.22219653584142, -6.421277525837127 ], [ -35.185106155524636, -6.415465897233331 ], [ -35.172397427399289, -6.446778361831889 ], [ -35.146171806183872, -6.53284601323287 ], [ -35.145807087027379, -6.55275959697775 ] ] } }
]
}
