{
"type": "FeatureCollection",
"features": [
{ "type": "Feature", "properties": { "Name": "PILÃES", "Description": "PILÃES \/ RN" }, "geometry": { "type": "LineString", "coordinates": [ [ -38.099841505481038, -6.330295405908203 ], [ -38.097542162940442, -6.314509287673445 ], [ -38.06354324622378, -6.253613250251249 ], [ -37.963330422760748, -6.256454700523989 ], [ -37.966122446293809, -6.272442101421802 ], [ -37.983906414749185, -6.31063214485755 ], [ -38.031082540726629, -6.321177054677264 ], [ -38.043462855326482, -6.312487196227096 ], [ -38.056457623620418, -6.311196175363136 ], [ -38.08939253533719, -6.317055761214362 ], [ -38.099841505481038, -6.330295405908203 ] ] } }
]
}
