{
"type": "FeatureCollection",
"features": [
{ "type": "Feature", "properties": { "Name": "RIACHO DE SANTANA", "Description": "RIACHO DE SANTANA \/ RN" }, "geometry": { "type": "LineString", "coordinates": [ [ -38.271969094797839, -6.222620478452257 ], [ -38.261461029303007, -6.228451925415982 ], [ -38.249127981271272, -6.249257938802771 ], [ -38.251174296856277, -6.265383504345208 ], [ -38.258506568423343, -6.275612383404734 ], [ -38.247640854241979, -6.289723817400215 ], [ -38.26104253428548, -6.280578320133316 ], [ -38.271684779528918, -6.284135756659794 ], [ -38.297573556074724, -6.278066795146458 ], [ -38.317314975405736, -6.289930997817237 ], [ -38.333359584876916, -6.311550202479793 ], [ -38.331296983468974, -6.328736100190838 ], [ -38.394564644642571, -6.345094747524513 ], [ -38.396474763299636, -6.318659730861838 ], [ -38.408664271438909, -6.293457541732096 ], [ -38.379264337479128, -6.262704103811301 ], [ -38.361116684087676, -6.228823194334893 ], [ -38.357883761626283, -6.217644534967292 ], [ -38.317166452369861, -6.236416066947867 ], [ -38.301578204770294, -6.241307579381214 ], [ -38.279583725608404, -6.237462573838684 ], [ -38.271969094797839, -6.222620478452257 ] ] } }
]
}
