{
"type": "FeatureCollection",
"features": [
{ "type": "Feature", "properties": { "Name": "RIACHUELO", "Description": "RIACHUELO \/ RN" }, "geometry": { "type": "LineString", "coordinates": [ [ -35.77709994340762, -5.716385973433887 ], [ -35.779578619757444, -5.815181413191624 ], [ -35.796818054109849, -5.853288952822879 ], [ -35.832728622827631, -5.908802596362705 ], [ -35.849818074544487, -5.915366262343071 ], [ -35.851097349363158, -5.91333373516369 ], [ -35.925522239060058, -5.800254040491552 ], [ -35.938617916683484, -5.793503422544858 ], [ -35.924023027840406, -5.763962972213335 ], [ -35.938079362172793, -5.74307322474948 ], [ -35.939639432313925, -5.733011927158657 ], [ -35.77709994340762, -5.716385973433887 ] ] } }
]
}
