{
"type": "FeatureCollection",
"features": [
{ "type": "Feature", "properties": { "Name": "SANTANA DO MATOS", "Description": "SANTANA DO MATOS \/ RN" }, "geometry": { "type": "LineString", "coordinates": [ [ -36.567927570101233, -5.757593082254914 ], [ -36.550387374577603, -5.769374918717459 ], [ -36.525185865335395, -5.765304293957968 ], [ -36.509170678983587, -5.755942423404064 ], [ -36.389219574823471, -5.795377152833282 ], [ -36.356358110738199, -5.849041465591142 ], [ -36.284752029982144, -5.859291489510611 ], [ -36.320670847281747, -5.865573530993628 ], [ -36.334046269819453, -5.88979995840134 ], [ -36.331938082676345, -5.872854753444073 ], [ -36.35111978195232, -5.870629113942414 ], [ -36.368214657480394, -5.874658653174265 ], [ -36.388443896968226, -5.851913387592731 ], [ -36.401134206078723, -5.859617894849919 ], [ -36.414823709646441, -5.858428884085696 ], [ -36.424420591037396, -5.897390801244455 ], [ -36.435473111494844, -5.910886779701058 ], [ -36.475008333867493, -5.926573099269092 ], [ -36.540382761255387, -5.989741461798985 ], [ -36.547439140603778, -6.056274614381891 ], [ -36.638715387405171, -6.089008200268154 ], [ -36.653270336456842, -6.111835021768798 ], [ -36.668746515039572, -6.112338616933584 ], [ -36.719888257337168, -6.095256218599559 ], [ -36.726741283783156, -6.082846373861003 ], [ -36.719881511522487, -6.071947877592436 ], [ -36.736201826153319, -6.062531585464228 ], [ -36.775949332595587, -6.06180907912568 ], [ -36.78501757450141, -6.041222270091623 ], [ -36.812508606586903, -6.053235606438021 ], [ -36.836108069831539, -6.05239786996566 ], [ -36.834908107123397, -6.04150853688941 ], [ -36.85539217400958, -6.044280466870021 ], [ -36.847879450775963, -6.034653117347431 ], [ -36.854648262007629, -6.025270387917999 ], [ -36.848957289147506, -6.010331540767936 ], [ -36.858711836082307, -5.984561494517322 ], [ -36.873109288662697, -5.976421995978285 ], [ -36.893728257453056, -5.974956222451681 ], [ -36.876047126473679, -5.963871223877844 ], [ -36.818067028370592, -5.913138939310556 ], [ -36.773560730543238, -5.861043980395323 ], [ -36.772288060345659, -5.836848092165667 ], [ -36.777403476089489, -5.825333222150448 ], [ -36.775772917086385, -5.801858446310177 ], [ -36.768656072719516, -5.793026325904179 ], [ -36.789742876032847, -5.755168473146455 ], [ -36.776051937147145, -5.763622192110404 ], [ -36.754880604756067, -5.758555596963163 ], [ -36.744686825336657, -5.739596248767838 ], [ -36.720748414807474, -5.714134513496958 ], [ -36.702679694012602, -5.70143326503313 ], [ -36.67471399345601, -5.70608345608656 ], [ -36.66144636365874, -5.724638587800541 ], [ -36.657581354495846, -5.742526142867177 ], [ -36.630097946862691, -5.758670574387452 ], [ -36.567927570101233, -5.757593082254914 ] ] } }
]
}
