{
"type": "FeatureCollection",
"features": [
{ "type": "Feature", "properties": { "Name": "SÃO VICENTE", "Description": "SÃO VICENTE \/ RN" }, "geometry": { "type": "LineString", "coordinates": [ [ -36.604592883154965, -6.290368358812657 ], [ -36.615470443206327, -6.293305673218185 ], [ -36.626221931796685, -6.285531475696985 ], [ -36.632046044789092, -6.268632895191899 ], [ -36.65474374522762, -6.272215774438394 ], [ -36.662532870595442, -6.278518879842409 ], [ -36.681594158743394, -6.269805303571843 ], [ -36.71002397062972, -6.278094978100739 ], [ -36.716394914593593, -6.30099690018676 ], [ -36.738560014033396, -6.301807400690961 ], [ -36.743295307932044, -6.307521174962233 ], [ -36.734241331971873, -6.291367584746183 ], [ -36.734933742498185, -6.279690139788101 ], [ -36.721424328170144, -6.261985451967007 ], [ -36.703703546081726, -6.220763588868465 ], [ -36.713516748599034, -6.20524181016134 ], [ -36.70720804311668, -6.188377539691657 ], [ -36.705675111816902, -6.16828818345283 ], [ -36.699960505672777, -6.163754720803695 ], [ -36.700589891710081, -6.145332712134916 ], [ -36.682821266588121, -6.127743699611983 ], [ -36.653270336456842, -6.111835021768798 ], [ -36.638715387405171, -6.089008200268154 ], [ -36.634445730086327, -6.102803527061099 ], [ -36.62389546210585, -6.11534769094311 ], [ -36.622307170339582, -6.131764598157645 ], [ -36.6279434922983, -6.155341972254177 ], [ -36.615661500577744, -6.174646972179971 ], [ -36.618866414553338, -6.19236894856806 ], [ -36.599182357579707, -6.216071295154108 ], [ -36.598566743760159, -6.241584036374149 ], [ -36.591645953397972, -6.247734503444518 ], [ -36.60678572348229, -6.278321497539025 ], [ -36.604592883154965, -6.290368358812657 ] ] } }
]
}
