{
"type": "FeatureCollection",
"features": [
{ "type": "Feature", "properties": { "Name": "TABOLEIRO GRANDE", "Description": "TABOLEIRO GRANDE \/ RN" }, "geometry": { "type": "LineString", "coordinates": [ [ -38.026287403241035, -5.991049007705499 ], [ -38.043459608773901, -6.008219215844065 ], [ -38.067462607713132, -6.004648427083168 ], [ -38.086729435914719, -6.014967701498165 ], [ -38.114531170277246, -5.959145995191477 ], [ -38.121540664370116, -5.945833348929852 ], [ -38.102050785415372, -5.923333809607584 ], [ -38.080397147510318, -5.910523665834489 ], [ -38.06037385906631, -5.903776693739359 ], [ -38.039516095091699, -5.884476476408224 ], [ -38.004292355707605, -5.856859766764785 ], [ -37.951003869632814, -5.863504637029337 ], [ -37.956900878972363, -5.870443474986359 ], [ -37.987349040225979, -5.885529967434024 ], [ -38.009335654816596, -5.915579082408669 ], [ -38.029983668111754, -5.923090200352419 ], [ -38.035799162001695, -5.936820335290179 ], [ -38.0449009513178, -5.935661279144654 ], [ -38.026287403241035, -5.991049007705499 ] ] } }
]
}
