{
"type": "FeatureCollection",
"features": [
{ "type": "Feature", "properties": { "Name": "TANGARÃ", "Description": "TANGARÃ \/ RN" }, "geometry": { "type": "LineString", "coordinates": [ [ -35.717455533845794, -6.171192324566106 ], [ -35.740645367589593, -6.182675287534437 ], [ -35.763366379354856, -6.201566380783788 ], [ -35.772037431182468, -6.221123867172707 ], [ -35.79051909997645, -6.229805771119402 ], [ -35.782718258241005, -6.247782411229251 ], [ -35.784473822109135, -6.26607972799701 ], [ -35.793605472514507, -6.275589721388484 ], [ -35.795927920437123, -6.300152660716662 ], [ -35.804069815669436, -6.318969763144025 ], [ -35.82777603203823, -6.338616574695095 ], [ -35.838316905700594, -6.354939200583601 ], [ -35.849914933327454, -6.362247306467963 ], [ -35.870545850510553, -6.362782194442673 ], [ -35.918206589662361, -6.162789566585161 ], [ -35.822169463250077, -6.073394361560474 ], [ -35.811657983029477, -6.118556168932002 ], [ -35.731805486034318, -6.141638102016771 ], [ -35.717455533845794, -6.171192324566106 ] ] } }
]
}
