{
"type": "FeatureCollection",
"features": [
{ "type": "Feature", "properties": { "Name": "UMARIZAL", "Description": "UMARIZAL \/ RN" }, "geometry": { "type": "LineString", "coordinates": [ [ -37.772240208119058, -6.001842226637393 ], [ -37.779471191742061, -6.014474784883362 ], [ -37.78297403852099, -6.040700049967313 ], [ -37.777356817263239, -6.067777169081068 ], [ -37.789041243658403, -6.09089402733747 ], [ -37.813103633825619, -6.080691052350119 ], [ -37.845822469931022, -6.056906290093139 ], [ -37.861548629465631, -6.030892834236852 ], [ -37.897152096791785, -6.007916827799306 ], [ -37.926690434615807, -6.007458825564298 ], [ -37.933926876224291, -6.004270000460109 ], [ -37.921194238723103, -5.959802419346146 ], [ -37.896079922350509, -5.941020907588779 ], [ -37.781378791398083, -5.925357470370898 ], [ -37.733908955833613, -5.912026938392444 ], [ -37.773607785570789, -5.96173950957069 ], [ -37.766305771693965, -5.993727340744158 ], [ -37.772240208119058, -6.001842226637393 ] ] } }
]
}
