{
"type": "FeatureCollection",
"features": [
{ "type": "Feature", "properties": { "Name": "VILA FLOR", "Description": "VILA FLOR \/ RN" }, "geometry": { "type": "LineString", "coordinates": [ [ -35.044288921896168, -6.28384533139689 ], [ -35.046911010434712, -6.296427486239452 ], [ -35.063409548212064, -6.29787344860074 ], [ -35.055495699466917, -6.326975206040856 ], [ -35.084468981558189, -6.339934204699716 ], [ -35.117438709628686, -6.33380404881774 ], [ -35.118907337603503, -6.302099352103369 ], [ -35.116763824191082, -6.281752991207553 ], [ -35.103898845155527, -6.270310990559722 ], [ -35.075605896594823, -6.265927573498686 ], [ -35.059741004943362, -6.279905957294034 ], [ -35.044288921896168, -6.28384533139689 ] ] } }
]
}
