{
"type": "FeatureCollection",
"features": [
{ "type": "Feature", "properties": { "Name": "AIUABA", "Description": "AIUABA \/ CE" }, "geometry": { "type": "LineString", "coordinates": [ [ -40.085105756325561, -6.368598576862779 ], [ -40.0765211005683, -6.40025434686055 ], [ -40.030034665567314, -6.436178604159181 ], [ -40.044659927213843, -6.444433724037083 ], [ -40.060131116357866, -6.500326662045779 ], [ -40.034647319817907, -6.540333907084118 ], [ -40.026679851693757, -6.582776874153353 ], [ -40.045206191612408, -6.591212771252344 ], [ -40.057817527656709, -6.622034893095815 ], [ -40.036932937804806, -6.637587289221983 ], [ -40.057164950801791, -6.672648752238103 ], [ -40.014081235660456, -6.677729921798402 ], [ -40.005216043585506, -6.686816890287218 ], [ -39.99622464694982, -6.700902031703379 ], [ -40.082986005699581, -6.792184886723077 ], [ -40.118918698638993, -6.819942542614228 ], [ -40.145322238130746, -6.818846011833955 ], [ -40.150243227642818, -6.784745131782358 ], [ -40.169521809983507, -6.788982841584811 ], [ -40.184586033418668, -6.759976745930032 ], [ -40.203452734356176, -6.7745568247376 ], [ -40.242409407568061, -6.777059975237648 ], [ -40.266182099124535, -6.796914202828134 ], [ -40.300510498660515, -6.806693187940198 ], [ -40.318420014272192, -6.800631592773755 ], [ -40.370510961311766, -6.803157766817435 ], [ -40.388790286242681, -6.79699867884591 ], [ -40.432166581422564, -6.812977597338204 ], [ -40.452029532436939, -6.783775453074668 ], [ -40.45815591026701, -6.757683220204399 ], [ -40.476926288417417, -6.732831674941792 ], [ -40.51738765961278, -6.730494884631185 ], [ -40.602207070000247, -6.716011771625915 ], [ -40.63241885524593, -6.698903760600047 ], [ -40.651305198276241, -6.678185368160143 ], [ -40.710182760425994, -6.676129548539791 ], [ -40.732240143567708, -6.653585433420972 ], [ -40.722002577057253, -6.617682814710065 ], [ -40.73637743866783, -6.60030745592428 ], [ -40.688907017644681, -6.599795488970585 ], [ -40.671315755917362, -6.614287364070549 ], [ -40.61410143233519, -6.606145597441298 ], [ -40.597914079770931, -6.594425711677218 ], [ -40.576853985423043, -6.547755716952736 ], [ -40.542174077771449, -6.548998198707864 ], [ -40.528347668609968, -6.538629097354885 ], [ -40.459821539232621, -6.528306610561572 ], [ -40.439961478639304, -6.488543109676698 ], [ -40.391519532600284, -6.474726463555385 ], [ -40.369500258230289, -6.45084190173236 ], [ -40.372546957176269, -6.435740392405137 ], [ -40.352836690360895, -6.411293775886974 ], [ -40.328173984741568, -6.401444223671944 ], [ -40.284035084251684, -6.380487513587809 ], [ -40.241838520631177, -6.392456109561749 ], [ -40.216496921295857, -6.376026615435933 ], [ -40.142427860057637, -6.351268426096965 ], [ -40.115228354904616, -6.348780370717463 ], [ -40.085105756325561, -6.368598576862779 ] ] } }
]
}
