{
"type": "FeatureCollection",
"features": [
{ "type": "Feature", "properties": { "Name": "AMONTADA", "Description": "AMONTADA \/ CE" }, "geometry": { "type": "LineString", "coordinates": [ [ -39.55081186477571, -3.079752674246492 ], [ -39.566957599413627, -3.131293440339959 ], [ -39.609350592955479, -3.15419337942086 ], [ -39.619490144154781, -3.148596152790162 ], [ -39.667439661910805, -3.162824960903151 ], [ -39.691241341314822, -3.223889176943942 ], [ -39.705013470994849, -3.245264230959435 ], [ -39.72807955262919, -3.245108748070208 ], [ -39.702782369011061, -3.320012980014951 ], [ -39.738778146694074, -3.356804539897553 ], [ -39.742393116449136, -3.408114510276391 ], [ -39.78452211400429, -3.464839994769875 ], [ -39.901340211281706, -3.444443947230354 ], [ -39.939676336094003, -3.434557541697131 ], [ -39.984926346273824, -3.441414436127275 ], [ -40.027466099281014, -3.438146446401333 ], [ -39.997674001553889, -3.410104600247053 ], [ -39.988835787341657, -3.366555646925519 ], [ -39.94192524825155, -3.337354515298614 ], [ -39.935396208867928, -3.31613524184786 ], [ -39.908915264727625, -3.274144971013527 ], [ -39.890650194950467, -3.225975132846031 ], [ -39.904171564865806, -3.206145527793808 ], [ -39.869694866225075, -3.171628902851523 ], [ -39.866999164579738, -3.12226408961601 ], [ -39.710355098608886, -3.016818924153995 ], [ -39.713751269605382, -2.999806187305637 ], [ -39.689582602055395, -2.994815371731988 ], [ -39.654318898598262, -3.02394347571078 ], [ -39.619421808269806, -3.026319873063641 ], [ -39.596656707241209, -3.065611238867518 ], [ -39.55081186477571, -3.079752674246492 ] ] } }
]
}
