{
"type": "FeatureCollection",
"features": [
{ "type": "Feature", "properties": { "Name": "APUIARÃS", "Description": "APUIARÃS \/ CE" }, "geometry": { "type": "LineString", "coordinates": [ [ -39.203717836708734, -4.046951556269278 ], [ -39.22763136479562, -4.07256182266991 ], [ -39.270860924791805, -4.085083464830007 ], [ -39.324850783137094, -4.089531029633235 ], [ -39.444543314222528, -3.970024892035099 ], [ -39.460024495733876, -4.004057527033183 ], [ -39.484967764650548, -3.999912647950282 ], [ -39.484095915094372, -3.973926169057392 ], [ -39.457375729706143, -3.928669851932056 ], [ -39.434944877903767, -3.862851583034058 ], [ -39.395080411032097, -3.882636550236555 ], [ -39.363304856733691, -3.859917026849246 ], [ -39.34958918289442, -3.836784377397066 ], [ -39.309192054769483, -3.935585490078267 ], [ -39.295475467218978, -3.919830250965276 ], [ -39.270691381901713, -3.916255453026679 ], [ -39.218100264315694, -3.86643188932021 ], [ -39.215247125554349, -3.902087463365717 ], [ -39.18505981895543, -3.938104225829306 ], [ -39.193995070915719, -3.96885511057485 ], [ -39.193501317931407, -4.033047415106068 ], [ -39.203717836708734, -4.046951556269278 ] ] } }
]
}
