{
"type": "FeatureCollection",
"features": [
{ "type": "Feature", "properties": { "Name": "ARACOIABA", "Description": "ARACOIABA \/ CE" }, "geometry": { "type": "LineString", "coordinates": [ [ -38.693985000407395, -4.380224988392456 ], [ -38.668191519622894, -4.415387276201784 ], [ -38.624825893999734, -4.405826675260812 ], [ -38.610436359050709, -4.379503956042697 ], [ -38.580830411094553, -4.38571046976233 ], [ -38.534632262768696, -4.370576558761115 ], [ -38.540913747571317, -4.389012116615844 ], [ -38.574995803013849, -4.418820151228942 ], [ -38.615022287248735, -4.430119687573495 ], [ -38.637660543399306, -4.462775291446519 ], [ -38.637248814880877, -4.485108920240407 ], [ -38.619029598836846, -4.520283585419065 ], [ -38.62060461571042, -4.535934730703218 ], [ -38.650899924591783, -4.555849033905758 ], [ -38.610778176071904, -4.657031979442252 ], [ -38.573326556974962, -4.671034671912537 ], [ -38.635977222970439, -4.701661390860465 ], [ -38.667697899738236, -4.660254691001114 ], [ -38.687363335349623, -4.653727427778506 ], [ -38.707736148904125, -4.611504112025102 ], [ -38.723553531170467, -4.620929126677822 ], [ -38.763826250680893, -4.62244700242718 ], [ -38.747606920023316, -4.528569839826218 ], [ -38.77658164102985, -4.518100859766832 ], [ -38.828445709801599, -4.515760829198882 ], [ -38.833179787816896, -4.503842000807651 ], [ -38.843387908724992, -4.45521675315058 ], [ -38.842894080197595, -4.364445328189277 ], [ -38.823404894620118, -4.313921564928251 ], [ -38.787576596782458, -4.321240111941563 ], [ -38.764952070581558, -4.30561018166452 ], [ -38.74553976984447, -4.352113820696218 ], [ -38.714033024704293, -4.378495355576149 ], [ -38.693985000407395, -4.380224988392456 ] ] } }
]
}
