{
"type": "FeatureCollection",
"features": [
{ "type": "Feature", "properties": { "Name": "ARARIPE", "Description": "ARARIPE \/ CE" }, "geometry": { "type": "LineString", "coordinates": [ [ -39.897729533990741, -7.097281565391881 ], [ -39.888819901017598, -7.143607900384268 ], [ -39.890090176320541, -7.339823314494311 ], [ -39.926344967746047, -7.340998906474283 ], [ -40.000707028106831, -7.374478339703557 ], [ -40.045163712135547, -7.380744981195903 ], [ -40.127754321005057, -7.381914991083931 ], [ -40.195684671110655, -7.358148691908581 ], [ -40.247533437018433, -7.313718634107658 ], [ -40.266818103272783, -7.253426875449918 ], [ -40.249566744809385, -7.225364058904177 ], [ -40.267276469733247, -7.185983397615644 ], [ -40.263186273028055, -7.145818843165046 ], [ -40.231859046058105, -7.11173354027062 ], [ -40.183053861146732, -7.085718583445839 ], [ -40.165106174710161, -7.044330558008824 ], [ -40.137721592677337, -7.112962884729312 ], [ -40.050465787565997, -7.147611135345584 ], [ -39.996698384622732, -7.150613212629593 ], [ -39.975485035905649, -7.140657135718186 ], [ -39.917901252840515, -7.092059836292377 ], [ -39.897729533990741, -7.097281565391881 ] ] } }
]
}
