{
"type": "FeatureCollection",
"features": [
{ "type": "Feature", "properties": { "Name": "BAIXIO", "Description": "BAIXIO \/ CE" }, "geometry": { "type": "LineString", "coordinates": [ [ -38.673060855673896, -6.706996653572673 ], [ -38.655975399644944, -6.730243744453219 ], [ -38.654786092104416, -6.75773818856652 ], [ -38.720329142375988, -6.768603905445842 ], [ -38.749708198574467, -6.755962908861136 ], [ -38.752703978805521, -6.753612537888272 ], [ -38.779408274971843, -6.721124500195458 ], [ -38.801494336594317, -6.724472865030633 ], [ -38.804720017714601, -6.723660545197959 ], [ -38.84769831072839, -6.710133986194477 ], [ -38.859579130172669, -6.688875400679137 ], [ -38.844171649901682, -6.666874200883625 ], [ -38.801413042377987, -6.659160320892056 ], [ -38.740520286581891, -6.677446725286075 ], [ -38.673060855673896, -6.706996653572673 ] ] } }
]
}
