{
"type": "FeatureCollection",
"features": [
{ "type": "Feature", "properties": { "Name": "BANABUIÃ", "Description": "BANABUIÃ \/ CE" }, "geometry": { "type": "LineString", "coordinates": [ [ -38.618411975032586, -5.118914379894647 ], [ -38.613106588298365, -5.15054828737351 ], [ -38.677864537618291, -5.228194010844902 ], [ -38.70619724970328, -5.219653593638384 ], [ -38.718905812353341, -5.200880281000138 ], [ -38.764520003895029, -5.200775041434952 ], [ -38.811470545729037, -5.224075355093532 ], [ -38.846758707148574, -5.284438447076639 ], [ -38.878695278764042, -5.31041732489956 ], [ -38.915753941790911, -5.320347676703875 ], [ -38.923970794616423, -5.338568332562431 ], [ -38.920354207880337, -5.419495344034828 ], [ -38.911416073592868, -5.455792572669054 ], [ -38.953099050580704, -5.507256033938745 ], [ -38.97850585166367, -5.521751371428593 ], [ -39.009645930615136, -5.511481755778334 ], [ -39.031048201713077, -5.486191943903066 ], [ -39.06029118329144, -5.511085029750291 ], [ -39.071324441169963, -5.486290890911845 ], [ -39.05547627870726, -5.429689375264388 ], [ -39.06101938143928, -5.412808846850737 ], [ -39.085951126443263, -5.403669560301921 ], [ -39.053527562047293, -5.29726349981064 ], [ -39.034440374323765, -5.270474804968216 ], [ -39.047339762320121, -5.227614200834637 ], [ -39.059694958855232, -5.219157416981147 ], [ -39.086935226679316, -5.170808833161061 ], [ -39.085432440654586, -5.158037220841038 ], [ -39.059226431854313, -5.150182506117743 ], [ -39.034026866946306, -5.162830060558804 ], [ -39.000358398920923, -5.164257227089308 ], [ -38.972387109077772, -5.143398138413318 ], [ -38.954691129392074, -5.154082469230502 ], [ -38.901654711595597, -5.164865906236514 ], [ -38.812106432066116, -5.065550705100918 ], [ -38.793385413206238, -5.078450631791156 ], [ -38.76237554079853, -5.079605192225813 ], [ -38.745278007773777, -5.094923645909489 ], [ -38.697295474106795, -5.094928250438385 ], [ -38.650920094586638, -5.121721301596722 ], [ -38.618411975032586, -5.118914379894647 ] ] } }
]
}
