{
"type": "FeatureCollection",
"features": [
{ "type": "Feature", "properties": { "Name": "BOA VIAGEM", "Description": "BOA VIAGEM \/ CE" }, "geometry": { "type": "LineString", "coordinates": [ [ -39.629717680526483, -5.043277730183036 ], [ -39.618127161339373, -5.081705944673558 ], [ -39.534141110423889, -5.119045323882517 ], [ -39.62375798484311, -5.255358993722552 ], [ -39.631668917086806, -5.336488849081093 ], [ -39.65598156429769, -5.338666595187192 ], [ -39.66810383012762, -5.362781128046549 ], [ -39.702884868341982, -5.360671169239026 ], [ -39.726962630620847, -5.379658766039199 ], [ -39.755501494298471, -5.367266087559869 ], [ -39.782524446346088, -5.379410587328721 ], [ -39.799786888054371, -5.400040999992086 ], [ -39.842415578615999, -5.368008686551605 ], [ -39.875900144276216, -5.374024801203575 ], [ -39.897572473690673, -5.397407547620162 ], [ -39.934458561313534, -5.376229845331068 ], [ -39.939712053568371, -5.334767438766221 ], [ -39.989444774956382, -5.34927837499697 ], [ -40.02089762912226, -5.327966507348378 ], [ -40.029534324149715, -5.296672108331109 ], [ -40.054614466284534, -5.292188969944959 ], [ -40.04216948143636, -5.237095084070802 ], [ -40.0274303233507, -5.210588664834972 ], [ -40.036341739679472, -5.182545089284417 ], [ -40.060534816628426, -5.185585642263504 ], [ -40.07511902782084, -5.165433373950975 ], [ -40.091691059095062, -5.17281477188419 ], [ -40.138917380732494, -5.163463843381635 ], [ -40.165614760212975, -5.165403397748547 ], [ -40.165371154555089, -5.165119615777598 ], [ -40.002164986524861, -5.085047052879133 ], [ -39.960308720970652, -5.028963966713661 ], [ -39.968351999245328, -4.947831509616435 ], [ -39.929389910316047, -4.913639639757548 ], [ -39.895374264410748, -4.895159056445266 ], [ -39.924498806174931, -4.864673065209729 ], [ -39.949365151580423, -4.826579888650883 ], [ -39.931338153932643, -4.801561228667707 ], [ -39.928583383915957, -4.774540175988307 ], [ -39.913789308729577, -4.789136776241207 ], [ -39.88472679320688, -4.78991690663986 ], [ -39.860087195667518, -4.737651929992523 ], [ -39.824025924856521, -4.730902547714379 ], [ -39.806029251448763, -4.708105375062985 ], [ -39.740987363675849, -4.720684157447863 ], [ -39.729302636007787, -4.696837235849728 ], [ -39.729170961770414, -4.696882857557795 ], [ -39.721841431336934, -4.783553177936767 ], [ -39.673915555858173, -4.791810541623135 ], [ -39.652247875938656, -4.862869859756188 ], [ -39.620841798210392, -4.905780460799576 ], [ -39.603837646290287, -4.964816541050482 ], [ -39.616749917974289, -4.986101920067483 ], [ -39.601977951721032, -5.002553007815038 ], [ -39.607027449856901, -5.023681082815699 ], [ -39.629717680526483, -5.043277730183036 ] ] } }
]
}
