{
"type": "FeatureCollection",
"features": [
{ "type": "Feature", "properties": { "Name": "CARIÃS", "Description": "CARIÃS \/ CE" }, "geometry": { "type": "LineString", "coordinates": [ [ -39.401482189151693, -6.463902836746456 ], [ -39.348429176165496, -6.485543857163236 ], [ -39.359115889286841, -6.509094561864515 ], [ -39.340873968059149, -6.53523698230083 ], [ -39.281675990954163, -6.526040762371224 ], [ -39.294628368804126, -6.56272454749984 ], [ -39.313186592387297, -6.584819697670866 ], [ -39.279807590947541, -6.629483071086838 ], [ -39.290806131397801, -6.674817872047129 ], [ -39.313578965696649, -6.686643554056729 ], [ -39.336694466876111, -6.725071809916074 ], [ -39.300835096562423, -6.753814003113689 ], [ -39.328217047178953, -6.770593987322627 ], [ -39.382382590783891, -6.769838570293757 ], [ -39.397880578825607, -6.755914319390286 ], [ -39.417149459280097, -6.783172505306823 ], [ -39.445164683703126, -6.789589812919473 ], [ -39.47850248450203, -6.755834860690243 ], [ -39.501925841604248, -6.755023098437221 ], [ -39.512355597732608, -6.778028986648393 ], [ -39.544613387397874, -6.769250675378316 ], [ -39.567563007726562, -6.788907966729255 ], [ -39.578932755042558, -6.832388647118306 ], [ -39.600429304768568, -6.822980156608878 ], [ -39.616845941287124, -6.790367728288003 ], [ -39.600194598801636, -6.756740370971271 ], [ -39.646135700202365, -6.737136255633629 ], [ -39.647947221686877, -6.685505167029759 ], [ -39.670082680371365, -6.640217816998586 ], [ -39.702744429311906, -6.643767355678847 ], [ -39.739494307416294, -6.632434104650144 ], [ -39.692751162735931, -6.618463392971137 ], [ -39.678110366200372, -6.623117878287417 ], [ -39.581601561562763, -6.575358259575977 ], [ -39.539196907411281, -6.560000552283611 ], [ -39.512107570108242, -6.524986182266446 ], [ -39.49180547114554, -6.511904550254768 ], [ -39.461309269906849, -6.50782804213037 ], [ -39.431112053678305, -6.479692280674158 ], [ -39.401482189151693, -6.463902836746456 ] ] } }
]
}
