{
"type": "FeatureCollection",
"features": [
{ "type": "Feature", "properties": { "Name": "CARIRÃ", "Description": "CARIRÃ \/ CE" }, "geometry": { "type": "LineString", "coordinates": [ [ -40.361083225310551, -4.03218188688453 ], [ -40.374902972294308, -4.091568257569008 ], [ -40.431716944681227, -4.091692287568947 ], [ -40.472694905345577, -4.086504999805868 ], [ -40.512133241955496, -4.047975402942427 ], [ -40.567573024175658, -4.048209260848637 ], [ -40.655120821168907, -4.008891347057954 ], [ -40.647223275333829, -3.977274463745459 ], [ -40.665689214085944, -3.939155616938137 ], [ -40.713650342089579, -3.918476420550348 ], [ -40.71232964090018, -3.88698735518227 ], [ -40.670204657918582, -3.846168585311943 ], [ -40.628912546077117, -3.819041515153742 ], [ -40.614442950781495, -3.842770008628974 ], [ -40.578746614964246, -3.861860174007802 ], [ -40.533410547758535, -3.852628472226173 ], [ -40.485167559635101, -3.85130448671265 ], [ -40.41626457564962, -3.80664004490211 ], [ -40.406016585097291, -3.917721603369273 ], [ -40.392909200998758, -3.97487136462172 ], [ -40.368832312860889, -4.00674716275131 ], [ -40.361083225310551, -4.03218188688453 ] ] } }
]
}
