{
"type": "FeatureCollection",
"features": [
{ "type": "Feature", "properties": { "Name": "CATARINA", "Description": "CATARINA \/ CE" }, "geometry": { "type": "LineString", "coordinates": [ [ -39.793268839285474, -6.207726586612637 ], [ -39.797494606091163, -6.24261520982401 ], [ -39.817173541425745, -6.263444032715881 ], [ -39.821504006404723, -6.28840353529489 ], [ -39.854619614403646, -6.358588492065223 ], [ -39.895008702589507, -6.368293508838291 ], [ -39.925056163710963, -6.340731317895973 ], [ -39.956070539024097, -6.331404809584228 ], [ -39.974766872393218, -6.338827160844744 ], [ -40.031415481039573, -6.332269342256267 ], [ -40.061478896134133, -6.366871293075689 ], [ -40.085105756325561, -6.368598576862779 ], [ -40.063928195230005, -6.326231568332161 ], [ -40.048794631367116, -6.279299809738403 ], [ -40.028863099852117, -6.279882589309977 ], [ -40.016294331418237, -6.223656135022566 ], [ -39.98693112307285, -6.220781405337561 ], [ -39.939869602200361, -6.194035136012644 ], [ -39.926078549885119, -6.195830877093272 ], [ -39.895623102324294, -6.159890530023915 ], [ -39.891661353988241, -6.114335602905726 ], [ -39.867906090393717, -6.125481698721387 ], [ -39.847315323443354, -6.119476545006477 ], [ -39.81977979829901, -6.129520430823163 ], [ -39.796199588640036, -6.158885998090284 ], [ -39.800680579445157, -6.195553562147154 ], [ -39.793268839285474, -6.207726586612637 ] ] } }
]
}
