{
"type": "FeatureCollection",
"features": [
{ "type": "Feature", "properties": { "Name": "CATUNDA", "Description": "CATUNDA \/ CE" }, "geometry": { "type": "LineString", "coordinates": [ [ -40.05944983044526, -4.717887567157447 ], [ -40.113267822052308, -4.752945566884364 ], [ -40.12914184721842, -4.804534301017156 ], [ -40.145655921683385, -4.808119335039237 ], [ -40.18153428837666, -4.787857642616075 ], [ -40.221621943597768, -4.789072329924068 ], [ -40.273069117245939, -4.769625318953274 ], [ -40.304616753660184, -4.733145847203048 ], [ -40.314588307004726, -4.689602473275499 ], [ -40.337531859607566, -4.658689505516236 ], [ -40.319270788216272, -4.62246170004738 ], [ -40.294608176126353, -4.601022209607265 ], [ -40.272525030106003, -4.611470634761929 ], [ -40.239470530140807, -4.596132402288503 ], [ -40.242336159586046, -4.527820113707207 ], [ -40.268339162622226, -4.50914246015634 ], [ -40.254476552151118, -4.472982604763331 ], [ -40.208588623166406, -4.465815895687001 ], [ -40.181200487912122, -4.50864623943238 ], [ -40.111939557564483, -4.511178302236828 ], [ -40.099333290099189, -4.485935282986873 ], [ -40.073913287867924, -4.475011152442676 ], [ -40.058107186697271, -4.454916718631637 ], [ -40.039912719995982, -4.455408794380332 ], [ -40.003521455550697, -4.488539805067887 ], [ -40.008547563219452, -4.524638526346848 ], [ -40.03169167273245, -4.567446850191914 ], [ -40.057691845602164, -4.568430353278131 ], [ -40.074359205912572, -4.588549635357367 ], [ -40.114276346076451, -4.597300216032124 ], [ -40.102983596915408, -4.662077759780743 ], [ -40.05944983044526, -4.717887567157447 ] ] } }
]
}
