{
"type": "FeatureCollection",
"features": [
{ "type": "Feature", "properties": { "Name": "CAUCAIA", "Description": "CAUCAIA \/ CE" }, "geometry": { "type": "LineString", "coordinates": [ [ -38.587583160434463, -3.696406020121685 ], [ -38.621487131226104, -3.702617145564773 ], [ -38.606092701916623, -3.727018982140294 ], [ -38.610967999573461, -3.755817999900728 ], [ -38.636572580460154, -3.800592574487666 ], [ -38.643717141033164, -3.835319890800292 ], [ -38.684967560304642, -3.846359595019237 ], [ -38.689500872767042, -3.857509182003128 ], [ -38.716670559998306, -3.881258621588074 ], [ -38.743471799483927, -3.935237181750494 ], [ -38.755283781221465, -3.928604366897957 ], [ -38.784861166709447, -3.965058678315302 ], [ -38.811391132894414, -3.961213833751401 ], [ -38.849287038665857, -3.992386164190066 ], [ -38.8726340882925, -3.969206894782303 ], [ -38.943325749183941, -3.945286339393022 ], [ -38.998132455448392, -3.848853906082865 ], [ -38.977471569257489, -3.814408494856082 ], [ -38.981322388917079, -3.783832665844784 ], [ -38.957720286162207, -3.769148685663253 ], [ -38.961258496981998, -3.711542546351381 ], [ -38.919963057648943, -3.666489884300688 ], [ -38.882848428012494, -3.686294875807846 ], [ -38.832089292386911, -3.570788895690952 ], [ -38.805998324862742, -3.5479356629005 ], [ -38.762863057883749, -3.605914350866555 ], [ -38.695899999685189, -3.642454999898291 ], [ -38.675196544984537, -3.665773552707265 ], [ -38.639164041687138, -3.687128942146899 ], [ -38.587583160434463, -3.696406020121685 ] ] } }
]
}
