{
"type": "FeatureCollection",
"features": [
{ "type": "Feature", "properties": { "Name": "CRATO", "Description": "CRATO \/ CE" }, "geometry": { "type": "LineString", "coordinates": [ [ -39.453821689919039, -7.008181616788136 ], [ -39.422715665595433, -7.055530426987559 ], [ -39.354134412273254, -7.055827561192928 ], [ -39.357690809183453, -7.071982412258478 ], [ -39.340831515561945, -7.109335192265291 ], [ -39.342943890847835, -7.140562384946065 ], [ -39.36713802360088, -7.164395603574177 ], [ -39.365590066428354, -7.212935341892488 ], [ -39.347298400101067, -7.277583163831877 ], [ -39.439821171110111, -7.3496329970651 ], [ -39.440924804735914, -7.573024804650969 ], [ -39.47345593434386, -7.57286449959696 ], [ -39.484698021996053, -7.532828494239595 ], [ -39.455677481430598, -7.501860922343667 ], [ -39.460747611812792, -7.471218998557901 ], [ -39.502360546002365, -7.464148442296732 ], [ -39.536443944132657, -7.482530327712425 ], [ -39.5528279127779, -7.480656840240954 ], [ -39.571590503698758, -7.429831283386988 ], [ -39.599201883959722, -7.428652571658802 ], [ -39.599102211198044, -7.209935712563038 ], [ -39.599113457220255, -7.080475318281287 ], [ -39.578926163911319, -7.076857828625862 ], [ -39.580398205712584, -7.043967892004559 ], [ -39.578006633199493, -7.019360179028979 ], [ -39.516973266602918, -7.003338450109311 ], [ -39.502987474192537, -7.011547834065254 ], [ -39.453821689919039, -7.008181616788136 ] ] } }
]
}
