{
"type": "FeatureCollection",
"features": [
{ "type": "Feature", "properties": { "Name": "FORQUILHA", "Description": "FORQUILHA \/ CE" }, "geometry": { "type": "LineString", "coordinates": [ [ -40.188920587614973, -3.9577456558373 ], [ -40.305486605822182, -3.93407943501785 ], [ -40.320836341523886, -3.864443133943439 ], [ -40.355266733173153, -3.874481148985808 ], [ -40.371071838794307, -3.861820859245199 ], [ -40.346539993525823, -3.780025121562062 ], [ -40.317514796270814, -3.790120338882502 ], [ -40.29065128502873, -3.766677424223701 ], [ -40.270638335190995, -3.763048636385406 ], [ -40.2423731082323, -3.774815327365445 ], [ -40.22034894874497, -3.749183872937351 ], [ -40.24200556070803, -3.732718557915063 ], [ -40.239447559657094, -3.699752044920899 ], [ -40.126576130883677, -3.706929893899428 ], [ -40.120778949888575, -3.809679191341559 ], [ -40.1269349702726, -3.848308389920192 ], [ -40.147939473927515, -3.911670615706327 ], [ -40.188920587614973, -3.9577456558373 ] ] } }
]
}
