{
"type": "FeatureCollection",
"features": [
{ "type": "Feature", "properties": { "Name": "FRECHEIRINHA", "Description": "FRECHEIRINHA \/ CE" }, "geometry": { "type": "LineString", "coordinates": [ [ -40.779707935872516, -3.786553550306052 ], [ -40.844133072183467, -3.789504198060229 ], [ -40.894045854932244, -3.781712093238468 ], [ -40.875385821798204, -3.723243407856955 ], [ -40.890762168439267, -3.667908796853453 ], [ -40.861098592825783, -3.648558663551455 ], [ -40.81921446177796, -3.635946193462019 ], [ -40.75904753441614, -3.708986235126588 ], [ -40.779538688859354, -3.734348061114076 ], [ -40.779707935872516, -3.786553550306052 ] ] } }
]
}
