{
"type": "FeatureCollection",
"features": [
{ "type": "Feature", "properties": { "Name": "HORIZONTE", "Description": "HORIZONTE \/ CE" }, "geometry": { "type": "LineString", "coordinates": [ [ -38.372584685035122, -4.078982689799261 ], [ -38.381001254804005, -4.145120387096141 ], [ -38.481157057652069, -4.137807455449661 ], [ -38.50043494032019, -4.143781747129879 ], [ -38.543301602287045, -4.128523421218858 ], [ -38.570917831692555, -4.128701388957893 ], [ -38.566910127999961, -4.123187783089691 ], [ -38.536997219845773, -4.078207528154849 ], [ -38.535851100447871, -4.0413507260551 ], [ -38.506578479013569, -4.059867829037046 ], [ -38.444601838703875, -4.071293116683933 ], [ -38.383830470699593, -4.071562538280489 ], [ -38.372584685035122, -4.078982689799261 ] ] } }
]
}
