{
"type": "FeatureCollection",
"features": [
{ "type": "Feature", "properties": { "Name": "IBIAPINA", "Description": "IBIAPINA \/ CE" }, "geometry": { "type": "LineString", "coordinates": [ [ -40.873480483937158, -3.868716107062653 ], [ -40.85100943513725, -3.895489041286169 ], [ -40.777967124483148, -3.883820108411214 ], [ -40.801523395987878, -3.919616251888442 ], [ -40.83105775790915, -3.921651496819095 ], [ -40.822695045839623, -3.957315766409465 ], [ -40.840116029930805, -3.962891498343936 ], [ -40.839387189667036, -3.988965809524416 ], [ -40.863967888806997, -3.97941096604319 ], [ -40.876417866691156, -3.992023732009557 ], [ -40.956047641185648, -3.986114341703455 ], [ -41.074842918665695, -3.996106023674031 ], [ -41.093594100787065, -4.006254613059923 ], [ -41.119026067598888, -3.986647145049631 ], [ -41.16440588682218, -3.998633657317384 ], [ -41.182915324882288, -4.017965154867966 ], [ -41.239517118420224, -4.01687958592413 ], [ -41.249239967850201, -3.98986969652924 ], [ -41.228934661005781, -3.968103013842949 ], [ -41.195304773896169, -3.96193216633634 ], [ -41.102296789864909, -3.929628592185736 ], [ -40.979885574959262, -3.891961121408599 ], [ -40.932275423571923, -3.907517223640923 ], [ -40.918018416316833, -3.889374868155584 ], [ -40.894762426644604, -3.887484119996088 ], [ -40.873480483937158, -3.868716107062653 ] ] } }
]
}
