{
"type": "FeatureCollection",
"features": [
{ "type": "Feature", "properties": { "Name": "IBICUITINGA", "Description": "IBICUITINGA \/ CE" }, "geometry": { "type": "LineString", "coordinates": [ [ -38.626544663005745, -5.066288082628886 ], [ -38.635657999616967, -5.053014082034224 ], [ -38.667259153786858, -5.04695648975013 ], [ -38.676718903854294, -5.028221294876801 ], [ -38.673387931008158, -5.000443629070162 ], [ -38.647350394005457, -4.979837505296587 ], [ -38.648711613250327, -4.937990005434358 ], [ -38.647480841567521, -4.93754835287416 ], [ -38.63240205361182, -4.906859958420284 ], [ -38.592166585819257, -4.873887150171811 ], [ -38.506052679587469, -4.888795321446877 ], [ -38.491886436409857, -4.879813481906638 ], [ -38.438802479550759, -4.876377345937725 ], [ -38.41562395118433, -4.92687134613567 ], [ -38.505631493798376, -4.957468499871311 ], [ -38.506265558108957, -4.982568562888843 ], [ -38.479631839837509, -5.009962592299757 ], [ -38.500957012056404, -5.085995745007551 ], [ -38.626544663005745, -5.066288082628886 ] ] } }
]
}
