{
"type": "FeatureCollection",
"features": [
{ "type": "Feature", "properties": { "Name": "ICÃ", "Description": "ICÃ \/ CE" }, "geometry": { "type": "LineString", "coordinates": [ [ -38.601472452891358, -6.176663325951665 ], [ -38.588773163150897, -6.201193135154995 ], [ -38.552166255668112, -6.233599678981931 ], [ -38.519712047772771, -6.223037492286379 ], [ -38.5544209657549, -6.263395633002006 ], [ -38.579092821976133, -6.279082625262902 ], [ -38.570550103404514, -6.298840254873824 ], [ -38.582098521729336, -6.319272771720989 ], [ -38.577075353944394, -6.347427536751354 ], [ -38.592466291186327, -6.378246145842922 ], [ -38.571968390029156, -6.40410664500564 ], [ -38.551522523645531, -6.398167182269617 ], [ -38.524517360187986, -6.407082992685901 ], [ -38.554265384839596, -6.432763068061092 ], [ -38.570410105941619, -6.470195139494024 ], [ -38.612288204337112, -6.513191322721297 ], [ -38.610520014886724, -6.532293042589799 ], [ -38.622622356236711, -6.530178300288298 ], [ -38.689713765677709, -6.564953616116441 ], [ -38.703060437788906, -6.556106039961719 ], [ -38.735579352804848, -6.570667768102965 ], [ -38.775914399829666, -6.612596767226989 ], [ -38.791242050879866, -6.600936789800983 ], [ -38.85474067684072, -6.597473388186245 ], [ -38.877119329293578, -6.581758510646694 ], [ -38.911001058052364, -6.577135817264093 ], [ -38.919706221165143, -6.565458144777494 ], [ -38.957460224709564, -6.52717492168523 ], [ -39.061873040408443, -6.445729949277676 ], [ -39.122101690940269, -6.466768531842206 ], [ -39.145819028325434, -6.442271885139348 ], [ -39.130140871903677, -6.426590316689726 ], [ -39.129941595628111, -6.401793695722461 ], [ -39.081162020710622, -6.363776983121227 ], [ -39.059878439438364, -6.38485359891439 ], [ -39.038691040658932, -6.375508808284849 ], [ -38.980777216295451, -6.38012480981206 ], [ -38.974410627748227, -6.339811049740092 ], [ -38.933703384603454, -6.335476002715324 ], [ -38.915758549917086, -6.309881270304345 ], [ -38.883936185006917, -6.328953676770709 ], [ -38.840762200415156, -6.295903569094377 ], [ -38.820463544057247, -6.272081030814888 ], [ -38.829477424643407, -6.23299022461913 ], [ -38.800976699415116, -6.121754729197334 ], [ -38.758080313955304, -6.113222569565892 ], [ -38.720664405138159, -6.11734219838371 ], [ -38.734245176173886, -6.179835189842095 ], [ -38.725132578805415, -6.201207491032847 ], [ -38.681633870606618, -6.211626583000339 ], [ -38.655051520711083, -6.184689101620676 ], [ -38.617297155639164, -6.169197398940752 ], [ -38.601472452891358, -6.176663325951665 ] ] } }
]
}
