{
"type": "FeatureCollection",
"features": [
{ "type": "Feature", "properties": { "Name": "IPAUMIRIM", "Description": "IPAUMIRIM \/ CE" }, "geometry": { "type": "LineString", "coordinates": [ [ -38.801494336594317, -6.724472865030633 ], [ -38.779408274971843, -6.721124500195458 ], [ -38.752703978805521, -6.753612537888272 ], [ -38.749708198574467, -6.755962908861136 ], [ -38.720329142375988, -6.768603905445842 ], [ -38.654786092104416, -6.75773818856652 ], [ -38.616921296580529, -6.793298924605665 ], [ -38.651870368622554, -6.811712214347153 ], [ -38.686691094818116, -6.865791696429596 ], [ -38.730288591745079, -6.896813492048977 ], [ -38.765177157399869, -6.91093678630358 ], [ -38.785682871866982, -6.89146498372196 ], [ -38.784101516571695, -6.888630526577515 ], [ -38.774943084355812, -6.868575422817457 ], [ -38.856381728234112, -6.859307106937365 ], [ -38.813648548141934, -6.84777470373956 ], [ -38.820520622228912, -6.791582339153592 ], [ -38.820099451728254, -6.784733139322896 ], [ -38.790512018115116, -6.773006498750873 ], [ -38.82925515090443, -6.744937526345723 ], [ -38.84769831072839, -6.710133986194477 ], [ -38.804720017714601, -6.723660545197959 ], [ -38.801494336594317, -6.724472865030633 ] ] } }
]
}
