{
"type": "FeatureCollection",
"features": [
{ "type": "Feature", "properties": { "Name": "ITAIÃABA", "Description": "ITAIÃABA \/ CE" }, "geometry": { "type": "LineString", "coordinates": [ [ -37.616271917015297, -4.718013833771352 ], [ -37.789296217646267, -4.756325708364727 ], [ -37.792088171032212, -4.730969349355917 ], [ -37.825262082079398, -4.74372446900901 ], [ -37.825347384574115, -4.763624141141179 ], [ -37.934904725272808, -4.763902851835098 ], [ -37.951693780043854, -4.726763365836631 ], [ -37.950384626149514, -4.659964192893142 ], [ -37.908898492771186, -4.663841361789366 ], [ -37.844338509414627, -4.682285452411633 ], [ -37.830823090313345, -4.661313765917498 ], [ -37.77975242593368, -4.709253730175476 ], [ -37.743880880598105, -4.719881729258361 ], [ -37.698783656240721, -4.71478445014219 ], [ -37.616271917015297, -4.718013833771352 ] ] } }
]
}
