{
"type": "FeatureCollection",
"features": [
{ "type": "Feature", "properties": { "Name": "JAGUARIBE", "Description": "JAGUARIBE \/ CE" }, "geometry": { "type": "LineString", "coordinates": [ [ -38.477640236307813, -5.780855438227832 ], [ -38.477346905335367, -5.78081541300088 ], [ -38.485665536235445, -5.790002035365603 ], [ -38.476571953233019, -5.824265803324124 ], [ -38.485037650267316, -5.858543963133343 ], [ -38.509665669934691, -5.873021047083625 ], [ -38.49826637359422, -5.953251577698096 ], [ -38.475576353365966, -5.951305964598532 ], [ -38.511572161625907, -6.015890610962856 ], [ -38.532463848927421, -6.024002755722563 ], [ -38.545314903759731, -6.072461879711908 ], [ -38.601472452891358, -6.176663325951665 ], [ -38.617297155639164, -6.169197398940752 ], [ -38.655051520711083, -6.184689101620676 ], [ -38.681633870606618, -6.211626583000339 ], [ -38.725132578805415, -6.201207491032847 ], [ -38.734245176173886, -6.179835189842095 ], [ -38.720664405138159, -6.11734219838371 ], [ -38.758080313955304, -6.113222569565892 ], [ -38.800976699415116, -6.121754729197334 ], [ -38.828442177264606, -6.125197973407694 ], [ -38.88104758058131, -6.147307122425729 ], [ -38.90440390761421, -6.139649632624412 ], [ -38.907078457204989, -6.086951902208455 ], [ -38.938221148687035, -6.079011757286708 ], [ -38.972223555672485, -6.103027069743405 ], [ -38.96221901519533, -6.019077151789077 ], [ -38.947943971137306, -5.971670755301091 ], [ -38.920161356361461, -5.949936964419351 ], [ -38.870102530007728, -5.859739941844794 ], [ -38.837047642434698, -5.813465034583658 ], [ -38.80439362316713, -5.787660745746791 ], [ -38.773606823995692, -5.783728684031473 ], [ -38.756110084612658, -5.768341229863835 ], [ -38.693384913382992, -5.752125578332709 ], [ -38.681188358156135, -5.746297859958247 ], [ -38.561241488903534, -5.745714890629642 ], [ -38.522742833215148, -5.760614294414097 ], [ -38.490218469206916, -5.785774177636142 ], [ -38.477640236307813, -5.780855438227832 ] ] } }
]
}
