{
"type": "FeatureCollection",
"features": [
{ "type": "Feature", "properties": { "Name": "JUCÃS", "Description": "JUCÃS \/ CE" }, "geometry": { "type": "LineString", "coordinates": [ [ -39.459727133100671, -6.325142619736083 ], [ -39.467362526559327, -6.375773636144345 ], [ -39.446698124918498, -6.39592772018807 ], [ -39.421251504553247, -6.39316254681404 ], [ -39.407390615384536, -6.407829683592979 ], [ -39.412192195613272, -6.442208389405606 ], [ -39.401482189151693, -6.463902836746456 ], [ -39.431112053678305, -6.479692280674158 ], [ -39.461309269906849, -6.50782804213037 ], [ -39.49180547114554, -6.511904550254768 ], [ -39.512107570108242, -6.524986182266446 ], [ -39.539196907411281, -6.560000552283611 ], [ -39.581601561562763, -6.575358259575977 ], [ -39.678110366200372, -6.623117878287417 ], [ -39.692751162735931, -6.618463392971137 ], [ -39.739494307416294, -6.632434104650144 ], [ -39.738476602213382, -6.611407962407498 ], [ -39.775311532800963, -6.609183414682775 ], [ -39.7299840343357, -6.542581321870443 ], [ -39.749958470706808, -6.521072433446022 ], [ -39.74022192640075, -6.482223547578599 ], [ -39.768617761000819, -6.468749541358193 ], [ -39.77631352774705, -6.411122962254865 ], [ -39.743666080725006, -6.38623077842766 ], [ -39.710040352979888, -6.350990311653504 ], [ -39.689100536660419, -6.329661487287751 ], [ -39.653582585867582, -6.337516150749707 ], [ -39.626414798903788, -6.318638509559547 ], [ -39.578360155796531, -6.314218359689505 ], [ -39.560442976162392, -6.332326546332979 ], [ -39.54161010772026, -6.31953474513233 ], [ -39.475502052078014, -6.337703142286159 ], [ -39.459727133100671, -6.325142619736083 ] ] } }
]
}
