{
"type": "FeatureCollection",
"features": [
{ "type": "Feature", "properties": { "Name": "MAURITI", "Description": "MAURITI \/ CE" }, "geometry": { "type": "LineString", "coordinates": [ [ -38.619995478808278, -7.220091365224277 ], [ -38.59277396274814, -7.247614110103029 ], [ -38.558878687501362, -7.239417132294762 ], [ -38.534839828994848, -7.290460475270664 ], [ -38.548523107455424, -7.332131674736956 ], [ -38.595627417171499, -7.415579198121463 ], [ -38.585300803389316, -7.434815051873101 ], [ -38.603328035760171, -7.457591972691318 ], [ -38.64491870003792, -7.460018825608244 ], [ -38.630903920679366, -7.487329819715341 ], [ -38.645995694845396, -7.501925989193011 ], [ -38.652991558813369, -7.552619388873666 ], [ -38.661181884336429, -7.568291768050585 ], [ -38.703658773833297, -7.580957263067204 ], [ -38.71777785026751, -7.626871195948866 ], [ -38.775060879356033, -7.603128709921974 ], [ -38.882477480151522, -7.45781240641736 ], [ -38.78484598525398, -7.224622115518173 ], [ -38.776264888114035, -7.234651783952642 ], [ -38.739257535906518, -7.238120432212155 ], [ -38.619995478808278, -7.220091365224277 ] ] } }
]
}
