{
"type": "FeatureCollection",
"features": [
{ "type": "Feature", "properties": { "Name": "MILHÃ", "Description": "MILHÃ \/ CE" }, "geometry": { "type": "LineString", "coordinates": [ [ -39.163134910447695, -5.797703475934611 ], [ -39.203440060410401, -5.790573374661449 ], [ -39.250249205436432, -5.762846671636566 ], [ -39.274359458422225, -5.761761261872664 ], [ -39.261001982755261, -5.715653202233455 ], [ -39.261419927387692, -5.678160238604107 ], [ -39.28006733943613, -5.669335480048345 ], [ -39.269757265984993, -5.633106232066893 ], [ -39.246826449580965, -5.592478560037478 ], [ -39.233126979726308, -5.578976429318686 ], [ -39.226211407230608, -5.549163639989956 ], [ -39.201625322050916, -5.541837630402256 ], [ -39.1459864596074, -5.50904106859042 ], [ -39.06029118329144, -5.511085029750291 ], [ -39.031048201713077, -5.486191943903066 ], [ -39.032404852401953, -5.501084030803327 ], [ -39.163134910447695, -5.797703475934611 ] ] } }
]
}
