{
"type": "FeatureCollection",
"features": [
{ "type": "Feature", "properties": { "Name": "MULUNGU", "Description": "MULUNGU \/ CE" }, "geometry": { "type": "LineString", "coordinates": [ [ -38.933700447417664, -4.324122279919209 ], [ -38.960250481974128, -4.358937806234735 ], [ -38.983032714188369, -4.380831618884031 ], [ -39.016495182606548, -4.376202284008173 ], [ -39.051592908985526, -4.353369431653903 ], [ -39.025910607788262, -4.319169252059282 ], [ -39.04429631532264, -4.309793213585863 ], [ -39.045642844141923, -4.300070744569155 ], [ -39.001772113392292, -4.260817805896977 ], [ -39.003211047551751, -4.23330535915494 ], [ -39.026849465830139, -4.227985610247686 ], [ -38.99863608298881, -4.227599271389238 ], [ -38.974921180068343, -4.208618558899332 ], [ -38.933700447417664, -4.324122279919209 ] ] } }
]
}
