{
"type": "FeatureCollection",
"features": [
{ "type": "Feature", "properties": { "Name": "PALHANO", "Description": "PALHANO \/ CE" }, "geometry": { "type": "LineString", "coordinates": [ [ -37.9852885792045, -4.582721703843503 ], [ -37.973469457749218, -4.615482256800647 ], [ -37.993260195901257, -4.644455764621796 ], [ -37.993237068036194, -4.660737370633115 ], [ -37.950384626149514, -4.659964192893142 ], [ -37.951693780043854, -4.726763365836631 ], [ -37.934904725272808, -4.763902851835098 ], [ -37.898923827772357, -4.820403768419112 ], [ -38.038509636810261, -4.841044679768117 ], [ -38.061049883944918, -4.811556469255606 ], [ -38.048297887637375, -4.779351117260205 ], [ -38.06194994703236, -4.752731574102825 ], [ -38.084713514716896, -4.732384908336826 ], [ -38.097985767928776, -4.702574296266732 ], [ -38.148213667726566, -4.665063868702532 ], [ -38.183603073023335, -4.622892720822335 ], [ -38.151669000623826, -4.615079049358598 ], [ -38.107493582262975, -4.617491618343479 ], [ -38.105320248230832, -4.597201278915861 ], [ -38.085133207631372, -4.590158959568271 ], [ -38.041534686376622, -4.590129763977359 ], [ -38.002271283193124, -4.598121815968966 ], [ -37.9852885792045, -4.582721703843503 ] ] } }
]
}
