{
"type": "FeatureCollection",
"features": [
{ "type": "Feature", "properties": { "Name": "PORANGA", "Description": "PORANGA \/ CE" }, "geometry": { "type": "LineString", "coordinates": [ [ -40.872675831724216, -4.713722510885134 ], [ -40.866557404800346, -4.72950529263511 ], [ -40.881405913252252, -4.750535804683579 ], [ -40.879232849916036, -4.787436258976129 ], [ -40.886272417338148, -4.797486958955971 ], [ -40.875678052000467, -4.854514528422726 ], [ -40.929253456881497, -4.886461355906818 ], [ -40.941874751118803, -4.882863457982126 ], [ -40.985890339267712, -4.911068966359665 ], [ -41.032359989322003, -4.960334137410484 ], [ -41.051824252886945, -5.024072472266709 ], [ -41.121184097867797, -5.023869105874496 ], [ -41.124332627948377, -5.006084186835722 ], [ -41.150921981763986, -4.992110482212922 ], [ -41.189009311830262, -4.940619257972344 ], [ -41.220442377313816, -4.938966132281109 ], [ -41.23407077824379, -4.908386643029132 ], [ -41.228103176620266, -4.890987781360991 ], [ -41.249573826770636, -4.869690196745125 ], [ -41.243181501425113, -4.828326055502998 ], [ -41.212765055662764, -4.772025640071206 ], [ -41.2503381111149, -4.756627443501657 ], [ -41.18113441272294, -4.673192854166814 ], [ -41.202816130160208, -4.638195081138065 ], [ -41.233436108689432, -4.610189096349643 ], [ -41.222034117980115, -4.577802367285358 ], [ -41.23981497747917, -4.573555107582081 ], [ -41.221865403365655, -4.574104614936004 ], [ -41.214793117708155, -4.584673852316371 ], [ -41.191277931731115, -4.578080205636923 ], [ -41.146777734005184, -4.599654347969761 ], [ -41.099474989778912, -4.602755034117479 ], [ -41.054651227671968, -4.627867471806326 ], [ -41.02321114118115, -4.638640373254589 ], [ -40.98704043636701, -4.660668383638949 ], [ -40.954912426966871, -4.716278462381069 ], [ -40.872675831724216, -4.713722510885134 ] ] } }
]
}
