{
"type": "FeatureCollection",
"features": [
{ "type": "Feature", "properties": { "Name": "SÃO BENEDITO", "Description": "SÃO BENEDITO \/ CE" }, "geometry": { "type": "LineString", "coordinates": [ [ -40.839387189667036, -3.988965809524416 ], [ -40.84442372857216, -4.05053076987906 ], [ -40.857768128995929, -4.074415044818409 ], [ -40.845720235300575, -4.104495946330815 ], [ -40.815415929601443, -4.123760383235037 ], [ -40.849775062569051, -4.140769625317887 ], [ -40.851075772728677, -4.154371054680382 ], [ -40.90088757060488, -4.158943242136843 ], [ -40.888894665956002, -4.144813767741141 ], [ -40.891027453154372, -4.106086796668308 ], [ -40.940892277756348, -4.057751152293804 ], [ -40.979151211958822, -4.055433406026793 ], [ -41.039522585798629, -4.065257823090008 ], [ -41.064360490144452, -4.049967683661635 ], [ -41.096909182612649, -4.062952736579462 ], [ -41.139378112210068, -4.120952703404498 ], [ -41.113166893637178, -4.04978987600191 ], [ -41.120344921580852, -4.036339013834379 ], [ -41.16881152613098, -4.033070063632465 ], [ -41.182915324882288, -4.017965154867966 ], [ -41.16440588682218, -3.998633657317384 ], [ -41.119026067598888, -3.986647145049631 ], [ -41.093594100787065, -4.006254613059923 ], [ -41.074842918665695, -3.996106023674031 ], [ -40.956047641185648, -3.986114341703455 ], [ -40.876417866691156, -3.992023732009557 ], [ -40.863967888806997, -3.97941096604319 ], [ -40.839387189667036, -3.988965809524416 ] ] } }
]
}
