{
"type": "FeatureCollection",
"features": [
{ "type": "Feature", "properties": { "Name": "SENADOR SÃ", "Description": "SENADOR SÃ \/ CE" }, "geometry": { "type": "LineString", "coordinates": [ [ -40.341511796731993, -3.288805924953408 ], [ -40.341294301990388, -3.319919884894716 ], [ -40.340631997168884, -3.358730166463943 ], [ -40.372133566710716, -3.379432255993776 ], [ -40.415869677043929, -3.369907017294963 ], [ -40.453675716261273, -3.383745294809443 ], [ -40.514492769825431, -3.393374735255804 ], [ -40.536961548736429, -3.448162202323715 ], [ -40.570121209126455, -3.439081465237393 ], [ -40.561734078664749, -3.406917453277799 ], [ -40.506175886308085, -3.368712716718449 ], [ -40.486622002603269, -3.335601406579598 ], [ -40.479622133054924, -3.301235698668506 ], [ -40.481152147853322, -3.26230336111115 ], [ -40.529085597422352, -3.239232828731986 ], [ -40.557646722018539, -3.174698797111773 ], [ -40.575120595239241, -3.166443811232853 ], [ -40.57354624206539, -3.136436705389599 ], [ -40.510217409905522, -3.108275558769947 ], [ -40.482016077080232, -3.122472155865239 ], [ -40.454452104580923, -3.148915396828045 ], [ -40.452727533149073, -3.178630446038198 ], [ -40.407176080111981, -3.237975100770257 ], [ -40.387257732658206, -3.271848883119389 ], [ -40.361207460355956, -3.273826789974351 ], [ -40.341511796731993, -3.288805924953408 ] ] } }
]
}
