{
"type": "FeatureCollection",
"features": [
{ "type": "Feature", "properties": { "Name": "SENADOR POMPEU", "Description": "SENADOR POMPEU \/ CE" }, "geometry": { "type": "LineString", "coordinates": [ [ -39.246826449580965, -5.592478560037478 ], [ -39.269757265984993, -5.633106232066893 ], [ -39.28006733943613, -5.669335480048345 ], [ -39.261419927387692, -5.678160238604107 ], [ -39.261001982755261, -5.715653202233455 ], [ -39.274359458422225, -5.761761261872664 ], [ -39.326998239177328, -5.785414930854301 ], [ -39.433926793186913, -5.728073355900619 ], [ -39.451747742664168, -5.737942116735269 ], [ -39.475473733326112, -5.701713432628764 ], [ -39.44147284709419, -5.657433827808859 ], [ -39.48251513806315, -5.634535053349963 ], [ -39.515807972759717, -5.629930412058797 ], [ -39.543603051239756, -5.613608097335771 ], [ -39.587859029070898, -5.607241897295694 ], [ -39.601514638090009, -5.625666176752588 ], [ -39.631073611757756, -5.62597556332156 ], [ -39.632313661746025, -5.606214338221093 ], [ -39.599635243871376, -5.584509503710592 ], [ -39.585124206916582, -5.536092433818737 ], [ -39.559495983752583, -5.518817532902801 ], [ -39.601949564620668, -5.498233644866787 ], [ -39.637245596007403, -5.473490455320189 ], [ -39.645269802359451, -5.446007514435223 ], [ -39.670294973434238, -5.408174944318205 ], [ -39.658040012636434, -5.374933779270464 ], [ -39.628422241293379, -5.400385047332009 ], [ -39.582387317220878, -5.408062554243428 ], [ -39.566366201638857, -5.380073677258338 ], [ -39.534439223990937, -5.374697474308959 ], [ -39.464145919598479, -5.475890558802177 ], [ -39.368389495878489, -5.526575992288144 ], [ -39.306650068845556, -5.509939851043271 ], [ -39.270898487675026, -5.536786661874885 ], [ -39.246826449580965, -5.592478560037478 ] ] } }
]
}
