{
"type": "FeatureCollection",
"features": [
{ "type": "Feature", "properties": { "Name": "TAUÃ", "Description": "TAUÃ \/ CE" }, "geometry": { "type": "LineString", "coordinates": [ [ -40.021835433158685, -5.710866578629634 ], [ -40.007293746409232, -5.715977157819508 ], [ -40.003110363752221, -5.759317111395546 ], [ -39.975158591895479, -5.82162808636707 ], [ -39.935385749752527, -5.826301828866235 ], [ -39.924221557778651, -5.839557431130515 ], [ -39.959706730980827, -5.871626166214526 ], [ -39.914514272915312, -5.901371554053924 ], [ -39.891014332245618, -5.896543559837368 ], [ -39.838014529446923, -5.928490643628265 ], [ -39.83246173921782, -5.965080842606767 ], [ -39.862796944723179, -5.995491501231754 ], [ -39.9104641500005, -6.058440278096327 ], [ -39.957034669814107, -6.099645011807808 ], [ -39.999972051768736, -6.104711752645244 ], [ -40.01768928063575, -6.095959111623642 ], [ -40.069634977272358, -6.111454525805698 ], [ -40.109267351606945, -6.11672304483261 ], [ -40.134651969113065, -6.110466731154645 ], [ -40.163639382251631, -6.131665590894272 ], [ -40.198580518675946, -6.145161167353933 ], [ -40.226145556871927, -6.13184080131191 ], [ -40.255349572624652, -6.148400464209999 ], [ -40.265183928095773, -6.168335589415847 ], [ -40.405333800914143, -6.313077582264555 ], [ -40.431974861250808, -6.333092456651514 ], [ -40.468386421596051, -6.335253922330594 ], [ -40.532851022856391, -6.348357526578524 ], [ -40.609073018804736, -6.338194216190061 ], [ -40.589971574128811, -6.314614559614199 ], [ -40.588564677417871, -6.295754534344212 ], [ -40.555768864741253, -6.290238968853259 ], [ -40.500695660576241, -6.25377370998865 ], [ -40.489001716655878, -6.202760033848449 ], [ -40.533545410092586, -6.161342456688999 ], [ -40.526361374677663, -6.141314407234063 ], [ -40.478123767198042, -6.051912480676378 ], [ -40.480969560296955, -6.032626826067144 ], [ -40.465023619044757, -6.015892700087988 ], [ -40.481440797854475, -5.990020317283779 ], [ -40.520887124041508, -5.989227679114038 ], [ -40.553252997827542, -6.008809019120861 ], [ -40.611498389638939, -5.989823731779722 ], [ -40.635479932552812, -6.002389095380408 ], [ -40.687172559066312, -6.01260533536788 ], [ -40.715797674922719, -6.040540970689221 ], [ -40.733344961600665, -6.032075709826074 ], [ -40.746566118931185, -5.983316599881107 ], [ -40.714385849926991, -5.959909757928926 ], [ -40.708371970090298, -5.937799091754641 ], [ -40.687604888354883, -5.914831594702264 ], [ -40.665606509732584, -5.914897974561825 ], [ -40.683144083732429, -5.879263316948481 ], [ -40.669262607283429, -5.85601587803029 ], [ -40.645801702586482, -5.840294359896745 ], [ -40.628520485731769, -5.852913811423207 ], [ -40.591198061441332, -5.836740740093034 ], [ -40.565407477373128, -5.842022997163554 ], [ -40.52125884442011, -5.813629492706866 ], [ -40.485777217244731, -5.835103661904441 ], [ -40.453362422138014, -5.828589929881332 ], [ -40.41139598693519, -5.809732767153434 ], [ -40.368484992888057, -5.745782379353273 ], [ -40.318044097656923, -5.743040838363925 ], [ -40.287965996633368, -5.757630870867956 ], [ -40.227331033300516, -5.71046697117373 ], [ -40.211227750260434, -5.690701833123057 ], [ -40.234184836760789, -5.630025947039769 ], [ -40.227043349171197, -5.593389940193561 ], [ -40.186272615688608, -5.570859096370157 ], [ -40.167176761198505, -5.545201145216652 ], [ -40.142730000788845, -5.54212554655669 ], [ -40.124192026340893, -5.554701533848685 ], [ -40.111873566212068, -5.514288020975357 ], [ -40.101156399348326, -5.451759903796471 ], [ -40.058671986123215, -5.396855291938152 ], [ -40.053945683646361, -5.48793965039448 ], [ -40.030129185213696, -5.496202883056583 ], [ -40.013685615798465, -5.51983112370732 ], [ -40.034890953354761, -5.56514046126324 ], [ -40.076623287834416, -5.581653300959033 ], [ -40.055431619973263, -5.597543229736232 ], [ -40.054042678226949, -5.641507389254571 ], [ -40.072514396921861, -5.665593439685438 ], [ -40.047792476341669, -5.696015293970618 ], [ -40.021835433158685, -5.710866578629634 ] ] } }
]
}
