{
"type": "FeatureCollection",
"features": [
{ "type": "Feature", "properties": { "Name": "TIANGUÃ", "Description": "TIANGUÃ \/ CE" }, "geometry": { "type": "LineString", "coordinates": [ [ -40.890762168439267, -3.667908796853453 ], [ -40.875385821798204, -3.723243407856955 ], [ -40.894045854932244, -3.781712093238468 ], [ -40.923235058850821, -3.788605306789406 ], [ -40.959817967924835, -3.813195137645436 ], [ -40.969527984029185, -3.840369261232353 ], [ -41.007463610157458, -3.841042707754696 ], [ -41.036242933664425, -3.850202071668207 ], [ -41.055571545290547, -3.840534810233237 ], [ -41.132924760669141, -3.843432684870436 ], [ -41.181891452128752, -3.89274828990159 ], [ -41.21045479894979, -3.90119929381234 ], [ -41.245671518225947, -3.896426844423274 ], [ -41.266942353406819, -3.862672903931297 ], [ -41.270740049213885, -3.837828671056286 ], [ -41.287935920406369, -3.822487020259757 ], [ -41.254122852187827, -3.775041418726459 ], [ -41.261262129243846, -3.746217892641595 ], [ -41.239294841084018, -3.712775385575525 ], [ -41.220406441304192, -3.718802281300214 ], [ -41.193383122333159, -3.703878172239797 ], [ -41.146846195795263, -3.696231730609838 ], [ -41.12165092335141, -3.711377118759003 ], [ -41.016555225443255, -3.640027045311854 ], [ -40.986010837630033, -3.624025816438234 ], [ -40.907345239790914, -3.56218530201005 ], [ -40.876874353568496, -3.532540940412048 ], [ -40.888846634064862, -3.522442835368508 ], [ -40.873610712963959, -3.512386115326933 ], [ -40.883451202710773, -3.487528622847606 ], [ -40.85228967402918, -3.419430824373023 ], [ -40.849414767177734, -3.419751650318346 ], [ -40.821698526865468, -3.471377502169958 ], [ -40.831857900921364, -3.500087816199709 ], [ -40.857198831161099, -3.536253590930414 ], [ -40.893236371561272, -3.559599609934025 ], [ -40.903834702909194, -3.574920090689602 ], [ -40.890762168439267, -3.667908796853453 ] ] } }
]
}
