{
"type": "FeatureCollection",
"features": [
{ "type": "Feature", "properties": { "Name": "TURURU", "Description": "TURURU \/ CE" }, "geometry": { "type": "LineString", "coordinates": [ [ -39.37516282710277, -3.578908647815808 ], [ -39.390792355382871, -3.606294053627607 ], [ -39.353323046621256, -3.664237594289489 ], [ -39.427716211833683, -3.655207835273359 ], [ -39.455875180295266, -3.642394744421893 ], [ -39.421749350352172, -3.625888763855301 ], [ -39.49111648164029, -3.603185216024826 ], [ -39.504429459751741, -3.575077865051412 ], [ -39.454668392632186, -3.585261904813024 ], [ -39.401583204601188, -3.546860962263565 ], [ -39.434907191813409, -3.484110689156921 ], [ -39.426226402126701, -3.471517808999636 ], [ -39.451918314378645, -3.443854687144039 ], [ -39.46769566512279, -3.401894170379592 ], [ -39.432486241147039, -3.429871758175068 ], [ -39.332163019607606, -3.500811582488495 ], [ -39.342689217233556, -3.539543198559727 ], [ -39.37516282710277, -3.578908647815808 ] ] } }
]
}
