{
"type": "FeatureCollection",
"features": [
{ "type": "Feature", "properties": { "Name": "URUBURETAMA", "Description": "URUBURETAMA \/ CE" }, "geometry": { "type": "LineString", "coordinates": [ [ -39.455875180295266, -3.642394744421893 ], [ -39.514571501173798, -3.669221571418348 ], [ -39.558899247602135, -3.652530057116394 ], [ -39.562284696881193, -3.63441303373446 ], [ -39.594469458898345, -3.62533899389939 ], [ -39.554892447728264, -3.582627455092905 ], [ -39.504429459751741, -3.575077865051412 ], [ -39.49111648164029, -3.603185216024826 ], [ -39.421749350352172, -3.625888763855301 ], [ -39.455875180295266, -3.642394744421893 ] ] } }
]
}
