{
"type": "FeatureCollection",
"features": [
{ "type": "Feature", "properties": { "Name": "VARJOTA", "Description": "VARJOTA \/ CE" }, "geometry": { "type": "LineString", "coordinates": [ [ -40.450084411266516, -4.207964735584027 ], [ -40.491418176107913, -4.24586311808838 ], [ -40.527271843820465, -4.254113780026898 ], [ -40.557550924435589, -4.209096323736333 ], [ -40.58935765732997, -4.200997866658156 ], [ -40.609271559434887, -4.207699008402471 ], [ -40.538959531157388, -4.169388755286775 ], [ -40.518222059600305, -4.166833516953204 ], [ -40.514655676618126, -4.134726351140159 ], [ -40.536562432310348, -4.098191273408474 ], [ -40.472694905345577, -4.086504999805868 ], [ -40.431716944681227, -4.091692287568947 ], [ -40.43010777065706, -4.144650893324012 ], [ -40.445716742233792, -4.162780453255266 ], [ -40.450084411266516, -4.207964735584027 ] ] } }
]
}
