{
"type": "FeatureCollection",
"features": [
{ "type": "Feature", "properties": { "Name": "ALTO TAQUARI", "Description": "ALTO TAQUARI \/ MT" }, "geometry": { "type": "LineString", "coordinates": [ [ -53.404654790386246, -17.992379761816494 ], [ -53.398171753123847, -17.930472508699268 ], [ -53.508859485876542, -17.860279181938665 ], [ -53.528542448375276, -17.782176996770943 ], [ -53.478535013779833, -17.704644238940432 ], [ -53.391233119312972, -17.709144601142381 ], [ -53.332012751787033, -17.573106030319025 ], [ -53.243759132677781, -17.508252135027988 ], [ -53.250822640952094, -17.628067486525254 ], [ -53.236185014526761, -17.714251887014935 ], [ -53.168155026733075, -17.767263816272077 ], [ -53.129736491645758, -17.919016415675003 ], [ -53.070044838898127, -17.985911547180137 ], [ -53.07350909127149, -18.034510601183229 ], [ -53.174325963272565, -18.041598240965982 ], [ -53.291905824993762, -17.995865884802697 ], [ -53.404654790386246, -17.992379761816494 ] ] } }
]
}
