{
"type": "FeatureCollection",
"features": [
{ "type": "Feature", "properties": { "Name": "ALTO PARAGUAI", "Description": "ALTO PARAGUAI \/ MT" }, "geometry": { "type": "LineString", "coordinates": [ [ -56.47630966505897, -14.667254392176403 ], [ -56.420812984531544, -14.744565738717824 ], [ -56.593483707706923, -14.857645731964908 ], [ -56.705402424382328, -14.977349156538308 ], [ -56.791579670765138, -15.123499865426423 ], [ -56.818296398260145, -15.145530786016934 ], [ -56.805116599851146, -15.106522937783325 ], [ -56.85843119324494, -15.013131574562463 ], [ -56.923652984097878, -15.011431420623524 ], [ -56.925697582877092, -14.936647959535662 ], [ -56.878310254714449, -14.888880565285831 ], [ -56.844450471212213, -14.80987088952986 ], [ -56.757337283288962, -14.731909286384392 ], [ -56.722696732668055, -14.652568687095195 ], [ -56.661778434327225, -14.589356875619274 ], [ -56.645426983368566, -14.49771158482173 ], [ -56.543305509841382, -14.450059087057184 ], [ -56.551241902791553, -14.393812873765055 ], [ -56.488753739793196, -14.453152644279042 ], [ -56.412289743476833, -14.459952095412802 ], [ -56.387844212440427, -14.521227911139137 ], [ -56.465901542122417, -14.590799332423217 ], [ -56.47630966505897, -14.667254392176403 ] ] } }
]
}
