{
"type": "FeatureCollection",
"features": [
{ "type": "Feature", "properties": { "Name": "APIACÃS", "Description": "APIACÃS \/ MT" }, "geometry": { "type": "LineString", "coordinates": [ [ -57.059082278624196, -9.183370221858183 ], [ -57.099835289167224, -9.210349992957786 ], [ -57.06866510091362, -9.298618436491608 ], [ -57.08038003950719, -9.392855116570331 ], [ -57.131022541157336, -9.421343754010989 ], [ -57.045452652817623, -9.499054361769311 ], [ -57.050748592173761, -9.529182801445074 ], [ -57.098555851571234, -9.571022302737049 ], [ -57.161845600094352, -9.666266529276868 ], [ -57.192062455717689, -9.7946848368357 ], [ -57.318065568271322, -9.778337185512667 ], [ -57.335727330551833, -9.686599553226756 ], [ -57.425030408126808, -9.675818586658409 ], [ -57.622107953719031, -9.729089231982412 ], [ -57.703799935718393, -9.70536022049771 ], [ -57.733248709160527, -9.618159298312946 ], [ -57.713209351630205, -9.553499791482125 ], [ -57.737547731142847, -9.502946880294246 ], [ -57.895332106891203, -9.48932019617007 ], [ -57.997566449831766, -9.412942488904719 ], [ -58.013813515581262, -9.364214937968939 ], [ -58.071225870777255, -9.348780886328768 ], [ -58.096146750172345, -9.247916904241663 ], [ -58.168437414654925, -9.188148654436816 ], [ -58.168144490176012, -9.146921733551094 ], [ -58.289080738685122, -9.086350160731286 ], [ -58.302936019681503, -9.032532517161883 ], [ -58.35870752313366, -9.021694654984287 ], [ -58.405606392620882, -8.961678004336362 ], [ -58.520750418996613, -8.968697670660902 ], [ -58.553388058911764, -8.940976134241168 ], [ -58.458965612173245, -8.841270122817887 ], [ -58.442867869856286, -8.799399102986172 ], [ -58.388002361419808, -8.774786422155614 ], [ -58.328368610622817, -8.712178670908884 ], [ -58.437300573562595, -8.703352483330377 ], [ -58.389518315317957, -8.594792455707193 ], [ -58.41705344835794, -8.491955784631728 ], [ -58.318584991304249, -8.330135506948068 ], [ -58.322464193567612, -8.170039407692455 ], [ -58.29016729328589, -8.135600014728823 ], [ -58.293064252413274, -8.070946916466994 ], [ -58.375135513593023, -7.899001267194706 ], [ -58.378219986762929, -7.827437525621293 ], [ -58.300418358620334, -7.777473826855555 ], [ -58.275990302310561, -7.699666266784732 ], [ -58.202170605988613, -7.620854259316558 ], [ -58.222723304636752, -7.524037804700867 ], [ -58.213059954353355, -7.458534735589524 ], [ -58.121416003545683, -7.351770972452357 ], [ -58.061361566982661, -7.395191152749476 ], [ -57.952056175851794, -7.580144168018875 ], [ -57.934387276551547, -7.656772447090702 ], [ -57.896749021150349, -7.677884550131864 ], [ -57.87964229075908, -7.781907447670506 ], [ -57.835023457166749, -7.881408337224912 ], [ -57.831864599271796, -7.961515910730668 ], [ -57.776528648278429, -8.052175299950079 ], [ -57.732528984425073, -8.089163295149888 ], [ -57.718749562142527, -8.15122530630282 ], [ -57.641668896202532, -8.21988153250669 ], [ -57.680222471689653, -8.326940690560376 ], [ -57.686557690085287, -8.40700784763402 ], [ -57.633422041094263, -8.526810894607081 ], [ -57.622586098969229, -8.645009004262079 ], [ -57.592938921593941, -8.756476971734799 ], [ -57.52300248257847, -8.749733697652005 ], [ -57.417504258914391, -8.792608507476587 ], [ -57.416215742662352, -8.858995121827377 ], [ -57.317888291211602, -8.885712287292165 ], [ -57.289478917318149, -8.915827555497231 ], [ -57.203774175637648, -8.920819818979396 ], [ -57.094605186480116, -9.017111415759187 ], [ -57.039241594823693, -9.098290014372594 ], [ -57.059082278624196, -9.183370221858183 ] ] } }
]
}
