{
"type": "FeatureCollection",
"features": [
{ "type": "Feature", "properties": { "Name": "ARAGUAIANA", "Description": "ARAGUAIANA \/ MT" }, "geometry": { "type": "LineString", "coordinates": [ [ -51.347410232895868, -14.990181002751058 ], [ -51.430515833139168, -15.010398095995297 ], [ -51.477747910437699, -15.056719635802494 ], [ -51.532542433586393, -15.065570575421646 ], [ -51.594830782514578, -15.1523549289368 ], [ -51.652096862979818, -15.17987321317821 ], [ -51.689244426688902, -15.319828285646791 ], [ -51.672018290611554, -15.361583683240326 ], [ -51.700103800649856, -15.490772582088937 ], [ -51.778823702251998, -15.544457678179242 ], [ -51.753685676152998, -15.610175100700301 ], [ -51.881001696371129, -15.827766337746253 ], [ -51.972679975200663, -15.837849034705128 ], [ -52.010288397391605, -15.841549710750485 ], [ -52.134326764668401, -15.796103623183626 ], [ -52.175796005181439, -15.599721467571612 ], [ -52.147754598795643, -15.54518910219525 ], [ -52.060883814136666, -15.503331269122725 ], [ -52.059162962300832, -15.356233681139427 ], [ -52.041313828070656, -15.112905636785683 ], [ -52.050766540943073, -14.978848682520663 ], [ -52.004205974825823, -14.894429774414503 ], [ -52.015636549587043, -14.802284917414964 ], [ -51.966499825106773, -14.765330613516936 ], [ -51.914010972128608, -14.771961321257946 ], [ -51.763145538635683, -14.599238631657498 ], [ -51.720864519681811, -14.600872952524696 ], [ -51.691366969709861, -14.536847099014381 ], [ -51.625173209575905, -14.505385094246662 ], [ -51.530544619338684, -14.381521234117598 ], [ -51.376907585916335, -14.338760602219963 ], [ -51.393534192548877, -14.410869416590231 ], [ -51.379990655244512, -14.494681132128504 ], [ -51.467559573715334, -14.618328395039326 ], [ -51.479204345404185, -14.668969105239965 ], [ -51.53570829989809, -14.718618386629203 ], [ -51.543925327192021, -14.793453565029948 ], [ -51.61868481595144, -14.990322897783471 ], [ -51.347410232895868, -14.990181002751058 ] ] } }
]
}
