{
"type": "FeatureCollection",
"features": [
{ "type": "Feature", "properties": { "Name": "CAMPOS DE JÃLIO", "Description": "CAMPOS DE JÃLIO \/ MT" }, "geometry": { "type": "LineString", "coordinates": [ [ -59.044590422909664, -14.000423050783127 ], [ -59.035243199613937, -14.041312262750694 ], [ -59.102479215543319, -14.230936497021672 ], [ -59.089294852175669, -14.278348873101947 ], [ -59.155805679088751, -14.349068836557535 ], [ -59.272476648178717, -14.375645404711632 ], [ -59.305505845718187, -14.434479358735359 ], [ -59.308466828481308, -14.511823927132466 ], [ -59.420566290002228, -14.204154334854648 ], [ -59.344651441310937, -14.059950465741338 ], [ -59.369526520932141, -13.979765244770192 ], [ -59.374490590668188, -13.88766707337669 ], [ -59.436589331032728, -13.853021368741109 ], [ -59.456920624687029, -13.699562302158483 ], [ -59.424179351395928, -13.639269810553287 ], [ -59.423010257017722, -13.556881820739363 ], [ -59.388575598085367, -13.471776029340219 ], [ -59.393700839821854, -13.355542231488755 ], [ -59.424721885406647, -13.288233144743799 ], [ -59.351383213964141, -13.121716509309408 ], [ -59.266925760015795, -13.061335204256238 ], [ -59.232495478983132, -12.991467486934935 ], [ -59.227025755534157, -12.919298675193657 ], [ -59.158596014594359, -12.85411306316729 ], [ -59.108311594204672, -12.83627148504098 ], [ -59.027533600395309, -12.702089042974931 ], [ -58.931353114854346, -12.642077836822693 ], [ -58.950635639822899, -12.710277359412542 ], [ -58.929742806785043, -12.802013974565227 ], [ -58.92817454741737, -12.966571699524252 ], [ -58.972033402619388, -13.079551457933405 ], [ -58.957422882659841, -13.125873163215886 ], [ -59.01635047409507, -13.205020631297032 ], [ -59.021793595597906, -13.358875895106449 ], [ -58.994264904401803, -13.439798963950977 ], [ -59.026110639094668, -13.500772259432154 ], [ -59.034999954584173, -13.597307777531853 ], [ -59.004028835762142, -13.628927372300325 ], [ -59.009380046551875, -13.766249894417058 ], [ -58.976993517137082, -13.837807407285993 ], [ -59.02124425371931, -13.907185315150116 ], [ -59.044590422909664, -14.000423050783127 ] ] } }
]
}
