{
"type": "FeatureCollection",
"features": [
{ "type": "Feature", "properties": { "Name": "GAÃCHA DO NORTE", "Description": "GAÃCHA DO NORTE \/ MT" }, "geometry": { "type": "LineString", "coordinates": [ [ -52.924303534680348, -12.6035395561056 ], [ -52.937382403075389, -12.7037512563154 ], [ -52.889338085983859, -12.792523821117411 ], [ -52.812912478128339, -12.848255875807979 ], [ -52.843245648467871, -12.950074835385294 ], [ -52.878138874409501, -12.986967107645851 ], [ -52.915497923590237, -13.195984516771999 ], [ -53.066528898889537, -13.446478423040729 ], [ -53.073273878086979, -13.566442255305788 ], [ -53.099217935958954, -13.634671873707987 ], [ -53.19787603035445, -13.726883294028767 ], [ -53.222867448973545, -13.774452162936939 ], [ -53.251309690389853, -13.770776080651558 ], [ -53.415988241963753, -13.670529627040594 ], [ -53.468992030557729, -13.653433429509107 ], [ -53.505164339762416, -13.719720139073102 ], [ -53.612529864461628, -13.778836392085793 ], [ -53.695631590425535, -13.767542486396565 ], [ -53.704096883664192, -13.674020115336019 ], [ -53.647693997679823, -13.590583464755071 ], [ -53.632645449427905, -13.512121030960769 ], [ -53.781983330466289, -13.589953686613283 ], [ -53.851242687899685, -13.706767102020081 ], [ -53.925637878385317, -13.774815245327261 ], [ -54.06292107494761, -13.813144634217451 ], [ -54.090478521066871, -13.745394861683451 ], [ -54.052441399251109, -13.653530348546724 ], [ -54.006055479676604, -13.293206961332146 ], [ -54.023164516828956, -13.245677789398428 ], [ -53.975414803250544, -13.066951271683818 ], [ -53.994370242992261, -13.014827025446834 ], [ -53.934579847381997, -12.952731279824661 ], [ -53.8913195791352, -12.841917489100807 ], [ -53.837754857300808, -12.787961942589504 ], [ -53.845414561232985, -12.717706837800279 ], [ -53.815975927646889, -12.685871594598382 ], [ -53.773683168043696, -12.4282668721184 ], [ -53.724014228373903, -12.395357798823284 ], [ -53.659953876869906, -12.271789315624346 ], [ -53.597478846671379, -12.201747396025439 ], [ -53.592132936485768, -12.135263243004204 ], [ -53.550395718687412, -12.084616915638094 ], [ -53.520129408445428, -12.001235580557534 ], [ -53.547650960823141, -11.950835058591053 ], [ -53.547531938248312, -11.938809618269202 ], [ -53.447048658968406, -11.978976520849699 ], [ -53.340126393018579, -12.095959423388649 ], [ -53.30140600678174, -12.200562764959614 ], [ -53.099660514820869, -12.377077655509368 ], [ -53.087976145982282, -12.459470798438531 ], [ -52.985805356332094, -12.528860379502872 ], [ -52.924303534680348, -12.6035395561056 ] ] } }
]
}
