{
"type": "FeatureCollection",
"features": [
{ "type": "Feature", "properties": { "Name": "GUARANTÃ DO NORTE", "Description": "GUARANTÃ DO NORTE \/ MT" }, "geometry": { "type": "LineString", "coordinates": [ [ -54.995585173816664, -9.505339155177808 ], [ -54.613454076844107, -9.535826226499125 ], [ -54.106615492710773, -9.571920721863762 ], [ -54.140706734727978, -9.604055014827054 ], [ -54.139991709849483, -9.72929673705471 ], [ -54.15712934814087, -9.795524357563011 ], [ -54.237172461839577, -9.81985654614266 ], [ -54.232653559214327, -9.92540601047898 ], [ -54.261513791128493, -9.97286922433517 ], [ -54.466526917583167, -9.998273034273041 ], [ -54.536124546010967, -9.965152328916815 ], [ -54.654211307006165, -10.005071723681056 ], [ -54.66985243474204, -10.054375235528653 ], [ -55.13130105260143, -10.041751862058732 ], [ -55.079906173630945, -10.026948617384731 ], [ -55.024848323591236, -9.96983059590525 ], [ -55.041677824472004, -9.85625695849177 ], [ -54.98369970577675, -9.798624214535835 ], [ -54.954976925344795, -9.678727895276097 ], [ -54.995585173816664, -9.505339155177808 ] ] } }
]
}
