{
"type": "FeatureCollection",
"features": [
{ "type": "Feature", "properties": { "Name": "ITAÃBA", "Description": "ITAÃBA \/ MT" }, "geometry": { "type": "LineString", "coordinates": [ [ -55.614419249748551, -10.95869635115565 ], [ -55.556034499892235, -10.955749935610982 ], [ -55.523442794649213, -11.014956914929655 ], [ -55.432652143081889, -10.974056282471395 ], [ -55.390791909718814, -10.91249418375952 ], [ -55.296224130739006, -10.903764160687444 ], [ -55.221049126416005, -10.920262513204364 ], [ -55.073162598275246, -11.003047656224282 ], [ -54.941416176815039, -11.038262714452685 ], [ -54.922615606624902, -11.176339947630424 ], [ -55.019929450183952, -11.184644947506285 ], [ -55.057428898824583, -11.209504131610343 ], [ -55.154625305313573, -11.195820511407417 ], [ -55.176776324967364, -11.27437481004938 ], [ -55.285502933113833, -11.276559645511213 ], [ -55.323262075384434, -11.248488564195839 ], [ -55.338386259318384, -11.182217606257495 ], [ -55.382944650375293, -11.14742187671817 ], [ -55.436628460435088, -11.197135643095407 ], [ -55.462265032904895, -11.356215932019609 ], [ -55.509291253588458, -11.402144472589271 ], [ -55.589769250650356, -11.359623151187407 ], [ -55.616468482734263, -11.318186730533114 ], [ -55.689745278122075, -11.299198488019783 ], [ -55.752605280209472, -11.329795023021859 ], [ -55.833734043791019, -11.309477349599945 ], [ -55.928260875738772, -11.245413538404021 ], [ -56.323006859279076, -11.092134202231591 ], [ -56.248967109644354, -11.041560610233944 ], [ -56.185177491847753, -11.041052058006017 ], [ -56.078916471318053, -10.958249210932308 ], [ -55.88115429343582, -10.874821594041293 ], [ -55.811265790983434, -10.968440730355383 ], [ -55.770416148286579, -10.984900115248081 ], [ -55.648218332609929, -10.951056422415888 ], [ -55.614419249748551, -10.95869635115565 ] ] } }
]
}
