{
"type": "FeatureCollection",
"features": [
{ "type": "Feature", "properties": { "Name": "ITIQUIRA", "Description": "ITIQUIRA \/ MT" }, "geometry": { "type": "LineString", "coordinates": [ [ -53.975236805833902, -17.017458632509829 ], [ -53.887048157346555, -17.127180851315188 ], [ -53.804967038697839, -17.148953276172733 ], [ -53.684359826045068, -17.224115496632805 ], [ -53.68352956203961, -17.25216802223639 ], [ -53.762826769939466, -17.246601314099337 ], [ -53.973050115970011, -17.472244030337663 ], [ -54.058077104274901, -17.513129320361827 ], [ -54.084692452094941, -17.619034804712442 ], [ -54.191630246638503, -17.605649083138644 ], [ -54.302420402279722, -17.661660209151307 ], [ -54.387798699949997, -17.631936655052527 ], [ -54.392029150424889, -17.570556514371617 ], [ -54.468718253344662, -17.5271915308644 ], [ -54.502304885761816, -17.480710821846912 ], [ -54.570306613259554, -17.473369704548187 ], [ -54.746913033209864, -17.519942237044575 ], [ -54.758780918604486, -17.56569641705596 ], [ -54.860863811215893, -17.623853497241043 ], [ -54.943424422299188, -17.609028363967752 ], [ -55.127255962292786, -17.652722301492986 ], [ -55.483043538728282, -17.478685727564251 ], [ -55.515032894252606, -17.483621322965632 ], [ -55.588641778695091, -17.413816707475007 ], [ -55.60370483570955, -17.366821267887133 ], [ -55.540586115756582, -17.331661188812742 ], [ -55.43521971291937, -17.369584087735404 ], [ -55.312837659430386, -17.328558346090745 ], [ -55.288872924845577, -17.294076461959094 ], [ -55.206812352108329, -17.265335226539431 ], [ -55.155117505168676, -17.192297240725051 ], [ -55.025285406696128, -17.104645991119526 ], [ -54.840949119506206, -17.072195862548991 ], [ -54.714277063335771, -17.035996379429321 ], [ -54.675022574232401, -16.992964751222246 ], [ -54.615441234125626, -16.987596582816025 ], [ -54.614028317352897, -17.09042184329337 ], [ -54.532773672067265, -17.0790626774006 ], [ -54.476049587818181, -17.111494216984454 ], [ -54.29330350075594, -17.092407050844656 ], [ -54.2188294154451, -17.068613993241172 ], [ -54.15944234239015, -17.019140372829895 ], [ -53.975236805833902, -17.017458632509829 ] ] } }
]
}
