{
"type": "FeatureCollection",
"features": [
{ "type": "Feature", "properties": { "Name": "JANGADA", "Description": "JANGADA \/ MT" }, "geometry": { "type": "LineString", "coordinates": [ [ -56.449899788944037, -15.143491052569969 ], [ -56.398339062397781, -15.210615137978209 ], [ -56.45036521598189, -15.267692212425628 ], [ -56.391085745011083, -15.392407657687215 ], [ -56.355060189875815, -15.412090974518833 ], [ -56.46406858529695, -15.456266195928153 ], [ -56.508201213914845, -15.51056157375757 ], [ -56.56223338536239, -15.480743749124656 ], [ -56.681612716753421, -15.477610887032766 ], [ -56.649701642716593, -15.439134544423666 ], [ -56.720260644613006, -15.400036034635262 ], [ -56.750253830749671, -15.338418618624301 ], [ -56.649958606904136, -15.240092853402416 ], [ -56.592083340074055, -15.22613176087202 ], [ -56.53756211280119, -15.137293625600309 ], [ -56.449899788944037, -15.143491052569969 ] ] } }
]
}
