{
"type": "FeatureCollection",
"features": [
{ "type": "Feature", "properties": { "Name": "NOSSA SENHORA DO LIVRAMENTO", "Description": "NOSSA SENHORA DO LIVRAMENTO \/ MT" }, "geometry": { "type": "LineString", "coordinates": [ [ -56.975288617875378, -15.46519441339143 ], [ -56.947128627783911, -15.543327228568669 ], [ -56.888033701294262, -15.464949590051505 ], [ -56.7408704681975, -15.51714887841797 ], [ -56.681612716753421, -15.477610887032766 ], [ -56.56223338536239, -15.480743749124656 ], [ -56.508201213914845, -15.51056157375757 ], [ -56.52305490965631, -15.565352439363551 ], [ -56.367088796710561, -15.587577235800723 ], [ -56.370742167516987, -15.625181186562488 ], [ -56.276727805243979, -15.68612077365475 ], [ -56.244906383722586, -15.76030743204228 ], [ -56.14518739058559, -15.768337510067965 ], [ -56.145149510241652, -15.769668448240223 ], [ -56.140233021836423, -15.935330198929476 ], [ -56.087065058405699, -16.07014761092347 ], [ -56.000977205533559, -16.194009998862327 ], [ -56.012175090607911, -16.250388887337238 ], [ -56.062716321401069, -16.310680110898375 ], [ -56.196308815399448, -16.351607913674229 ], [ -56.215535512254057, -16.398738499781871 ], [ -56.301485708598534, -16.396188354309057 ], [ -56.248923304566802, -16.317165922569245 ], [ -56.215477613900703, -16.188188234899084 ], [ -56.300894943946446, -16.193257885942614 ], [ -56.328052773616548, -16.238697474109074 ], [ -56.456767090328924, -16.281390657752581 ], [ -56.43559681823853, -16.164174654536623 ], [ -56.382926799532122, -16.115751403604349 ], [ -56.393642872820294, -16.039643688105684 ], [ -56.495683098895881, -15.992583199654916 ], [ -56.560344184036808, -15.940721516784551 ], [ -56.553877149310949, -15.87089508733834 ], [ -56.447780181310293, -15.697601906502712 ], [ -56.73489719634847, -15.81854032687454 ], [ -56.790692116348055, -15.785857309866913 ], [ -56.82831022873404, -15.826125031844695 ], [ -56.918531637325145, -15.759485556912864 ], [ -57.007359416903512, -15.805286590703531 ], [ -57.008742896167689, -15.741468396948903 ], [ -57.224797019167056, -15.850875176747989 ], [ -57.222889942017162, -15.80993517376919 ], [ -57.118530643174608, -15.668483910903715 ], [ -57.122318423956067, -15.642806381509274 ], [ -57.021503393766579, -15.489743559817386 ], [ -56.975288617875378, -15.46519441339143 ] ] } }
]
}
