{
"type": "FeatureCollection",
"features": [
{ "type": "Feature", "properties": { "Name": "NOVA OLÃMPIA", "Description": "NOVA OLÃMPIA \/ MT" }, "geometry": { "type": "LineString", "coordinates": [ [ -57.147984376377842, -14.801738688989245 ], [ -57.231871552230302, -14.819239588636037 ], [ -57.268211052597962, -14.887508311359454 ], [ -57.252870471095321, -14.927722895994803 ], [ -57.330706586439753, -14.956695301247123 ], [ -57.429881005004347, -14.92223752614086 ], [ -57.419785892005279, -14.86836245995954 ], [ -57.592432753468749, -14.912580434239599 ], [ -57.747469985451396, -14.912612958221416 ], [ -57.776427398105909, -14.867692226714835 ], [ -57.72172779390251, -14.782109294608233 ], [ -57.648522159170284, -14.730097444741263 ], [ -57.448915273920704, -14.721826436540768 ], [ -57.385119061395521, -14.664766591305124 ], [ -57.317689311712343, -14.670570764529087 ], [ -57.175347868409347, -14.610695007068898 ], [ -57.146129116365607, -14.578169599847115 ], [ -57.128938960364678, -14.561272296379343 ], [ -57.037039885382342, -14.585309607152624 ], [ -57.135721646336883, -14.696039030676673 ], [ -57.147984376377842, -14.801738688989245 ] ] } }
]
}
