{
"type": "FeatureCollection",
"features": [
{ "type": "Feature", "properties": { "Name": "NOVA MARINGÃ", "Description": "NOVA MARINGÃ \/ MT" }, "geometry": { "type": "LineString", "coordinates": [ [ -57.144132124098228, -12.006881156540089 ], [ -57.045371649981632, -12.206568920519203 ], [ -57.041264692611435, -12.252157055103964 ], [ -56.953978826761386, -12.298543705827342 ], [ -56.937245267355131, -12.548527249532865 ], [ -56.902724174580946, -12.628533238318253 ], [ -56.845014901016839, -12.677766461852684 ], [ -56.771901046595985, -12.835453083992604 ], [ -56.738005157112298, -12.955154262958843 ], [ -56.829477614400332, -13.042456358873835 ], [ -56.871756445303674, -13.160061614751669 ], [ -56.951699423089842, -13.229906582822478 ], [ -56.961705557165715, -13.289814861566583 ], [ -57.013491452368605, -13.363811791780734 ], [ -57.020169042667128, -13.44359245272949 ], [ -56.99436592384825, -13.489130506767424 ], [ -57.01975532394902, -13.558927394383716 ], [ -57.108742343784115, -13.587252011670955 ], [ -57.137594185023602, -13.658897391001744 ], [ -57.25305927206773, -13.728177546156758 ], [ -57.279608177974978, -13.806169000498924 ], [ -57.353157607337664, -13.737765825532392 ], [ -57.329946322065105, -13.622195109516667 ], [ -57.364902805420115, -13.585612142886021 ], [ -57.540891394722046, -13.578472240801203 ], [ -57.567686632132336, -13.45173305473662 ], [ -57.630898402239438, -13.409935570670029 ], [ -57.618403937591602, -13.340614759863229 ], [ -57.522012700425762, -13.227162679314176 ], [ -57.486360041982323, -13.15358646454365 ], [ -57.40855823487459, -13.108010032836717 ], [ -57.317840936509981, -13.024295676104542 ], [ -57.292486605472448, -12.926556969428532 ], [ -57.382074744753645, -12.831469058550169 ], [ -57.410330038700288, -12.763054277832621 ], [ -57.395716020378018, -12.71063441004992 ], [ -57.441342184594077, -12.579370081863715 ], [ -57.442853649076589, -12.46505683390569 ], [ -57.49480977694958, -12.413290668929163 ], [ -57.625569359738115, -12.339869705922126 ], [ -57.641533668743762, -12.260349557885718 ], [ -57.732372657971723, -12.209437667914017 ], [ -57.61265480647409, -12.102090604497732 ], [ -57.543007997720842, -12.065837742118049 ], [ -57.409032021110825, -12.094362590760907 ], [ -57.408459305852254, -12.02181964575999 ], [ -57.436073748304807, -11.90352079674733 ], [ -57.396208620431423, -11.83758202948701 ], [ -57.405978064635924, -11.719625772711197 ], [ -57.34548101143946, -11.77061341977344 ], [ -57.30908563619311, -11.75534575710094 ], [ -57.195047299293371, -11.847222570265385 ], [ -57.144132124098228, -12.006881156540089 ] ] } }
]
}
