{
"type": "FeatureCollection",
"features": [
{ "type": "Feature", "properties": { "Name": "POCONÃ", "Description": "POCONÃ \/ MT" }, "geometry": { "type": "LineString", "coordinates": [ [ -56.301485708598534, -16.396188354309057 ], [ -56.320355774799111, -16.472305756405486 ], [ -56.387726198904943, -16.526995191974493 ], [ -56.50589404817174, -16.724507070544803 ], [ -56.495698244378445, -16.76362994476608 ], [ -56.61786158724243, -16.869056264035294 ], [ -56.630067887522955, -16.981588075529203 ], [ -56.585289588843409, -17.059404437264899 ], [ -56.627762670610707, -17.104484042104787 ], [ -56.666774269916573, -17.223083578544276 ], [ -56.719274842859647, -17.307955341166007 ], [ -56.757794418577532, -17.326692915645481 ], [ -56.824406956116093, -17.423078948434693 ], [ -56.875967463227823, -17.532972187716268 ], [ -56.973492541347632, -17.580384303892458 ], [ -56.964747136271285, -17.62173743023817 ], [ -57.101495463744641, -17.772186337329572 ], [ -57.225243501985965, -17.782842906075185 ], [ -57.311384474214101, -17.817824502998349 ], [ -57.485274395696763, -17.862228094650789 ], [ -57.609308839231517, -17.797541501139335 ], [ -57.62311086057769, -17.736358984679327 ], [ -57.684613130991174, -17.716481508714594 ], [ -57.69199876922778, -17.62782635760027 ], [ -57.497253548812175, -17.53450137783625 ], [ -57.427010787218016, -17.420115389113846 ], [ -57.33709695216259, -17.358839109337396 ], [ -57.335541746454396, -17.206250142230257 ], [ -57.404718513748378, -17.042200518039408 ], [ -57.382882027483554, -16.984456646656891 ], [ -57.432288618724726, -16.920565974739869 ], [ -57.363403929647575, -16.823033863022314 ], [ -57.404955349309894, -16.737100478604134 ], [ -57.402947787310488, -16.638169782609339 ], [ -57.330978082772276, -16.6152465708725 ], [ -57.188015852749338, -16.52775343467323 ], [ -57.151233468649586, -16.434729794344491 ], [ -57.07560648934799, -16.419433451392649 ], [ -57.071739979216595, -16.26786166158638 ], [ -57.125674529256052, -16.140411289849109 ], [ -57.116551876567826, -16.057489607259527 ], [ -57.153507168820738, -16.00081439756633 ], [ -57.078357994825581, -15.880755052803408 ], [ -57.007359416903512, -15.805286590703531 ], [ -56.918531637325145, -15.759485556912864 ], [ -56.82831022873404, -15.826125031844695 ], [ -56.790692116348055, -15.785857309866913 ], [ -56.73489719634847, -15.81854032687454 ], [ -56.447780181310293, -15.697601906502712 ], [ -56.553877149310949, -15.87089508733834 ], [ -56.560344184036808, -15.940721516784551 ], [ -56.495683098895881, -15.992583199654916 ], [ -56.393642872820294, -16.039643688105684 ], [ -56.382926799532122, -16.115751403604349 ], [ -56.43559681823853, -16.164174654536623 ], [ -56.456767090328924, -16.281390657752581 ], [ -56.328052773616548, -16.238697474109074 ], [ -56.300894943946446, -16.193257885942614 ], [ -56.215477613900703, -16.188188234899084 ], [ -56.248923304566802, -16.317165922569245 ], [ -56.301485708598534, -16.396188354309057 ] ] } }
]
}
