{
"type": "FeatureCollection",
"features": [
{ "type": "Feature", "properties": { "Name": "SALTO DO CÃU", "Description": "SALTO DO CÃU \/ MT" }, "geometry": { "type": "LineString", "coordinates": [ [ -58.227863593829738, -14.770298508968947 ], [ -58.235343827255804, -14.912721530674046 ], [ -58.128007544912236, -14.890133856891964 ], [ -58.05298773659473, -14.934501623151334 ], [ -58.016435619408242, -15.00012841379521 ], [ -57.730356883363406, -15.000255362994551 ], [ -57.697534311359334, -15.032077259358005 ], [ -57.68199010895632, -15.140572518706733 ], [ -57.823312129351223, -15.141929811511545 ], [ -57.837649639419276, -15.199145480479503 ], [ -57.951637115160672, -15.229727849360698 ], [ -58.038447093058835, -15.193152424444804 ], [ -58.134765473447821, -15.197078792552189 ], [ -58.25725798167047, -15.151118978058319 ], [ -58.31137056689812, -15.06887463785421 ], [ -58.345853345855176, -14.918823589936665 ], [ -58.297994621854279, -14.804341928637031 ], [ -58.227863593829738, -14.770298508968947 ] ] } }
]
}
