{
"type": "FeatureCollection",
"features": [
{ "type": "Feature", "properties": { "Name": "SANTO AFONSO", "Description": "SANTO AFONSO \/ MT" }, "geometry": { "type": "LineString", "coordinates": [ [ -56.977646455019851, -14.436347397214547 ], [ -56.948339999291477, -14.504663204842982 ], [ -57.053306490701971, -14.524205049323541 ], [ -57.128938960364678, -14.561272296379343 ], [ -57.146129116365607, -14.578169599847115 ], [ -57.153771299705674, -14.546056979645867 ], [ -57.282552737318944, -14.556605931918169 ], [ -57.330024600854593, -14.521797606474308 ], [ -57.432206812794107, -14.494055436009546 ], [ -57.501881239727368, -14.440591309641206 ], [ -57.672340755721279, -14.552680316543331 ], [ -57.71324344942559, -14.493144391300573 ], [ -57.714293246036448, -14.381819174115547 ], [ -57.619425378578335, -14.39439945746892 ], [ -57.558496303661464, -14.339183438265025 ], [ -57.436305829150626, -14.307633828738176 ], [ -57.355939251795, -14.329799815808828 ], [ -57.297973412443021, -14.426407480220972 ], [ -57.12835108073773, -14.411396893252004 ], [ -56.977646455019851, -14.436347397214547 ] ] } }
]
}
