{
"type": "FeatureCollection",
"features": [
{ "type": "Feature", "properties": { "Name": "SANTA RITA DO TRIVELATO", "Description": "SANTA RITA DO TRIVELATO \/ MT" }, "geometry": { "type": "LineString", "coordinates": [ [ -55.084985604801773, -13.664011536003555 ], [ -55.102683119630228, -13.701269205509391 ], [ -55.049687378169949, -13.750762768387006 ], [ -54.97312339432915, -13.867691406733002 ], [ -54.974285943441487, -13.932136105097129 ], [ -54.90804924967307, -13.989346971685336 ], [ -54.92563041830914, -14.09449780433016 ], [ -54.866786711137763, -14.179460000078905 ], [ -54.87467160980691, -14.214146747074665 ], [ -54.960247492128012, -14.219002914352982 ], [ -55.034956140413499, -14.249043360762471 ], [ -55.067510238706518, -14.203957673807565 ], [ -55.192449823800303, -14.216489277757944 ], [ -55.242817776818924, -14.240051528854904 ], [ -55.307098525176741, -14.242640048399494 ], [ -55.382129965325589, -14.143743459193217 ], [ -55.428173720740574, -14.102988506114627 ], [ -55.449541167390919, -14.035018386189506 ], [ -55.538990648299709, -13.905462347209493 ], [ -55.527722630494956, -13.814078465049077 ], [ -55.604968177239527, -13.694816191214215 ], [ -55.603035241882871, -13.616502390173139 ], [ -55.687149686308935, -13.450151029446431 ], [ -55.768789309778811, -13.341896593253125 ], [ -55.645503186722635, -13.378413903079093 ], [ -55.586870816634807, -13.311387083846796 ], [ -55.498958799608886, -13.334094035611201 ], [ -55.440800720276968, -13.420253194829058 ], [ -55.39092566049078, -13.421436798869138 ], [ -55.378322346399095, -13.500538315191022 ], [ -55.335630535121084, -13.558641375798798 ], [ -55.214187012320735, -13.600629164504312 ], [ -55.14612591338016, -13.651861395686808 ], [ -55.084985604801773, -13.664011536003555 ] ] } }
]
}
