{
"type": "FeatureCollection",
"features": [
{ "type": "Feature", "properties": { "Name": "SÃO PEDRO DA CIPA", "Description": "SÃO PEDRO DA CIPA \/ MT" }, "geometry": { "type": "LineString", "coordinates": [ [ -54.924495357874434, -16.057384426150293 ], [ -54.910621740600789, -15.983916843187728 ], [ -54.880443093573888, -15.947133102010978 ], [ -54.69927018607018, -15.888697739209249 ], [ -54.580993975691399, -15.882344155758117 ], [ -54.571722996918709, -15.884206514119287 ], [ -54.608886551473113, -15.981426923513652 ], [ -54.883548645953226, -16.007469630718845 ], [ -54.924495357874434, -16.057384426150293 ] ] } }
]
}
