{
"type": "FeatureCollection",
"features": [
{ "type": "Feature", "properties": { "Name": "SORRISO", "Description": "SORRISO \/ MT" }, "geometry": { "type": "LineString", "coordinates": [ [ -55.734177927769103, -11.726524875922223 ], [ -55.675940152316116, -11.803744096812579 ], [ -55.677077695779019, -11.913845510262036 ], [ -55.598399383324811, -12.023794170264694 ], [ -55.581125951901129, -12.109520734893977 ], [ -55.52114279290555, -12.153011174725862 ], [ -55.5789553059426, -12.176732021265705 ], [ -55.587499518288091, -12.264989998489568 ], [ -55.530033137219448, -12.404588352170663 ], [ -55.524430412133768, -12.451730385748647 ], [ -55.57935472184289, -12.535341848347571 ], [ -55.564838136970423, -12.641968311088645 ], [ -55.507631248982932, -12.680743606332328 ], [ -55.451520328800086, -12.797380094515688 ], [ -55.466450073911744, -12.853017679022628 ], [ -55.351522256247101, -12.987974505718796 ], [ -55.353332058227863, -13.060571450511986 ], [ -55.295327061494675, -13.120747804567486 ], [ -55.321691238559765, -13.256009777529187 ], [ -55.238409680562249, -13.355550747169216 ], [ -55.168735264420881, -13.353747872666133 ], [ -55.084985604801773, -13.664011536003555 ], [ -55.14612591338016, -13.651861395686808 ], [ -55.214187012320735, -13.600629164504312 ], [ -55.335630535121084, -13.558641375798798 ], [ -55.378322346399095, -13.500538315191022 ], [ -55.39092566049078, -13.421436798869138 ], [ -55.440800720276968, -13.420253194829058 ], [ -55.498958799608886, -13.334094035611201 ], [ -55.586870816634807, -13.311387083846796 ], [ -55.645503186722635, -13.378413903079093 ], [ -55.768789309778811, -13.341896593253125 ], [ -55.877160193787859, -13.255435203371917 ], [ -55.896357893801735, -13.111349928756169 ], [ -55.884627472479849, -13.064319199771205 ], [ -55.947094299961918, -12.928006901397339 ], [ -55.993075994061826, -12.872807129345517 ], [ -55.996806987152695, -12.793276757816102 ], [ -56.033583652463562, -12.762989087776134 ], [ -56.039218788216488, -12.698102794408385 ], [ -56.114578688655513, -12.63815884405534 ], [ -56.068264960359606, -12.566835585693696 ], [ -56.092732533779376, -12.517983758343744 ], [ -56.058654331032528, -12.42828736586921 ], [ -56.011865924372898, -12.318905131266774 ], [ -55.956338303569794, -12.281995798867001 ], [ -55.887160213373136, -12.137392819622903 ], [ -55.910823664280656, -12.087168118713635 ], [ -55.872653268333629, -11.864638038814405 ], [ -55.810497485770327, -11.74976663742035 ], [ -55.734177927769103, -11.726524875922223 ] ] } }
]
}
