{
"type": "FeatureCollection",
"features": [
{ "type": "Feature", "properties": { "Name": "TERRA NOVA DO NORTE", "Description": "TERRA NOVA DO NORTE \/ MT" }, "geometry": { "type": "LineString", "coordinates": [ [ -55.158773566746675, -10.223188825803618 ], [ -55.033084208769196, -10.304604518983297 ], [ -54.839629141371745, -10.337431137037299 ], [ -54.765643845686895, -10.334323807597571 ], [ -54.70976355484413, -10.416986622134857 ], [ -54.668844345989726, -10.425556651318345 ], [ -54.642300415132013, -10.541623985558431 ], [ -54.674229516978585, -10.59746640774847 ], [ -54.786387150246753, -10.623255949502436 ], [ -54.875923263747602, -10.728351736443415 ], [ -55.165423999318079, -10.723848062038371 ], [ -55.160585036070522, -10.700990615024807 ], [ -55.239899497463796, -10.573448327178482 ], [ -55.33233046567841, -10.503664556174272 ], [ -55.262135061483825, -10.466512302500689 ], [ -55.157822009378208, -10.295314319000568 ], [ -55.167738986464997, -10.216996648176746 ], [ -55.158773566746675, -10.223188825803618 ] ] } }
]
}
