{
"type": "FeatureCollection",
"features": [
{ "type": "Feature", "properties": { "Name": "VERA", "Description": "VERA \/ MT" }, "geometry": { "type": "LineString", "coordinates": [ [ -55.125725767630058, -12.177403370569039 ], [ -55.136891835589722, -12.214609699577919 ], [ -55.068381277074252, -12.367031963854004 ], [ -55.099656277714978, -12.473084478365934 ], [ -55.15165601101603, -12.567737554444532 ], [ -55.230880801008141, -12.598634513372076 ], [ -55.239290678921634, -12.640240485010338 ], [ -55.335424129919602, -12.731100884398245 ], [ -55.451520328800086, -12.797380094515688 ], [ -55.507631248982932, -12.680743606332328 ], [ -55.564838136970423, -12.641968311088645 ], [ -55.57935472184289, -12.535341848347571 ], [ -55.524430412133768, -12.451730385748647 ], [ -55.530033137219448, -12.404588352170663 ], [ -55.587499518288091, -12.264989998489568 ], [ -55.5789553059426, -12.176732021265705 ], [ -55.52114279290555, -12.153011174725862 ], [ -55.421842848768385, -12.150733051688917 ], [ -55.370867762537159, -12.185022126569834 ], [ -55.306264696258665, -12.135998838075862 ], [ -55.280756143181407, -12.115174207823371 ], [ -55.134936088929294, -12.127425708029932 ], [ -55.125725767630058, -12.177403370569039 ] ] } }
]
}
