{
"type": "FeatureCollection",
"features": [
{ "type": "Feature", "properties": { "Name": "ABAETETUBA", "Description": "ABAETETUBA \/ PA" }, "geometry": { "type": "LineString", "coordinates": [ [ -48.530410719878773, -1.699321773680879 ], [ -48.905768039563327, -1.956582168232444 ], [ -48.979834767060822, -1.896463284452977 ], [ -48.99646960788607, -1.844139357245467 ], [ -49.113099272913075, -1.801867431336859 ], [ -49.101405033115718, -1.761980520084876 ], [ -49.154547355975637, -1.701759702648132 ], [ -49.012574028568501, -1.573232022240006 ], [ -48.947606779129494, -1.550960569874348 ], [ -48.83740828026788, -1.521444236662148 ], [ -48.81824199627107, -1.594166355392929 ], [ -48.743420632356276, -1.614034956847718 ], [ -48.702123995126215, -1.680666461987585 ], [ -48.530410719878773, -1.699321773680879 ] ] } }
]
}
