{
"type": "FeatureCollection",
"features": [
{ "type": "Feature", "properties": { "Name": "ANANINDEUA", "Description": "ANANINDEUA \/ PA" }, "geometry": { "type": "LineString", "coordinates": [ [ -48.33579221933541, -1.2503476006612 ], [ -48.339922848660478, -1.329047401516334 ], [ -48.366821786895905, -1.369668162255834 ], [ -48.345467258107419, -1.451262012931522 ], [ -48.430048251925257, -1.404074229941727 ], [ -48.428930361347057, -1.285652402236508 ], [ -48.407596329906653, -1.227882431628871 ], [ -48.353044160559527, -1.221025934699071 ], [ -48.33579221933541, -1.2503476006612 ] ] } }
]
}
