{
"type": "FeatureCollection",
"features": [
{ "type": "Feature", "properties": { "Name": "BAGRE", "Description": "BAGRE \/ PA" }, "geometry": { "type": "LineString", "coordinates": [ [ -50.253720821058998, -1.806061707481774 ], [ -50.179528899838829, -1.831181475544611 ], [ -50.131496032915543, -1.81499917806957 ], [ -50.056692643750466, -1.908610695327297 ], [ -50.074942766795232, -2.069420026213209 ], [ -50.115301244756608, -2.139623070148502 ], [ -50.079776285547098, -2.24269080763463 ], [ -50.105252127583576, -2.320184258796473 ], [ -50.109530154892695, -2.410619731215604 ], [ -50.054140095289135, -2.516258364232101 ], [ -50.000900185195341, -2.508336395508195 ], [ -49.968776999758688, -2.545898173461865 ], [ -49.975330302851148, -2.621499392582848 ], [ -49.94574970138757, -2.669731323541725 ], [ -49.9422211996486, -2.759547410384641 ], [ -49.914361052520519, -2.808497322293533 ], [ -49.849447937772084, -2.857681200926606 ], [ -49.847580456872549, -2.931026758478083 ], [ -49.896708348211632, -2.988819174365346 ], [ -49.91002543082891, -3.091298054661422 ], [ -49.970882657108909, -3.162549127140437 ], [ -50.021083917189003, -3.074434467676497 ], [ -50.085917644283825, -3.032329875922983 ], [ -50.115747593576543, -2.947790987464032 ], [ -50.093800446633281, -2.885340691319811 ], [ -50.141692741426823, -2.823988422427703 ], [ -50.148277125988557, -2.681095564308805 ], [ -50.132445272731104, -2.645574619672914 ], [ -50.205694899599905, -2.526752701575844 ], [ -50.275969185129725, -2.505595850967723 ], [ -50.349805903819338, -2.384283827036938 ], [ -50.36671943645279, -2.331399488195757 ], [ -50.447691369960694, -2.21990979849835 ], [ -50.505865305239581, -2.192878426997765 ], [ -50.519476405911348, -2.125502084453615 ], [ -50.571696979432026, -2.011895154138017 ], [ -50.45447384818948, -1.93194636942934 ], [ -50.409665029217706, -1.933018060035408 ], [ -50.288497835706494, -1.847062614348147 ], [ -50.300411764591217, -1.805534993445121 ], [ -50.253720821058998, -1.806061707481774 ] ] } }
]
}
