{
"type": "FeatureCollection",
"features": [
{ "type": "Feature", "properties": { "Name": "BRASIL NOVO", "Description": "BRASIL NOVO \/ PA" }, "geometry": { "type": "LineString", "coordinates": [ [ -52.276487062927565, -2.83021522395336 ], [ -52.323690536389101, -2.906315129739426 ], [ -52.31747538018459, -2.972254993273282 ], [ -52.359267572640306, -3.075509676430386 ], [ -52.399794043060581, -3.161135236402003 ], [ -52.440599074887359, -3.163477482899452 ], [ -52.496856998251815, -3.263706822411905 ], [ -52.499155392907028, -3.36613160758759 ], [ -52.471041756571758, -3.41209688006694 ], [ -52.403077423784055, -3.435998697182072 ], [ -52.380989324297843, -3.533053113310473 ], [ -52.425240184986478, -3.573069793136369 ], [ -52.45192763685094, -3.662780073841305 ], [ -52.549121400232366, -3.719575343926919 ], [ -52.649317256186407, -3.820689237718113 ], [ -52.698380214675126, -3.818994088506315 ], [ -52.788661075648065, -3.857889251687595 ], [ -52.862428612190676, -3.82081895053409 ], [ -53.002111684706449, -3.935500213663885 ], [ -53.163606423097917, -3.85854993323278 ], [ -53.208312210340182, -3.785857162977664 ], [ -53.171744988140631, -3.716122351964941 ], [ -53.179019740868284, -3.673736516127291 ], [ -53.15657178755788, -3.66496161418712 ], [ -53.117296862260332, -3.628680361109729 ], [ -53.051911092622781, -3.656989921047966 ], [ -52.944931683750148, -3.618014691224971 ], [ -52.818717268287287, -3.626747209016458 ], [ -52.748710172236599, -3.532049169533479 ], [ -52.66927134089962, -3.46486906445574 ], [ -52.698128605051068, -3.353570399754119 ], [ -52.755352093624197, -3.264648161683283 ], [ -52.843045482762754, -3.167160210275426 ], [ -52.885379905258389, -3.060356948014714 ], [ -52.889656327277635, -2.958373855868728 ], [ -52.873629315740288, -2.810751222990518 ], [ -52.954707516738438, -2.769323291036983 ], [ -53.001350423882911, -2.671765561231609 ], [ -52.829463213456506, -2.762088110278 ], [ -52.683991083521619, -2.722911015031286 ], [ -52.556987437420275, -2.724980864075576 ], [ -52.501294202865154, -2.773670199220248 ], [ -52.331374975274848, -2.782871069544171 ], [ -52.276487062927565, -2.83021522395336 ] ] } }
]
}
