{
"type": "FeatureCollection",
"features": [
{ "type": "Feature", "properties": { "Name": "CAMETÃ", "Description": "CAMETÃ \/ PA" }, "geometry": { "type": "LineString", "coordinates": [ [ -49.318135206174759, -1.994512371448764 ], [ -49.26382920465403, -2.024811413415932 ], [ -49.189539320283352, -2.103641142025026 ], [ -49.254681733375264, -2.220593356997767 ], [ -49.292077229380595, -2.252657208763139 ], [ -49.357312820330378, -2.359623738444725 ], [ -49.278056482120917, -2.394903165648543 ], [ -49.29753447653485, -2.450622588461613 ], [ -49.371245784765108, -2.494456462295829 ], [ -49.398693682667272, -2.539545557681322 ], [ -49.507891354802155, -2.55288250632259 ], [ -49.579996223846592, -2.491488876710264 ], [ -49.676131845808015, -2.589657099595399 ], [ -49.744860030366056, -2.535398039987513 ], [ -49.724942044439786, -2.457858143338569 ], [ -49.743050213996128, -2.380027991398663 ], [ -49.723583209297594, -2.30089098513082 ], [ -49.778584029729132, -2.22134069361806 ], [ -49.794787823699039, -2.1643116969272 ], [ -49.706464259817722, -2.069046265272902 ], [ -49.594010811649582, -1.972376027831388 ], [ -49.469160190190564, -1.999483449601485 ], [ -49.417347023945972, -1.955611904965394 ], [ -49.365408735924397, -2.002003713300666 ], [ -49.318135206174759, -1.994512371448764 ] ] } }
]
}
