{
"type": "FeatureCollection",
"features": [
{ "type": "Feature", "properties": { "Name": "COLARES", "Description": "COLARES \/ PA" }, "geometry": { "type": "LineString", "coordinates": [ [ -48.213825515934786, -1.006845673289149 ], [ -48.307179048274406, -1.019070666877724 ], [ -48.439295771882307, -0.982477594565296 ], [ -48.43954435798571, -0.97884878694191 ], [ -48.372692769855398, -0.85409314378353 ], [ -48.327929372942151, -0.777740870244941 ], [ -48.221569226438582, -0.790921983462738 ], [ -48.154987694826218, -0.828968829647749 ], [ -48.175648832827335, -0.949888278820936 ], [ -48.213825515934786, -1.006845673289149 ] ] } }
]
}
