{
"type": "FeatureCollection",
"features": [
{ "type": "Feature", "properties": { "Name": "DOM ELISEU", "Description": "DOM ELISEU \/ PA" }, "geometry": { "type": "LineString", "coordinates": [ [ -48.032373408505975, -3.822229973334573 ], [ -47.99273364084479, -3.854592440488716 ], [ -47.977372921722917, -3.919034942708379 ], [ -47.852344310941135, -4.046670147609177 ], [ -47.78306842396853, -4.060187663929525 ], [ -47.721203376034907, -4.029173693311236 ], [ -47.679398645231231, -4.068609509121529 ], [ -47.569090190759653, -4.092870431824906 ], [ -47.463841857215868, -4.155638964766354 ], [ -47.347157088029121, -4.108688458005872 ], [ -47.372512774345005, -4.244984032587013 ], [ -47.442049296537789, -4.287425093093532 ], [ -47.583566809760441, -4.522960067652946 ], [ -47.682120281525727, -4.606381182445546 ], [ -47.792569130960594, -4.586410790325658 ], [ -47.816153022443977, -4.614728476537891 ], [ -48.160912296265394, -4.200996048229001 ], [ -48.269516163140388, -4.215255553800716 ], [ -48.371849915341265, -4.083611530947336 ], [ -48.387905135913229, -4.01741526800015 ], [ -48.369037861208312, -3.880233569823361 ], [ -48.388742690722552, -3.837308033738736 ], [ -48.268846260846203, -3.795129790207624 ], [ -48.159876164853074, -3.804549400834162 ], [ -48.104766262053317, -3.788826610159901 ], [ -48.032373408505975, -3.822229973334573 ] ] } }
]
}
