{
"type": "FeatureCollection",
"features": [
{ "type": "Feature", "properties": { "Name": "FARO", "Description": "FARO \/ PA" }, "geometry": { "type": "LineString", "coordinates": [ [ -56.749016074931887, -1.65194898755567 ], [ -56.727013322906487, -1.727207461555054 ], [ -56.673619546904547, -1.758008386377867 ], [ -56.659510042854151, -1.845201702096801 ], [ -56.598287986801097, -1.876669604618485 ], [ -56.599400913121599, -1.953717707905867 ], [ -56.644516855068787, -2.04062039601439 ], [ -56.619432066136881, -2.070078541291593 ], [ -56.62476650277182, -2.16608335506271 ], [ -56.58562223277977, -2.176527294399079 ], [ -56.612913188193033, -2.210171270287844 ], [ -56.679072758800707, -2.212564246642614 ], [ -56.760958967382408, -2.174058191332392 ], [ -56.769429692526273, -2.140672904530845 ], [ -56.721382198129902, -2.059174441347352 ], [ -56.747883574867046, -2.011502269114374 ], [ -56.859044531779659, -2.015925978501059 ], [ -56.961125174287304, -1.952972035930656 ], [ -56.988350918959725, -1.907160343375097 ], [ -57.037209145885349, -1.911553766293252 ], [ -57.097856189811296, -1.775105401393091 ], [ -57.274400058316019, -1.709736465265621 ], [ -57.352069433057856, -1.733167959433729 ], [ -57.411935169372562, -1.673282863413363 ], [ -57.475204745202795, -1.677999875893533 ], [ -57.590127986217567, -1.580101270657053 ], [ -57.678677302415508, -1.594338757227831 ], [ -57.713164498842495, -1.504146992089943 ], [ -57.773325662449338, -1.508800856874018 ], [ -57.824038616988553, -1.439757442851658 ], [ -57.918524937176073, -1.419807488724587 ], [ -57.996386549199826, -1.344320814453965 ], [ -57.965488744909635, -1.206084807767638 ], [ -58.017542886295125, -1.106149681462568 ], [ -58.081858429422937, -1.126480766474174 ], [ -58.162644128623583, -1.229656535021036 ], [ -58.254769307557467, -1.132590773045706 ], [ -58.323287252204864, -1.143294252227918 ], [ -58.368493469897658, -1.066023814047753 ], [ -58.430082108502454, -1.027116486636487 ], [ -58.414762261768942, -0.967052740291706 ], [ -58.450831035623757, -0.926082198134907 ], [ -58.459043988089547, -0.863993332326402 ], [ -58.560645142659148, -0.804614317196922 ], [ -58.634893811999795, -0.718906184173022 ], [ -58.703940840397422, -0.671387524414683 ], [ -58.727186550818601, -0.607838968093859 ], [ -58.710748655226212, -0.521467781113188 ], [ -58.725220367525878, -0.442221215836412 ], [ -58.874587077231801, -0.335788702686443 ], [ -58.881038014093008, -0.196579359749592 ], [ -58.863883946087185, -0.078029785146441 ], [ -58.895035921270726, -0.010962858848814 ], [ -58.715060131919529, -0.06607744711647 ], [ -58.714636503571732, -0.122419576702043 ], [ -58.667303034907093, -0.162089571476486 ], [ -58.631275181104684, -0.242094177104548 ], [ -58.588714167225028, -0.271858715107555 ], [ -58.441050350793041, -0.294583227933572 ], [ -58.521941313840493, -0.433333622548616 ], [ -58.440498267780811, -0.439186732381756 ], [ -58.346271668202853, -0.481799043590968 ], [ -58.317325776763134, -0.615489601463878 ], [ -58.22315859809077, -0.738743848050092 ], [ -58.234435105495663, -0.770185658541266 ], [ -58.091165109482169, -0.812625307112171 ], [ -57.999963915602166, -0.792052146189519 ], [ -57.982380772054967, -0.842570322862059 ], [ -57.914497765859153, -0.859766814586749 ], [ -57.854577482964423, -0.924201895600959 ], [ -57.769739351389887, -0.949489344957271 ], [ -57.757652805732334, -0.988740545239921 ], [ -57.679325462699921, -1.050842816342879 ], [ -57.65215552365845, -1.095275422822453 ], [ -57.553376778915151, -1.126318507193332 ], [ -57.520769405683495, -1.210481100422385 ], [ -57.428574115602885, -1.347633279252364 ], [ -57.328796349971526, -1.339538423959027 ], [ -57.299960148841755, -1.390583833577011 ], [ -57.237209269592086, -1.433238248346413 ], [ -57.143597652509641, -1.423171654648115 ], [ -57.146602762307566, -1.49631482067241 ], [ -57.063294655423988, -1.517891972136738 ], [ -56.963545436072984, -1.581065226079261 ], [ -56.918070401128084, -1.647672279552012 ], [ -56.842320578931549, -1.648061403610825 ], [ -56.793402126207127, -1.599513382536543 ], [ -56.749016074931887, -1.65194898755567 ] ] } }
]
}
