{
"type": "FeatureCollection",
"features": [
{ "type": "Feature", "properties": { "Name": "IRITUIA", "Description": "IRITUIA \/ PA" }, "geometry": { "type": "LineString", "coordinates": [ [ -47.327030835304754, -1.60534622434875 ], [ -47.307199391138965, -1.60767069754462 ], [ -47.309290453391668, -1.709485996881199 ], [ -47.253201067475231, -1.804547669139595 ], [ -47.193197841007532, -1.819565208767301 ], [ -47.22967285032172, -1.884859522748741 ], [ -47.221783141179003, -1.946097403272518 ], [ -47.356396834246482, -2.075211875127877 ], [ -47.399116922907638, -2.078617494401783 ], [ -47.43945211652192, -1.965143648460582 ], [ -47.433516790667341, -1.91835319854124 ], [ -47.536037028086355, -1.855749294594204 ], [ -47.590261497070401, -1.882575376052728 ], [ -47.56320362434775, -1.789027147684692 ], [ -47.57076311502567, -1.724874518544141 ], [ -47.619861533782732, -1.632362721062691 ], [ -47.42525866975177, -1.634468427875617 ], [ -47.327030835304754, -1.60534622434875 ] ] } }
]
}
