{
"type": "FeatureCollection",
"features": [
{ "type": "Feature", "properties": { "Name": "MÃE DO RIO", "Description": "MÃE DO RIO \/ PA" }, "geometry": { "type": "LineString", "coordinates": [ [ -47.399116922907638, -2.078617494401783 ], [ -47.47039907685587, -2.087513123132055 ], [ -47.510980326780611, -2.12997953642639 ], [ -47.579314432914714, -2.066975885628551 ], [ -47.587011884990424, -2.000274329596607 ], [ -47.614926971702346, -1.9233543140503 ], [ -47.590261497070401, -1.882575376052728 ], [ -47.536037028086355, -1.855749294594204 ], [ -47.433516790667341, -1.91835319854124 ], [ -47.43945211652192, -1.965143648460582 ], [ -47.399116922907638, -2.078617494401783 ] ] } }
]
}
