{
"type": "FeatureCollection",
"features": [
{ "type": "Feature", "properties": { "Name": "MARITUBA", "Description": "MARITUBA \/ PA" }, "geometry": { "type": "LineString", "coordinates": [ [ -48.293017052594848, -1.470539622205763 ], [ -48.331751071654594, -1.466945970879806 ], [ -48.345467258107419, -1.451262012931522 ], [ -48.366821786895905, -1.369668162255834 ], [ -48.339922848660478, -1.329047401516334 ], [ -48.277291720436494, -1.394168357683498 ], [ -48.293017052594848, -1.470539622205763 ] ] } }
]
}
