{
"type": "FeatureCollection",
"features": [
{ "type": "Feature", "properties": { "Name": "MEDICILÃNDIA", "Description": "MEDICILÃNDIA \/ PA" }, "geometry": { "type": "LineString", "coordinates": [ [ -53.001529504083294, -2.671615608273669 ], [ -53.001350423882911, -2.671765561231609 ], [ -52.954707516738438, -2.769323291036983 ], [ -52.873629315740288, -2.810751222990518 ], [ -52.889656327277635, -2.958373855868728 ], [ -52.885379905258389, -3.060356948014714 ], [ -52.843045482762754, -3.167160210275426 ], [ -52.755352093624197, -3.264648161683283 ], [ -52.698128605051068, -3.353570399754119 ], [ -52.66927134089962, -3.46486906445574 ], [ -52.748710172236599, -3.532049169533479 ], [ -52.818717268287287, -3.626747209016458 ], [ -52.944931683750148, -3.618014691224971 ], [ -53.051911092622781, -3.656989921047966 ], [ -53.117296862260332, -3.628680361109729 ], [ -53.15657178755788, -3.66496161418712 ], [ -53.223997197112908, -3.596522941180752 ], [ -53.26399417459146, -3.496148680417206 ], [ -53.399716229920038, -3.514035712977716 ], [ -53.473994569693609, -3.541897826023785 ], [ -53.498688113065896, -3.515885727244494 ], [ -53.508879180130009, -3.278350554334565 ], [ -53.525517364634652, -3.229517641525888 ], [ -53.586273463049842, -3.174601433809073 ], [ -53.664750285996888, -3.04180383168142 ], [ -53.714936407788969, -3.015690262395651 ], [ -53.794472391087936, -3.020437973233811 ], [ -53.834023570131592, -2.970893077053802 ], [ -53.855412230889726, -2.887467520509631 ], [ -53.608382608470549, -2.865150758500647 ], [ -53.59429762353647, -2.813108143725799 ], [ -53.487156551633518, -2.764888429157622 ], [ -53.454378640861528, -2.776486891157049 ], [ -53.358025286737529, -2.737333870761461 ], [ -53.252941650536684, -2.774304541421429 ], [ -53.146409351310467, -2.66527259995047 ], [ -53.106905889395243, -2.685979625858977 ], [ -53.001529504083294, -2.671615608273669 ] ] } }
]
}
