{
"type": "FeatureCollection",
"features": [
{ "type": "Feature", "properties": { "Name": "MONTE ALEGRE", "Description": "MONTE ALEGRE \/ PA" }, "geometry": { "type": "LineString", "coordinates": [ [ -53.959402586460151, -0.994547030620936 ], [ -53.902444471635022, -1.048331308443096 ], [ -53.879115603602202, -1.204947801200035 ], [ -53.854734087208328, -1.243975383257293 ], [ -53.876094560515526, -1.305408222411472 ], [ -53.830103499077154, -1.340622331855059 ], [ -53.824258112621742, -1.429272058258846 ], [ -53.885110612065034, -1.507492596006443 ], [ -53.863983517325437, -1.611378245309709 ], [ -53.927220146492516, -1.665296972677083 ], [ -53.791037271352934, -1.724311021336518 ], [ -53.918386876752891, -1.909543190665658 ], [ -53.793583315017941, -1.884128402703595 ], [ -53.80033923177006, -1.934060527171539 ], [ -53.958299372817748, -2.027096204925896 ], [ -54.036146720694546, -2.112597252860894 ], [ -54.049164363244699, -2.233495180358261 ], [ -54.093288242358483, -2.307428704770871 ], [ -54.1484221228826, -2.360165014303902 ], [ -54.265915824155911, -2.415412940554688 ], [ -54.328177283354876, -2.399538019663851 ], [ -54.512275537086339, -2.109368428610026 ], [ -54.535029169060863, -2.059048860016844 ], [ -54.494503250824316, -2.017253182688194 ], [ -54.443676730796419, -1.916606312231465 ], [ -54.40905054054997, -1.88426732098003 ], [ -54.388956493447381, -1.79938372148149 ], [ -54.395858195699134, -1.722671023948521 ], [ -54.377138994369027, -1.558064364179018 ], [ -54.436748362746698, -1.492950159222403 ], [ -54.554143484833901, -1.520862056938313 ], [ -54.645271716716309, -1.429430895619305 ], [ -54.624092821926126, -1.256204734061157 ], [ -54.693671033990995, -1.219529425042879 ], [ -54.688315213276439, -1.093771221264774 ], [ -54.666159812125613, -1.023244779323079 ], [ -54.615541426695472, -1.008810299855384 ], [ -54.605308482700245, -0.881778931252654 ], [ -54.647223099866146, -0.858111416308759 ], [ -54.690889500150263, -0.695751254916445 ], [ -54.677169241567185, -0.621425512777137 ], [ -54.754943520427105, -0.565878703139617 ], [ -54.797805145291193, -0.50973955323775 ], [ -54.823192249422732, -0.429849735277003 ], [ -54.895332141664937, -0.283596383166525 ], [ -54.925666482921827, -0.254023094090485 ], [ -54.910450262369693, -0.098050655313443 ], [ -54.869917216106614, -0.053739019340242 ], [ -54.852282959590866, 0.027500490355408 ], [ -54.890254190778251, 0.049109366304265 ], [ -54.925697130018477, 0.141785815263233 ], [ -54.903338521655428, 0.176050892634635 ], [ -54.90484026356728, 0.328303555564673 ], [ -54.862115118018266, 0.372521589200005 ], [ -54.813752716114891, 0.357673420691867 ], [ -54.68423894617041, 0.244865422901 ], [ -54.640719939373632, 0.13363048056226 ], [ -54.602167736251999, 0.138302287720478 ], [ -54.536113278405026, 0.086795824467799 ], [ -54.446921864252595, 0.085699121917003 ], [ -54.387909958677596, -0.007926826761604 ], [ -54.423582957087774, -0.111615647743918 ], [ -54.382386969283175, -0.170239924832629 ], [ -54.390195436370277, -0.252504060014303 ], [ -54.319113044331516, -0.357678309206563 ], [ -54.319829955088323, -0.470784479919757 ], [ -54.233166556791105, -0.47806083254136 ], [ -54.183327752273897, -0.535093537136959 ], [ -54.179888008224964, -0.595607539856019 ], [ -54.123805479639145, -0.585569692087574 ], [ -54.029244044477018, -0.662193827083399 ], [ -54.070972859909489, -0.782878876059215 ], [ -54.123549547873267, -0.827612227522252 ], [ -54.077992377845923, -0.889591630549262 ], [ -54.035022596015949, -0.901711752395386 ], [ -53.959402586460151, -0.994547030620936 ] ] } }
]
}
