{
"type": "FeatureCollection",
"features": [
{ "type": "Feature", "properties": { "Name": "NOVA TIMBOTEUA", "Description": "NOVA TIMBOTEUA \/ PA" }, "geometry": { "type": "LineString", "coordinates": [ [ -47.342978223566149, -1.287051169076165 ], [ -47.427536798184626, -1.370047442335533 ], [ -47.428925987244497, -1.300633513925504 ], [ -47.495955117734468, -1.236898945429914 ], [ -47.412068332187744, -1.061577059533647 ], [ -47.402924521149714, -0.977175628852137 ], [ -47.29439534746728, -0.969003926489961 ], [ -47.345228608813215, -1.107256761290444 ], [ -47.342978223566149, -1.287051169076165 ] ] } }
]
}
