{
"type": "FeatureCollection",
"features": [
{ "type": "Feature", "properties": { "Name": "NOVO REPARTIMENTO", "Description": "NOVO REPARTIMENTO \/ PA" }, "geometry": { "type": "LineString", "coordinates": [ [ -49.606854598161135, -4.072926874575558 ], [ -49.595084359355667, -4.148182733346403 ], [ -49.506165473058104, -4.382822482271706 ], [ -49.496775357496681, -4.500327026670902 ], [ -49.466990047852391, -4.559483670035319 ], [ -49.406664008836913, -4.607095847595247 ], [ -49.425537736177546, -4.696548011181733 ], [ -49.458660651168088, -4.763739673447105 ], [ -49.500436820402911, -4.783722176737 ], [ -49.771909718358756, -4.812747675264973 ], [ -50.31555862852786, -4.827516740305271 ], [ -50.28722420233504, -4.872359469114144 ], [ -50.319448529126248, -4.91938374096685 ], [ -50.392280464072144, -4.961518844019395 ], [ -50.479284483292247, -4.96470425259912 ], [ -50.478114762985854, -5.081718036957795 ], [ -50.515647909223617, -5.17842061222143 ], [ -50.570450963341209, -5.19693748317826 ], [ -50.720203853624916, -5.174657757049829 ], [ -50.813170400493561, -5.152229854124413 ], [ -50.930196281633073, -5.150572940488757 ], [ -50.860031129732818, -5.00038732791279 ], [ -50.858449163797836, -4.868854841677546 ], [ -50.912282190270844, -4.864697838834161 ], [ -50.940434057685593, -4.761661257461014 ], [ -50.90656641770596, -4.72879786432992 ], [ -50.920113012705315, -4.62598028676075 ], [ -50.894617782184866, -4.581945594313652 ], [ -50.900454088185597, -4.412341935232064 ], [ -50.996146910051834, -4.34667885694364 ], [ -50.993704456595367, -4.271302314550155 ], [ -50.818417048907634, -4.294946996606541 ], [ -50.673286313312644, -4.208730570359478 ], [ -50.881447950962119, -3.85356767111108 ], [ -50.108499975193638, -4.07797772529176 ], [ -49.982549228364178, -4.053091617284281 ], [ -49.931116078743969, -4.071753571370152 ], [ -49.848329569653856, -3.967770132485554 ], [ -49.806361289042229, -4.071221289630784 ], [ -49.606854598161135, -4.072926874575558 ] ] } }
]
}
