{
"type": "FeatureCollection",
"features": [
{ "type": "Feature", "properties": { "Name": "ÃBIDOS", "Description": "ÃBIDOS \/ PA" }, "geometry": { "type": "LineString", "coordinates": [ [ -55.717956048432825, 2.402098485057081 ], [ -55.707696864918319, 2.403213330530832 ], [ -55.658847253497925, 2.265680364357365 ], [ -55.627428373920274, 2.222565005670504 ], [ -55.614999682089604, 2.135547135092281 ], [ -55.51235347932959, 2.056908080743369 ], [ -55.516983440133629, 2.023079804989038 ], [ -55.583582479747577, 1.959590141671754 ], [ -55.585714600548329, 1.899522683824841 ], [ -55.461891470714761, 1.828099082706558 ], [ -55.439000155232911, 1.766672990266329 ], [ -55.455037071903284, 1.720726382316741 ], [ -55.427604082962027, 1.668607891740862 ], [ -55.469901852688338, 1.585043561711075 ], [ -55.413633748998279, 1.54567192242132 ], [ -55.413514694047876, 0.789634311874067 ], [ -55.41355129195852, 0.212950940433586 ], [ -55.413588517595997, -0.373626010431963 ], [ -55.413623188259464, -0.919942647035498 ], [ -55.413424163794105, -1.399119460094937 ], [ -55.174024756537214, -1.679288719498743 ], [ -55.166468298373218, -1.731242688099542 ], [ -55.184810354614115, -2.046959492286703 ], [ -55.250887545523767, -2.130997114824936 ], [ -55.09489570387359, -2.166946103479859 ], [ -55.069924646804964, -2.232775367489182 ], [ -55.12797821861983, -2.263239757009103 ], [ -55.197729181456509, -2.22681642273966 ], [ -55.28386925706053, -2.215856901175016 ], [ -55.359174598328991, -2.174053246859785 ], [ -55.370756516400093, -2.137551458432995 ], [ -55.468896283836386, -2.131719459285591 ], [ -55.576591593527155, -2.17031693877567 ], [ -55.62164093438156, -2.158307394870349 ], [ -55.642677274036942, -2.078937273536269 ], [ -55.768871082434487, -2.002450872409781 ], [ -55.902533094926355, -1.99865696814453 ], [ -55.850060427047026, -1.968056438353926 ], [ -55.723177912430678, -1.856548742430448 ], [ -55.671728610087257, -1.785288224371982 ], [ -55.684589200431212, -1.530576938374963 ], [ -55.736171457646599, -1.439114712673813 ], [ -55.69956659072556, -1.3560362413794 ], [ -55.730728170668499, -1.317747018909756 ], [ -55.824230113628801, -1.277915266676189 ], [ -55.910674851663032, -1.310076567179806 ], [ -56.010737865160309, -1.287780439215851 ], [ -56.068810854237483, -1.208622649615563 ], [ -56.046897773613296, -1.05886352073486 ], [ -56.081699954888961, -1.02731946811889 ], [ -56.085542723817582, -0.960069447047317 ], [ -56.150982277410151, -0.851276635308409 ], [ -56.231255908033688, -0.853065250161137 ], [ -56.254174738273491, -0.77244114654161 ], [ -56.244675391955752, -0.695610518210799 ], [ -56.21628726994151, -0.673872177658836 ], [ -56.199345606514498, -0.545374506728081 ], [ -56.110922937343609, -0.496891006614589 ], [ -56.095203162995517, -0.441066054654641 ], [ -56.042676890126359, -0.402830380517571 ], [ -56.051676059602414, -0.266856720960845 ], [ -56.022788723021108, -0.219759726330267 ], [ -56.028094326491953, -0.086929002171644 ], [ -56.089590895203628, 0.053932801857343 ], [ -56.139233706870016, 0.117527107589979 ], [ -56.174789536208095, 0.205098114286614 ], [ -56.15014920751986, 0.2626312115612 ], [ -56.161301541033247, 0.317287454952123 ], [ -56.101760026503996, 0.399496769260566 ], [ -55.947755007587489, 0.34656145864443 ], [ -55.894757743574985, 0.368264367706445 ], [ -55.922092365570165, 0.440906213850724 ], [ -55.919448514337432, 0.527019559804899 ], [ -55.9769972993858, 0.557816617542926 ], [ -55.948257318520405, 0.718603173098018 ], [ -55.894758423462399, 0.738229935163417 ], [ -55.887123262028865, 0.782280954802275 ], [ -55.794901848441498, 0.820245819688864 ], [ -55.730142926954493, 0.985932491491326 ], [ -55.726454635473033, 1.093113832337565 ], [ -55.656894483593476, 1.127362910769762 ], [ -55.590474768795502, 1.33128695552864 ], [ -55.66147439622636, 1.442033143314973 ], [ -55.731952415971193, 1.465411618851192 ], [ -55.797980756606592, 1.605468458602558 ], [ -55.839061961240475, 1.762067958669377 ], [ -55.811374229437092, 1.80500655021217 ], [ -55.836038396454789, 1.958259919359818 ], [ -55.881258172326739, 2.037259448065129 ], [ -55.871260529649703, 2.07406616781941 ], [ -55.952485381295276, 2.195063975821881 ], [ -55.94664338078735, 2.331468438517675 ], [ -55.924317274822322, 2.36772361845027 ], [ -55.833565038695546, 2.409167781368069 ], [ -55.717956048432825, 2.402098485057081 ] ] } }
]
}
