{
"type": "FeatureCollection",
"features": [
{ "type": "Feature", "properties": { "Name": "OURÃM", "Description": "OURÃM \/ PA" }, "geometry": { "type": "LineString", "coordinates": [ [ -46.978233190009682, -1.593166676201122 ], [ -47.063019499949917, -1.539988799543437 ], [ -47.237311137798713, -1.599249306510217 ], [ -47.307199391138965, -1.60767069754462 ], [ -47.327030835304754, -1.60534622434875 ], [ -47.32451889752906, -1.564311953533775 ], [ -47.286225647895265, -1.536962871339369 ], [ -47.187623998548645, -1.393916546611308 ], [ -47.15309264900651, -1.365218479549128 ], [ -47.069446506750857, -1.385822503405734 ], [ -47.058391510459785, -1.456139013904306 ], [ -46.975705084222227, -1.507463868962361 ], [ -46.978233190009682, -1.593166676201122 ] ] } }
]
}
