{
"type": "FeatureCollection",
"features": [
{ "type": "Feature", "properties": { "Name": "PAU D'ARCO", "Description": "PAU D'ARCO \/ PA" }, "geometry": { "type": "LineString", "coordinates": [ [ -49.828138095396753, -7.700053748681511 ], [ -49.85644071166945, -7.972730705757442 ], [ -49.927061144456211, -7.941044911893129 ], [ -49.998943404314609, -7.862545436822415 ], [ -50.114608772177064, -7.812687434477481 ], [ -50.236204828090308, -7.880743519697603 ], [ -50.293756978401795, -7.865867220395842 ], [ -50.342619043633931, -7.779036134509965 ], [ -50.450114405255533, -7.714940836250548 ], [ -50.345922264301009, -7.658707869072828 ], [ -50.368304827905433, -7.575470515451854 ], [ -50.347700325609473, -7.484345944709561 ], [ -50.232112058424711, -7.551450492346305 ], [ -50.155057343321687, -7.614202706189872 ], [ -50.154916870117397, -7.653197096069107 ], [ -50.089614502707086, -7.683719874072893 ], [ -50.040032110193692, -7.646611876936504 ], [ -49.90032770036305, -7.654502744406103 ], [ -49.828138095396753, -7.700053748681511 ] ] } }
]
}
