{
"type": "FeatureCollection",
"features": [
{ "type": "Feature", "properties": { "Name": "PEIXE-BOI", "Description": "PEIXE-BOI \/ PA" }, "geometry": { "type": "LineString", "coordinates": [ [ -47.211686868953791, -1.000854051673116 ], [ -47.195523000386117, -1.179653040355504 ], [ -47.205480676292154, -1.224860008082885 ], [ -47.296058584236221, -1.279571346640296 ], [ -47.342978223566149, -1.287051169076165 ], [ -47.345228608813215, -1.107256761290444 ], [ -47.29439534746728, -0.969003926489961 ], [ -47.22469879091642, -0.963754561223993 ], [ -47.211686868953791, -1.000854051673116 ] ] } }
]
}
