{
"type": "FeatureCollection",
"features": [
{ "type": "Feature", "properties": { "Name": "PIÃARRA", "Description": "PIÃARRA \/ PA" }, "geometry": { "type": "LineString", "coordinates": [ [ -49.199120912300202, -6.26422520273087 ], [ -49.161857142692952, -6.266765023087316 ], [ -49.055247583609052, -6.349557205100893 ], [ -49.050854335159386, -6.376836988236391 ], [ -48.940831723904864, -6.406179401558063 ], [ -48.95999688374917, -6.312477393616803 ], [ -48.884407661584248, -6.311055190444619 ], [ -48.856186117395339, -6.350626998137386 ], [ -48.749853176283004, -6.378456375860992 ], [ -48.62607948038368, -6.478509806182558 ], [ -48.66454908167475, -6.567674152540064 ], [ -48.651960441820904, -6.639951240857044 ], [ -48.76909815815344, -6.73070156142785 ], [ -48.825855256514842, -6.754654141675246 ], [ -48.913853042783671, -6.757369459333062 ], [ -49.018883519159033, -6.784210543281915 ], [ -49.083413347348085, -6.843250976251511 ], [ -49.124692098861203, -6.821898306361675 ], [ -49.411277289015629, -6.445272854458608 ], [ -49.199120912300202, -6.26422520273087 ] ] } }
]
}
