{
"type": "FeatureCollection",
"features": [
{ "type": "Feature", "properties": { "Name": "PORTO DE MOZ", "Description": "PORTO DE MOZ \/ PA" }, "geometry": { "type": "LineString", "coordinates": [ [ -51.963525314741446, -1.825572778061201 ], [ -51.966175888406497, -1.875963927293355 ], [ -51.874649717310547, -1.944570278895185 ], [ -51.939625053453426, -2.107736341658779 ], [ -51.939619460569588, -2.257092844059457 ], [ -51.920542742753355, -2.331548057097109 ], [ -51.866451536209404, -2.364310937499738 ], [ -51.873816749043662, -2.460989955022342 ], [ -51.854453042274031, -2.552475741162482 ], [ -51.919739711118723, -2.493167786863808 ], [ -51.957396798323536, -2.522102746144753 ], [ -52.002428804745477, -2.630590450288992 ], [ -52.054930400217756, -2.686243972581223 ], [ -52.043853913727105, -2.792505902325502 ], [ -52.234108698657451, -2.809956719626882 ], [ -52.276487062927565, -2.83021522395336 ], [ -52.331374975274848, -2.782871069544171 ], [ -52.501294202865154, -2.773670199220248 ], [ -52.556987437420275, -2.724980864075576 ], [ -52.683991083521619, -2.722911015031286 ], [ -52.829463213456506, -2.762088110278 ], [ -53.001350423882911, -2.671765561231609 ], [ -53.001529504083294, -2.671615608273669 ], [ -52.966766146540401, -2.657033545561603 ], [ -53.384270876499727, -2.504984023294014 ], [ -53.225699896133278, -2.36529423284253 ], [ -53.253100327817833, -2.166811564901764 ], [ -53.276689753729102, -2.087876085912569 ], [ -53.359630171894878, -2.025449286355411 ], [ -53.263436727123235, -1.975606453774787 ], [ -53.172769639707035, -1.977850439446172 ], [ -53.06046623263051, -1.881547581355733 ], [ -52.999767021730626, -1.743376161280764 ], [ -52.939185215525242, -1.656317279818552 ], [ -52.810904791123157, -1.631078317410356 ], [ -52.682725503579093, -1.584295483849473 ], [ -52.41546120437107, -1.563199169306188 ], [ -52.251873002536968, -1.504064694230181 ], [ -52.199822441352516, -1.604226769849504 ], [ -52.025201348563371, -1.596645334814298 ], [ -51.952036637480774, -1.646590622659062 ], [ -51.990040678634379, -1.742981475814418 ], [ -51.963525314741446, -1.825572778061201 ] ] } }
]
}
