{
"type": "FeatureCollection",
"features": [
{ "type": "Feature", "properties": { "Name": "PORTEL", "Description": "PORTEL \/ PA" }, "geometry": { "type": "LineString", "coordinates": [ [ -50.45447384818948, -1.93194636942934 ], [ -50.571696979432026, -2.011895154138017 ], [ -50.519476405911348, -2.125502084453615 ], [ -50.505865305239581, -2.192878426997765 ], [ -50.447691369960694, -2.21990979849835 ], [ -50.36671943645279, -2.331399488195757 ], [ -50.349805903819338, -2.384283827036938 ], [ -50.275969185129725, -2.505595850967723 ], [ -50.205694899599905, -2.526752701575844 ], [ -50.132445272731104, -2.645574619672914 ], [ -50.148277125988557, -2.681095564308805 ], [ -50.141692741426823, -2.823988422427703 ], [ -50.093800446633281, -2.885340691319811 ], [ -50.115747593576543, -2.947790987464032 ], [ -50.085917644283825, -3.032329875922983 ], [ -50.021083917189003, -3.074434467676497 ], [ -49.970882657108909, -3.162549127140437 ], [ -49.930660409350367, -3.228229305138257 ], [ -49.908580217602946, -3.325674741995726 ], [ -50.006412093143524, -3.331588293464904 ], [ -50.113165086899187, -3.269611738590811 ], [ -50.15669525787979, -3.300460984886513 ], [ -50.209633431037958, -3.237548474982077 ], [ -50.321441233426128, -3.321816260112257 ], [ -50.362916578537238, -3.384428316413619 ], [ -50.422967218162569, -3.413084368948432 ], [ -50.475665812826939, -3.398782176156431 ], [ -50.485922131101404, -3.458325442565069 ], [ -50.80895056741474, -3.495038773120825 ], [ -50.812144724599307, -3.425049962086007 ], [ -50.850226370050905, -3.294156110516042 ], [ -50.936204093743868, -3.231179748746342 ], [ -50.975173181197299, -3.1223514227799 ], [ -51.082615962156858, -3.106497371556429 ], [ -51.146695583434386, -3.116027619478984 ], [ -51.161232609897013, -3.01865118310559 ], [ -51.308531252115529, -2.930765298579615 ], [ -51.398036134859694, -2.889074466913087 ], [ -51.449394609273781, -2.76958682836937 ], [ -51.533032802421872, -2.744235853601708 ], [ -51.719896949884287, -2.796311411442446 ], [ -51.748285762577837, -2.845506972268936 ], [ -51.82014956295194, -2.697567850875543 ], [ -51.854453042274031, -2.552475741162482 ], [ -51.873816749043662, -2.460989955022342 ], [ -51.866451536209404, -2.364310937499738 ], [ -51.920542742753355, -2.331548057097109 ], [ -51.939619460569588, -2.257092844059457 ], [ -51.939625053453426, -2.107736341658779 ], [ -51.874649717310547, -1.944570278895185 ], [ -51.825596902275151, -1.963357939317405 ], [ -51.75540014190301, -1.938132885823961 ], [ -51.731590732826021, -1.891209677084873 ], [ -51.672950596193004, -1.858082900405463 ], [ -51.599256429940226, -1.88043018900197 ], [ -51.479898041961007, -1.835753698074654 ], [ -51.432559220531566, -1.797088771229767 ], [ -51.301142579566374, -1.747598666245381 ], [ -51.218617215611971, -1.799320470363341 ], [ -50.983029704457238, -1.841021004815445 ], [ -50.911560877332583, -1.886668928128472 ], [ -50.875453574722656, -1.868271206550901 ], [ -50.798281894693609, -1.913036103533329 ], [ -50.675507738591193, -1.795715621578609 ], [ -50.621903764946751, -1.797309676200541 ], [ -50.526532166526238, -1.923431707007637 ], [ -50.45447384818948, -1.93194636942934 ] ] } }
]
}
