{
"type": "FeatureCollection",
"features": [
{ "type": "Feature", "properties": { "Name": "RIO MARIA", "Description": "RIO MARIA \/ PA" }, "geometry": { "type": "LineString", "coordinates": [ [ -49.828138095396753, -7.700053748681511 ], [ -49.90032770036305, -7.654502744406103 ], [ -50.040032110193692, -7.646611876936504 ], [ -50.089614502707086, -7.683719874072893 ], [ -50.154916870117397, -7.653197096069107 ], [ -50.155057343321687, -7.614202706189872 ], [ -50.232112058424711, -7.551450492346305 ], [ -50.347700325609473, -7.484345944709561 ], [ -50.39091405573901, -7.430835993386324 ], [ -50.376392712553582, -7.25278959246566 ], [ -49.987691291020212, -7.184541586524972 ], [ -49.193525299053242, -7.040701942840314 ], [ -49.193795958116937, -7.129814726568326 ], [ -49.212609209647262, -7.174844834521424 ], [ -49.305387876449288, -7.190381986239628 ], [ -49.406105614382568, -7.232741237218249 ], [ -49.422639757218974, -7.274942249784941 ], [ -49.547441205547159, -7.29489958374876 ], [ -49.615694453636081, -7.322120443303788 ], [ -49.774556915968844, -7.348698037584312 ], [ -49.827970237836155, -7.371583378869786 ], [ -49.828138095396753, -7.700053748681511 ] ] } }
]
}
