{
"type": "FeatureCollection",
"features": [
{ "type": "Feature", "properties": { "Name": "SALINÃPOLIS", "Description": "SALINÃPOLIS \/ PA" }, "geometry": { "type": "LineString", "coordinates": [ [ -47.258931415352485, -0.651331845088521 ], [ -47.31895243220896, -0.712200421712055 ], [ -47.349428981462268, -0.709343021063546 ], [ -47.377256299738406, -0.822595089691561 ], [ -47.394619012257579, -0.726656265474219 ], [ -47.42558603916433, -0.655435278914922 ], [ -47.385872376009324, -0.609280918579486 ], [ -47.282856530304571, -0.595642438048003 ], [ -47.258931415352485, -0.651331845088521 ] ] } }
]
}
