{
"type": "FeatureCollection",
"features": [
{ "type": "Feature", "properties": { "Name": "SAPUCAIA", "Description": "SAPUCAIA \/ PA" }, "geometry": { "type": "LineString", "coordinates": [ [ -49.733030019020134, -6.71745479050611 ], [ -49.729776865409967, -6.71471573074632 ], [ -49.637821537833645, -6.636953662881183 ], [ -49.5852219378421, -6.65874342756706 ], [ -49.542922809240224, -6.72729132953117 ], [ -49.417963604536681, -6.699033014761767 ], [ -49.337733609018812, -6.729923496771903 ], [ -49.340741849356846, -6.82884042594486 ], [ -49.389273023431258, -6.810681917736247 ], [ -49.427294229045401, -6.85579458075523 ], [ -49.44481567460366, -6.92709260863694 ], [ -49.416904339863379, -6.990868414645547 ], [ -49.567684168689368, -7.009284744095623 ], [ -49.734407221915717, -7.016342369005087 ], [ -49.733030019020134, -6.71745479050611 ] ] } }
]
}
